2021-09-03 09:57:06,796 DEBUG scheduler Queued events for site hr_management
2021-09-03 09:58:07,137 DEBUG scheduler Queued events for site hr_management
2021-09-03 09:59:07,512 DEBUG scheduler Queued events for site hr_management
2021-09-03 10:00:07,809 INFO scheduler Scheduled Job Start: frappe.email.doctype.newsletter.newsletter.send_scheduled_email for dev1
2021-09-03 10:00:08,191 DEBUG scheduler Queued events for site hr_management
2021-09-03 10:00:08,298 INFO scheduler Scheduled Job Complete: frappe.email.doctype.newsletter.newsletter.send_scheduled_email for dev1
2021-09-03 10:00:08,389 INFO scheduler Scheduled Job Start: frappe.integrations.doctype.google_calendar.google_calendar.sync for dev1
2021-09-03 10:00:08,998 INFO scheduler Scheduled Job Complete: frappe.integrations.doctype.google_calendar.google_calendar.sync for dev1
2021-09-03 10:00:09,106 INFO scheduler Scheduled Job Start: frappe.desk.form.document_follow.send_hourly_updates for dev1
2021-09-03 10:00:09,480 INFO scheduler Scheduled Job Complete: frappe.desk.form.document_follow.send_hourly_updates for dev1
2021-09-03 10:00:09,588 INFO scheduler Scheduled Job Start: frappe.deferred_insert.save_to_db for dev1
2021-09-03 10:00:10,283 INFO scheduler Scheduled Job Complete: frappe.deferred_insert.save_to_db for dev1
2021-09-03 10:00:10,391 INFO scheduler Scheduled Job Start: frappe.desk.page.backups.backups.delete_downloadable_backups for dev1
2021-09-03 10:00:10,806 INFO scheduler Scheduled Job Complete: frappe.desk.page.backups.backups.delete_downloadable_backups for dev1
2021-09-03 10:00:10,913 INFO scheduler Scheduled Job Start: frappe.utils.error.collect_error_snapshots for dev1
2021-09-03 10:00:11,482 INFO scheduler Scheduled Job Complete: frappe.utils.error.collect_error_snapshots for dev1
2021-09-03 10:00:11,575 INFO scheduler Scheduled Job Start: frappe.model.utils.user_settings.sync_user_settings for dev1
2021-09-03 10:00:12,104 INFO scheduler Scheduled Job Complete: frappe.model.utils.user_settings.sync_user_settings for dev1
2021-09-03 10:00:12,236 INFO scheduler Scheduled Job Start: frappe.model.utils.link_count.update_link_count for dev1
2021-09-03 10:00:12,883 INFO scheduler Scheduled Job Complete: frappe.model.utils.link_count.update_link_count for dev1
2021-09-03 10:00:13,018 INFO scheduler Scheduled Job Start: frappe.monitor.flush for dev1
2021-09-03 10:00:13,404 INFO scheduler Scheduled Job Complete: frappe.monitor.flush for dev1
2021-09-03 10:00:13,516 INFO scheduler Scheduled Job Start: frappe.utils.global_search.sync_global_search for dev1
2021-09-03 10:00:13,870 INFO scheduler Scheduled Job Complete: frappe.utils.global_search.sync_global_search for dev1
2021-09-03 10:00:13,977 INFO scheduler Scheduled Job Start: frappe.integrations.doctype.razorpay_settings.razorpay_settings.capture_payment for dev1
2021-09-03 10:00:14,448 INFO scheduler Scheduled Job Complete: frappe.integrations.doctype.razorpay_settings.razorpay_settings.capture_payment for dev1
2021-09-03 10:00:14,552 INFO scheduler Scheduled Job Start: frappe.email.doctype.email_account.email_account.notify_unreplied for dev1
2021-09-03 10:00:14,989 INFO scheduler Scheduled Job Complete: frappe.email.doctype.email_account.email_account.notify_unreplied for dev1
2021-09-03 10:00:15,095 INFO scheduler Scheduled Job Start: frappe.email.doctype.email_account.email_account.pull for dev1
2021-09-03 10:00:15,497 INFO scheduler Scheduled Job Complete: frappe.email.doctype.email_account.email_account.pull for dev1
2021-09-03 10:00:15,605 INFO scheduler Scheduled Job Start: frappe.email.queue.flush for dev1
2021-09-03 10:00:15,915 INFO scheduler Scheduled Job Complete: frappe.email.queue.flush for dev1
2021-09-03 10:00:16,003 INFO scheduler Scheduled Job Start: frappe.twofactor.delete_all_barcodes_for_users for dev1
2021-09-03 10:00:16,440 INFO scheduler Scheduled Job Complete: frappe.twofactor.delete_all_barcodes_for_users for dev1
2021-09-03 10:00:16,538 INFO scheduler Scheduled Job Start: frappe.website.doctype.web_page.web_page.check_publish_status for dev1
2021-09-03 10:00:17,084 INFO scheduler Scheduled Job Complete: frappe.website.doctype.web_page.web_page.check_publish_status for dev1
2021-09-03 10:00:17,178 INFO scheduler Scheduled Job Start: frappe.oauth.delete_oauth2_data for dev1
2021-09-03 10:00:17,706 INFO scheduler Scheduled Job Complete: frappe.oauth.delete_oauth2_data for dev1
2021-09-03 10:00:17,811 INFO scheduler Scheduled Job Start: frappe.email.doctype.newsletter.newsletter.send_scheduled_email for hr_management
2021-09-03 10:00:18,385 INFO scheduler Scheduled Job Complete: frappe.email.doctype.newsletter.newsletter.send_scheduled_email for hr_management
2021-09-03 10:00:18,491 INFO scheduler Scheduled Job Start: frappe.integrations.doctype.google_calendar.google_calendar.sync for hr_management
2021-09-03 10:00:19,210 INFO scheduler Scheduled Job Complete: frappe.integrations.doctype.google_calendar.google_calendar.sync for hr_management
2021-09-03 10:00:19,313 INFO scheduler Scheduled Job Start: frappe.desk.form.document_follow.send_hourly_updates for hr_management
2021-09-03 10:00:19,770 INFO scheduler Scheduled Job Complete: frappe.desk.form.document_follow.send_hourly_updates for hr_management
2021-09-03 10:00:19,881 INFO scheduler Scheduled Job Start: frappe.deferred_insert.save_to_db for hr_management
2021-09-03 10:00:20,291 INFO scheduler Scheduled Job Complete: frappe.deferred_insert.save_to_db for hr_management
2021-09-03 10:00:20,396 INFO scheduler Scheduled Job Start: frappe.desk.page.backups.backups.delete_downloadable_backups for hr_management
2021-09-03 10:00:20,869 INFO scheduler Scheduled Job Complete: frappe.desk.page.backups.backups.delete_downloadable_backups for hr_management
2021-09-03 10:00:20,994 INFO scheduler Scheduled Job Start: frappe.utils.error.collect_error_snapshots for hr_management
2021-09-03 10:00:21,627 INFO scheduler Scheduled Job Complete: frappe.utils.error.collect_error_snapshots for hr_management
2021-09-03 10:00:21,761 INFO scheduler Scheduled Job Start: frappe.model.utils.user_settings.sync_user_settings for hr_management
2021-09-03 10:00:22,333 INFO scheduler Scheduled Job Complete: frappe.model.utils.user_settings.sync_user_settings for hr_management
2021-09-03 10:00:22,463 INFO scheduler Scheduled Job Start: frappe.model.utils.link_count.update_link_count for hr_management
2021-09-03 10:00:23,046 INFO scheduler Scheduled Job Complete: frappe.model.utils.link_count.update_link_count for hr_management
2021-09-03 10:00:23,168 INFO scheduler Scheduled Job Start: frappe.monitor.flush for hr_management
2021-09-03 10:00:23,585 INFO scheduler Scheduled Job Complete: frappe.monitor.flush for hr_management
2021-09-03 10:00:23,705 INFO scheduler Scheduled Job Start: frappe.utils.global_search.sync_global_search for hr_management
2021-09-03 10:00:24,049 INFO scheduler Scheduled Job Complete: frappe.utils.global_search.sync_global_search for hr_management
2021-09-03 10:00:24,137 INFO scheduler Scheduled Job Start: frappe.integrations.doctype.razorpay_settings.razorpay_settings.capture_payment for hr_management
2021-09-03 10:00:24,571 INFO scheduler Scheduled Job Complete: frappe.integrations.doctype.razorpay_settings.razorpay_settings.capture_payment for hr_management
2021-09-03 10:00:24,658 INFO scheduler Scheduled Job Start: frappe.email.doctype.email_account.email_account.notify_unreplied for hr_management
2021-09-03 10:00:24,981 INFO scheduler Scheduled Job Complete: frappe.email.doctype.email_account.email_account.notify_unreplied for hr_management
2021-09-03 10:00:25,089 INFO scheduler Scheduled Job Start: frappe.email.doctype.email_account.email_account.pull for hr_management
2021-09-03 10:00:25,430 INFO scheduler Scheduled Job Complete: frappe.email.doctype.email_account.email_account.pull for hr_management
2021-09-03 10:00:25,537 INFO scheduler Scheduled Job Start: frappe.email.queue.flush for hr_management
2021-09-03 10:00:25,835 INFO scheduler Scheduled Job Complete: frappe.email.queue.flush for hr_management
2021-09-03 10:00:25,931 INFO scheduler Scheduled Job Start: frappe.twofactor.delete_all_barcodes_for_users for hr_management
2021-09-03 10:00:26,369 INFO scheduler Scheduled Job Complete: frappe.twofactor.delete_all_barcodes_for_users for hr_management
2021-09-03 10:00:26,464 INFO scheduler Scheduled Job Start: frappe.website.doctype.web_page.web_page.check_publish_status for hr_management
2021-09-03 10:00:26,950 INFO scheduler Scheduled Job Complete: frappe.website.doctype.web_page.web_page.check_publish_status for hr_management
2021-09-03 10:00:27,086 INFO scheduler Scheduled Job Start: frappe.oauth.delete_oauth2_data for hr_management
2021-09-03 10:00:27,557 INFO scheduler Scheduled Job Complete: frappe.oauth.delete_oauth2_data for hr_management
2021-09-03 10:01:08,596 DEBUG scheduler Queued events for site hr_management
2021-09-03 10:02:09,000 DEBUG scheduler Queued events for site hr_management
2021-09-03 10:03:09,334 DEBUG scheduler Queued events for site hr_management
2021-09-03 10:04:09,623 INFO scheduler Scheduled Job Start: frappe.monitor.flush for dev1
2021-09-03 10:04:09,836 DEBUG scheduler Queued events for site hr_management
2021-09-03 10:04:09,980 INFO scheduler Scheduled Job Complete: frappe.monitor.flush for dev1
2021-09-03 10:04:10,092 INFO scheduler Scheduled Job Start: frappe.utils.global_search.sync_global_search for dev1
2021-09-03 10:04:10,380 INFO scheduler Scheduled Job Complete: frappe.utils.global_search.sync_global_search for dev1
2021-09-03 10:04:10,472 INFO scheduler Scheduled Job Start: frappe.integrations.doctype.razorpay_settings.razorpay_settings.capture_payment for dev1
2021-09-03 10:04:10,901 INFO scheduler Scheduled Job Complete: frappe.integrations.doctype.razorpay_settings.razorpay_settings.capture_payment for dev1
2021-09-03 10:04:10,987 INFO scheduler Scheduled Job Start: frappe.email.doctype.email_account.email_account.notify_unreplied for dev1
2021-09-03 10:04:11,307 INFO scheduler Scheduled Job Complete: frappe.email.doctype.email_account.email_account.notify_unreplied for dev1
2021-09-03 10:04:11,394 INFO scheduler Scheduled Job Start: frappe.email.doctype.email_account.email_account.pull for dev1
2021-09-03 10:04:11,754 INFO scheduler Scheduled Job Complete: frappe.email.doctype.email_account.email_account.pull for dev1
2021-09-03 10:04:11,844 INFO scheduler Scheduled Job Start: frappe.email.queue.flush for dev1
2021-09-03 10:04:12,158 INFO scheduler Scheduled Job Complete: frappe.email.queue.flush for dev1
2021-09-03 10:04:12,253 INFO scheduler Scheduled Job Start: frappe.monitor.flush for hr_management
2021-09-03 10:04:12,525 INFO scheduler Scheduled Job Complete: frappe.monitor.flush for hr_management
2021-09-03 10:04:12,629 INFO scheduler Scheduled Job Start: frappe.utils.global_search.sync_global_search for hr_management
2021-09-03 10:04:12,906 INFO scheduler Scheduled Job Complete: frappe.utils.global_search.sync_global_search for hr_management
2021-09-03 10:04:13,008 INFO scheduler Scheduled Job Start: frappe.integrations.doctype.razorpay_settings.razorpay_settings.capture_payment for hr_management
2021-09-03 10:04:13,561 INFO scheduler Scheduled Job Complete: frappe.integrations.doctype.razorpay_settings.razorpay_settings.capture_payment for hr_management
2021-09-03 10:04:13,671 INFO scheduler Scheduled Job Start: frappe.email.doctype.email_account.email_account.notify_unreplied for hr_management
2021-09-03 10:04:14,070 INFO scheduler Scheduled Job Complete: frappe.email.doctype.email_account.email_account.notify_unreplied for hr_management
2021-09-03 10:04:14,165 INFO scheduler Scheduled Job Start: frappe.email.doctype.email_account.email_account.pull for hr_management
2021-09-03 10:04:14,524 INFO scheduler Scheduled Job Complete: frappe.email.doctype.email_account.email_account.pull for hr_management
2021-09-03 10:04:14,614 INFO scheduler Scheduled Job Start: frappe.email.queue.flush for hr_management
2021-09-03 10:04:14,922 INFO scheduler Scheduled Job Complete: frappe.email.queue.flush for hr_management
2021-09-03 10:05:10,253 DEBUG scheduler Queued events for site hr_management
2021-09-03 10:06:10,591 DEBUG scheduler Queued events for site hr_management
2021-09-03 10:07:10,981 DEBUG scheduler Queued events for site hr_management
2021-09-03 10:08:11,263 INFO scheduler Scheduled Job Start: frappe.monitor.flush for dev1
2021-09-03 10:08:11,452 DEBUG scheduler Queued events for site hr_management
2021-09-03 10:08:11,620 INFO scheduler Scheduled Job Complete: frappe.monitor.flush for dev1
2021-09-03 10:08:11,706 INFO scheduler Scheduled Job Start: frappe.utils.global_search.sync_global_search for dev1
2021-09-03 10:08:11,970 INFO scheduler Scheduled Job Complete: frappe.utils.global_search.sync_global_search for dev1
2021-09-03 10:08:12,073 INFO scheduler Scheduled Job Start: frappe.integrations.doctype.razorpay_settings.razorpay_settings.capture_payment for dev1
2021-09-03 10:08:12,475 INFO scheduler Scheduled Job Complete: frappe.integrations.doctype.razorpay_settings.razorpay_settings.capture_payment for dev1
2021-09-03 10:08:12,568 INFO scheduler Scheduled Job Start: frappe.email.doctype.email_account.email_account.notify_unreplied for dev1
2021-09-03 10:08:12,897 INFO scheduler Scheduled Job Complete: frappe.email.doctype.email_account.email_account.notify_unreplied for dev1
2021-09-03 10:08:12,983 INFO scheduler Scheduled Job Start: frappe.email.doctype.email_account.email_account.pull for dev1
2021-09-03 10:08:13,328 INFO scheduler Scheduled Job Complete: frappe.email.doctype.email_account.email_account.pull for dev1
2021-09-03 10:08:13,427 INFO scheduler Scheduled Job Start: frappe.email.queue.flush for dev1
2021-09-03 10:08:13,731 INFO scheduler Scheduled Job Complete: frappe.email.queue.flush for dev1
2021-09-03 10:08:13,808 INFO scheduler Scheduled Job Start: frappe.monitor.flush for hr_management
2021-09-03 10:08:14,056 INFO scheduler Scheduled Job Complete: frappe.monitor.flush for hr_management
2021-09-03 10:08:14,149 INFO scheduler Scheduled Job Start: frappe.utils.global_search.sync_global_search for hr_management
2021-09-03 10:08:14,393 INFO scheduler Scheduled Job Complete: frappe.utils.global_search.sync_global_search for hr_management
2021-09-03 10:08:14,474 INFO scheduler Scheduled Job Start: frappe.integrations.doctype.razorpay_settings.razorpay_settings.capture_payment for hr_management
2021-09-03 10:08:14,881 INFO scheduler Scheduled Job Complete: frappe.integrations.doctype.razorpay_settings.razorpay_settings.capture_payment for hr_management
2021-09-03 10:08:14,962 INFO scheduler Scheduled Job Start: frappe.email.doctype.email_account.email_account.notify_unreplied for hr_management
2021-09-03 10:08:15,290 INFO scheduler Scheduled Job Complete: frappe.email.doctype.email_account.email_account.notify_unreplied for hr_management
2021-09-03 10:08:15,388 INFO scheduler Scheduled Job Start: frappe.email.doctype.email_account.email_account.pull for hr_management
2021-09-03 10:08:15,759 INFO scheduler Scheduled Job Complete: frappe.email.doctype.email_account.email_account.pull for hr_management
2021-09-03 10:08:15,848 INFO scheduler Scheduled Job Start: frappe.email.queue.flush for hr_management
2021-09-03 10:08:16,158 INFO scheduler Scheduled Job Complete: frappe.email.queue.flush for hr_management
2021-09-03 10:09:11,848 DEBUG scheduler Queued events for site hr_management
2021-09-03 10:10:12,197 DEBUG scheduler Queued events for site hr_management
2021-09-03 10:11:12,534 DEBUG scheduler Queued events for site hr_management
2021-09-03 10:12:12,818 INFO scheduler Scheduled Job Start: frappe.monitor.flush for dev1
2021-09-03 10:12:12,962 DEBUG scheduler Queued events for site hr_management
2021-09-03 10:12:13,103 INFO scheduler Scheduled Job Complete: frappe.monitor.flush for dev1
2021-09-03 10:12:13,193 INFO scheduler Scheduled Job Start: frappe.utils.global_search.sync_global_search for dev1
2021-09-03 10:12:13,498 INFO scheduler Scheduled Job Complete: frappe.utils.global_search.sync_global_search for dev1
2021-09-03 10:12:13,635 INFO scheduler Scheduled Job Start: frappe.integrations.doctype.razorpay_settings.razorpay_settings.capture_payment for dev1
2021-09-03 10:12:14,169 INFO scheduler Scheduled Job Complete: frappe.integrations.doctype.razorpay_settings.razorpay_settings.capture_payment for dev1
2021-09-03 10:12:14,267 INFO scheduler Scheduled Job Start: frappe.email.doctype.email_account.email_account.notify_unreplied for dev1
2021-09-03 10:12:14,611 INFO scheduler Scheduled Job Complete: frappe.email.doctype.email_account.email_account.notify_unreplied for dev1
2021-09-03 10:12:14,716 INFO scheduler Scheduled Job Start: frappe.email.doctype.email_account.email_account.pull for dev1
2021-09-03 10:12:15,072 INFO scheduler Scheduled Job Complete: frappe.email.doctype.email_account.email_account.pull for dev1
2021-09-03 10:12:15,162 INFO scheduler Scheduled Job Start: frappe.email.queue.flush for dev1
2021-09-03 10:12:15,441 INFO scheduler Scheduled Job Complete: frappe.email.queue.flush for dev1
2021-09-03 10:12:15,537 INFO scheduler Scheduled Job Start: frappe.monitor.flush for hr_management
2021-09-03 10:12:15,845 INFO scheduler Scheduled Job Complete: frappe.monitor.flush for hr_management
2021-09-03 10:12:15,952 INFO scheduler Scheduled Job Start: frappe.utils.global_search.sync_global_search for hr_management
2021-09-03 10:12:16,270 INFO scheduler Scheduled Job Complete: frappe.utils.global_search.sync_global_search for hr_management
2021-09-03 10:12:16,374 INFO scheduler Scheduled Job Start: frappe.integrations.doctype.razorpay_settings.razorpay_settings.capture_payment for hr_management
2021-09-03 10:12:16,857 INFO scheduler Scheduled Job Complete: frappe.integrations.doctype.razorpay_settings.razorpay_settings.capture_payment for hr_management
2021-09-03 10:12:16,964 INFO scheduler Scheduled Job Start: frappe.email.doctype.email_account.email_account.notify_unreplied for hr_management
2021-09-03 10:12:17,345 INFO scheduler Scheduled Job Complete: frappe.email.doctype.email_account.email_account.notify_unreplied for hr_management
2021-09-03 10:12:17,445 INFO scheduler Scheduled Job Start: frappe.email.doctype.email_account.email_account.pull for hr_management
2021-09-03 10:12:17,833 INFO scheduler Scheduled Job Complete: frappe.email.doctype.email_account.email_account.pull for hr_management
2021-09-03 10:12:17,929 INFO scheduler Scheduled Job Start: frappe.email.queue.flush for hr_management
2021-09-03 10:12:18,283 INFO scheduler Scheduled Job Complete: frappe.email.queue.flush for hr_management
2021-09-03 10:13:13,379 DEBUG scheduler Queued events for site hr_management
2021-09-03 10:14:13,694 DEBUG scheduler Queued events for site hr_management
2021-09-03 10:15:13,997 INFO scheduler Scheduled Job Start: frappe.twofactor.delete_all_barcodes_for_users for dev1
2021-09-03 10:15:14,081 DEBUG scheduler Queued events for site hr_management
2021-09-03 10:15:14,453 INFO scheduler Scheduled Job Complete: frappe.twofactor.delete_all_barcodes_for_users for dev1
2021-09-03 10:15:14,581 INFO scheduler Scheduled Job Start: frappe.website.doctype.web_page.web_page.check_publish_status for dev1
2021-09-03 10:15:15,068 INFO scheduler Scheduled Job Complete: frappe.website.doctype.web_page.web_page.check_publish_status for dev1
2021-09-03 10:15:15,174 INFO scheduler Scheduled Job Start: frappe.oauth.delete_oauth2_data for dev1
2021-09-03 10:15:15,615 INFO scheduler Scheduled Job Complete: frappe.oauth.delete_oauth2_data for dev1
2021-09-03 10:15:15,715 INFO scheduler Scheduled Job Start: frappe.twofactor.delete_all_barcodes_for_users for hr_management
2021-09-03 10:15:16,127 INFO scheduler Scheduled Job Complete: frappe.twofactor.delete_all_barcodes_for_users for hr_management
2021-09-03 10:15:16,219 INFO scheduler Scheduled Job Start: frappe.website.doctype.web_page.web_page.check_publish_status for hr_management
2021-09-03 10:15:16,638 INFO scheduler Scheduled Job Complete: frappe.website.doctype.web_page.web_page.check_publish_status for hr_management
2021-09-03 10:15:16,728 INFO scheduler Scheduled Job Start: frappe.oauth.delete_oauth2_data for hr_management
2021-09-03 10:15:17,129 INFO scheduler Scheduled Job Complete: frappe.oauth.delete_oauth2_data for hr_management
2021-09-03 10:16:14,380 INFO scheduler Scheduled Job Start: frappe.monitor.flush for dev1
2021-09-03 10:16:14,517 DEBUG scheduler Queued events for site hr_management
2021-09-03 10:16:14,644 INFO scheduler Scheduled Job Complete: frappe.monitor.flush for dev1
2021-09-03 10:16:14,746 INFO scheduler Scheduled Job Start: frappe.utils.global_search.sync_global_search for dev1
2021-09-03 10:16:15,034 INFO scheduler Scheduled Job Complete: frappe.utils.global_search.sync_global_search for dev1
2021-09-03 10:16:15,133 INFO scheduler Scheduled Job Start: frappe.integrations.doctype.razorpay_settings.razorpay_settings.capture_payment for dev1
2021-09-03 10:16:15,527 INFO scheduler Scheduled Job Complete: frappe.integrations.doctype.razorpay_settings.razorpay_settings.capture_payment for dev1
2021-09-03 10:16:15,609 INFO scheduler Scheduled Job Start: frappe.email.doctype.email_account.email_account.notify_unreplied for dev1
2021-09-03 10:16:15,934 INFO scheduler Scheduled Job Complete: frappe.email.doctype.email_account.email_account.notify_unreplied for dev1
2021-09-03 10:16:16,029 INFO scheduler Scheduled Job Start: frappe.email.doctype.email_account.email_account.pull for dev1
2021-09-03 10:16:16,370 INFO scheduler Scheduled Job Complete: frappe.email.doctype.email_account.email_account.pull for dev1
2021-09-03 10:16:16,454 INFO scheduler Scheduled Job Start: frappe.email.queue.flush for dev1
2021-09-03 10:16:16,731 INFO scheduler Scheduled Job Complete: frappe.email.queue.flush for dev1
2021-09-03 10:16:16,810 INFO scheduler Scheduled Job Start: frappe.monitor.flush for hr_management
2021-09-03 10:16:17,080 INFO scheduler Scheduled Job Complete: frappe.monitor.flush for hr_management
2021-09-03 10:16:17,163 INFO scheduler Scheduled Job Start: frappe.utils.global_search.sync_global_search for hr_management
2021-09-03 10:16:17,413 INFO scheduler Scheduled Job Complete: frappe.utils.global_search.sync_global_search for hr_management
2021-09-03 10:16:17,502 INFO scheduler Scheduled Job Start: frappe.integrations.doctype.razorpay_settings.razorpay_settings.capture_payment for hr_management
2021-09-03 10:16:17,874 INFO scheduler Scheduled Job Complete: frappe.integrations.doctype.razorpay_settings.razorpay_settings.capture_payment for hr_management
2021-09-03 10:16:17,957 INFO scheduler Scheduled Job Start: frappe.email.doctype.email_account.email_account.notify_unreplied for hr_management
2021-09-03 10:16:18,295 INFO scheduler Scheduled Job Complete: frappe.email.doctype.email_account.email_account.notify_unreplied for hr_management
2021-09-03 10:16:18,385 INFO scheduler Scheduled Job Start: frappe.email.doctype.email_account.email_account.pull for hr_management
2021-09-03 10:16:18,716 INFO scheduler Scheduled Job Complete: frappe.email.doctype.email_account.email_account.pull for hr_management
2021-09-03 10:16:18,796 INFO scheduler Scheduled Job Start: frappe.email.queue.flush for hr_management
2021-09-03 10:16:19,066 INFO scheduler Scheduled Job Complete: frappe.email.queue.flush for hr_management
2021-09-03 10:17:14,954 DEBUG scheduler Queued events for site hr_management
2021-09-03 10:18:15,295 DEBUG scheduler Queued events for site hr_management
2021-09-03 10:19:15,632 DEBUG scheduler Queued events for site hr_management
2021-09-03 10:20:15,930 INFO scheduler Scheduled Job Start: frappe.monitor.flush for dev1
2021-09-03 10:20:16,109 DEBUG scheduler Queued events for site hr_management
2021-09-03 10:20:16,235 INFO scheduler Scheduled Job Complete: frappe.monitor.flush for dev1
2021-09-03 10:20:16,327 INFO scheduler Scheduled Job Start: frappe.utils.global_search.sync_global_search for dev1
2021-09-03 10:20:16,573 INFO scheduler Scheduled Job Complete: frappe.utils.global_search.sync_global_search for dev1
2021-09-03 10:20:16,657 INFO scheduler Scheduled Job Start: frappe.integrations.doctype.razorpay_settings.razorpay_settings.capture_payment for dev1
2021-09-03 10:20:17,073 INFO scheduler Scheduled Job Complete: frappe.integrations.doctype.razorpay_settings.razorpay_settings.capture_payment for dev1
2021-09-03 10:20:17,157 INFO scheduler Scheduled Job Start: frappe.email.doctype.email_account.email_account.notify_unreplied for dev1
2021-09-03 10:20:17,470 INFO scheduler Scheduled Job Complete: frappe.email.doctype.email_account.email_account.notify_unreplied for dev1
2021-09-03 10:20:17,557 INFO scheduler Scheduled Job Start: frappe.email.doctype.email_account.email_account.pull for dev1
2021-09-03 10:20:17,889 INFO scheduler Scheduled Job Complete: frappe.email.doctype.email_account.email_account.pull for dev1
2021-09-03 10:20:17,977 INFO scheduler Scheduled Job Start: frappe.email.queue.flush for dev1
2021-09-03 10:20:18,246 INFO scheduler Scheduled Job Complete: frappe.email.queue.flush for dev1
2021-09-03 10:20:18,346 INFO scheduler Scheduled Job Start: frappe.monitor.flush for hr_management
2021-09-03 10:20:18,591 INFO scheduler Scheduled Job Complete: frappe.monitor.flush for hr_management
2021-09-03 10:20:18,694 INFO scheduler Scheduled Job Start: frappe.utils.global_search.sync_global_search for hr_management
2021-09-03 10:20:18,931 INFO scheduler Scheduled Job Complete: frappe.utils.global_search.sync_global_search for hr_management
2021-09-03 10:20:19,028 INFO scheduler Scheduled Job Start: frappe.integrations.doctype.razorpay_settings.razorpay_settings.capture_payment for hr_management
2021-09-03 10:20:19,412 INFO scheduler Scheduled Job Complete: frappe.integrations.doctype.razorpay_settings.razorpay_settings.capture_payment for hr_management
2021-09-03 10:20:19,508 INFO scheduler Scheduled Job Start: frappe.email.doctype.email_account.email_account.notify_unreplied for hr_management
2021-09-03 10:20:19,824 INFO scheduler Scheduled Job Complete: frappe.email.doctype.email_account.email_account.notify_unreplied for hr_management
2021-09-03 10:20:19,925 INFO scheduler Scheduled Job Start: frappe.email.doctype.email_account.email_account.pull for hr_management
2021-09-03 10:20:20,263 INFO scheduler Scheduled Job Complete: frappe.email.doctype.email_account.email_account.pull for hr_management
2021-09-03 10:20:20,345 INFO scheduler Scheduled Job Start: frappe.email.queue.flush for hr_management
2021-09-03 10:20:20,607 INFO scheduler Scheduled Job Complete: frappe.email.queue.flush for hr_management
2021-09-03 10:21:16,500 DEBUG scheduler Queued events for site hr_management
2021-09-03 10:22:16,892 DEBUG scheduler Queued events for site hr_management
2021-09-03 10:23:17,263 DEBUG scheduler Queued events for site hr_management
2021-09-03 10:24:17,557 INFO scheduler Scheduled Job Start: frappe.monitor.flush for dev1
2021-09-03 10:24:17,712 DEBUG scheduler Queued events for site hr_management
2021-09-03 10:24:17,837 INFO scheduler Scheduled Job Complete: frappe.monitor.flush for dev1
2021-09-03 10:24:17,945 INFO scheduler Scheduled Job Start: frappe.utils.global_search.sync_global_search for dev1
2021-09-03 10:24:18,221 INFO scheduler Scheduled Job Complete: frappe.utils.global_search.sync_global_search for dev1
2021-09-03 10:24:18,312 INFO scheduler Scheduled Job Start: frappe.integrations.doctype.razorpay_settings.razorpay_settings.capture_payment for dev1
2021-09-03 10:24:18,694 INFO scheduler Scheduled Job Complete: frappe.integrations.doctype.razorpay_settings.razorpay_settings.capture_payment for dev1
2021-09-03 10:24:18,790 INFO scheduler Scheduled Job Start: frappe.email.doctype.email_account.email_account.notify_unreplied for dev1
2021-09-03 10:24:19,130 INFO scheduler Scheduled Job Complete: frappe.email.doctype.email_account.email_account.notify_unreplied for dev1
2021-09-03 10:24:19,221 INFO scheduler Scheduled Job Start: frappe.email.doctype.email_account.email_account.pull for dev1
2021-09-03 10:24:19,566 INFO scheduler Scheduled Job Complete: frappe.email.doctype.email_account.email_account.pull for dev1
2021-09-03 10:24:19,656 INFO scheduler Scheduled Job Start: frappe.email.queue.flush for dev1
2021-09-03 10:24:19,931 INFO scheduler Scheduled Job Complete: frappe.email.queue.flush for dev1
2021-09-03 10:24:20,018 INFO scheduler Scheduled Job Start: frappe.monitor.flush for hr_management
2021-09-03 10:24:20,271 INFO scheduler Scheduled Job Complete: frappe.monitor.flush for hr_management
2021-09-03 10:24:20,369 INFO scheduler Scheduled Job Start: frappe.utils.global_search.sync_global_search for hr_management
2021-09-03 10:24:20,620 INFO scheduler Scheduled Job Complete: frappe.utils.global_search.sync_global_search for hr_management
2021-09-03 10:24:20,712 INFO scheduler Scheduled Job Start: frappe.integrations.doctype.razorpay_settings.razorpay_settings.capture_payment for hr_management
2021-09-03 10:24:21,089 INFO scheduler Scheduled Job Complete: frappe.integrations.doctype.razorpay_settings.razorpay_settings.capture_payment for hr_management
2021-09-03 10:24:21,193 INFO scheduler Scheduled Job Start: frappe.email.doctype.email_account.email_account.notify_unreplied for hr_management
2021-09-03 10:24:21,522 INFO scheduler Scheduled Job Complete: frappe.email.doctype.email_account.email_account.notify_unreplied for hr_management
2021-09-03 10:24:21,615 INFO scheduler Scheduled Job Start: frappe.email.doctype.email_account.email_account.pull for hr_management
2021-09-03 10:24:21,930 INFO scheduler Scheduled Job Complete: frappe.email.doctype.email_account.email_account.pull for hr_management
2021-09-03 10:24:22,030 INFO scheduler Scheduled Job Start: frappe.email.queue.flush for hr_management
2021-09-03 10:24:22,284 INFO scheduler Scheduled Job Complete: frappe.email.queue.flush for hr_management
2021-09-03 10:25:18,105 DEBUG scheduler Queued events for site hr_management
2021-09-03 10:26:18,513 DEBUG scheduler Queued events for site hr_management
2021-09-03 10:27:18,854 DEBUG scheduler Queued events for site hr_management
2021-09-03 10:28:19,153 INFO scheduler Scheduled Job Start: frappe.monitor.flush for dev1
2021-09-03 10:28:19,332 DEBUG scheduler Queued events for site hr_management
2021-09-03 10:28:19,453 INFO scheduler Scheduled Job Complete: frappe.monitor.flush for dev1
2021-09-03 10:28:19,548 INFO scheduler Scheduled Job Start: frappe.utils.global_search.sync_global_search for dev1
2021-09-03 10:28:19,814 INFO scheduler Scheduled Job Complete: frappe.utils.global_search.sync_global_search for dev1
2021-09-03 10:28:19,898 INFO scheduler Scheduled Job Start: frappe.integrations.doctype.razorpay_settings.razorpay_settings.capture_payment for dev1
2021-09-03 10:28:20,288 INFO scheduler Scheduled Job Complete: frappe.integrations.doctype.razorpay_settings.razorpay_settings.capture_payment for dev1
2021-09-03 10:28:20,374 INFO scheduler Scheduled Job Start: frappe.email.doctype.email_account.email_account.notify_unreplied for dev1
2021-09-03 10:28:20,685 INFO scheduler Scheduled Job Complete: frappe.email.doctype.email_account.email_account.notify_unreplied for dev1
2021-09-03 10:28:20,770 INFO scheduler Scheduled Job Start: frappe.email.doctype.email_account.email_account.pull for dev1
2021-09-03 10:28:21,153 INFO scheduler Scheduled Job Complete: frappe.email.doctype.email_account.email_account.pull for dev1
2021-09-03 10:28:21,253 INFO scheduler Scheduled Job Start: frappe.email.queue.flush for dev1
2021-09-03 10:28:21,530 INFO scheduler Scheduled Job Complete: frappe.email.queue.flush for dev1
2021-09-03 10:28:21,630 INFO scheduler Scheduled Job Start: frappe.monitor.flush for hr_management
2021-09-03 10:28:21,886 INFO scheduler Scheduled Job Complete: frappe.monitor.flush for hr_management
2021-09-03 10:28:21,973 INFO scheduler Scheduled Job Start: frappe.utils.global_search.sync_global_search for hr_management
2021-09-03 10:28:22,251 INFO scheduler Scheduled Job Complete: frappe.utils.global_search.sync_global_search for hr_management
2021-09-03 10:28:22,333 INFO scheduler Scheduled Job Start: frappe.integrations.doctype.razorpay_settings.razorpay_settings.capture_payment for hr_management
2021-09-03 10:28:22,723 INFO scheduler Scheduled Job Complete: frappe.integrations.doctype.razorpay_settings.razorpay_settings.capture_payment for hr_management
2021-09-03 10:28:22,813 INFO scheduler Scheduled Job Start: frappe.email.doctype.email_account.email_account.notify_unreplied for hr_management
2021-09-03 10:28:23,140 INFO scheduler Scheduled Job Complete: frappe.email.doctype.email_account.email_account.notify_unreplied for hr_management
2021-09-03 10:28:23,224 INFO scheduler Scheduled Job Start: frappe.email.doctype.email_account.email_account.pull for hr_management
2021-09-03 10:28:23,555 INFO scheduler Scheduled Job Complete: frappe.email.doctype.email_account.email_account.pull for hr_management
2021-09-03 10:28:23,646 INFO scheduler Scheduled Job Start: frappe.email.queue.flush for hr_management
2021-09-03 10:28:23,932 INFO scheduler Scheduled Job Complete: frappe.email.queue.flush for hr_management
2021-09-03 10:29:19,730 DEBUG scheduler Queued events for site hr_management
2021-09-03 10:30:20,036 INFO scheduler Scheduled Job Start: frappe.twofactor.delete_all_barcodes_for_users for dev1
2021-09-03 10:30:20,151 DEBUG scheduler Queued events for site hr_management
2021-09-03 10:30:20,478 INFO scheduler Scheduled Job Complete: frappe.twofactor.delete_all_barcodes_for_users for dev1
2021-09-03 10:30:20,575 INFO scheduler Scheduled Job Start: frappe.website.doctype.web_page.web_page.check_publish_status for dev1
2021-09-03 10:30:21,000 INFO scheduler Scheduled Job Complete: frappe.website.doctype.web_page.web_page.check_publish_status for dev1
2021-09-03 10:30:21,107 INFO scheduler Scheduled Job Start: frappe.oauth.delete_oauth2_data for dev1
2021-09-03 10:30:21,484 INFO scheduler Scheduled Job Complete: frappe.oauth.delete_oauth2_data for dev1
2021-09-03 10:30:21,567 INFO scheduler Scheduled Job Start: frappe.twofactor.delete_all_barcodes_for_users for hr_management
2021-09-03 10:30:21,965 INFO scheduler Scheduled Job Complete: frappe.twofactor.delete_all_barcodes_for_users for hr_management
2021-09-03 10:30:22,069 INFO scheduler Scheduled Job Start: frappe.website.doctype.web_page.web_page.check_publish_status for hr_management
2021-09-03 10:30:22,488 INFO scheduler Scheduled Job Complete: frappe.website.doctype.web_page.web_page.check_publish_status for hr_management
2021-09-03 10:30:22,588 INFO scheduler Scheduled Job Start: frappe.oauth.delete_oauth2_data for hr_management
2021-09-03 10:30:22,947 INFO scheduler Scheduled Job Complete: frappe.oauth.delete_oauth2_data for hr_management
2021-09-03 10:38:33,017 DEBUG scheduler Queued events for site dev1
2021-09-03 10:38:33,050 INFO scheduler Scheduled Job Start: frappe.monitor.flush for dev1
2021-09-03 10:38:33,388 DEBUG scheduler Queued events for site hr_management
2021-09-03 10:38:33,531 INFO scheduler Scheduled Job Complete: frappe.monitor.flush for dev1
2021-09-03 10:38:33,628 INFO scheduler Scheduled Job Start: frappe.utils.global_search.sync_global_search for dev1
2021-09-03 10:38:33,873 INFO scheduler Scheduled Job Complete: frappe.utils.global_search.sync_global_search for dev1
2021-09-03 10:38:33,966 INFO scheduler Scheduled Job Start: frappe.integrations.doctype.razorpay_settings.razorpay_settings.capture_payment for dev1
2021-09-03 10:38:34,423 INFO scheduler Scheduled Job Complete: frappe.integrations.doctype.razorpay_settings.razorpay_settings.capture_payment for dev1
2021-09-03 10:38:34,528 INFO scheduler Scheduled Job Start: frappe.email.doctype.email_account.email_account.notify_unreplied for dev1
2021-09-03 10:38:34,927 INFO scheduler Scheduled Job Complete: frappe.email.doctype.email_account.email_account.notify_unreplied for dev1
2021-09-03 10:38:35,031 INFO scheduler Scheduled Job Start: frappe.email.doctype.email_account.email_account.pull for dev1
2021-09-03 10:38:35,478 INFO scheduler Scheduled Job Complete: frappe.email.doctype.email_account.email_account.pull for dev1
2021-09-03 10:38:35,569 INFO scheduler Scheduled Job Start: frappe.email.queue.flush for dev1
2021-09-03 10:38:35,839 INFO scheduler Scheduled Job Complete: frappe.email.queue.flush for dev1
2021-09-03 10:38:35,924 INFO scheduler Scheduled Job Start: frappe.monitor.flush for hr_management
2021-09-03 10:38:36,382 INFO scheduler Scheduled Job Complete: frappe.monitor.flush for hr_management
2021-09-03 10:38:36,466 INFO scheduler Scheduled Job Start: frappe.utils.global_search.sync_global_search for hr_management
2021-09-03 10:38:36,701 INFO scheduler Scheduled Job Complete: frappe.utils.global_search.sync_global_search for hr_management
2021-09-03 10:38:36,789 INFO scheduler Scheduled Job Start: frappe.integrations.doctype.razorpay_settings.razorpay_settings.capture_payment for hr_management
2021-09-03 10:38:37,282 INFO scheduler Scheduled Job Complete: frappe.integrations.doctype.razorpay_settings.razorpay_settings.capture_payment for hr_management
2021-09-03 10:38:37,377 INFO scheduler Scheduled Job Start: frappe.email.doctype.email_account.email_account.notify_unreplied for hr_management
2021-09-03 10:38:37,800 INFO scheduler Scheduled Job Complete: frappe.email.doctype.email_account.email_account.notify_unreplied for hr_management
2021-09-03 10:38:37,896 INFO scheduler Scheduled Job Start: frappe.email.doctype.email_account.email_account.pull for hr_management
2021-09-03 10:38:38,409 INFO scheduler Scheduled Job Complete: frappe.email.doctype.email_account.email_account.pull for hr_management
2021-09-03 10:38:38,494 INFO scheduler Scheduled Job Start: frappe.email.queue.flush for hr_management
2021-09-03 10:38:38,837 INFO scheduler Scheduled Job Complete: frappe.email.queue.flush for hr_management
2021-09-03 10:39:33,627 DEBUG scheduler Queued events for site dev1
2021-09-03 10:39:33,795 DEBUG scheduler Queued events for site hr_management
2021-09-03 10:40:34,039 DEBUG scheduler Queued events for site dev1
2021-09-03 10:40:34,080 INFO scheduler Scheduled Job Start: frappe.monitor.flush for dev1
2021-09-03 10:40:34,199 DEBUG scheduler Queued events for site hr_management
2021-09-03 10:40:34,335 INFO scheduler Scheduled Job Complete: frappe.monitor.flush for dev1
2021-09-03 10:40:34,430 INFO scheduler Scheduled Job Start: frappe.utils.global_search.sync_global_search for dev1
2021-09-03 10:40:34,666 INFO scheduler Scheduled Job Complete: frappe.utils.global_search.sync_global_search for dev1
2021-09-03 10:40:34,745 INFO scheduler Scheduled Job Start: frappe.integrations.doctype.razorpay_settings.razorpay_settings.capture_payment for dev1
2021-09-03 10:40:35,128 INFO scheduler Scheduled Job Complete: frappe.integrations.doctype.razorpay_settings.razorpay_settings.capture_payment for dev1
2021-09-03 10:40:35,214 INFO scheduler Scheduled Job Start: frappe.email.doctype.email_account.email_account.notify_unreplied for dev1
2021-09-03 10:40:35,537 INFO scheduler Scheduled Job Complete: frappe.email.doctype.email_account.email_account.notify_unreplied for dev1
2021-09-03 10:40:35,634 INFO scheduler Scheduled Job Start: frappe.email.doctype.email_account.email_account.pull for dev1
2021-09-03 10:40:36,007 INFO scheduler Scheduled Job Complete: frappe.email.doctype.email_account.email_account.pull for dev1
2021-09-03 10:40:36,098 INFO scheduler Scheduled Job Start: frappe.email.queue.flush for dev1
2021-09-03 10:40:36,370 INFO scheduler Scheduled Job Complete: frappe.email.queue.flush for dev1
2021-09-03 10:40:36,464 INFO scheduler Scheduled Job Start: frappe.monitor.flush for hr_management
2021-09-03 10:40:36,712 INFO scheduler Scheduled Job Complete: frappe.monitor.flush for hr_management
2021-09-03 10:40:36,789 INFO scheduler Scheduled Job Start: frappe.utils.global_search.sync_global_search for hr_management
2021-09-03 10:40:37,041 INFO scheduler Scheduled Job Complete: frappe.utils.global_search.sync_global_search for hr_management
2021-09-03 10:40:37,139 INFO scheduler Scheduled Job Start: frappe.integrations.doctype.razorpay_settings.razorpay_settings.capture_payment for hr_management
2021-09-03 10:40:37,523 INFO scheduler Scheduled Job Complete: frappe.integrations.doctype.razorpay_settings.razorpay_settings.capture_payment for hr_management
2021-09-03 10:40:37,623 INFO scheduler Scheduled Job Start: frappe.email.doctype.email_account.email_account.notify_unreplied for hr_management
2021-09-03 10:40:37,948 INFO scheduler Scheduled Job Complete: frappe.email.doctype.email_account.email_account.notify_unreplied for hr_management
2021-09-03 10:40:38,054 INFO scheduler Scheduled Job Start: frappe.email.doctype.email_account.email_account.pull for hr_management
2021-09-03 10:40:38,386 INFO scheduler Scheduled Job Complete: frappe.email.doctype.email_account.email_account.pull for hr_management
2021-09-03 10:40:38,484 INFO scheduler Scheduled Job Start: frappe.email.queue.flush for hr_management
2021-09-03 10:40:38,772 INFO scheduler Scheduled Job Complete: frappe.email.queue.flush for hr_management
2021-09-03 10:41:34,431 DEBUG scheduler Queued events for site dev1
2021-09-03 10:41:34,612 DEBUG scheduler Queued events for site hr_management
2021-09-03 10:42:34,821 DEBUG scheduler Queued events for site dev1
2021-09-03 10:42:34,927 DEBUG scheduler Queued events for site hr_management
2021-09-03 10:43:35,145 DEBUG scheduler Queued events for site dev1
2021-09-03 10:43:35,282 DEBUG scheduler Queued events for site hr_management
2021-09-03 10:44:35,514 DEBUG scheduler Queued events for site dev1
2021-09-03 10:44:35,589 INFO scheduler Scheduled Job Start: frappe.monitor.flush for dev1
2021-09-03 10:44:35,786 DEBUG scheduler Queued events for site hr_management
2021-09-03 10:44:35,958 INFO scheduler Scheduled Job Complete: frappe.monitor.flush for dev1
2021-09-03 10:44:36,061 INFO scheduler Scheduled Job Start: frappe.utils.global_search.sync_global_search for dev1
2021-09-03 10:44:36,361 INFO scheduler Scheduled Job Complete: frappe.utils.global_search.sync_global_search for dev1
2021-09-03 10:44:36,475 INFO scheduler Scheduled Job Start: frappe.integrations.doctype.razorpay_settings.razorpay_settings.capture_payment for dev1
2021-09-03 10:44:36,914 INFO scheduler Scheduled Job Complete: frappe.integrations.doctype.razorpay_settings.razorpay_settings.capture_payment for dev1
2021-09-03 10:44:37,012 INFO scheduler Scheduled Job Start: frappe.email.doctype.email_account.email_account.notify_unreplied for dev1
2021-09-03 10:44:37,403 INFO scheduler Scheduled Job Complete: frappe.email.doctype.email_account.email_account.notify_unreplied for dev1
2021-09-03 10:44:37,512 INFO scheduler Scheduled Job Start: frappe.email.doctype.email_account.email_account.pull for dev1
2021-09-03 10:44:37,917 INFO scheduler Scheduled Job Complete: frappe.email.doctype.email_account.email_account.pull for dev1
2021-09-03 10:44:38,028 INFO scheduler Scheduled Job Start: frappe.email.queue.flush for dev1
2021-09-03 10:44:38,317 INFO scheduler Scheduled Job Complete: frappe.email.queue.flush for dev1
2021-09-03 10:44:38,409 INFO scheduler Scheduled Job Start: frappe.monitor.flush for hr_management
2021-09-03 10:44:38,672 INFO scheduler Scheduled Job Complete: frappe.monitor.flush for hr_management
2021-09-03 10:44:38,778 INFO scheduler Scheduled Job Start: frappe.utils.global_search.sync_global_search for hr_management
2021-09-03 10:44:39,102 INFO scheduler Scheduled Job Complete: frappe.utils.global_search.sync_global_search for hr_management
2021-09-03 10:44:39,205 INFO scheduler Scheduled Job Start: frappe.integrations.doctype.razorpay_settings.razorpay_settings.capture_payment for hr_management
2021-09-03 10:44:39,649 INFO scheduler Scheduled Job Complete: frappe.integrations.doctype.razorpay_settings.razorpay_settings.capture_payment for hr_management
2021-09-03 10:44:39,740 INFO scheduler Scheduled Job Start: frappe.email.doctype.email_account.email_account.notify_unreplied for hr_management
2021-09-03 10:44:40,100 INFO scheduler Scheduled Job Complete: frappe.email.doctype.email_account.email_account.notify_unreplied for hr_management
2021-09-03 10:44:40,185 INFO scheduler Scheduled Job Start: frappe.email.doctype.email_account.email_account.pull for hr_management
2021-09-03 10:44:40,554 INFO scheduler Scheduled Job Complete: frappe.email.doctype.email_account.email_account.pull for hr_management
2021-09-03 10:44:40,660 INFO scheduler Scheduled Job Start: frappe.email.queue.flush for hr_management
2021-09-03 10:44:40,955 INFO scheduler Scheduled Job Complete: frappe.email.queue.flush for hr_management
2021-09-03 10:45:36,049 DEBUG scheduler Queued events for site dev1
2021-09-03 10:45:36,124 INFO scheduler Scheduled Job Start: frappe.twofactor.delete_all_barcodes_for_users for dev1
2021-09-03 10:45:36,207 DEBUG scheduler Queued events for site hr_management
2021-09-03 10:45:36,603 INFO scheduler Scheduled Job Complete: frappe.twofactor.delete_all_barcodes_for_users for dev1
2021-09-03 10:45:36,710 INFO scheduler Scheduled Job Start: frappe.website.doctype.web_page.web_page.check_publish_status for dev1
2021-09-03 10:45:37,235 INFO scheduler Scheduled Job Complete: frappe.website.doctype.web_page.web_page.check_publish_status for dev1
2021-09-03 10:45:37,319 INFO scheduler Scheduled Job Start: frappe.oauth.delete_oauth2_data for dev1
2021-09-03 10:45:37,800 INFO scheduler Scheduled Job Complete: frappe.oauth.delete_oauth2_data for dev1
2021-09-03 10:45:37,904 INFO scheduler Scheduled Job Start: frappe.twofactor.delete_all_barcodes_for_users for hr_management
2021-09-03 10:45:38,543 INFO scheduler Scheduled Job Complete: frappe.twofactor.delete_all_barcodes_for_users for hr_management
2021-09-03 10:45:38,656 INFO scheduler Scheduled Job Start: frappe.website.doctype.web_page.web_page.check_publish_status for hr_management
2021-09-03 10:45:39,126 INFO scheduler Scheduled Job Complete: frappe.website.doctype.web_page.web_page.check_publish_status for hr_management
2021-09-03 10:45:39,222 INFO scheduler Scheduled Job Start: frappe.oauth.delete_oauth2_data for hr_management
2021-09-03 10:45:39,659 INFO scheduler Scheduled Job Complete: frappe.oauth.delete_oauth2_data for hr_management
2021-09-03 10:46:36,485 DEBUG scheduler Queued events for site dev1
2021-09-03 10:46:36,682 DEBUG scheduler Queued events for site hr_management
2021-09-03 10:47:36,886 DEBUG scheduler Queued events for site dev1
2021-09-03 10:47:36,997 DEBUG scheduler Queued events for site hr_management
2021-09-03 10:48:37,225 DEBUG scheduler Queued events for site dev1
2021-09-03 10:48:37,270 INFO scheduler Scheduled Job Start: frappe.monitor.flush for dev1
2021-09-03 10:48:37,452 DEBUG scheduler Queued events for site hr_management
2021-09-03 10:48:37,586 INFO scheduler Scheduled Job Complete: frappe.monitor.flush for dev1
2021-09-03 10:48:37,694 INFO scheduler Scheduled Job Start: frappe.utils.global_search.sync_global_search for dev1
2021-09-03 10:48:37,959 INFO scheduler Scheduled Job Complete: frappe.utils.global_search.sync_global_search for dev1
2021-09-03 10:48:38,052 INFO scheduler Scheduled Job Start: frappe.integrations.doctype.razorpay_settings.razorpay_settings.capture_payment for dev1
2021-09-03 10:48:38,548 INFO scheduler Scheduled Job Complete: frappe.integrations.doctype.razorpay_settings.razorpay_settings.capture_payment for dev1
2021-09-03 10:48:38,642 INFO scheduler Scheduled Job Start: frappe.email.doctype.email_account.email_account.notify_unreplied for dev1
2021-09-03 10:48:39,005 INFO scheduler Scheduled Job Complete: frappe.email.doctype.email_account.email_account.notify_unreplied for dev1
2021-09-03 10:48:39,099 INFO scheduler Scheduled Job Start: frappe.email.doctype.email_account.email_account.pull for dev1
2021-09-03 10:48:39,468 INFO scheduler Scheduled Job Complete: frappe.email.doctype.email_account.email_account.pull for dev1
2021-09-03 10:48:39,564 INFO scheduler Scheduled Job Start: frappe.email.queue.flush for dev1
2021-09-03 10:48:39,831 INFO scheduler Scheduled Job Complete: frappe.email.queue.flush for dev1
2021-09-03 10:48:39,941 INFO scheduler Scheduled Job Start: frappe.monitor.flush for hr_management
2021-09-03 10:48:40,208 INFO scheduler Scheduled Job Complete: frappe.monitor.flush for hr_management
2021-09-03 10:48:40,301 INFO scheduler Scheduled Job Start: frappe.utils.global_search.sync_global_search for hr_management
2021-09-03 10:48:40,582 INFO scheduler Scheduled Job Complete: frappe.utils.global_search.sync_global_search for hr_management
2021-09-03 10:48:40,670 INFO scheduler Scheduled Job Start: frappe.integrations.doctype.razorpay_settings.razorpay_settings.capture_payment for hr_management
2021-09-03 10:48:41,080 INFO scheduler Scheduled Job Complete: frappe.integrations.doctype.razorpay_settings.razorpay_settings.capture_payment for hr_management
2021-09-03 10:48:41,185 INFO scheduler Scheduled Job Start: frappe.email.doctype.email_account.email_account.notify_unreplied for hr_management
2021-09-03 10:48:41,516 INFO scheduler Scheduled Job Complete: frappe.email.doctype.email_account.email_account.notify_unreplied for hr_management
2021-09-03 10:48:41,626 INFO scheduler Scheduled Job Start: frappe.email.doctype.email_account.email_account.pull for hr_management
2021-09-03 10:48:41,964 INFO scheduler Scheduled Job Complete: frappe.email.doctype.email_account.email_account.pull for hr_management
2021-09-03 10:48:42,061 INFO scheduler Scheduled Job Start: frappe.email.queue.flush for hr_management
2021-09-03 10:48:42,358 INFO scheduler Scheduled Job Complete: frappe.email.queue.flush for hr_management
2021-09-03 10:49:37,687 DEBUG scheduler Queued events for site dev1
2021-09-03 10:49:37,838 DEBUG scheduler Queued events for site hr_management
2021-09-03 10:50:38,066 DEBUG scheduler Queued events for site dev1
2021-09-03 10:50:38,190 DEBUG scheduler Queued events for site hr_management
2021-09-03 10:51:38,400 DEBUG scheduler Queued events for site dev1
2021-09-03 10:51:38,532 DEBUG scheduler Queued events for site hr_management
2021-09-03 10:52:38,809 DEBUG scheduler Queued events for site dev1
2021-09-03 10:52:38,830 INFO scheduler Scheduled Job Start: frappe.monitor.flush for dev1
2021-09-03 10:52:39,048 DEBUG scheduler Queued events for site hr_management
2021-09-03 10:52:39,224 INFO scheduler Scheduled Job Complete: frappe.monitor.flush for dev1
2021-09-03 10:52:39,328 INFO scheduler Scheduled Job Start: frappe.utils.global_search.sync_global_search for dev1
2021-09-03 10:52:39,672 INFO scheduler Scheduled Job Complete: frappe.utils.global_search.sync_global_search for dev1
2021-09-03 10:52:39,776 INFO scheduler Scheduled Job Start: frappe.integrations.doctype.razorpay_settings.razorpay_settings.capture_payment for dev1
2021-09-03 10:52:40,268 INFO scheduler Scheduled Job Complete: frappe.integrations.doctype.razorpay_settings.razorpay_settings.capture_payment for dev1
2021-09-03 10:52:40,395 INFO scheduler Scheduled Job Start: frappe.email.doctype.email_account.email_account.notify_unreplied for dev1
2021-09-03 10:52:40,784 INFO scheduler Scheduled Job Complete: frappe.email.doctype.email_account.email_account.notify_unreplied for dev1
2021-09-03 10:52:40,870 INFO scheduler Scheduled Job Start: frappe.email.doctype.email_account.email_account.pull for dev1
2021-09-03 10:52:41,287 INFO scheduler Scheduled Job Complete: frappe.email.doctype.email_account.email_account.pull for dev1
2021-09-03 10:52:41,403 INFO scheduler Scheduled Job Start: frappe.email.queue.flush for dev1
2021-09-03 10:52:41,725 INFO scheduler Scheduled Job Complete: frappe.email.queue.flush for dev1
2021-09-03 10:52:41,814 INFO scheduler Scheduled Job Start: frappe.monitor.flush for hr_management
2021-09-03 10:52:42,142 INFO scheduler Scheduled Job Complete: frappe.monitor.flush for hr_management
2021-09-03 10:52:42,244 INFO scheduler Scheduled Job Start: frappe.utils.global_search.sync_global_search for hr_management
2021-09-03 10:52:42,528 INFO scheduler Scheduled Job Complete: frappe.utils.global_search.sync_global_search for hr_management
2021-09-03 10:52:42,610 INFO scheduler Scheduled Job Start: frappe.integrations.doctype.razorpay_settings.razorpay_settings.capture_payment for hr_management
2021-09-03 10:52:43,030 INFO scheduler Scheduled Job Complete: frappe.integrations.doctype.razorpay_settings.razorpay_settings.capture_payment for hr_management
2021-09-03 10:52:43,127 INFO scheduler Scheduled Job Start: frappe.email.doctype.email_account.email_account.notify_unreplied for hr_management
2021-09-03 10:52:43,474 INFO scheduler Scheduled Job Complete: frappe.email.doctype.email_account.email_account.notify_unreplied for hr_management
2021-09-03 10:52:43,588 INFO scheduler Scheduled Job Start: frappe.email.doctype.email_account.email_account.pull for hr_management
2021-09-03 10:52:43,993 INFO scheduler Scheduled Job Complete: frappe.email.doctype.email_account.email_account.pull for hr_management
2021-09-03 10:52:44,114 INFO scheduler Scheduled Job Start: frappe.email.queue.flush for hr_management
2021-09-03 10:52:44,439 INFO scheduler Scheduled Job Complete: frappe.email.queue.flush for hr_management
2021-09-03 10:53:39,282 DEBUG scheduler Queued events for site dev1
2021-09-03 10:53:39,426 DEBUG scheduler Queued events for site hr_management
2021-09-03 10:54:39,641 DEBUG scheduler Queued events for site dev1
2021-09-03 10:54:39,781 DEBUG scheduler Queued events for site hr_management
2021-09-03 10:55:39,967 DEBUG scheduler Queued events for site dev1
2021-09-03 10:55:40,109 DEBUG scheduler Queued events for site hr_management
2021-09-03 10:56:40,373 DEBUG scheduler Queued events for site dev1
2021-09-03 10:56:40,418 INFO scheduler Scheduled Job Start: frappe.monitor.flush for dev1
2021-09-03 10:56:40,551 DEBUG scheduler Queued events for site hr_management
2021-09-03 10:56:40,690 INFO scheduler Scheduled Job Complete: frappe.monitor.flush for dev1
2021-09-03 10:56:40,810 INFO scheduler Scheduled Job Start: frappe.utils.global_search.sync_global_search for dev1
2021-09-03 10:56:41,104 INFO scheduler Scheduled Job Complete: frappe.utils.global_search.sync_global_search for dev1
2021-09-03 10:56:41,196 INFO scheduler Scheduled Job Start: frappe.integrations.doctype.razorpay_settings.razorpay_settings.capture_payment for dev1
2021-09-03 10:56:41,664 INFO scheduler Scheduled Job Complete: frappe.integrations.doctype.razorpay_settings.razorpay_settings.capture_payment for dev1
2021-09-03 10:56:41,768 INFO scheduler Scheduled Job Start: frappe.email.doctype.email_account.email_account.notify_unreplied for dev1
2021-09-03 10:56:42,128 INFO scheduler Scheduled Job Complete: frappe.email.doctype.email_account.email_account.notify_unreplied for dev1
2021-09-03 10:56:42,215 INFO scheduler Scheduled Job Start: frappe.email.doctype.email_account.email_account.pull for dev1
2021-09-03 10:56:42,601 INFO scheduler Scheduled Job Complete: frappe.email.doctype.email_account.email_account.pull for dev1
2021-09-03 10:56:42,696 INFO scheduler Scheduled Job Start: frappe.email.queue.flush for dev1
2021-09-03 10:56:43,016 INFO scheduler Scheduled Job Complete: frappe.email.queue.flush for dev1
2021-09-03 10:56:43,133 INFO scheduler Scheduled Job Start: frappe.monitor.flush for hr_management
2021-09-03 10:56:43,417 INFO scheduler Scheduled Job Complete: frappe.monitor.flush for hr_management
2021-09-03 10:56:43,512 INFO scheduler Scheduled Job Start: frappe.utils.global_search.sync_global_search for hr_management
2021-09-03 10:56:43,818 INFO scheduler Scheduled Job Complete: frappe.utils.global_search.sync_global_search for hr_management
2021-09-03 10:56:43,917 INFO scheduler Scheduled Job Start: frappe.integrations.doctype.razorpay_settings.razorpay_settings.capture_payment for hr_management
2021-09-03 10:56:44,348 INFO scheduler Scheduled Job Complete: frappe.integrations.doctype.razorpay_settings.razorpay_settings.capture_payment for hr_management
2021-09-03 10:56:44,448 INFO scheduler Scheduled Job Start: frappe.email.doctype.email_account.email_account.notify_unreplied for hr_management
2021-09-03 10:56:44,779 INFO scheduler Scheduled Job Complete: frappe.email.doctype.email_account.email_account.notify_unreplied for hr_management
2021-09-03 10:56:44,879 INFO scheduler Scheduled Job Start: frappe.email.doctype.email_account.email_account.pull for hr_management
2021-09-03 10:56:45,232 INFO scheduler Scheduled Job Complete: frappe.email.doctype.email_account.email_account.pull for hr_management
2021-09-03 10:56:45,308 INFO scheduler Scheduled Job Start: frappe.email.queue.flush for hr_management
2021-09-03 10:56:45,662 INFO scheduler Scheduled Job Complete: frappe.email.queue.flush for hr_management
2021-09-03 10:57:40,788 DEBUG scheduler Queued events for site dev1
2021-09-03 10:57:40,977 DEBUG scheduler Queued events for site hr_management
2021-09-03 10:58:41,208 DEBUG scheduler Queued events for site dev1
2021-09-03 10:58:41,346 DEBUG scheduler Queued events for site hr_management
2021-09-03 10:59:41,562 DEBUG scheduler Queued events for site dev1
2021-09-03 10:59:41,721 DEBUG scheduler Queued events for site hr_management
2021-09-03 11:00:42,006 INFO scheduler Scheduled Job Start: frappe.email.doctype.newsletter.newsletter.send_scheduled_email for dev1
2021-09-03 11:00:42,073 DEBUG scheduler Queued events for site dev1
2021-09-03 11:00:42,414 DEBUG scheduler Queued events for site hr_management
2021-09-03 11:00:42,508 INFO scheduler Scheduled Job Complete: frappe.email.doctype.newsletter.newsletter.send_scheduled_email for dev1
2021-09-03 11:00:42,615 INFO scheduler Scheduled Job Start: frappe.integrations.doctype.google_calendar.google_calendar.sync for dev1
2021-09-03 11:00:43,233 INFO scheduler Scheduled Job Complete: frappe.integrations.doctype.google_calendar.google_calendar.sync for dev1
2021-09-03 11:00:43,326 INFO scheduler Scheduled Job Start: frappe.desk.form.document_follow.send_hourly_updates for dev1
2021-09-03 11:00:43,733 INFO scheduler Scheduled Job Complete: frappe.desk.form.document_follow.send_hourly_updates for dev1
2021-09-03 11:00:43,846 INFO scheduler Scheduled Job Start: frappe.deferred_insert.save_to_db for dev1
2021-09-03 11:00:44,545 INFO scheduler Scheduled Job Complete: frappe.deferred_insert.save_to_db for dev1
2021-09-03 11:00:44,642 INFO scheduler Scheduled Job Start: frappe.desk.page.backups.backups.delete_downloadable_backups for dev1
2021-09-03 11:00:45,064 INFO scheduler Scheduled Job Complete: frappe.desk.page.backups.backups.delete_downloadable_backups for dev1
2021-09-03 11:00:45,180 INFO scheduler Scheduled Job Start: frappe.utils.error.collect_error_snapshots for dev1
2021-09-03 11:00:45,575 INFO scheduler Scheduled Job Complete: frappe.utils.error.collect_error_snapshots for dev1
2021-09-03 11:00:45,666 INFO scheduler Scheduled Job Start: frappe.model.utils.user_settings.sync_user_settings for dev1
2021-09-03 11:00:46,047 INFO scheduler Scheduled Job Complete: frappe.model.utils.user_settings.sync_user_settings for dev1
2021-09-03 11:00:46,134 INFO scheduler Scheduled Job Start: frappe.model.utils.link_count.update_link_count for dev1
2021-09-03 11:00:46,526 INFO scheduler Scheduled Job Complete: frappe.model.utils.link_count.update_link_count for dev1
2021-09-03 11:00:46,631 INFO scheduler Scheduled Job Start: frappe.monitor.flush for dev1
2021-09-03 11:00:46,904 INFO scheduler Scheduled Job Complete: frappe.monitor.flush for dev1
2021-09-03 11:00:47,016 INFO scheduler Scheduled Job Start: frappe.utils.global_search.sync_global_search for dev1
2021-09-03 11:00:47,269 INFO scheduler Scheduled Job Complete: frappe.utils.global_search.sync_global_search for dev1
2021-09-03 11:00:47,387 INFO scheduler Scheduled Job Start: frappe.integrations.doctype.razorpay_settings.razorpay_settings.capture_payment for dev1
2021-09-03 11:00:47,832 INFO scheduler Scheduled Job Complete: frappe.integrations.doctype.razorpay_settings.razorpay_settings.capture_payment for dev1
2021-09-03 11:00:47,936 INFO scheduler Scheduled Job Start: frappe.email.doctype.email_account.email_account.notify_unreplied for dev1
2021-09-03 11:00:48,285 INFO scheduler Scheduled Job Complete: frappe.email.doctype.email_account.email_account.notify_unreplied for dev1
2021-09-03 11:00:48,390 INFO scheduler Scheduled Job Start: frappe.email.doctype.email_account.email_account.pull for dev1
2021-09-03 11:00:48,760 INFO scheduler Scheduled Job Complete: frappe.email.doctype.email_account.email_account.pull for dev1
2021-09-03 11:00:48,850 INFO scheduler Scheduled Job Start: frappe.email.queue.flush for dev1
2021-09-03 11:00:49,151 INFO scheduler Scheduled Job Complete: frappe.email.queue.flush for dev1
2021-09-03 11:00:49,247 INFO scheduler Scheduled Job Start: frappe.twofactor.delete_all_barcodes_for_users for dev1
2021-09-03 11:00:49,653 INFO scheduler Scheduled Job Complete: frappe.twofactor.delete_all_barcodes_for_users for dev1
2021-09-03 11:00:49,771 INFO scheduler Scheduled Job Start: frappe.website.doctype.web_page.web_page.check_publish_status for dev1
2021-09-03 11:00:50,236 INFO scheduler Scheduled Job Complete: frappe.website.doctype.web_page.web_page.check_publish_status for dev1
2021-09-03 11:00:50,340 INFO scheduler Scheduled Job Start: frappe.oauth.delete_oauth2_data for dev1
2021-09-03 11:00:50,796 INFO scheduler Scheduled Job Complete: frappe.oauth.delete_oauth2_data for dev1
2021-09-03 11:00:50,907 INFO scheduler Scheduled Job Start: frappe.email.doctype.newsletter.newsletter.send_scheduled_email for hr_management
2021-09-03 11:00:51,455 INFO scheduler Scheduled Job Complete: frappe.email.doctype.newsletter.newsletter.send_scheduled_email for hr_management
2021-09-03 11:00:51,574 INFO scheduler Scheduled Job Start: frappe.integrations.doctype.google_calendar.google_calendar.sync for hr_management
2021-09-03 11:00:52,226 INFO scheduler Scheduled Job Complete: frappe.integrations.doctype.google_calendar.google_calendar.sync for hr_management
2021-09-03 11:00:52,328 INFO scheduler Scheduled Job Start: frappe.desk.form.document_follow.send_hourly_updates for hr_management
2021-09-03 11:00:52,726 INFO scheduler Scheduled Job Complete: frappe.desk.form.document_follow.send_hourly_updates for hr_management
2021-09-03 11:00:52,823 INFO scheduler Scheduled Job Start: frappe.deferred_insert.save_to_db for hr_management
2021-09-03 11:00:53,208 INFO scheduler Scheduled Job Complete: frappe.deferred_insert.save_to_db for hr_management
2021-09-03 11:00:53,312 INFO scheduler Scheduled Job Start: frappe.desk.page.backups.backups.delete_downloadable_backups for hr_management
2021-09-03 11:00:53,735 INFO scheduler Scheduled Job Complete: frappe.desk.page.backups.backups.delete_downloadable_backups for hr_management
2021-09-03 11:00:53,834 INFO scheduler Scheduled Job Start: frappe.utils.error.collect_error_snapshots for hr_management
2021-09-03 11:00:54,201 INFO scheduler Scheduled Job Complete: frappe.utils.error.collect_error_snapshots for hr_management
2021-09-03 11:00:54,302 INFO scheduler Scheduled Job Start: frappe.model.utils.user_settings.sync_user_settings for hr_management
2021-09-03 11:00:54,670 INFO scheduler Scheduled Job Complete: frappe.model.utils.user_settings.sync_user_settings for hr_management
2021-09-03 11:00:54,774 INFO scheduler Scheduled Job Start: frappe.model.utils.link_count.update_link_count for hr_management
2021-09-03 11:00:55,167 INFO scheduler Scheduled Job Complete: frappe.model.utils.link_count.update_link_count for hr_management
2021-09-03 11:00:55,277 INFO scheduler Scheduled Job Start: frappe.monitor.flush for hr_management
2021-09-03 11:00:55,540 INFO scheduler Scheduled Job Complete: frappe.monitor.flush for hr_management
2021-09-03 11:00:55,643 INFO scheduler Scheduled Job Start: frappe.utils.global_search.sync_global_search for hr_management
2021-09-03 11:00:55,942 INFO scheduler Scheduled Job Complete: frappe.utils.global_search.sync_global_search for hr_management
2021-09-03 11:00:56,037 INFO scheduler Scheduled Job Start: frappe.integrations.doctype.razorpay_settings.razorpay_settings.capture_payment for hr_management
2021-09-03 11:00:56,448 INFO scheduler Scheduled Job Complete: frappe.integrations.doctype.razorpay_settings.razorpay_settings.capture_payment for hr_management
2021-09-03 11:00:56,548 INFO scheduler Scheduled Job Start: frappe.email.doctype.email_account.email_account.notify_unreplied for hr_management
2021-09-03 11:00:56,883 INFO scheduler Scheduled Job Complete: frappe.email.doctype.email_account.email_account.notify_unreplied for hr_management
2021-09-03 11:00:56,982 INFO scheduler Scheduled Job Start: frappe.email.doctype.email_account.email_account.pull for hr_management
2021-09-03 11:00:57,332 INFO scheduler Scheduled Job Complete: frappe.email.doctype.email_account.email_account.pull for hr_management
2021-09-03 11:00:57,439 INFO scheduler Scheduled Job Start: frappe.email.queue.flush for hr_management
2021-09-03 11:00:57,731 INFO scheduler Scheduled Job Complete: frappe.email.queue.flush for hr_management
2021-09-03 11:00:57,822 INFO scheduler Scheduled Job Start: frappe.twofactor.delete_all_barcodes_for_users for hr_management
2021-09-03 11:00:58,234 INFO scheduler Scheduled Job Complete: frappe.twofactor.delete_all_barcodes_for_users for hr_management
2021-09-03 11:00:58,344 INFO scheduler Scheduled Job Start: frappe.website.doctype.web_page.web_page.check_publish_status for hr_management
2021-09-03 11:00:58,825 INFO scheduler Scheduled Job Complete: frappe.website.doctype.web_page.web_page.check_publish_status for hr_management
2021-09-03 11:00:58,926 INFO scheduler Scheduled Job Start: frappe.oauth.delete_oauth2_data for hr_management
2021-09-03 11:00:59,348 INFO scheduler Scheduled Job Complete: frappe.oauth.delete_oauth2_data for hr_management
2021-09-03 11:01:42,629 DEBUG scheduler Queued events for site dev1
2021-09-03 11:01:42,795 DEBUG scheduler Queued events for site hr_management
2021-09-03 11:02:43,018 DEBUG scheduler Queued events for site dev1
2021-09-03 11:02:43,149 DEBUG scheduler Queued events for site hr_management
2021-09-03 11:03:43,365 DEBUG scheduler Queued events for site dev1
2021-09-03 11:03:43,492 DEBUG scheduler Queued events for site hr_management
2021-09-03 11:04:43,723 DEBUG scheduler Queued events for site dev1
2021-09-03 11:04:43,760 INFO scheduler Scheduled Job Start: frappe.monitor.flush for dev1
2021-09-03 11:04:43,902 DEBUG scheduler Queued events for site hr_management
2021-09-03 11:04:44,067 INFO scheduler Scheduled Job Complete: frappe.monitor.flush for dev1
2021-09-03 11:04:44,182 INFO scheduler Scheduled Job Start: frappe.utils.global_search.sync_global_search for dev1
2021-09-03 11:04:44,480 INFO scheduler Scheduled Job Complete: frappe.utils.global_search.sync_global_search for dev1
2021-09-03 11:04:44,565 INFO scheduler Scheduled Job Start: frappe.integrations.doctype.razorpay_settings.razorpay_settings.capture_payment for dev1
2021-09-03 11:04:44,988 INFO scheduler Scheduled Job Complete: frappe.integrations.doctype.razorpay_settings.razorpay_settings.capture_payment for dev1
2021-09-03 11:04:45,083 INFO scheduler Scheduled Job Start: frappe.email.doctype.email_account.email_account.notify_unreplied for dev1
2021-09-03 11:04:45,413 INFO scheduler Scheduled Job Complete: frappe.email.doctype.email_account.email_account.notify_unreplied for dev1
2021-09-03 11:04:45,498 INFO scheduler Scheduled Job Start: frappe.email.doctype.email_account.email_account.pull for dev1
2021-09-03 11:04:45,860 INFO scheduler Scheduled Job Complete: frappe.email.doctype.email_account.email_account.pull for dev1
2021-09-03 11:04:45,957 INFO scheduler Scheduled Job Start: frappe.email.queue.flush for dev1
2021-09-03 11:04:46,252 INFO scheduler Scheduled Job Complete: frappe.email.queue.flush for dev1
2021-09-03 11:04:46,345 INFO scheduler Scheduled Job Start: frappe.monitor.flush for hr_management
2021-09-03 11:04:46,621 INFO scheduler Scheduled Job Complete: frappe.monitor.flush for hr_management
2021-09-03 11:04:46,702 INFO scheduler Scheduled Job Start: frappe.utils.global_search.sync_global_search for hr_management
2021-09-03 11:04:46,967 INFO scheduler Scheduled Job Complete: frappe.utils.global_search.sync_global_search for hr_management
2021-09-03 11:04:47,074 INFO scheduler Scheduled Job Start: frappe.integrations.doctype.razorpay_settings.razorpay_settings.capture_payment for hr_management
2021-09-03 11:04:47,494 INFO scheduler Scheduled Job Complete: frappe.integrations.doctype.razorpay_settings.razorpay_settings.capture_payment for hr_management
2021-09-03 11:04:47,589 INFO scheduler Scheduled Job Start: frappe.email.doctype.email_account.email_account.notify_unreplied for hr_management
2021-09-03 11:04:47,937 INFO scheduler Scheduled Job Complete: frappe.email.doctype.email_account.email_account.notify_unreplied for hr_management
2021-09-03 11:04:48,030 INFO scheduler Scheduled Job Start: frappe.email.doctype.email_account.email_account.pull for hr_management
2021-09-03 11:04:48,389 INFO scheduler Scheduled Job Complete: frappe.email.doctype.email_account.email_account.pull for hr_management
2021-09-03 11:04:48,491 INFO scheduler Scheduled Job Start: frappe.email.queue.flush for hr_management
2021-09-03 11:04:48,780 INFO scheduler Scheduled Job Complete: frappe.email.queue.flush for hr_management
2021-09-03 11:05:44,133 DEBUG scheduler Queued events for site dev1
2021-09-03 11:05:44,306 DEBUG scheduler Queued events for site hr_management
2021-09-03 11:06:44,512 DEBUG scheduler Queued events for site dev1
2021-09-03 11:06:44,647 DEBUG scheduler Queued events for site hr_management
2021-09-03 11:07:44,859 DEBUG scheduler Queued events for site dev1
2021-09-03 11:07:44,995 DEBUG scheduler Queued events for site hr_management
2021-09-03 11:08:45,290 DEBUG scheduler Queued events for site dev1
2021-09-03 11:08:45,333 INFO scheduler Scheduled Job Start: frappe.monitor.flush for dev1
2021-09-03 11:08:45,515 DEBUG scheduler Queued events for site hr_management
2021-09-03 11:08:45,663 INFO scheduler Scheduled Job Complete: frappe.monitor.flush for dev1
2021-09-03 11:08:45,789 INFO scheduler Scheduled Job Start: frappe.utils.global_search.sync_global_search for dev1
2021-09-03 11:08:46,120 INFO scheduler Scheduled Job Complete: frappe.utils.global_search.sync_global_search for dev1
2021-09-03 11:08:46,232 INFO scheduler Scheduled Job Start: frappe.integrations.doctype.razorpay_settings.razorpay_settings.capture_payment for dev1
2021-09-03 11:08:46,730 INFO scheduler Scheduled Job Complete: frappe.integrations.doctype.razorpay_settings.razorpay_settings.capture_payment for dev1
2021-09-03 11:08:46,832 INFO scheduler Scheduled Job Start: frappe.email.doctype.email_account.email_account.notify_unreplied for dev1
2021-09-03 11:08:47,221 INFO scheduler Scheduled Job Complete: frappe.email.doctype.email_account.email_account.notify_unreplied for dev1
2021-09-03 11:08:47,322 INFO scheduler Scheduled Job Start: frappe.email.doctype.email_account.email_account.pull for dev1
2021-09-03 11:08:47,709 INFO scheduler Scheduled Job Complete: frappe.email.doctype.email_account.email_account.pull for dev1
2021-09-03 11:08:47,814 INFO scheduler Scheduled Job Start: frappe.email.queue.flush for dev1
2021-09-03 11:08:48,148 INFO scheduler Scheduled Job Complete: frappe.email.queue.flush for dev1
2021-09-03 11:08:48,251 INFO scheduler Scheduled Job Start: frappe.monitor.flush for hr_management
2021-09-03 11:08:48,559 INFO scheduler Scheduled Job Complete: frappe.monitor.flush for hr_management
2021-09-03 11:08:48,667 INFO scheduler Scheduled Job Start: frappe.utils.global_search.sync_global_search for hr_management
2021-09-03 11:08:48,963 INFO scheduler Scheduled Job Complete: frappe.utils.global_search.sync_global_search for hr_management
2021-09-03 11:08:49,048 INFO scheduler Scheduled Job Start: frappe.integrations.doctype.razorpay_settings.razorpay_settings.capture_payment for hr_management
2021-09-03 11:08:49,491 INFO scheduler Scheduled Job Complete: frappe.integrations.doctype.razorpay_settings.razorpay_settings.capture_payment for hr_management
2021-09-03 11:08:49,599 INFO scheduler Scheduled Job Start: frappe.email.doctype.email_account.email_account.notify_unreplied for hr_management
2021-09-03 11:08:49,953 INFO scheduler Scheduled Job Complete: frappe.email.doctype.email_account.email_account.notify_unreplied for hr_management
2021-09-03 11:08:50,060 INFO scheduler Scheduled Job Start: frappe.email.doctype.email_account.email_account.pull for hr_management
2021-09-03 11:08:50,448 INFO scheduler Scheduled Job Complete: frappe.email.doctype.email_account.email_account.pull for hr_management
2021-09-03 11:08:50,546 INFO scheduler Scheduled Job Start: frappe.email.queue.flush for hr_management
2021-09-03 11:08:50,823 INFO scheduler Scheduled Job Complete: frappe.email.queue.flush for hr_management
2021-09-03 11:09:45,743 DEBUG scheduler Queued events for site dev1
2021-09-03 11:09:45,926 DEBUG scheduler Queued events for site hr_management
2021-09-03 11:10:46,138 DEBUG scheduler Queued events for site dev1
2021-09-03 11:10:46,291 DEBUG scheduler Queued events for site hr_management
2021-09-03 11:11:46,490 DEBUG scheduler Queued events for site dev1
2021-09-03 11:11:46,621 DEBUG scheduler Queued events for site hr_management
2021-09-03 11:12:46,862 DEBUG scheduler Queued events for site dev1
2021-09-03 11:12:46,907 INFO scheduler Scheduled Job Start: frappe.monitor.flush for dev1
2021-09-03 11:12:47,090 DEBUG scheduler Queued events for site hr_management
2021-09-03 11:12:47,260 INFO scheduler Scheduled Job Complete: frappe.monitor.flush for dev1
2021-09-03 11:12:47,384 INFO scheduler Scheduled Job Start: frappe.utils.global_search.sync_global_search for dev1
2021-09-03 11:12:47,646 INFO scheduler Scheduled Job Complete: frappe.utils.global_search.sync_global_search for dev1
2021-09-03 11:12:47,749 INFO scheduler Scheduled Job Start: frappe.integrations.doctype.razorpay_settings.razorpay_settings.capture_payment for dev1
2021-09-03 11:12:48,258 INFO scheduler Scheduled Job Complete: frappe.integrations.doctype.razorpay_settings.razorpay_settings.capture_payment for dev1
2021-09-03 11:12:48,341 INFO scheduler Scheduled Job Start: frappe.email.doctype.email_account.email_account.notify_unreplied for dev1
2021-09-03 11:12:48,666 INFO scheduler Scheduled Job Complete: frappe.email.doctype.email_account.email_account.notify_unreplied for dev1
2021-09-03 11:12:48,778 INFO scheduler Scheduled Job Start: frappe.email.doctype.email_account.email_account.pull for dev1
2021-09-03 11:12:49,157 INFO scheduler Scheduled Job Complete: frappe.email.doctype.email_account.email_account.pull for dev1
2021-09-03 11:12:49,267 INFO scheduler Scheduled Job Start: frappe.email.queue.flush for dev1
2021-09-03 11:12:49,563 INFO scheduler Scheduled Job Complete: frappe.email.queue.flush for dev1
2021-09-03 11:12:49,664 INFO scheduler Scheduled Job Start: frappe.monitor.flush for hr_management
2021-09-03 11:12:49,967 INFO scheduler Scheduled Job Complete: frappe.monitor.flush for hr_management
2021-09-03 11:12:50,051 INFO scheduler Scheduled Job Start: frappe.utils.global_search.sync_global_search for hr_management
2021-09-03 11:12:50,319 INFO scheduler Scheduled Job Complete: frappe.utils.global_search.sync_global_search for hr_management
2021-09-03 11:12:50,413 INFO scheduler Scheduled Job Start: frappe.integrations.doctype.razorpay_settings.razorpay_settings.capture_payment for hr_management
2021-09-03 11:12:50,845 INFO scheduler Scheduled Job Complete: frappe.integrations.doctype.razorpay_settings.razorpay_settings.capture_payment for hr_management
2021-09-03 11:12:50,928 INFO scheduler Scheduled Job Start: frappe.email.doctype.email_account.email_account.notify_unreplied for hr_management
2021-09-03 11:12:51,396 INFO scheduler Scheduled Job Complete: frappe.email.doctype.email_account.email_account.notify_unreplied for hr_management
2021-09-03 11:12:51,504 INFO scheduler Scheduled Job Start: frappe.email.doctype.email_account.email_account.pull for hr_management
2021-09-03 11:12:51,868 INFO scheduler Scheduled Job Complete: frappe.email.doctype.email_account.email_account.pull for hr_management
2021-09-03 11:12:51,964 INFO scheduler Scheduled Job Start: frappe.email.queue.flush for hr_management
2021-09-03 11:12:52,251 INFO scheduler Scheduled Job Complete: frappe.email.queue.flush for hr_management
2021-09-03 11:13:47,331 DEBUG scheduler Queued events for site dev1
2021-09-03 11:13:47,499 DEBUG scheduler Queued events for site hr_management
2021-09-03 11:14:47,681 DEBUG scheduler Queued events for site dev1
2021-09-03 11:14:47,801 DEBUG scheduler Queued events for site hr_management
2021-09-03 11:15:48,034 DEBUG scheduler Queued events for site dev1
2021-09-03 11:15:48,112 INFO scheduler Scheduled Job Start: frappe.twofactor.delete_all_barcodes_for_users for dev1
2021-09-03 11:15:48,219 DEBUG scheduler Queued events for site hr_management
2021-09-03 11:15:48,561 INFO scheduler Scheduled Job Complete: frappe.twofactor.delete_all_barcodes_for_users for dev1
2021-09-03 11:15:48,683 INFO scheduler Scheduled Job Start: frappe.website.doctype.web_page.web_page.check_publish_status for dev1
2021-09-03 11:15:49,116 INFO scheduler Scheduled Job Complete: frappe.website.doctype.web_page.web_page.check_publish_status for dev1
2021-09-03 11:15:49,216 INFO scheduler Scheduled Job Start: frappe.oauth.delete_oauth2_data for dev1
2021-09-03 11:15:49,623 INFO scheduler Scheduled Job Complete: frappe.oauth.delete_oauth2_data for dev1
2021-09-03 11:15:49,721 INFO scheduler Scheduled Job Start: frappe.twofactor.delete_all_barcodes_for_users for hr_management
2021-09-03 11:15:50,121 INFO scheduler Scheduled Job Complete: frappe.twofactor.delete_all_barcodes_for_users for hr_management
2021-09-03 11:15:50,222 INFO scheduler Scheduled Job Start: frappe.website.doctype.web_page.web_page.check_publish_status for hr_management
2021-09-03 11:15:50,653 INFO scheduler Scheduled Job Complete: frappe.website.doctype.web_page.web_page.check_publish_status for hr_management
2021-09-03 11:15:50,759 INFO scheduler Scheduled Job Start: frappe.oauth.delete_oauth2_data for hr_management
2021-09-03 11:15:51,158 INFO scheduler Scheduled Job Complete: frappe.oauth.delete_oauth2_data for hr_management
2021-09-03 11:16:48,498 DEBUG scheduler Queued events for site dev1
2021-09-03 11:16:48,527 INFO scheduler Scheduled Job Start: frappe.monitor.flush for dev1
2021-09-03 11:16:48,665 DEBUG scheduler Queued events for site hr_management
2021-09-03 11:16:48,788 INFO scheduler Scheduled Job Complete: frappe.monitor.flush for dev1
2021-09-03 11:16:48,870 INFO scheduler Scheduled Job Start: frappe.utils.global_search.sync_global_search for dev1
2021-09-03 11:16:49,123 INFO scheduler Scheduled Job Complete: frappe.utils.global_search.sync_global_search for dev1
2021-09-03 11:16:49,219 INFO scheduler Scheduled Job Start: frappe.integrations.doctype.razorpay_settings.razorpay_settings.capture_payment for dev1
2021-09-03 11:16:49,624 INFO scheduler Scheduled Job Complete: frappe.integrations.doctype.razorpay_settings.razorpay_settings.capture_payment for dev1
2021-09-03 11:16:49,715 INFO scheduler Scheduled Job Start: frappe.email.doctype.email_account.email_account.notify_unreplied for dev1
2021-09-03 11:16:50,031 INFO scheduler Scheduled Job Complete: frappe.email.doctype.email_account.email_account.notify_unreplied for dev1
2021-09-03 11:16:50,139 INFO scheduler Scheduled Job Start: frappe.email.doctype.email_account.email_account.pull for dev1
2021-09-03 11:16:50,490 INFO scheduler Scheduled Job Complete: frappe.email.doctype.email_account.email_account.pull for dev1
2021-09-03 11:16:50,585 INFO scheduler Scheduled Job Start: frappe.email.queue.flush for dev1
2021-09-03 11:16:50,848 INFO scheduler Scheduled Job Complete: frappe.email.queue.flush for dev1
2021-09-03 11:16:50,936 INFO scheduler Scheduled Job Start: frappe.monitor.flush for hr_management
2021-09-03 11:16:51,197 INFO scheduler Scheduled Job Complete: frappe.monitor.flush for hr_management
2021-09-03 11:16:51,290 INFO scheduler Scheduled Job Start: frappe.utils.global_search.sync_global_search for hr_management
2021-09-03 11:16:51,539 INFO scheduler Scheduled Job Complete: frappe.utils.global_search.sync_global_search for hr_management
2021-09-03 11:16:51,616 INFO scheduler Scheduled Job Start: frappe.integrations.doctype.razorpay_settings.razorpay_settings.capture_payment for hr_management
2021-09-03 11:16:52,022 INFO scheduler Scheduled Job Complete: frappe.integrations.doctype.razorpay_settings.razorpay_settings.capture_payment for hr_management
2021-09-03 11:16:52,118 INFO scheduler Scheduled Job Start: frappe.email.doctype.email_account.email_account.notify_unreplied for hr_management
2021-09-03 11:16:52,434 INFO scheduler Scheduled Job Complete: frappe.email.doctype.email_account.email_account.notify_unreplied for hr_management
2021-09-03 11:16:52,521 INFO scheduler Scheduled Job Start: frappe.email.doctype.email_account.email_account.pull for hr_management
2021-09-03 11:16:52,845 INFO scheduler Scheduled Job Complete: frappe.email.doctype.email_account.email_account.pull for hr_management
2021-09-03 11:16:52,951 INFO scheduler Scheduled Job Start: frappe.email.queue.flush for hr_management
2021-09-03 11:16:53,233 INFO scheduler Scheduled Job Complete: frappe.email.queue.flush for hr_management
2021-09-03 11:17:48,907 DEBUG scheduler Queued events for site dev1
2021-09-03 11:17:49,078 DEBUG scheduler Queued events for site hr_management
2021-09-03 11:18:49,288 DEBUG scheduler Queued events for site dev1
2021-09-03 11:18:49,416 DEBUG scheduler Queued events for site hr_management
2021-09-03 11:19:49,633 DEBUG scheduler Queued events for site dev1
2021-09-03 11:19:49,765 DEBUG scheduler Queued events for site hr_management
2021-09-03 11:20:50,043 DEBUG scheduler Queued events for site dev1
2021-09-03 11:20:50,098 INFO scheduler Scheduled Job Start: frappe.monitor.flush for dev1
2021-09-03 11:20:50,250 DEBUG scheduler Queued events for site hr_management
2021-09-03 11:20:50,402 INFO scheduler Scheduled Job Complete: frappe.monitor.flush for dev1
2021-09-03 11:20:50,513 INFO scheduler Scheduled Job Start: frappe.utils.global_search.sync_global_search for dev1
2021-09-03 11:20:50,818 INFO scheduler Scheduled Job Complete: frappe.utils.global_search.sync_global_search for dev1
2021-09-03 11:20:50,906 INFO scheduler Scheduled Job Start: frappe.integrations.doctype.razorpay_settings.razorpay_settings.capture_payment for dev1
2021-09-03 11:20:51,339 INFO scheduler Scheduled Job Complete: frappe.integrations.doctype.razorpay_settings.razorpay_settings.capture_payment for dev1
2021-09-03 11:20:51,423 INFO scheduler Scheduled Job Start: frappe.email.doctype.email_account.email_account.notify_unreplied for dev1
2021-09-03 11:20:51,758 INFO scheduler Scheduled Job Complete: frappe.email.doctype.email_account.email_account.notify_unreplied for dev1
2021-09-03 11:20:51,886 INFO scheduler Scheduled Job Start: frappe.email.doctype.email_account.email_account.pull for dev1
2021-09-03 11:20:52,253 INFO scheduler Scheduled Job Complete: frappe.email.doctype.email_account.email_account.pull for dev1
2021-09-03 11:20:52,353 INFO scheduler Scheduled Job Start: frappe.email.queue.flush for dev1
2021-09-03 11:20:52,668 INFO scheduler Scheduled Job Complete: frappe.email.queue.flush for dev1
2021-09-03 11:20:52,760 INFO scheduler Scheduled Job Start: frappe.monitor.flush for hr_management
2021-09-03 11:20:53,022 INFO scheduler Scheduled Job Complete: frappe.monitor.flush for hr_management
2021-09-03 11:20:53,108 INFO scheduler Scheduled Job Start: frappe.utils.global_search.sync_global_search for hr_management
2021-09-03 11:20:53,355 INFO scheduler Scheduled Job Complete: frappe.utils.global_search.sync_global_search for hr_management
2021-09-03 11:20:53,455 INFO scheduler Scheduled Job Start: frappe.integrations.doctype.razorpay_settings.razorpay_settings.capture_payment for hr_management
2021-09-03 11:20:53,830 INFO scheduler Scheduled Job Complete: frappe.integrations.doctype.razorpay_settings.razorpay_settings.capture_payment for hr_management
2021-09-03 11:20:53,923 INFO scheduler Scheduled Job Start: frappe.email.doctype.email_account.email_account.notify_unreplied for hr_management
2021-09-03 11:20:54,266 INFO scheduler Scheduled Job Complete: frappe.email.doctype.email_account.email_account.notify_unreplied for hr_management
2021-09-03 11:20:54,368 INFO scheduler Scheduled Job Start: frappe.email.doctype.email_account.email_account.pull for hr_management
2021-09-03 11:20:54,690 INFO scheduler Scheduled Job Complete: frappe.email.doctype.email_account.email_account.pull for hr_management
2021-09-03 11:20:54,787 INFO scheduler Scheduled Job Start: frappe.email.queue.flush for hr_management
2021-09-03 11:20:55,066 INFO scheduler Scheduled Job Complete: frappe.email.queue.flush for hr_management
2021-09-03 11:21:50,502 DEBUG scheduler Queued events for site dev1
2021-09-03 11:21:50,686 DEBUG scheduler Queued events for site hr_management
2021-09-03 11:22:50,896 DEBUG scheduler Queued events for site dev1
2021-09-03 11:22:51,020 DEBUG scheduler Queued events for site hr_management
2021-09-03 11:23:51,224 DEBUG scheduler Queued events for site dev1
2021-09-03 11:23:51,357 DEBUG scheduler Queued events for site hr_management
2021-09-03 11:24:51,610 DEBUG scheduler Queued events for site dev1
2021-09-03 11:24:51,657 INFO scheduler Scheduled Job Start: frappe.monitor.flush for dev1
2021-09-03 11:24:51,805 DEBUG scheduler Queued events for site hr_management
2021-09-03 11:24:51,975 INFO scheduler Scheduled Job Complete: frappe.monitor.flush for dev1
2021-09-03 11:24:52,063 INFO scheduler Scheduled Job Start: frappe.utils.global_search.sync_global_search for dev1
2021-09-03 11:24:52,346 INFO scheduler Scheduled Job Complete: frappe.utils.global_search.sync_global_search for dev1
2021-09-03 11:24:52,460 INFO scheduler Scheduled Job Start: frappe.integrations.doctype.razorpay_settings.razorpay_settings.capture_payment for dev1
2021-09-03 11:24:52,897 INFO scheduler Scheduled Job Complete: frappe.integrations.doctype.razorpay_settings.razorpay_settings.capture_payment for dev1
2021-09-03 11:24:52,998 INFO scheduler Scheduled Job Start: frappe.email.doctype.email_account.email_account.notify_unreplied for dev1
2021-09-03 11:24:53,400 INFO scheduler Scheduled Job Complete: frappe.email.doctype.email_account.email_account.notify_unreplied for dev1
2021-09-03 11:24:53,495 INFO scheduler Scheduled Job Start: frappe.email.doctype.email_account.email_account.pull for dev1
2021-09-03 11:24:53,830 INFO scheduler Scheduled Job Complete: frappe.email.doctype.email_account.email_account.pull for dev1
2021-09-03 11:24:53,945 INFO scheduler Scheduled Job Start: frappe.email.queue.flush for dev1
2021-09-03 11:24:54,297 INFO scheduler Scheduled Job Complete: frappe.email.queue.flush for dev1
2021-09-03 11:24:54,379 INFO scheduler Scheduled Job Start: frappe.monitor.flush for hr_management
2021-09-03 11:24:54,663 INFO scheduler Scheduled Job Complete: frappe.monitor.flush for hr_management
2021-09-03 11:24:54,755 INFO scheduler Scheduled Job Start: frappe.utils.global_search.sync_global_search for hr_management
2021-09-03 11:24:54,993 INFO scheduler Scheduled Job Complete: frappe.utils.global_search.sync_global_search for hr_management
2021-09-03 11:24:55,087 INFO scheduler Scheduled Job Start: frappe.integrations.doctype.razorpay_settings.razorpay_settings.capture_payment for hr_management
2021-09-03 11:24:55,487 INFO scheduler Scheduled Job Complete: frappe.integrations.doctype.razorpay_settings.razorpay_settings.capture_payment for hr_management
2021-09-03 11:24:55,581 INFO scheduler Scheduled Job Start: frappe.email.doctype.email_account.email_account.notify_unreplied for hr_management
2021-09-03 11:24:55,920 INFO scheduler Scheduled Job Complete: frappe.email.doctype.email_account.email_account.notify_unreplied for hr_management
2021-09-03 11:24:56,014 INFO scheduler Scheduled Job Start: frappe.email.doctype.email_account.email_account.pull for hr_management
2021-09-03 11:24:56,391 INFO scheduler Scheduled Job Complete: frappe.email.doctype.email_account.email_account.pull for hr_management
2021-09-03 11:24:56,495 INFO scheduler Scheduled Job Start: frappe.email.queue.flush for hr_management
2021-09-03 11:24:56,784 INFO scheduler Scheduled Job Complete: frappe.email.queue.flush for hr_management
2021-09-03 11:25:52,052 DEBUG scheduler Queued events for site dev1
2021-09-03 11:25:52,222 DEBUG scheduler Queued events for site hr_management
2021-09-03 11:26:52,434 DEBUG scheduler Queued events for site dev1
2021-09-03 11:26:52,579 DEBUG scheduler Queued events for site hr_management
2021-09-03 11:27:52,817 DEBUG scheduler Queued events for site dev1
2021-09-03 11:27:52,949 DEBUG scheduler Queued events for site hr_management
2021-09-03 11:28:53,185 DEBUG scheduler Queued events for site dev1
2021-09-03 11:28:53,221 INFO scheduler Scheduled Job Start: frappe.monitor.flush for dev1
2021-09-03 11:28:53,371 DEBUG scheduler Queued events for site hr_management
2021-09-03 11:28:53,516 INFO scheduler Scheduled Job Complete: frappe.monitor.flush for dev1
2021-09-03 11:28:53,612 INFO scheduler Scheduled Job Start: frappe.utils.global_search.sync_global_search for dev1
2021-09-03 11:28:53,875 INFO scheduler Scheduled Job Complete: frappe.utils.global_search.sync_global_search for dev1
2021-09-03 11:28:53,970 INFO scheduler Scheduled Job Start: frappe.integrations.doctype.razorpay_settings.razorpay_settings.capture_payment for dev1
2021-09-03 11:28:54,370 INFO scheduler Scheduled Job Complete: frappe.integrations.doctype.razorpay_settings.razorpay_settings.capture_payment for dev1
2021-09-03 11:28:54,488 INFO scheduler Scheduled Job Start: frappe.email.doctype.email_account.email_account.notify_unreplied for dev1
2021-09-03 11:28:54,818 INFO scheduler Scheduled Job Complete: frappe.email.doctype.email_account.email_account.notify_unreplied for dev1
2021-09-03 11:28:54,918 INFO scheduler Scheduled Job Start: frappe.email.doctype.email_account.email_account.pull for dev1
2021-09-03 11:28:55,339 INFO scheduler Scheduled Job Complete: frappe.email.doctype.email_account.email_account.pull for dev1
2021-09-03 11:28:55,442 INFO scheduler Scheduled Job Start: frappe.email.queue.flush for dev1
2021-09-03 11:28:55,708 INFO scheduler Scheduled Job Complete: frappe.email.queue.flush for dev1
2021-09-03 11:28:55,808 INFO scheduler Scheduled Job Start: frappe.monitor.flush for hr_management
2021-09-03 11:28:56,056 INFO scheduler Scheduled Job Complete: frappe.monitor.flush for hr_management
2021-09-03 11:28:56,163 INFO scheduler Scheduled Job Start: frappe.utils.global_search.sync_global_search for hr_management
2021-09-03 11:28:56,407 INFO scheduler Scheduled Job Complete: frappe.utils.global_search.sync_global_search for hr_management
2021-09-03 11:28:56,488 INFO scheduler Scheduled Job Start: frappe.integrations.doctype.razorpay_settings.razorpay_settings.capture_payment for hr_management
2021-09-03 11:28:56,867 INFO scheduler Scheduled Job Complete: frappe.integrations.doctype.razorpay_settings.razorpay_settings.capture_payment for hr_management
2021-09-03 11:28:56,962 INFO scheduler Scheduled Job Start: frappe.email.doctype.email_account.email_account.notify_unreplied for hr_management
2021-09-03 11:28:57,290 INFO scheduler Scheduled Job Complete: frappe.email.doctype.email_account.email_account.notify_unreplied for hr_management
2021-09-03 11:28:57,392 INFO scheduler Scheduled Job Start: frappe.email.doctype.email_account.email_account.pull for hr_management
2021-09-03 11:28:57,724 INFO scheduler Scheduled Job Complete: frappe.email.doctype.email_account.email_account.pull for hr_management
2021-09-03 11:28:57,818 INFO scheduler Scheduled Job Start: frappe.email.queue.flush for hr_management
2021-09-03 11:28:58,089 INFO scheduler Scheduled Job Complete: frappe.email.queue.flush for hr_management
2021-09-03 11:29:53,618 DEBUG scheduler Queued events for site dev1
2021-09-03 11:29:53,834 DEBUG scheduler Queued events for site hr_management
2021-09-03 11:30:54,066 DEBUG scheduler Queued events for site dev1
2021-09-03 11:30:54,135 INFO scheduler Scheduled Job Start: frappe.twofactor.delete_all_barcodes_for_users for dev1
2021-09-03 11:30:54,208 DEBUG scheduler Queued events for site hr_management
2021-09-03 11:30:54,566 INFO scheduler Scheduled Job Complete: frappe.twofactor.delete_all_barcodes_for_users for dev1
2021-09-03 11:30:54,676 INFO scheduler Scheduled Job Start: frappe.website.doctype.web_page.web_page.check_publish_status for dev1
2021-09-03 11:30:55,170 INFO scheduler Scheduled Job Complete: frappe.website.doctype.web_page.web_page.check_publish_status for dev1
2021-09-03 11:30:55,279 INFO scheduler Scheduled Job Start: frappe.oauth.delete_oauth2_data for dev1
2021-09-03 11:30:55,747 INFO scheduler Scheduled Job Complete: frappe.oauth.delete_oauth2_data for dev1
2021-09-03 11:30:55,844 INFO scheduler Scheduled Job Start: frappe.twofactor.delete_all_barcodes_for_users for hr_management
2021-09-03 11:30:56,320 INFO scheduler Scheduled Job Complete: frappe.twofactor.delete_all_barcodes_for_users for hr_management
2021-09-03 11:30:56,419 INFO scheduler Scheduled Job Start: frappe.website.doctype.web_page.web_page.check_publish_status for hr_management
2021-09-03 11:30:56,927 INFO scheduler Scheduled Job Complete: frappe.website.doctype.web_page.web_page.check_publish_status for hr_management
2021-09-03 11:30:57,044 INFO scheduler Scheduled Job Start: frappe.oauth.delete_oauth2_data for hr_management
2021-09-03 11:30:57,522 INFO scheduler Scheduled Job Complete: frappe.oauth.delete_oauth2_data for hr_management
2021-09-03 11:31:54,435 DEBUG scheduler Queued events for site dev1
2021-09-03 11:31:54,592 DEBUG scheduler Queued events for site hr_management
2021-09-03 11:32:54,805 DEBUG scheduler Queued events for site dev1
2021-09-03 11:32:54,847 INFO scheduler Scheduled Job Start: frappe.monitor.flush for dev1
2021-09-03 11:32:54,958 DEBUG scheduler Queued events for site hr_management
2021-09-03 11:32:55,112 INFO scheduler Scheduled Job Complete: frappe.monitor.flush for dev1
2021-09-03 11:32:55,191 INFO scheduler Scheduled Job Start: frappe.utils.global_search.sync_global_search for dev1
2021-09-03 11:32:55,442 INFO scheduler Scheduled Job Complete: frappe.utils.global_search.sync_global_search for dev1
2021-09-03 11:32:55,539 INFO scheduler Scheduled Job Start: frappe.integrations.doctype.razorpay_settings.razorpay_settings.capture_payment for dev1
2021-09-03 11:32:55,919 INFO scheduler Scheduled Job Complete: frappe.integrations.doctype.razorpay_settings.razorpay_settings.capture_payment for dev1
2021-09-03 11:32:56,021 INFO scheduler Scheduled Job Start: frappe.email.doctype.email_account.email_account.notify_unreplied for dev1
2021-09-03 11:32:56,362 INFO scheduler Scheduled Job Complete: frappe.email.doctype.email_account.email_account.notify_unreplied for dev1
2021-09-03 11:32:56,448 INFO scheduler Scheduled Job Start: frappe.email.doctype.email_account.email_account.pull for dev1
2021-09-03 11:32:56,803 INFO scheduler Scheduled Job Complete: frappe.email.doctype.email_account.email_account.pull for dev1
2021-09-03 11:32:56,905 INFO scheduler Scheduled Job Start: frappe.email.queue.flush for dev1
2021-09-03 11:32:57,200 INFO scheduler Scheduled Job Complete: frappe.email.queue.flush for dev1
2021-09-03 11:32:57,296 INFO scheduler Scheduled Job Start: frappe.monitor.flush for hr_management
2021-09-03 11:32:57,543 INFO scheduler Scheduled Job Complete: frappe.monitor.flush for hr_management
2021-09-03 11:32:57,638 INFO scheduler Scheduled Job Start: frappe.utils.global_search.sync_global_search for hr_management
2021-09-03 11:32:57,903 INFO scheduler Scheduled Job Complete: frappe.utils.global_search.sync_global_search for hr_management
2021-09-03 11:32:57,995 INFO scheduler Scheduled Job Start: frappe.integrations.doctype.razorpay_settings.razorpay_settings.capture_payment for hr_management
2021-09-03 11:32:58,390 INFO scheduler Scheduled Job Complete: frappe.integrations.doctype.razorpay_settings.razorpay_settings.capture_payment for hr_management
2021-09-03 11:32:58,487 INFO scheduler Scheduled Job Start: frappe.email.doctype.email_account.email_account.notify_unreplied for hr_management
2021-09-03 11:32:58,799 INFO scheduler Scheduled Job Complete: frappe.email.doctype.email_account.email_account.notify_unreplied for hr_management
2021-09-03 11:32:58,884 INFO scheduler Scheduled Job Start: frappe.email.doctype.email_account.email_account.pull for hr_management
2021-09-03 11:32:59,229 INFO scheduler Scheduled Job Complete: frappe.email.doctype.email_account.email_account.pull for hr_management
2021-09-03 11:32:59,320 INFO scheduler Scheduled Job Start: frappe.email.queue.flush for hr_management
2021-09-03 11:32:59,584 INFO scheduler Scheduled Job Complete: frappe.email.queue.flush for hr_management
2021-09-03 11:33:55,196 DEBUG scheduler Queued events for site dev1
2021-09-03 11:33:55,367 DEBUG scheduler Queued events for site hr_management
2021-09-03 11:34:55,577 DEBUG scheduler Queued events for site dev1
2021-09-03 11:34:55,691 DEBUG scheduler Queued events for site hr_management
2021-09-03 11:35:55,897 DEBUG scheduler Queued events for site dev1
2021-09-03 11:35:56,038 DEBUG scheduler Queued events for site hr_management
2021-09-03 11:36:56,260 DEBUG scheduler Queued events for site dev1
2021-09-03 11:36:56,295 INFO scheduler Scheduled Job Start: frappe.monitor.flush for dev1
2021-09-03 11:36:56,412 DEBUG scheduler Queued events for site hr_management
2021-09-03 11:36:56,552 INFO scheduler Scheduled Job Complete: frappe.monitor.flush for dev1
2021-09-03 11:36:56,661 INFO scheduler Scheduled Job Start: frappe.utils.global_search.sync_global_search for dev1
2021-09-03 11:36:56,916 INFO scheduler Scheduled Job Complete: frappe.utils.global_search.sync_global_search for dev1
2021-09-03 11:36:57,004 INFO scheduler Scheduled Job Start: frappe.integrations.doctype.razorpay_settings.razorpay_settings.capture_payment for dev1
2021-09-03 11:36:57,418 INFO scheduler Scheduled Job Complete: frappe.integrations.doctype.razorpay_settings.razorpay_settings.capture_payment for dev1
2021-09-03 11:36:57,507 INFO scheduler Scheduled Job Start: frappe.email.doctype.email_account.email_account.notify_unreplied for dev1
2021-09-03 11:36:57,820 INFO scheduler Scheduled Job Complete: frappe.email.doctype.email_account.email_account.notify_unreplied for dev1
2021-09-03 11:36:57,916 INFO scheduler Scheduled Job Start: frappe.email.doctype.email_account.email_account.pull for dev1
2021-09-03 11:36:58,252 INFO scheduler Scheduled Job Complete: frappe.email.doctype.email_account.email_account.pull for dev1
2021-09-03 11:36:58,357 INFO scheduler Scheduled Job Start: frappe.email.queue.flush for dev1
2021-09-03 11:36:58,644 INFO scheduler Scheduled Job Complete: frappe.email.queue.flush for dev1
2021-09-03 11:36:58,734 INFO scheduler Scheduled Job Start: frappe.monitor.flush for hr_management
2021-09-03 11:36:59,019 INFO scheduler Scheduled Job Complete: frappe.monitor.flush for hr_management
2021-09-03 11:36:59,115 INFO scheduler Scheduled Job Start: frappe.utils.global_search.sync_global_search for hr_management
2021-09-03 11:36:59,365 INFO scheduler Scheduled Job Complete: frappe.utils.global_search.sync_global_search for hr_management
2021-09-03 11:36:59,483 INFO scheduler Scheduled Job Start: frappe.integrations.doctype.razorpay_settings.razorpay_settings.capture_payment for hr_management
2021-09-03 11:37:56,656 DEBUG scheduler Queued events for site dev1
