2021-09-03 08:14:50,745 DEBUG scheduler Queued events for site dev1
2021-09-03 08:15:51,163 DEBUG scheduler Queued events for site dev1
2021-09-03 08:15:51,236 INFO scheduler Scheduled Job Start: frappe.twofactor.delete_all_barcodes_for_users for dev1
2021-09-03 08:15:51,690 INFO scheduler Scheduled Job Complete: frappe.twofactor.delete_all_barcodes_for_users for dev1
2021-09-03 08:15:51,796 INFO scheduler Scheduled Job Start: frappe.website.doctype.web_page.web_page.check_publish_status for dev1
2021-09-03 08:15:52,241 INFO scheduler Scheduled Job Complete: frappe.website.doctype.web_page.web_page.check_publish_status for dev1
2021-09-03 08:15:52,333 INFO scheduler Scheduled Job Start: frappe.oauth.delete_oauth2_data for dev1
2021-09-03 08:15:52,699 INFO scheduler Scheduled Job Complete: frappe.oauth.delete_oauth2_data for dev1
2021-09-03 08:15:52,813 INFO scheduler Scheduled Job Start: frappe.twofactor.delete_all_barcodes_for_users for hr_management
2021-09-03 08:15:53,233 INFO scheduler Scheduled Job Complete: frappe.twofactor.delete_all_barcodes_for_users for hr_management
2021-09-03 08:15:53,341 INFO scheduler Scheduled Job Start: frappe.website.doctype.web_page.web_page.check_publish_status for hr_management
2021-09-03 08:15:53,809 INFO scheduler Scheduled Job Complete: frappe.website.doctype.web_page.web_page.check_publish_status for hr_management
2021-09-03 08:15:53,904 INFO scheduler Scheduled Job Start: frappe.oauth.delete_oauth2_data for hr_management
2021-09-03 08:15:54,329 INFO scheduler Scheduled Job Complete: frappe.oauth.delete_oauth2_data for hr_management
2021-09-03 08:16:51,614 DEBUG scheduler Queued events for site dev1
2021-09-03 08:16:51,652 INFO scheduler Scheduled Job Start: frappe.monitor.flush for dev1
2021-09-03 08:16:51,950 INFO scheduler Scheduled Job Complete: frappe.monitor.flush for dev1
2021-09-03 08:16:52,037 INFO scheduler Scheduled Job Start: frappe.utils.global_search.sync_global_search for dev1
2021-09-03 08:16:52,296 INFO scheduler Scheduled Job Complete: frappe.utils.global_search.sync_global_search for dev1
2021-09-03 08:16:52,385 INFO scheduler Scheduled Job Start: frappe.integrations.doctype.razorpay_settings.razorpay_settings.capture_payment for dev1
2021-09-03 08:16:52,771 INFO scheduler Scheduled Job Complete: frappe.integrations.doctype.razorpay_settings.razorpay_settings.capture_payment for dev1
2021-09-03 08:16:52,860 INFO scheduler Scheduled Job Start: frappe.email.doctype.email_account.email_account.notify_unreplied for dev1
2021-09-03 08:16:53,217 INFO scheduler Scheduled Job Complete: frappe.email.doctype.email_account.email_account.notify_unreplied for dev1
2021-09-03 08:16:53,324 INFO scheduler Scheduled Job Start: frappe.email.doctype.email_account.email_account.pull for dev1
2021-09-03 08:16:53,669 INFO scheduler Scheduled Job Complete: frappe.email.doctype.email_account.email_account.pull for dev1
2021-09-03 08:16:53,760 INFO scheduler Scheduled Job Start: frappe.email.queue.flush for dev1
2021-09-03 08:16:54,029 INFO scheduler Scheduled Job Complete: frappe.email.queue.flush for dev1
2021-09-03 08:16:54,132 INFO scheduler Scheduled Job Start: frappe.monitor.flush for hr_management
2021-09-03 08:16:54,384 INFO scheduler Scheduled Job Complete: frappe.monitor.flush for hr_management
2021-09-03 08:16:54,477 INFO scheduler Scheduled Job Start: frappe.utils.global_search.sync_global_search for hr_management
2021-09-03 08:16:54,755 INFO scheduler Scheduled Job Complete: frappe.utils.global_search.sync_global_search for hr_management
2021-09-03 08:16:54,874 INFO scheduler Scheduled Job Start: frappe.integrations.doctype.razorpay_settings.razorpay_settings.capture_payment for hr_management
2021-09-03 08:16:55,386 INFO scheduler Scheduled Job Complete: frappe.integrations.doctype.razorpay_settings.razorpay_settings.capture_payment for hr_management
2021-09-03 08:16:55,500 INFO scheduler Scheduled Job Start: frappe.email.doctype.email_account.email_account.notify_unreplied for hr_management
2021-09-03 08:16:55,847 INFO scheduler Scheduled Job Complete: frappe.email.doctype.email_account.email_account.notify_unreplied for hr_management
2021-09-03 08:16:55,971 INFO scheduler Scheduled Job Start: frappe.email.doctype.email_account.email_account.pull for hr_management
2021-09-03 08:16:56,410 INFO scheduler Scheduled Job Complete: frappe.email.doctype.email_account.email_account.pull for hr_management
2021-09-03 08:16:56,507 INFO scheduler Scheduled Job Start: frappe.email.queue.flush for hr_management
2021-09-03 08:16:56,796 INFO scheduler Scheduled Job Complete: frappe.email.queue.flush for hr_management
2021-09-03 08:17:52,082 DEBUG scheduler Queued events for site dev1
2021-09-03 08:18:52,531 DEBUG scheduler Queued events for site dev1
2021-09-03 08:19:52,941 DEBUG scheduler Queued events for site dev1
2021-09-03 08:20:53,329 DEBUG scheduler Queued events for site dev1
2021-09-03 08:20:53,368 INFO scheduler Scheduled Job Start: frappe.monitor.flush for dev1
2021-09-03 08:20:53,662 INFO scheduler Scheduled Job Complete: frappe.monitor.flush for dev1
2021-09-03 08:20:53,759 INFO scheduler Scheduled Job Start: frappe.utils.global_search.sync_global_search for dev1
2021-09-03 08:20:54,028 INFO scheduler Scheduled Job Complete: frappe.utils.global_search.sync_global_search for dev1
2021-09-03 08:20:54,120 INFO scheduler Scheduled Job Start: frappe.integrations.doctype.razorpay_settings.razorpay_settings.capture_payment for dev1
2021-09-03 08:20:54,519 INFO scheduler Scheduled Job Complete: frappe.integrations.doctype.razorpay_settings.razorpay_settings.capture_payment for dev1
2021-09-03 08:20:54,610 INFO scheduler Scheduled Job Start: frappe.email.doctype.email_account.email_account.notify_unreplied for dev1
2021-09-03 08:20:54,930 INFO scheduler Scheduled Job Complete: frappe.email.doctype.email_account.email_account.notify_unreplied for dev1
2021-09-03 08:20:55,026 INFO scheduler Scheduled Job Start: frappe.email.doctype.email_account.email_account.pull for dev1
2021-09-03 08:20:55,383 INFO scheduler Scheduled Job Complete: frappe.email.doctype.email_account.email_account.pull for dev1
2021-09-03 08:20:55,472 INFO scheduler Scheduled Job Start: frappe.email.queue.flush for dev1
2021-09-03 08:20:55,749 INFO scheduler Scheduled Job Complete: frappe.email.queue.flush for dev1
2021-09-03 08:20:55,854 INFO scheduler Scheduled Job Start: frappe.monitor.flush for hr_management
2021-09-03 08:20:56,115 INFO scheduler Scheduled Job Complete: frappe.monitor.flush for hr_management
2021-09-03 08:20:56,209 INFO scheduler Scheduled Job Start: frappe.utils.global_search.sync_global_search for hr_management
2021-09-03 08:20:56,470 INFO scheduler Scheduled Job Complete: frappe.utils.global_search.sync_global_search for hr_management
2021-09-03 08:20:56,564 INFO scheduler Scheduled Job Start: frappe.integrations.doctype.razorpay_settings.razorpay_settings.capture_payment for hr_management
2021-09-03 08:20:56,995 INFO scheduler Scheduled Job Complete: frappe.integrations.doctype.razorpay_settings.razorpay_settings.capture_payment for hr_management
2021-09-03 08:20:57,090 INFO scheduler Scheduled Job Start: frappe.email.doctype.email_account.email_account.notify_unreplied for hr_management
2021-09-03 08:20:57,420 INFO scheduler Scheduled Job Complete: frappe.email.doctype.email_account.email_account.notify_unreplied for hr_management
2021-09-03 08:20:57,515 INFO scheduler Scheduled Job Start: frappe.email.doctype.email_account.email_account.pull for hr_management
2021-09-03 08:20:57,861 INFO scheduler Scheduled Job Complete: frappe.email.doctype.email_account.email_account.pull for hr_management
2021-09-03 08:20:57,963 INFO scheduler Scheduled Job Start: frappe.email.queue.flush for hr_management
2021-09-03 08:20:58,247 INFO scheduler Scheduled Job Complete: frappe.email.queue.flush for hr_management
2021-09-03 08:21:53,787 DEBUG scheduler Queued events for site dev1
2021-09-03 08:22:54,242 DEBUG scheduler Queued events for site dev1
2021-09-03 08:23:54,674 DEBUG scheduler Queued events for site dev1
2021-09-03 08:24:55,080 DEBUG scheduler Queued events for site dev1
2021-09-03 08:24:55,132 INFO scheduler Scheduled Job Start: frappe.monitor.flush for dev1
2021-09-03 08:24:55,421 INFO scheduler Scheduled Job Complete: frappe.monitor.flush for dev1
2021-09-03 08:24:55,533 INFO scheduler Scheduled Job Start: frappe.utils.global_search.sync_global_search for dev1
2021-09-03 08:24:55,820 INFO scheduler Scheduled Job Complete: frappe.utils.global_search.sync_global_search for dev1
2021-09-03 08:24:55,929 INFO scheduler Scheduled Job Start: frappe.integrations.doctype.razorpay_settings.razorpay_settings.capture_payment for dev1
2021-09-03 08:24:56,347 INFO scheduler Scheduled Job Complete: frappe.integrations.doctype.razorpay_settings.razorpay_settings.capture_payment for dev1
2021-09-03 08:24:56,453 INFO scheduler Scheduled Job Start: frappe.email.doctype.email_account.email_account.notify_unreplied for dev1
2021-09-03 08:24:56,809 INFO scheduler Scheduled Job Complete: frappe.email.doctype.email_account.email_account.notify_unreplied for dev1
2021-09-03 08:24:56,924 INFO scheduler Scheduled Job Start: frappe.email.doctype.email_account.email_account.pull for dev1
2021-09-03 08:24:57,270 INFO scheduler Scheduled Job Complete: frappe.email.doctype.email_account.email_account.pull for dev1
2021-09-03 08:24:57,375 INFO scheduler Scheduled Job Start: frappe.email.queue.flush for dev1
2021-09-03 08:24:57,653 INFO scheduler Scheduled Job Complete: frappe.email.queue.flush for dev1
2021-09-03 08:24:57,754 INFO scheduler Scheduled Job Start: frappe.monitor.flush for hr_management
2021-09-03 08:24:58,038 INFO scheduler Scheduled Job Complete: frappe.monitor.flush for hr_management
2021-09-03 08:24:58,133 INFO scheduler Scheduled Job Start: frappe.utils.global_search.sync_global_search for hr_management
2021-09-03 08:24:58,424 INFO scheduler Scheduled Job Complete: frappe.utils.global_search.sync_global_search for hr_management
2021-09-03 08:24:58,507 INFO scheduler Scheduled Job Start: frappe.integrations.doctype.razorpay_settings.razorpay_settings.capture_payment for hr_management
2021-09-03 08:24:58,928 INFO scheduler Scheduled Job Complete: frappe.integrations.doctype.razorpay_settings.razorpay_settings.capture_payment for hr_management
2021-09-03 08:24:59,021 INFO scheduler Scheduled Job Start: frappe.email.doctype.email_account.email_account.notify_unreplied for hr_management
2021-09-03 08:24:59,381 INFO scheduler Scheduled Job Complete: frappe.email.doctype.email_account.email_account.notify_unreplied for hr_management
2021-09-03 08:24:59,504 INFO scheduler Scheduled Job Start: frappe.email.doctype.email_account.email_account.pull for hr_management
2021-09-03 08:25:00,030 INFO scheduler Scheduled Job Complete: frappe.email.doctype.email_account.email_account.pull for hr_management
2021-09-03 08:25:00,156 INFO scheduler Scheduled Job Start: frappe.email.queue.flush for hr_management
2021-09-03 08:25:00,465 INFO scheduler Scheduled Job Complete: frappe.email.queue.flush for hr_management
2021-09-03 08:25:55,587 DEBUG scheduler Queued events for site dev1
2021-09-03 08:26:56,018 DEBUG scheduler Queued events for site dev1
2021-09-03 08:27:56,422 DEBUG scheduler Queued events for site dev1
2021-09-03 08:28:56,938 DEBUG scheduler Queued events for site dev1
2021-09-03 08:28:56,993 INFO scheduler Scheduled Job Start: frappe.monitor.flush for dev1
2021-09-03 08:28:57,364 INFO scheduler Scheduled Job Complete: frappe.monitor.flush for dev1
2021-09-03 08:28:57,478 INFO scheduler Scheduled Job Start: frappe.utils.global_search.sync_global_search for dev1
2021-09-03 08:28:57,861 INFO scheduler Scheduled Job Complete: frappe.utils.global_search.sync_global_search for dev1
2021-09-03 08:28:58,003 INFO scheduler Scheduled Job Start: frappe.integrations.doctype.razorpay_settings.razorpay_settings.capture_payment for dev1
2021-09-03 08:28:58,540 INFO scheduler Scheduled Job Complete: frappe.integrations.doctype.razorpay_settings.razorpay_settings.capture_payment for dev1
2021-09-03 08:28:58,666 INFO scheduler Scheduled Job Start: frappe.email.doctype.email_account.email_account.notify_unreplied for dev1
2021-09-03 08:28:59,079 INFO scheduler Scheduled Job Complete: frappe.email.doctype.email_account.email_account.notify_unreplied for dev1
2021-09-03 08:28:59,195 INFO scheduler Scheduled Job Start: frappe.email.doctype.email_account.email_account.pull for dev1
2021-09-03 08:28:59,585 INFO scheduler Scheduled Job Complete: frappe.email.doctype.email_account.email_account.pull for dev1
2021-09-03 08:28:59,692 INFO scheduler Scheduled Job Start: frappe.email.queue.flush for dev1
2021-09-03 08:28:59,999 INFO scheduler Scheduled Job Complete: frappe.email.queue.flush for dev1
2021-09-03 08:29:00,109 INFO scheduler Scheduled Job Start: frappe.monitor.flush for hr_management
2021-09-03 08:29:00,384 INFO scheduler Scheduled Job Complete: frappe.monitor.flush for hr_management
2021-09-03 08:29:00,498 INFO scheduler Scheduled Job Start: frappe.utils.global_search.sync_global_search for hr_management
2021-09-03 08:29:00,811 INFO scheduler Scheduled Job Complete: frappe.utils.global_search.sync_global_search for hr_management
2021-09-03 08:29:00,927 INFO scheduler Scheduled Job Start: frappe.integrations.doctype.razorpay_settings.razorpay_settings.capture_payment for hr_management
2021-09-03 08:29:01,396 INFO scheduler Scheduled Job Complete: frappe.integrations.doctype.razorpay_settings.razorpay_settings.capture_payment for hr_management
2021-09-03 08:29:01,510 INFO scheduler Scheduled Job Start: frappe.email.doctype.email_account.email_account.notify_unreplied for hr_management
2021-09-03 08:29:01,912 INFO scheduler Scheduled Job Complete: frappe.email.doctype.email_account.email_account.notify_unreplied for hr_management
2021-09-03 08:29:02,000 INFO scheduler Scheduled Job Start: frappe.email.doctype.email_account.email_account.pull for hr_management
2021-09-03 08:29:02,441 INFO scheduler Scheduled Job Complete: frappe.email.doctype.email_account.email_account.pull for hr_management
2021-09-03 08:29:02,564 INFO scheduler Scheduled Job Start: frappe.email.queue.flush for hr_management
2021-09-03 08:29:02,896 INFO scheduler Scheduled Job Complete: frappe.email.queue.flush for hr_management
2021-09-03 08:29:57,462 DEBUG scheduler Queued events for site dev1
2021-09-03 08:30:57,884 DEBUG scheduler Queued events for site dev1
2021-09-03 08:30:57,959 INFO scheduler Scheduled Job Start: frappe.twofactor.delete_all_barcodes_for_users for dev1
2021-09-03 08:30:58,343 INFO scheduler Scheduled Job Complete: frappe.twofactor.delete_all_barcodes_for_users for dev1
2021-09-03 08:30:58,454 INFO scheduler Scheduled Job Start: frappe.website.doctype.web_page.web_page.check_publish_status for dev1
2021-09-03 08:30:58,935 INFO scheduler Scheduled Job Complete: frappe.website.doctype.web_page.web_page.check_publish_status for dev1
2021-09-03 08:30:59,031 INFO scheduler Scheduled Job Start: frappe.oauth.delete_oauth2_data for dev1
2021-09-03 08:30:59,432 INFO scheduler Scheduled Job Complete: frappe.oauth.delete_oauth2_data for dev1
2021-09-03 08:30:59,535 INFO scheduler Scheduled Job Start: frappe.twofactor.delete_all_barcodes_for_users for hr_management
2021-09-03 08:30:59,943 INFO scheduler Scheduled Job Complete: frappe.twofactor.delete_all_barcodes_for_users for hr_management
2021-09-03 08:31:00,039 INFO scheduler Scheduled Job Start: frappe.website.doctype.web_page.web_page.check_publish_status for hr_management
2021-09-03 08:31:00,512 INFO scheduler Scheduled Job Complete: frappe.website.doctype.web_page.web_page.check_publish_status for hr_management
2021-09-03 08:31:00,615 INFO scheduler Scheduled Job Start: frappe.oauth.delete_oauth2_data for hr_management
2021-09-03 08:31:01,006 INFO scheduler Scheduled Job Complete: frappe.oauth.delete_oauth2_data for hr_management
2021-09-03 08:31:58,292 DEBUG scheduler Queued events for site dev1
2021-09-03 08:32:58,700 DEBUG scheduler Queued events for site dev1
2021-09-03 08:32:58,740 INFO scheduler Scheduled Job Start: frappe.monitor.flush for dev1
2021-09-03 08:32:59,072 INFO scheduler Scheduled Job Complete: frappe.monitor.flush for dev1
2021-09-03 08:32:59,173 INFO scheduler Scheduled Job Start: frappe.utils.global_search.sync_global_search for dev1
2021-09-03 08:32:59,442 INFO scheduler Scheduled Job Complete: frappe.utils.global_search.sync_global_search for dev1
2021-09-03 08:32:59,546 INFO scheduler Scheduled Job Start: frappe.integrations.doctype.razorpay_settings.razorpay_settings.capture_payment for dev1
2021-09-03 08:32:59,940 INFO scheduler Scheduled Job Complete: frappe.integrations.doctype.razorpay_settings.razorpay_settings.capture_payment for dev1
2021-09-03 08:33:00,048 INFO scheduler Scheduled Job Start: frappe.email.doctype.email_account.email_account.notify_unreplied for dev1
2021-09-03 08:33:00,397 INFO scheduler Scheduled Job Complete: frappe.email.doctype.email_account.email_account.notify_unreplied for dev1
2021-09-03 08:33:00,497 INFO scheduler Scheduled Job Start: frappe.email.doctype.email_account.email_account.pull for dev1
2021-09-03 08:33:00,862 INFO scheduler Scheduled Job Complete: frappe.email.doctype.email_account.email_account.pull for dev1
2021-09-03 08:33:00,968 INFO scheduler Scheduled Job Start: frappe.email.queue.flush for dev1
2021-09-03 08:33:01,232 INFO scheduler Scheduled Job Complete: frappe.email.queue.flush for dev1
2021-09-03 08:33:01,338 INFO scheduler Scheduled Job Start: frappe.monitor.flush for hr_management
2021-09-03 08:33:01,621 INFO scheduler Scheduled Job Complete: frappe.monitor.flush for hr_management
2021-09-03 08:33:01,716 INFO scheduler Scheduled Job Start: frappe.utils.global_search.sync_global_search for hr_management
2021-09-03 08:33:01,981 INFO scheduler Scheduled Job Complete: frappe.utils.global_search.sync_global_search for hr_management
2021-09-03 08:33:02,069 INFO scheduler Scheduled Job Start: frappe.integrations.doctype.razorpay_settings.razorpay_settings.capture_payment for hr_management
2021-09-03 08:33:02,445 INFO scheduler Scheduled Job Complete: frappe.integrations.doctype.razorpay_settings.razorpay_settings.capture_payment for hr_management
2021-09-03 08:33:02,547 INFO scheduler Scheduled Job Start: frappe.email.doctype.email_account.email_account.notify_unreplied for hr_management
2021-09-03 08:33:02,918 INFO scheduler Scheduled Job Complete: frappe.email.doctype.email_account.email_account.notify_unreplied for hr_management
2021-09-03 08:33:03,008 INFO scheduler Scheduled Job Start: frappe.email.doctype.email_account.email_account.pull for hr_management
2021-09-03 08:33:03,336 INFO scheduler Scheduled Job Complete: frappe.email.doctype.email_account.email_account.pull for hr_management
2021-09-03 08:33:03,448 INFO scheduler Scheduled Job Start: frappe.email.queue.flush for hr_management
2021-09-03 08:33:03,711 INFO scheduler Scheduled Job Complete: frappe.email.queue.flush for hr_management
2021-09-03 08:33:59,183 DEBUG scheduler Queued events for site dev1
2021-09-03 08:34:59,635 DEBUG scheduler Queued events for site dev1
2021-09-03 08:36:00,178 DEBUG scheduler Queued events for site dev1
2021-09-03 08:36:00,233 INFO scheduler Scheduled Job Start: frappe.monitor.flush for dev1
2021-09-03 08:36:00,629 INFO scheduler Scheduled Job Complete: frappe.monitor.flush for dev1
2021-09-03 08:36:00,745 INFO scheduler Scheduled Job Start: frappe.utils.global_search.sync_global_search for dev1
2021-09-03 08:36:01,113 INFO scheduler Scheduled Job Complete: frappe.utils.global_search.sync_global_search for dev1
2021-09-03 08:36:01,225 INFO scheduler Scheduled Job Start: frappe.integrations.doctype.razorpay_settings.razorpay_settings.capture_payment for dev1
2021-09-03 08:36:01,803 INFO scheduler Scheduled Job Complete: frappe.integrations.doctype.razorpay_settings.razorpay_settings.capture_payment for dev1
2021-09-03 08:36:01,921 INFO scheduler Scheduled Job Start: frappe.email.doctype.email_account.email_account.notify_unreplied for dev1
2021-09-03 08:36:02,389 INFO scheduler Scheduled Job Complete: frappe.email.doctype.email_account.email_account.notify_unreplied for dev1
2021-09-03 08:36:02,507 INFO scheduler Scheduled Job Start: frappe.email.doctype.email_account.email_account.pull for dev1
2021-09-03 08:36:03,000 INFO scheduler Scheduled Job Complete: frappe.email.doctype.email_account.email_account.pull for dev1
2021-09-03 08:36:03,119 INFO scheduler Scheduled Job Start: frappe.email.queue.flush for dev1
2021-09-03 08:36:03,509 INFO scheduler Scheduled Job Complete: frappe.email.queue.flush for dev1
2021-09-03 08:36:03,625 INFO scheduler Scheduled Job Start: frappe.monitor.flush for hr_management
2021-09-03 08:36:03,988 INFO scheduler Scheduled Job Complete: frappe.monitor.flush for hr_management
2021-09-03 08:36:04,104 INFO scheduler Scheduled Job Start: frappe.utils.global_search.sync_global_search for hr_management
2021-09-03 08:36:04,464 INFO scheduler Scheduled Job Complete: frappe.utils.global_search.sync_global_search for hr_management
2021-09-03 08:36:04,580 INFO scheduler Scheduled Job Start: frappe.integrations.doctype.razorpay_settings.razorpay_settings.capture_payment for hr_management
2021-09-03 08:36:05,161 INFO scheduler Scheduled Job Complete: frappe.integrations.doctype.razorpay_settings.razorpay_settings.capture_payment for hr_management
2021-09-03 08:36:05,273 INFO scheduler Scheduled Job Start: frappe.email.doctype.email_account.email_account.notify_unreplied for hr_management
2021-09-03 08:36:05,739 INFO scheduler Scheduled Job Complete: frappe.email.doctype.email_account.email_account.notify_unreplied for hr_management
2021-09-03 08:36:05,859 INFO scheduler Scheduled Job Start: frappe.email.doctype.email_account.email_account.pull for hr_management
2021-09-03 08:36:06,341 INFO scheduler Scheduled Job Complete: frappe.email.doctype.email_account.email_account.pull for hr_management
2021-09-03 08:36:06,456 INFO scheduler Scheduled Job Start: frappe.email.queue.flush for hr_management
2021-09-03 08:36:06,839 INFO scheduler Scheduled Job Complete: frappe.email.queue.flush for hr_management
2021-09-03 08:37:00,756 DEBUG scheduler Queued events for site dev1
2021-09-03 08:38:01,482 DEBUG scheduler Queued events for site dev1
2021-09-03 08:39:01,969 DEBUG scheduler Queued events for site dev1
2021-09-03 08:40:02,490 DEBUG scheduler Queued events for site dev1
2021-09-03 08:40:02,546 INFO scheduler Scheduled Job Start: frappe.monitor.flush for dev1
2021-09-03 08:40:03,117 INFO scheduler Scheduled Job Complete: frappe.monitor.flush for dev1
2021-09-03 08:40:03,240 INFO scheduler Scheduled Job Start: frappe.utils.global_search.sync_global_search for dev1
2021-09-03 08:40:03,618 INFO scheduler Scheduled Job Complete: frappe.utils.global_search.sync_global_search for dev1
2021-09-03 08:40:03,736 INFO scheduler Scheduled Job Start: frappe.integrations.doctype.razorpay_settings.razorpay_settings.capture_payment for dev1
2021-09-03 08:40:04,463 INFO scheduler Scheduled Job Complete: frappe.integrations.doctype.razorpay_settings.razorpay_settings.capture_payment for dev1
2021-09-03 08:40:04,581 INFO scheduler Scheduled Job Start: frappe.email.doctype.email_account.email_account.notify_unreplied for dev1
2021-09-03 08:40:05,201 INFO scheduler Scheduled Job Complete: frappe.email.doctype.email_account.email_account.notify_unreplied for dev1
2021-09-03 08:40:05,320 INFO scheduler Scheduled Job Start: frappe.email.doctype.email_account.email_account.pull for dev1
2021-09-03 08:40:05,807 INFO scheduler Scheduled Job Complete: frappe.email.doctype.email_account.email_account.pull for dev1
2021-09-03 08:40:05,928 INFO scheduler Scheduled Job Start: frappe.email.queue.flush for dev1
2021-09-03 08:40:06,324 INFO scheduler Scheduled Job Complete: frappe.email.queue.flush for dev1
2021-09-03 08:40:06,439 INFO scheduler Scheduled Job Start: frappe.monitor.flush for hr_management
2021-09-03 08:40:06,821 INFO scheduler Scheduled Job Complete: frappe.monitor.flush for hr_management
2021-09-03 08:40:06,943 INFO scheduler Scheduled Job Start: frappe.utils.global_search.sync_global_search for hr_management
2021-09-03 08:40:07,311 INFO scheduler Scheduled Job Complete: frappe.utils.global_search.sync_global_search for hr_management
2021-09-03 08:40:07,426 INFO scheduler Scheduled Job Start: frappe.integrations.doctype.razorpay_settings.razorpay_settings.capture_payment for hr_management
2021-09-03 08:40:08,000 INFO scheduler Scheduled Job Complete: frappe.integrations.doctype.razorpay_settings.razorpay_settings.capture_payment for hr_management
2021-09-03 08:40:08,116 INFO scheduler Scheduled Job Start: frappe.email.doctype.email_account.email_account.notify_unreplied for hr_management
2021-09-03 08:40:08,584 INFO scheduler Scheduled Job Complete: frappe.email.doctype.email_account.email_account.notify_unreplied for hr_management
2021-09-03 08:40:08,700 INFO scheduler Scheduled Job Start: frappe.email.doctype.email_account.email_account.pull for hr_management
2021-09-03 08:40:09,185 INFO scheduler Scheduled Job Complete: frappe.email.doctype.email_account.email_account.pull for hr_management
2021-09-03 08:40:09,305 INFO scheduler Scheduled Job Start: frappe.email.queue.flush for hr_management
2021-09-03 08:40:09,689 INFO scheduler Scheduled Job Complete: frappe.email.queue.flush for hr_management
2021-09-03 08:41:03,062 DEBUG scheduler Queued events for site dev1
2021-09-03 08:42:03,558 DEBUG scheduler Queued events for site dev1
2021-09-03 08:43:04,048 DEBUG scheduler Queued events for site dev1
2021-09-03 08:44:04,582 DEBUG scheduler Queued events for site dev1
2021-09-03 08:44:04,624 INFO scheduler Scheduled Job Start: frappe.monitor.flush for dev1
2021-09-03 08:44:05,025 INFO scheduler Scheduled Job Complete: frappe.monitor.flush for dev1
2021-09-03 08:44:05,141 INFO scheduler Scheduled Job Start: frappe.utils.global_search.sync_global_search for dev1
2021-09-03 08:44:05,519 INFO scheduler Scheduled Job Complete: frappe.utils.global_search.sync_global_search for dev1
2021-09-03 08:44:05,630 INFO scheduler Scheduled Job Start: frappe.integrations.doctype.razorpay_settings.razorpay_settings.capture_payment for dev1
2021-09-03 08:44:06,206 INFO scheduler Scheduled Job Complete: frappe.integrations.doctype.razorpay_settings.razorpay_settings.capture_payment for dev1
2021-09-03 08:44:06,324 INFO scheduler Scheduled Job Start: frappe.email.doctype.email_account.email_account.notify_unreplied for dev1
2021-09-03 08:44:06,776 INFO scheduler Scheduled Job Complete: frappe.email.doctype.email_account.email_account.notify_unreplied for dev1
2021-09-03 08:44:06,891 INFO scheduler Scheduled Job Start: frappe.email.doctype.email_account.email_account.pull for dev1
2021-09-03 08:44:07,384 INFO scheduler Scheduled Job Complete: frappe.email.doctype.email_account.email_account.pull for dev1
2021-09-03 08:44:07,503 INFO scheduler Scheduled Job Start: frappe.email.queue.flush for dev1
2021-09-03 08:44:07,894 INFO scheduler Scheduled Job Complete: frappe.email.queue.flush for dev1
2021-09-03 08:44:08,005 INFO scheduler Scheduled Job Start: frappe.monitor.flush for hr_management
2021-09-03 08:44:08,368 INFO scheduler Scheduled Job Complete: frappe.monitor.flush for hr_management
2021-09-03 08:44:08,485 INFO scheduler Scheduled Job Start: frappe.utils.global_search.sync_global_search for hr_management
2021-09-03 08:44:08,852 INFO scheduler Scheduled Job Complete: frappe.utils.global_search.sync_global_search for hr_management
2021-09-03 08:44:08,970 INFO scheduler Scheduled Job Start: frappe.integrations.doctype.razorpay_settings.razorpay_settings.capture_payment for hr_management
2021-09-03 08:44:09,540 INFO scheduler Scheduled Job Complete: frappe.integrations.doctype.razorpay_settings.razorpay_settings.capture_payment for hr_management
2021-09-03 08:44:09,658 INFO scheduler Scheduled Job Start: frappe.email.doctype.email_account.email_account.notify_unreplied for hr_management
2021-09-03 08:44:10,122 INFO scheduler Scheduled Job Complete: frappe.email.doctype.email_account.email_account.notify_unreplied for hr_management
2021-09-03 08:44:10,237 INFO scheduler Scheduled Job Start: frappe.email.doctype.email_account.email_account.pull for hr_management
2021-09-03 08:44:10,706 INFO scheduler Scheduled Job Complete: frappe.email.doctype.email_account.email_account.pull for hr_management
2021-09-03 08:44:10,815 INFO scheduler Scheduled Job Start: frappe.email.queue.flush for hr_management
2021-09-03 08:44:11,219 INFO scheduler Scheduled Job Complete: frappe.email.queue.flush for hr_management
2021-09-03 08:45:05,183 DEBUG scheduler Queued events for site dev1
2021-09-03 08:45:05,277 INFO scheduler Scheduled Job Start: frappe.twofactor.delete_all_barcodes_for_users for dev1
2021-09-03 08:45:06,053 INFO scheduler Scheduled Job Complete: frappe.twofactor.delete_all_barcodes_for_users for dev1
2021-09-03 08:45:06,180 INFO scheduler Scheduled Job Start: frappe.website.doctype.web_page.web_page.check_publish_status for dev1
2021-09-03 08:45:06,846 INFO scheduler Scheduled Job Complete: frappe.website.doctype.web_page.web_page.check_publish_status for dev1
2021-09-03 08:45:06,968 INFO scheduler Scheduled Job Start: frappe.oauth.delete_oauth2_data for dev1
2021-09-03 08:45:07,639 INFO scheduler Scheduled Job Complete: frappe.oauth.delete_oauth2_data for dev1
2021-09-03 08:45:07,768 INFO scheduler Scheduled Job Start: frappe.twofactor.delete_all_barcodes_for_users for hr_management
2021-09-03 08:45:08,360 INFO scheduler Scheduled Job Complete: frappe.twofactor.delete_all_barcodes_for_users for hr_management
2021-09-03 08:45:08,494 INFO scheduler Scheduled Job Start: frappe.website.doctype.web_page.web_page.check_publish_status for hr_management
2021-09-03 08:45:09,154 INFO scheduler Scheduled Job Complete: frappe.website.doctype.web_page.web_page.check_publish_status for hr_management
2021-09-03 08:45:09,277 INFO scheduler Scheduled Job Start: frappe.oauth.delete_oauth2_data for hr_management
2021-09-03 08:45:09,864 INFO scheduler Scheduled Job Complete: frappe.oauth.delete_oauth2_data for hr_management
2021-09-03 08:46:05,729 DEBUG scheduler Queued events for site dev1
2021-09-03 08:47:06,142 DEBUG scheduler Queued events for site dev1
2021-09-03 08:48:06,563 DEBUG scheduler Queued events for site dev1
2021-09-03 08:48:06,602 INFO scheduler Scheduled Job Start: frappe.monitor.flush for dev1
2021-09-03 08:48:06,895 INFO scheduler Scheduled Job Complete: frappe.monitor.flush for dev1
2021-09-03 08:48:06,982 INFO scheduler Scheduled Job Start: frappe.utils.global_search.sync_global_search for dev1
2021-09-03 08:48:07,239 INFO scheduler Scheduled Job Complete: frappe.utils.global_search.sync_global_search for dev1
2021-09-03 08:48:07,357 INFO scheduler Scheduled Job Start: frappe.integrations.doctype.razorpay_settings.razorpay_settings.capture_payment for dev1
2021-09-03 08:48:07,760 INFO scheduler Scheduled Job Complete: frappe.integrations.doctype.razorpay_settings.razorpay_settings.capture_payment for dev1
2021-09-03 08:48:07,856 INFO scheduler Scheduled Job Start: frappe.email.doctype.email_account.email_account.notify_unreplied for dev1
2021-09-03 08:48:08,191 INFO scheduler Scheduled Job Complete: frappe.email.doctype.email_account.email_account.notify_unreplied for dev1
2021-09-03 08:48:08,286 INFO scheduler Scheduled Job Start: frappe.email.doctype.email_account.email_account.pull for dev1
2021-09-03 08:48:08,667 INFO scheduler Scheduled Job Complete: frappe.email.doctype.email_account.email_account.pull for dev1
2021-09-03 08:48:08,764 INFO scheduler Scheduled Job Start: frappe.email.queue.flush for dev1
2021-09-03 08:48:09,032 INFO scheduler Scheduled Job Complete: frappe.email.queue.flush for dev1
2021-09-03 08:48:09,124 INFO scheduler Scheduled Job Start: frappe.monitor.flush for hr_management
2021-09-03 08:48:09,363 INFO scheduler Scheduled Job Complete: frappe.monitor.flush for hr_management
2021-09-03 08:48:09,473 INFO scheduler Scheduled Job Start: frappe.utils.global_search.sync_global_search for hr_management
2021-09-03 08:48:09,724 INFO scheduler Scheduled Job Complete: frappe.utils.global_search.sync_global_search for hr_management
2021-09-03 08:48:09,810 INFO scheduler Scheduled Job Start: frappe.integrations.doctype.razorpay_settings.razorpay_settings.capture_payment for hr_management
2021-09-03 08:48:10,235 INFO scheduler Scheduled Job Complete: frappe.integrations.doctype.razorpay_settings.razorpay_settings.capture_payment for hr_management
2021-09-03 08:48:10,336 INFO scheduler Scheduled Job Start: frappe.email.doctype.email_account.email_account.notify_unreplied for hr_management
2021-09-03 08:48:10,689 INFO scheduler Scheduled Job Complete: frappe.email.doctype.email_account.email_account.notify_unreplied for hr_management
2021-09-03 08:48:10,791 INFO scheduler Scheduled Job Start: frappe.email.doctype.email_account.email_account.pull for hr_management
2021-09-03 08:48:11,170 INFO scheduler Scheduled Job Complete: frappe.email.doctype.email_account.email_account.pull for hr_management
2021-09-03 08:48:11,275 INFO scheduler Scheduled Job Start: frappe.email.queue.flush for hr_management
2021-09-03 08:48:11,577 INFO scheduler Scheduled Job Complete: frappe.email.queue.flush for hr_management
2021-09-03 08:49:07,025 DEBUG scheduler Queued events for site dev1
2021-09-03 08:50:07,636 DEBUG scheduler Queued events for site dev1
2021-09-03 08:51:08,040 DEBUG scheduler Queued events for site dev1
2021-09-03 08:52:08,450 DEBUG scheduler Queued events for site dev1
2021-09-03 08:52:08,517 INFO scheduler Scheduled Job Start: frappe.monitor.flush for dev1
2021-09-03 08:52:08,946 INFO scheduler Scheduled Job Complete: frappe.monitor.flush for dev1
2021-09-03 08:52:09,045 INFO scheduler Scheduled Job Start: frappe.utils.global_search.sync_global_search for dev1
2021-09-03 08:52:09,311 INFO scheduler Scheduled Job Complete: frappe.utils.global_search.sync_global_search for dev1
2021-09-03 08:52:09,404 INFO scheduler Scheduled Job Start: frappe.integrations.doctype.razorpay_settings.razorpay_settings.capture_payment for dev1
2021-09-03 08:52:09,889 INFO scheduler Scheduled Job Complete: frappe.integrations.doctype.razorpay_settings.razorpay_settings.capture_payment for dev1
2021-09-03 08:52:09,994 INFO scheduler Scheduled Job Start: frappe.email.doctype.email_account.email_account.notify_unreplied for dev1
2021-09-03 08:52:10,427 INFO scheduler Scheduled Job Complete: frappe.email.doctype.email_account.email_account.notify_unreplied for dev1
2021-09-03 08:52:10,511 INFO scheduler Scheduled Job Start: frappe.email.doctype.email_account.email_account.pull for dev1
2021-09-03 08:52:10,835 INFO scheduler Scheduled Job Complete: frappe.email.doctype.email_account.email_account.pull for dev1
2021-09-03 08:52:10,938 INFO scheduler Scheduled Job Start: frappe.email.queue.flush for dev1
2021-09-03 08:52:11,248 INFO scheduler Scheduled Job Complete: frappe.email.queue.flush for dev1
2021-09-03 08:52:11,347 INFO scheduler Scheduled Job Start: frappe.monitor.flush for hr_management
2021-09-03 08:52:11,677 INFO scheduler Scheduled Job Complete: frappe.monitor.flush for hr_management
2021-09-03 08:52:11,800 INFO scheduler Scheduled Job Start: frappe.utils.global_search.sync_global_search for hr_management
2021-09-03 08:52:12,182 INFO scheduler Scheduled Job Complete: frappe.utils.global_search.sync_global_search for hr_management
2021-09-03 08:52:12,303 INFO scheduler Scheduled Job Start: frappe.integrations.doctype.razorpay_settings.razorpay_settings.capture_payment for hr_management
2021-09-03 08:52:12,719 INFO scheduler Scheduled Job Complete: frappe.integrations.doctype.razorpay_settings.razorpay_settings.capture_payment for hr_management
2021-09-03 08:52:12,818 INFO scheduler Scheduled Job Start: frappe.email.doctype.email_account.email_account.notify_unreplied for hr_management
2021-09-03 08:52:13,157 INFO scheduler Scheduled Job Complete: frappe.email.doctype.email_account.email_account.notify_unreplied for hr_management
2021-09-03 08:52:13,262 INFO scheduler Scheduled Job Start: frappe.email.doctype.email_account.email_account.pull for hr_management
2021-09-03 08:52:13,621 INFO scheduler Scheduled Job Complete: frappe.email.doctype.email_account.email_account.pull for hr_management
2021-09-03 08:52:13,712 INFO scheduler Scheduled Job Start: frappe.email.queue.flush for hr_management
2021-09-03 08:52:14,036 INFO scheduler Scheduled Job Complete: frappe.email.queue.flush for hr_management
2021-09-03 08:53:08,943 DEBUG scheduler Queued events for site dev1
2021-09-03 08:54:09,332 DEBUG scheduler Queued events for site dev1
2021-09-03 08:55:09,733 DEBUG scheduler Queued events for site dev1
2021-09-03 08:56:10,184 DEBUG scheduler Queued events for site dev1
2021-09-03 08:56:10,217 INFO scheduler Scheduled Job Start: frappe.monitor.flush for dev1
2021-09-03 08:56:10,485 INFO scheduler Scheduled Job Complete: frappe.monitor.flush for dev1
2021-09-03 08:56:10,587 INFO scheduler Scheduled Job Start: frappe.utils.global_search.sync_global_search for dev1
2021-09-03 08:56:10,882 INFO scheduler Scheduled Job Complete: frappe.utils.global_search.sync_global_search for dev1
2021-09-03 08:56:10,996 INFO scheduler Scheduled Job Start: frappe.integrations.doctype.razorpay_settings.razorpay_settings.capture_payment for dev1
2021-09-03 08:56:11,489 INFO scheduler Scheduled Job Complete: frappe.integrations.doctype.razorpay_settings.razorpay_settings.capture_payment for dev1
2021-09-03 08:56:11,593 INFO scheduler Scheduled Job Start: frappe.email.doctype.email_account.email_account.notify_unreplied for dev1
2021-09-03 08:56:11,984 INFO scheduler Scheduled Job Complete: frappe.email.doctype.email_account.email_account.notify_unreplied for dev1
2021-09-03 08:56:12,074 INFO scheduler Scheduled Job Start: frappe.email.doctype.email_account.email_account.pull for dev1
2021-09-03 08:56:12,456 INFO scheduler Scheduled Job Complete: frappe.email.doctype.email_account.email_account.pull for dev1
2021-09-03 08:56:12,567 INFO scheduler Scheduled Job Start: frappe.email.queue.flush for dev1
2021-09-03 08:56:12,881 INFO scheduler Scheduled Job Complete: frappe.email.queue.flush for dev1
2021-09-03 08:56:12,984 INFO scheduler Scheduled Job Start: frappe.monitor.flush for hr_management
2021-09-03 08:56:13,268 INFO scheduler Scheduled Job Complete: frappe.monitor.flush for hr_management
2021-09-03 08:56:13,381 INFO scheduler Scheduled Job Start: frappe.utils.global_search.sync_global_search for hr_management
2021-09-03 08:56:13,668 INFO scheduler Scheduled Job Complete: frappe.utils.global_search.sync_global_search for hr_management
2021-09-03 08:56:13,777 INFO scheduler Scheduled Job Start: frappe.integrations.doctype.razorpay_settings.razorpay_settings.capture_payment for hr_management
2021-09-03 08:56:14,230 INFO scheduler Scheduled Job Complete: frappe.integrations.doctype.razorpay_settings.razorpay_settings.capture_payment for hr_management
2021-09-03 08:56:14,341 INFO scheduler Scheduled Job Start: frappe.email.doctype.email_account.email_account.notify_unreplied for hr_management
2021-09-03 08:56:14,713 INFO scheduler Scheduled Job Complete: frappe.email.doctype.email_account.email_account.notify_unreplied for hr_management
2021-09-03 08:56:14,819 INFO scheduler Scheduled Job Start: frappe.email.doctype.email_account.email_account.pull for hr_management
2021-09-03 08:56:15,179 INFO scheduler Scheduled Job Complete: frappe.email.doctype.email_account.email_account.pull for hr_management
2021-09-03 08:56:15,273 INFO scheduler Scheduled Job Start: frappe.email.queue.flush for hr_management
2021-09-03 08:56:15,593 INFO scheduler Scheduled Job Complete: frappe.email.queue.flush for hr_management
2021-09-03 08:57:10,605 DEBUG scheduler Queued events for site dev1
2021-09-03 08:58:11,011 DEBUG scheduler Queued events for site dev1
2021-09-03 08:59:11,384 DEBUG scheduler Queued events for site dev1
2021-09-03 09:00:11,782 INFO scheduler Scheduled Job Start: frappe.email.doctype.newsletter.newsletter.send_scheduled_email for dev1
2021-09-03 09:00:11,829 DEBUG scheduler Queued events for site dev1
2021-09-03 09:00:12,322 INFO scheduler Scheduled Job Complete: frappe.email.doctype.newsletter.newsletter.send_scheduled_email for dev1
2021-09-03 09:00:12,429 INFO scheduler Scheduled Job Start: frappe.integrations.doctype.google_calendar.google_calendar.sync for dev1
2021-09-03 09:00:13,021 INFO scheduler Scheduled Job Complete: frappe.integrations.doctype.google_calendar.google_calendar.sync for dev1
2021-09-03 09:00:13,127 INFO scheduler Scheduled Job Start: frappe.desk.form.document_follow.send_hourly_updates for dev1
2021-09-03 09:00:13,529 INFO scheduler Scheduled Job Complete: frappe.desk.form.document_follow.send_hourly_updates for dev1
2021-09-03 09:00:13,627 INFO scheduler Scheduled Job Start: frappe.deferred_insert.save_to_db for dev1
2021-09-03 09:00:14,195 INFO scheduler Scheduled Job Complete: frappe.deferred_insert.save_to_db for dev1
2021-09-03 09:00:14,297 INFO scheduler Scheduled Job Start: frappe.desk.page.backups.backups.delete_downloadable_backups for dev1
2021-09-03 09:00:14,675 INFO scheduler Scheduled Job Complete: frappe.desk.page.backups.backups.delete_downloadable_backups for dev1
2021-09-03 09:00:14,781 INFO scheduler Scheduled Job Start: frappe.utils.error.collect_error_snapshots for dev1
2021-09-03 09:00:15,154 INFO scheduler Scheduled Job Complete: frappe.utils.error.collect_error_snapshots for dev1
2021-09-03 09:00:15,266 INFO scheduler Scheduled Job Start: frappe.model.utils.user_settings.sync_user_settings for dev1
2021-09-03 09:00:15,652 INFO scheduler Scheduled Job Complete: frappe.model.utils.user_settings.sync_user_settings for dev1
2021-09-03 09:00:15,765 INFO scheduler Scheduled Job Start: frappe.model.utils.link_count.update_link_count for dev1
2021-09-03 09:00:16,121 INFO scheduler Scheduled Job Complete: frappe.model.utils.link_count.update_link_count for dev1
2021-09-03 09:00:16,214 INFO scheduler Scheduled Job Start: frappe.monitor.flush for dev1
2021-09-03 09:00:16,453 INFO scheduler Scheduled Job Complete: frappe.monitor.flush for dev1
2021-09-03 09:00:16,541 INFO scheduler Scheduled Job Start: frappe.utils.global_search.sync_global_search for dev1
2021-09-03 09:00:16,786 INFO scheduler Scheduled Job Complete: frappe.utils.global_search.sync_global_search for dev1
2021-09-03 09:00:16,884 INFO scheduler Scheduled Job Start: frappe.integrations.doctype.razorpay_settings.razorpay_settings.capture_payment for dev1
2021-09-03 09:00:17,260 INFO scheduler Scheduled Job Complete: frappe.integrations.doctype.razorpay_settings.razorpay_settings.capture_payment for dev1
2021-09-03 09:00:17,362 INFO scheduler Scheduled Job Start: frappe.email.doctype.email_account.email_account.notify_unreplied for dev1
2021-09-03 09:00:17,686 INFO scheduler Scheduled Job Complete: frappe.email.doctype.email_account.email_account.notify_unreplied for dev1
2021-09-03 09:00:17,775 INFO scheduler Scheduled Job Start: frappe.email.doctype.email_account.email_account.pull for dev1
2021-09-03 09:00:18,126 INFO scheduler Scheduled Job Complete: frappe.email.doctype.email_account.email_account.pull for dev1
2021-09-03 09:00:18,216 INFO scheduler Scheduled Job Start: frappe.email.queue.flush for dev1
2021-09-03 09:00:18,467 INFO scheduler Scheduled Job Complete: frappe.email.queue.flush for dev1
2021-09-03 09:00:18,570 INFO scheduler Scheduled Job Start: frappe.twofactor.delete_all_barcodes_for_users for dev1
2021-09-03 09:00:18,960 INFO scheduler Scheduled Job Complete: frappe.twofactor.delete_all_barcodes_for_users for dev1
2021-09-03 09:00:19,064 INFO scheduler Scheduled Job Start: frappe.website.doctype.web_page.web_page.check_publish_status for dev1
2021-09-03 09:00:19,501 INFO scheduler Scheduled Job Complete: frappe.website.doctype.web_page.web_page.check_publish_status for dev1
2021-09-03 09:00:19,605 INFO scheduler Scheduled Job Start: frappe.oauth.delete_oauth2_data for dev1
2021-09-03 09:00:20,082 INFO scheduler Scheduled Job Complete: frappe.oauth.delete_oauth2_data for dev1
2021-09-03 09:00:20,177 INFO scheduler Scheduled Job Start: frappe.email.doctype.newsletter.newsletter.send_scheduled_email for hr_management
2021-09-03 09:00:20,604 INFO scheduler Scheduled Job Complete: frappe.email.doctype.newsletter.newsletter.send_scheduled_email for hr_management
2021-09-03 09:00:20,699 INFO scheduler Scheduled Job Start: frappe.integrations.doctype.google_calendar.google_calendar.sync for hr_management
2021-09-03 09:00:21,235 INFO scheduler Scheduled Job Complete: frappe.integrations.doctype.google_calendar.google_calendar.sync for hr_management
2021-09-03 09:00:21,343 INFO scheduler Scheduled Job Start: frappe.desk.form.document_follow.send_hourly_updates for hr_management
2021-09-03 09:00:21,701 INFO scheduler Scheduled Job Complete: frappe.desk.form.document_follow.send_hourly_updates for hr_management
2021-09-03 09:00:21,797 INFO scheduler Scheduled Job Start: frappe.deferred_insert.save_to_db for hr_management
2021-09-03 09:00:22,180 INFO scheduler Scheduled Job Complete: frappe.deferred_insert.save_to_db for hr_management
2021-09-03 09:00:22,288 INFO scheduler Scheduled Job Start: frappe.desk.page.backups.backups.delete_downloadable_backups for hr_management
2021-09-03 09:00:22,707 INFO scheduler Scheduled Job Complete: frappe.desk.page.backups.backups.delete_downloadable_backups for hr_management
2021-09-03 09:00:22,819 INFO scheduler Scheduled Job Start: frappe.utils.error.collect_error_snapshots for hr_management
2021-09-03 09:00:23,196 INFO scheduler Scheduled Job Complete: frappe.utils.error.collect_error_snapshots for hr_management
2021-09-03 09:00:23,293 INFO scheduler Scheduled Job Start: frappe.model.utils.user_settings.sync_user_settings for hr_management
2021-09-03 09:00:23,700 INFO scheduler Scheduled Job Complete: frappe.model.utils.user_settings.sync_user_settings for hr_management
2021-09-03 09:00:23,803 INFO scheduler Scheduled Job Start: frappe.model.utils.link_count.update_link_count for hr_management
2021-09-03 09:00:24,166 INFO scheduler Scheduled Job Complete: frappe.model.utils.link_count.update_link_count for hr_management
2021-09-03 09:00:24,272 INFO scheduler Scheduled Job Start: frappe.monitor.flush for hr_management
2021-09-03 09:00:24,520 INFO scheduler Scheduled Job Complete: frappe.monitor.flush for hr_management
2021-09-03 09:00:24,617 INFO scheduler Scheduled Job Start: frappe.utils.global_search.sync_global_search for hr_management
2021-09-03 09:00:24,878 INFO scheduler Scheduled Job Complete: frappe.utils.global_search.sync_global_search for hr_management
2021-09-03 09:00:24,970 INFO scheduler Scheduled Job Start: frappe.integrations.doctype.razorpay_settings.razorpay_settings.capture_payment for hr_management
2021-09-03 09:00:25,371 INFO scheduler Scheduled Job Complete: frappe.integrations.doctype.razorpay_settings.razorpay_settings.capture_payment for hr_management
2021-09-03 09:00:25,473 INFO scheduler Scheduled Job Start: frappe.email.doctype.email_account.email_account.notify_unreplied for hr_management
2021-09-03 09:00:25,808 INFO scheduler Scheduled Job Complete: frappe.email.doctype.email_account.email_account.notify_unreplied for hr_management
2021-09-03 09:00:25,901 INFO scheduler Scheduled Job Start: frappe.email.doctype.email_account.email_account.pull for hr_management
2021-09-03 09:00:26,235 INFO scheduler Scheduled Job Complete: frappe.email.doctype.email_account.email_account.pull for hr_management
2021-09-03 09:00:26,339 INFO scheduler Scheduled Job Start: frappe.email.queue.flush for hr_management
2021-09-03 09:00:26,593 INFO scheduler Scheduled Job Complete: frappe.email.queue.flush for hr_management
2021-09-03 09:00:26,684 INFO scheduler Scheduled Job Start: frappe.twofactor.delete_all_barcodes_for_users for hr_management
2021-09-03 09:00:27,079 INFO scheduler Scheduled Job Complete: frappe.twofactor.delete_all_barcodes_for_users for hr_management
2021-09-03 09:00:27,176 INFO scheduler Scheduled Job Start: frappe.website.doctype.web_page.web_page.check_publish_status for hr_management
2021-09-03 09:00:27,596 INFO scheduler Scheduled Job Complete: frappe.website.doctype.web_page.web_page.check_publish_status for hr_management
2021-09-03 09:00:27,690 INFO scheduler Scheduled Job Start: frappe.oauth.delete_oauth2_data for hr_management
2021-09-03 09:00:28,070 INFO scheduler Scheduled Job Complete: frappe.oauth.delete_oauth2_data for hr_management
2021-09-03 09:01:12,377 DEBUG scheduler Queued events for site dev1
2021-09-03 09:02:12,760 DEBUG scheduler Queued events for site dev1
2021-09-03 09:03:13,168 DEBUG scheduler Queued events for site dev1
2021-09-03 09:04:13,582 DEBUG scheduler Queued events for site dev1
2021-09-03 09:04:13,634 INFO scheduler Scheduled Job Start: frappe.monitor.flush for dev1
2021-09-03 09:04:13,942 INFO scheduler Scheduled Job Complete: frappe.monitor.flush for dev1
2021-09-03 09:04:14,034 INFO scheduler Scheduled Job Start: frappe.utils.global_search.sync_global_search for dev1
2021-09-03 09:04:14,404 INFO scheduler Scheduled Job Complete: frappe.utils.global_search.sync_global_search for dev1
2021-09-03 09:04:14,533 INFO scheduler Scheduled Job Start: frappe.integrations.doctype.razorpay_settings.razorpay_settings.capture_payment for dev1
2021-09-03 09:04:15,125 INFO scheduler Scheduled Job Complete: frappe.integrations.doctype.razorpay_settings.razorpay_settings.capture_payment for dev1
2021-09-03 09:04:15,223 INFO scheduler Scheduled Job Start: frappe.email.doctype.email_account.email_account.notify_unreplied for dev1
2021-09-03 09:04:15,603 INFO scheduler Scheduled Job Complete: frappe.email.doctype.email_account.email_account.notify_unreplied for dev1
2021-09-03 09:04:15,697 INFO scheduler Scheduled Job Start: frappe.email.doctype.email_account.email_account.pull for dev1
2021-09-03 09:04:16,085 INFO scheduler Scheduled Job Complete: frappe.email.doctype.email_account.email_account.pull for dev1
2021-09-03 09:04:16,182 INFO scheduler Scheduled Job Start: frappe.email.queue.flush for dev1
2021-09-03 09:04:16,431 INFO scheduler Scheduled Job Complete: frappe.email.queue.flush for dev1
2021-09-03 09:04:16,534 INFO scheduler Scheduled Job Start: frappe.monitor.flush for hr_management
2021-09-03 09:04:16,793 INFO scheduler Scheduled Job Complete: frappe.monitor.flush for hr_management
2021-09-03 09:04:16,885 INFO scheduler Scheduled Job Start: frappe.utils.global_search.sync_global_search for hr_management
2021-09-03 09:04:17,137 INFO scheduler Scheduled Job Complete: frappe.utils.global_search.sync_global_search for hr_management
2021-09-03 09:04:17,223 INFO scheduler Scheduled Job Start: frappe.integrations.doctype.razorpay_settings.razorpay_settings.capture_payment for hr_management
2021-09-03 09:04:17,591 INFO scheduler Scheduled Job Complete: frappe.integrations.doctype.razorpay_settings.razorpay_settings.capture_payment for hr_management
2021-09-03 09:04:17,679 INFO scheduler Scheduled Job Start: frappe.email.doctype.email_account.email_account.notify_unreplied for hr_management
2021-09-03 09:04:17,998 INFO scheduler Scheduled Job Complete: frappe.email.doctype.email_account.email_account.notify_unreplied for hr_management
2021-09-03 09:04:18,094 INFO scheduler Scheduled Job Start: frappe.email.doctype.email_account.email_account.pull for hr_management
2021-09-03 09:04:18,451 INFO scheduler Scheduled Job Complete: frappe.email.doctype.email_account.email_account.pull for hr_management
2021-09-03 09:04:18,556 INFO scheduler Scheduled Job Start: frappe.email.queue.flush for hr_management
2021-09-03 09:04:18,832 INFO scheduler Scheduled Job Complete: frappe.email.queue.flush for hr_management
2021-09-03 09:09:24,826 DEBUG scheduler Queued events for site dev1
2021-09-03 09:09:24,854 INFO scheduler Scheduled Job Start: frappe.monitor.flush for dev1
2021-09-03 09:09:25,249 DEBUG scheduler Queued events for site hr_management
2021-09-03 09:09:25,535 INFO scheduler Scheduled Job Complete: frappe.monitor.flush for dev1
2021-09-03 09:09:25,632 INFO scheduler Scheduled Job Start: frappe.utils.global_search.sync_global_search for dev1
2021-09-03 09:09:25,927 INFO scheduler Scheduled Job Complete: frappe.utils.global_search.sync_global_search for dev1
2021-09-03 09:09:26,028 INFO scheduler Scheduled Job Start: frappe.integrations.doctype.razorpay_settings.razorpay_settings.capture_payment for dev1
2021-09-03 09:09:26,567 INFO scheduler Scheduled Job Complete: frappe.integrations.doctype.razorpay_settings.razorpay_settings.capture_payment for dev1
2021-09-03 09:09:26,664 INFO scheduler Scheduled Job Start: frappe.email.doctype.email_account.email_account.notify_unreplied for dev1
2021-09-03 09:09:27,147 INFO scheduler Scheduled Job Complete: frappe.email.doctype.email_account.email_account.notify_unreplied for dev1
2021-09-03 09:09:27,238 INFO scheduler Scheduled Job Start: frappe.email.doctype.email_account.email_account.pull for dev1
2021-09-03 09:09:27,707 INFO scheduler Scheduled Job Complete: frappe.email.doctype.email_account.email_account.pull for dev1
2021-09-03 09:09:27,814 INFO scheduler Scheduled Job Start: frappe.email.queue.flush for dev1
2021-09-03 09:09:28,098 INFO scheduler Scheduled Job Complete: frappe.email.queue.flush for dev1
2021-09-03 09:09:28,197 INFO scheduler Scheduled Job Start: frappe.monitor.flush for hr_management
2021-09-03 09:09:28,583 INFO scheduler Scheduled Job Complete: frappe.monitor.flush for hr_management
2021-09-03 09:09:28,666 INFO scheduler Scheduled Job Start: frappe.utils.global_search.sync_global_search for hr_management
2021-09-03 09:09:28,921 INFO scheduler Scheduled Job Complete: frappe.utils.global_search.sync_global_search for hr_management
2021-09-03 09:09:29,008 INFO scheduler Scheduled Job Start: frappe.integrations.doctype.razorpay_settings.razorpay_settings.capture_payment for hr_management
2021-09-03 09:09:29,493 INFO scheduler Scheduled Job Complete: frappe.integrations.doctype.razorpay_settings.razorpay_settings.capture_payment for hr_management
2021-09-03 09:09:29,594 INFO scheduler Scheduled Job Start: frappe.email.doctype.email_account.email_account.notify_unreplied for hr_management
2021-09-03 09:09:30,021 INFO scheduler Scheduled Job Complete: frappe.email.doctype.email_account.email_account.notify_unreplied for hr_management
2021-09-03 09:09:30,121 INFO scheduler Scheduled Job Start: frappe.email.doctype.email_account.email_account.pull for hr_management
2021-09-03 09:09:30,485 INFO scheduler Scheduled Job Complete: frappe.email.doctype.email_account.email_account.pull for hr_management
2021-09-03 09:09:30,588 INFO scheduler Scheduled Job Start: frappe.email.queue.flush for hr_management
2021-09-03 09:09:30,844 INFO scheduler Scheduled Job Complete: frappe.email.queue.flush for hr_management
2021-09-03 09:10:25,500 DEBUG scheduler Queued events for site dev1
2021-09-03 09:10:25,662 DEBUG scheduler Queued events for site hr_management
2021-09-03 09:11:25,869 DEBUG scheduler Queued events for site dev1
2021-09-03 09:11:25,993 DEBUG scheduler Queued events for site hr_management
2021-09-03 09:12:26,222 DEBUG scheduler Queued events for site dev1
2021-09-03 09:12:26,259 INFO scheduler Scheduled Job Start: frappe.monitor.flush for dev1
2021-09-03 09:12:26,375 DEBUG scheduler Queued events for site hr_management
2021-09-03 09:12:26,532 INFO scheduler Scheduled Job Complete: frappe.monitor.flush for dev1
2021-09-03 09:12:26,611 INFO scheduler Scheduled Job Start: frappe.utils.global_search.sync_global_search for dev1
2021-09-03 09:12:26,917 INFO scheduler Scheduled Job Complete: frappe.utils.global_search.sync_global_search for dev1
2021-09-03 09:12:27,023 INFO scheduler Scheduled Job Start: frappe.integrations.doctype.razorpay_settings.razorpay_settings.capture_payment for dev1
2021-09-03 09:12:27,407 INFO scheduler Scheduled Job Complete: frappe.integrations.doctype.razorpay_settings.razorpay_settings.capture_payment for dev1
2021-09-03 09:12:27,488 INFO scheduler Scheduled Job Start: frappe.email.doctype.email_account.email_account.notify_unreplied for dev1
2021-09-03 09:12:27,799 INFO scheduler Scheduled Job Complete: frappe.email.doctype.email_account.email_account.notify_unreplied for dev1
2021-09-03 09:12:27,893 INFO scheduler Scheduled Job Start: frappe.email.doctype.email_account.email_account.pull for dev1
2021-09-03 09:12:28,291 INFO scheduler Scheduled Job Complete: frappe.email.doctype.email_account.email_account.pull for dev1
2021-09-03 09:12:28,393 INFO scheduler Scheduled Job Start: frappe.email.queue.flush for dev1
2021-09-03 09:12:28,690 INFO scheduler Scheduled Job Complete: frappe.email.queue.flush for dev1
2021-09-03 09:12:28,803 INFO scheduler Scheduled Job Start: frappe.monitor.flush for hr_management
2021-09-03 09:12:29,098 INFO scheduler Scheduled Job Complete: frappe.monitor.flush for hr_management
2021-09-03 09:12:29,188 INFO scheduler Scheduled Job Start: frappe.utils.global_search.sync_global_search for hr_management
2021-09-03 09:12:29,436 INFO scheduler Scheduled Job Complete: frappe.utils.global_search.sync_global_search for hr_management
2021-09-03 09:12:29,545 INFO scheduler Scheduled Job Start: frappe.integrations.doctype.razorpay_settings.razorpay_settings.capture_payment for hr_management
2021-09-03 09:12:29,925 INFO scheduler Scheduled Job Complete: frappe.integrations.doctype.razorpay_settings.razorpay_settings.capture_payment for hr_management
2021-09-03 09:12:30,021 INFO scheduler Scheduled Job Start: frappe.email.doctype.email_account.email_account.notify_unreplied for hr_management
2021-09-03 09:12:30,371 INFO scheduler Scheduled Job Complete: frappe.email.doctype.email_account.email_account.notify_unreplied for hr_management
2021-09-03 09:12:30,451 INFO scheduler Scheduled Job Start: frappe.email.doctype.email_account.email_account.pull for hr_management
2021-09-03 09:12:30,770 INFO scheduler Scheduled Job Complete: frappe.email.doctype.email_account.email_account.pull for hr_management
2021-09-03 09:12:30,858 INFO scheduler Scheduled Job Start: frappe.email.queue.flush for hr_management
2021-09-03 09:12:31,136 INFO scheduler Scheduled Job Complete: frappe.email.queue.flush for hr_management
2021-09-03 09:13:26,605 DEBUG scheduler Queued events for site dev1
2021-09-03 09:13:26,778 DEBUG scheduler Queued events for site hr_management
2021-09-03 09:14:26,998 DEBUG scheduler Queued events for site dev1
2021-09-03 09:14:27,126 DEBUG scheduler Queued events for site hr_management
2021-09-03 09:15:49,973 DEBUG scheduler Queued events for site dev1
2021-09-03 09:15:50,076 INFO scheduler Scheduled Job Start: frappe.twofactor.delete_all_barcodes_for_users for dev1
2021-09-03 09:15:50,450 DEBUG scheduler Queued events for site hr_management
2021-09-03 09:15:50,714 INFO scheduler Scheduled Job Complete: frappe.twofactor.delete_all_barcodes_for_users for dev1
2021-09-03 09:15:50,830 INFO scheduler Scheduled Job Start: frappe.website.doctype.web_page.web_page.check_publish_status for dev1
2021-09-03 09:15:51,406 INFO scheduler Scheduled Job Complete: frappe.website.doctype.web_page.web_page.check_publish_status for dev1
2021-09-03 09:15:51,508 INFO scheduler Scheduled Job Start: frappe.oauth.delete_oauth2_data for dev1
2021-09-03 09:15:52,004 INFO scheduler Scheduled Job Complete: frappe.oauth.delete_oauth2_data for dev1
2021-09-03 09:15:52,106 INFO scheduler Scheduled Job Start: frappe.twofactor.delete_all_barcodes_for_users for hr_management
2021-09-03 09:15:52,914 INFO scheduler Scheduled Job Complete: frappe.twofactor.delete_all_barcodes_for_users for hr_management
2021-09-03 09:15:53,022 INFO scheduler Scheduled Job Start: frappe.website.doctype.web_page.web_page.check_publish_status for hr_management
2021-09-03 09:15:53,568 INFO scheduler Scheduled Job Complete: frappe.website.doctype.web_page.web_page.check_publish_status for hr_management
2021-09-03 09:15:53,666 INFO scheduler Scheduled Job Start: frappe.oauth.delete_oauth2_data for hr_management
2021-09-03 09:15:54,154 INFO scheduler Scheduled Job Complete: frappe.oauth.delete_oauth2_data for hr_management
2021-09-03 09:16:50,707 DEBUG scheduler Queued events for site dev1
2021-09-03 09:16:50,743 INFO scheduler Scheduled Job Start: frappe.monitor.flush for dev1
2021-09-03 09:16:50,879 DEBUG scheduler Queued events for site hr_management
2021-09-03 09:16:51,016 INFO scheduler Scheduled Job Complete: frappe.monitor.flush for dev1
2021-09-03 09:16:51,112 INFO scheduler Scheduled Job Start: frappe.utils.global_search.sync_global_search for dev1
2021-09-03 09:16:51,366 INFO scheduler Scheduled Job Complete: frappe.utils.global_search.sync_global_search for dev1
2021-09-03 09:16:51,445 INFO scheduler Scheduled Job Start: frappe.integrations.doctype.razorpay_settings.razorpay_settings.capture_payment for dev1
2021-09-03 09:16:51,913 INFO scheduler Scheduled Job Complete: frappe.integrations.doctype.razorpay_settings.razorpay_settings.capture_payment for dev1
2021-09-03 09:16:51,997 INFO scheduler Scheduled Job Start: frappe.email.doctype.email_account.email_account.notify_unreplied for dev1
2021-09-03 09:16:52,397 INFO scheduler Scheduled Job Complete: frappe.email.doctype.email_account.email_account.notify_unreplied for dev1
2021-09-03 09:16:52,474 INFO scheduler Scheduled Job Start: frappe.email.doctype.email_account.email_account.pull for dev1
2021-09-03 09:16:52,845 INFO scheduler Scheduled Job Complete: frappe.email.doctype.email_account.email_account.pull for dev1
2021-09-03 09:16:52,963 INFO scheduler Scheduled Job Start: frappe.email.queue.flush for dev1
2021-09-03 09:16:53,228 INFO scheduler Scheduled Job Complete: frappe.email.queue.flush for dev1
2021-09-03 09:16:53,326 INFO scheduler Scheduled Job Start: frappe.monitor.flush for hr_management
2021-09-03 09:16:53,563 INFO scheduler Scheduled Job Complete: frappe.monitor.flush for hr_management
2021-09-03 09:16:53,657 INFO scheduler Scheduled Job Start: frappe.utils.global_search.sync_global_search for hr_management
2021-09-03 09:16:53,898 INFO scheduler Scheduled Job Complete: frappe.utils.global_search.sync_global_search for hr_management
2021-09-03 09:16:53,973 INFO scheduler Scheduled Job Start: frappe.integrations.doctype.razorpay_settings.razorpay_settings.capture_payment for hr_management
2021-09-03 09:16:54,441 INFO scheduler Scheduled Job Complete: frappe.integrations.doctype.razorpay_settings.razorpay_settings.capture_payment for hr_management
2021-09-03 09:16:54,536 INFO scheduler Scheduled Job Start: frappe.email.doctype.email_account.email_account.notify_unreplied for hr_management
2021-09-03 09:16:54,913 INFO scheduler Scheduled Job Complete: frappe.email.doctype.email_account.email_account.notify_unreplied for hr_management
2021-09-03 09:16:55,018 INFO scheduler Scheduled Job Start: frappe.email.doctype.email_account.email_account.pull for hr_management
2021-09-03 09:16:55,412 INFO scheduler Scheduled Job Complete: frappe.email.doctype.email_account.email_account.pull for hr_management
2021-09-03 09:16:55,501 INFO scheduler Scheduled Job Start: frappe.email.queue.flush for hr_management
2021-09-03 09:16:55,750 INFO scheduler Scheduled Job Complete: frappe.email.queue.flush for hr_management
2021-09-03 09:17:51,111 DEBUG scheduler Queued events for site dev1
2021-09-03 09:17:51,267 DEBUG scheduler Queued events for site hr_management
2021-09-03 09:18:51,475 DEBUG scheduler Queued events for site dev1
2021-09-03 09:18:51,599 DEBUG scheduler Queued events for site hr_management
2021-09-03 09:19:51,881 DEBUG scheduler Queued events for site dev1
2021-09-03 09:19:52,021 DEBUG scheduler Queued events for site hr_management
2021-09-03 09:20:52,262 DEBUG scheduler Queued events for site dev1
2021-09-03 09:20:52,301 INFO scheduler Scheduled Job Start: frappe.monitor.flush for dev1
2021-09-03 09:20:52,468 DEBUG scheduler Queued events for site hr_management
2021-09-03 09:20:52,741 INFO scheduler Scheduled Job Complete: frappe.monitor.flush for dev1
2021-09-03 09:20:52,850 INFO scheduler Scheduled Job Start: frappe.utils.global_search.sync_global_search for dev1
2021-09-03 09:20:53,094 INFO scheduler Scheduled Job Complete: frappe.utils.global_search.sync_global_search for dev1
2021-09-03 09:20:53,182 INFO scheduler Scheduled Job Start: frappe.integrations.doctype.razorpay_settings.razorpay_settings.capture_payment for dev1
2021-09-03 09:20:53,666 INFO scheduler Scheduled Job Complete: frappe.integrations.doctype.razorpay_settings.razorpay_settings.capture_payment for dev1
2021-09-03 09:20:53,762 INFO scheduler Scheduled Job Start: frappe.email.doctype.email_account.email_account.notify_unreplied for dev1
2021-09-03 09:20:54,172 INFO scheduler Scheduled Job Complete: frappe.email.doctype.email_account.email_account.notify_unreplied for dev1
2021-09-03 09:20:54,273 INFO scheduler Scheduled Job Start: frappe.email.doctype.email_account.email_account.pull for dev1
2021-09-03 09:20:54,604 INFO scheduler Scheduled Job Complete: frappe.email.doctype.email_account.email_account.pull for dev1
2021-09-03 09:20:54,694 INFO scheduler Scheduled Job Start: frappe.email.queue.flush for dev1
2021-09-03 09:20:54,950 INFO scheduler Scheduled Job Complete: frappe.email.queue.flush for dev1
2021-09-03 09:20:55,045 INFO scheduler Scheduled Job Start: frappe.monitor.flush for hr_management
2021-09-03 09:20:55,284 INFO scheduler Scheduled Job Complete: frappe.monitor.flush for hr_management
2021-09-03 09:20:55,370 INFO scheduler Scheduled Job Start: frappe.utils.global_search.sync_global_search for hr_management
2021-09-03 09:20:55,609 INFO scheduler Scheduled Job Complete: frappe.utils.global_search.sync_global_search for hr_management
2021-09-03 09:20:55,703 INFO scheduler Scheduled Job Start: frappe.integrations.doctype.razorpay_settings.razorpay_settings.capture_payment for hr_management
2021-09-03 09:20:56,079 INFO scheduler Scheduled Job Complete: frappe.integrations.doctype.razorpay_settings.razorpay_settings.capture_payment for hr_management
2021-09-03 09:20:56,166 INFO scheduler Scheduled Job Start: frappe.email.doctype.email_account.email_account.notify_unreplied for hr_management
2021-09-03 09:20:56,493 INFO scheduler Scheduled Job Complete: frappe.email.doctype.email_account.email_account.notify_unreplied for hr_management
2021-09-03 09:20:56,585 INFO scheduler Scheduled Job Start: frappe.email.doctype.email_account.email_account.pull for hr_management
2021-09-03 09:20:56,907 INFO scheduler Scheduled Job Complete: frappe.email.doctype.email_account.email_account.pull for hr_management
2021-09-03 09:20:56,989 INFO scheduler Scheduled Job Start: frappe.email.queue.flush for hr_management
2021-09-03 09:20:57,262 INFO scheduler Scheduled Job Complete: frappe.email.queue.flush for hr_management
2021-09-03 09:21:52,709 DEBUG scheduler Queued events for site dev1
2021-09-03 09:21:52,860 DEBUG scheduler Queued events for site hr_management
2021-09-03 09:22:53,073 DEBUG scheduler Queued events for site dev1
2021-09-03 09:22:53,211 DEBUG scheduler Queued events for site hr_management
2021-09-03 09:23:53,422 DEBUG scheduler Queued events for site dev1
2021-09-03 09:23:53,571 DEBUG scheduler Queued events for site hr_management
2021-09-03 09:24:53,806 DEBUG scheduler Queued events for site dev1
2021-09-03 09:24:53,842 INFO scheduler Scheduled Job Start: frappe.monitor.flush for dev1
2021-09-03 09:24:53,966 DEBUG scheduler Queued events for site hr_management
2021-09-03 09:24:54,094 INFO scheduler Scheduled Job Complete: frappe.monitor.flush for dev1
2021-09-03 09:24:54,188 INFO scheduler Scheduled Job Start: frappe.utils.global_search.sync_global_search for dev1
2021-09-03 09:24:54,449 INFO scheduler Scheduled Job Complete: frappe.utils.global_search.sync_global_search for dev1
2021-09-03 09:24:54,535 INFO scheduler Scheduled Job Start: frappe.integrations.doctype.razorpay_settings.razorpay_settings.capture_payment for dev1
2021-09-03 09:24:54,927 INFO scheduler Scheduled Job Complete: frappe.integrations.doctype.razorpay_settings.razorpay_settings.capture_payment for dev1
2021-09-03 09:24:55,011 INFO scheduler Scheduled Job Start: frappe.email.doctype.email_account.email_account.notify_unreplied for dev1
2021-09-03 09:24:55,330 INFO scheduler Scheduled Job Complete: frappe.email.doctype.email_account.email_account.notify_unreplied for dev1
2021-09-03 09:24:55,427 INFO scheduler Scheduled Job Start: frappe.email.doctype.email_account.email_account.pull for dev1
2021-09-03 09:24:55,804 INFO scheduler Scheduled Job Complete: frappe.email.doctype.email_account.email_account.pull for dev1
2021-09-03 09:24:55,904 INFO scheduler Scheduled Job Start: frappe.email.queue.flush for dev1
2021-09-03 09:24:56,272 INFO scheduler Scheduled Job Complete: frappe.email.queue.flush for dev1
2021-09-03 09:24:56,361 INFO scheduler Scheduled Job Start: frappe.monitor.flush for hr_management
2021-09-03 09:24:56,649 INFO scheduler Scheduled Job Complete: frappe.monitor.flush for hr_management
2021-09-03 09:24:56,748 INFO scheduler Scheduled Job Start: frappe.utils.global_search.sync_global_search for hr_management
2021-09-03 09:24:57,045 INFO scheduler Scheduled Job Complete: frappe.utils.global_search.sync_global_search for hr_management
2021-09-03 09:24:57,135 INFO scheduler Scheduled Job Start: frappe.integrations.doctype.razorpay_settings.razorpay_settings.capture_payment for hr_management
2021-09-03 09:24:57,584 INFO scheduler Scheduled Job Complete: frappe.integrations.doctype.razorpay_settings.razorpay_settings.capture_payment for hr_management
2021-09-03 09:24:57,677 INFO scheduler Scheduled Job Start: frappe.email.doctype.email_account.email_account.notify_unreplied for hr_management
2021-09-03 09:24:58,027 INFO scheduler Scheduled Job Complete: frappe.email.doctype.email_account.email_account.notify_unreplied for hr_management
2021-09-03 09:24:58,125 INFO scheduler Scheduled Job Start: frappe.email.doctype.email_account.email_account.pull for hr_management
2021-09-03 09:24:58,490 INFO scheduler Scheduled Job Complete: frappe.email.doctype.email_account.email_account.pull for hr_management
2021-09-03 09:24:58,577 INFO scheduler Scheduled Job Start: frappe.email.queue.flush for hr_management
2021-09-03 09:24:58,909 INFO scheduler Scheduled Job Complete: frappe.email.queue.flush for hr_management
2021-09-03 09:25:54,211 DEBUG scheduler Queued events for site dev1
2021-09-03 09:25:54,367 DEBUG scheduler Queued events for site hr_management
2021-09-03 09:26:54,580 DEBUG scheduler Queued events for site dev1
2021-09-03 09:26:54,711 DEBUG scheduler Queued events for site hr_management
2021-09-03 09:27:54,925 DEBUG scheduler Queued events for site dev1
2021-09-03 09:27:55,046 DEBUG scheduler Queued events for site hr_management
2021-09-03 09:28:55,288 DEBUG scheduler Queued events for site dev1
2021-09-03 09:28:55,324 INFO scheduler Scheduled Job Start: frappe.monitor.flush for dev1
2021-09-03 09:28:55,486 DEBUG scheduler Queued events for site hr_management
2021-09-03 09:28:55,619 INFO scheduler Scheduled Job Complete: frappe.monitor.flush for dev1
2021-09-03 09:28:55,719 INFO scheduler Scheduled Job Start: frappe.utils.global_search.sync_global_search for dev1
2021-09-03 09:28:55,974 INFO scheduler Scheduled Job Complete: frappe.utils.global_search.sync_global_search for dev1
2021-09-03 09:28:56,078 INFO scheduler Scheduled Job Start: frappe.integrations.doctype.razorpay_settings.razorpay_settings.capture_payment for dev1
2021-09-03 09:28:56,460 INFO scheduler Scheduled Job Complete: frappe.integrations.doctype.razorpay_settings.razorpay_settings.capture_payment for dev1
2021-09-03 09:28:56,549 INFO scheduler Scheduled Job Start: frappe.email.doctype.email_account.email_account.notify_unreplied for dev1
2021-09-03 09:28:56,870 INFO scheduler Scheduled Job Complete: frappe.email.doctype.email_account.email_account.notify_unreplied for dev1
2021-09-03 09:28:56,953 INFO scheduler Scheduled Job Start: frappe.email.doctype.email_account.email_account.pull for dev1
2021-09-03 09:28:57,275 INFO scheduler Scheduled Job Complete: frappe.email.doctype.email_account.email_account.pull for dev1
2021-09-03 09:28:57,371 INFO scheduler Scheduled Job Start: frappe.email.queue.flush for dev1
2021-09-03 09:28:57,629 INFO scheduler Scheduled Job Complete: frappe.email.queue.flush for dev1
2021-09-03 09:28:57,726 INFO scheduler Scheduled Job Start: frappe.monitor.flush for hr_management
2021-09-03 09:28:57,967 INFO scheduler Scheduled Job Complete: frappe.monitor.flush for hr_management
2021-09-03 09:28:58,067 INFO scheduler Scheduled Job Start: frappe.utils.global_search.sync_global_search for hr_management
2021-09-03 09:28:58,338 INFO scheduler Scheduled Job Complete: frappe.utils.global_search.sync_global_search for hr_management
2021-09-03 09:28:58,444 INFO scheduler Scheduled Job Start: frappe.integrations.doctype.razorpay_settings.razorpay_settings.capture_payment for hr_management
2021-09-03 09:28:58,810 INFO scheduler Scheduled Job Complete: frappe.integrations.doctype.razorpay_settings.razorpay_settings.capture_payment for hr_management
2021-09-03 09:28:58,894 INFO scheduler Scheduled Job Start: frappe.email.doctype.email_account.email_account.notify_unreplied for hr_management
2021-09-03 09:28:59,191 INFO scheduler Scheduled Job Complete: frappe.email.doctype.email_account.email_account.notify_unreplied for hr_management
2021-09-03 09:28:59,278 INFO scheduler Scheduled Job Start: frappe.email.doctype.email_account.email_account.pull for hr_management
2021-09-03 09:28:59,604 INFO scheduler Scheduled Job Complete: frappe.email.doctype.email_account.email_account.pull for hr_management
2021-09-03 09:28:59,716 INFO scheduler Scheduled Job Start: frappe.email.queue.flush for hr_management
2021-09-03 09:28:59,982 INFO scheduler Scheduled Job Complete: frappe.email.queue.flush for hr_management
2021-09-03 09:29:55,722 DEBUG scheduler Queued events for site dev1
2021-09-03 09:29:55,866 DEBUG scheduler Queued events for site hr_management
2021-09-03 09:30:56,078 DEBUG scheduler Queued events for site dev1
2021-09-03 09:30:56,139 INFO scheduler Scheduled Job Start: frappe.twofactor.delete_all_barcodes_for_users for dev1
2021-09-03 09:30:56,239 DEBUG scheduler Queued events for site hr_management
2021-09-03 09:30:56,626 INFO scheduler Scheduled Job Complete: frappe.twofactor.delete_all_barcodes_for_users for dev1
2021-09-03 09:30:56,726 INFO scheduler Scheduled Job Start: frappe.website.doctype.web_page.web_page.check_publish_status for dev1
2021-09-03 09:30:57,195 INFO scheduler Scheduled Job Complete: frappe.website.doctype.web_page.web_page.check_publish_status for dev1
2021-09-03 09:30:57,285 INFO scheduler Scheduled Job Start: frappe.oauth.delete_oauth2_data for dev1
2021-09-03 09:30:57,752 INFO scheduler Scheduled Job Complete: frappe.oauth.delete_oauth2_data for dev1
2021-09-03 09:30:57,849 INFO scheduler Scheduled Job Start: frappe.twofactor.delete_all_barcodes_for_users for hr_management
2021-09-03 09:30:58,253 INFO scheduler Scheduled Job Complete: frappe.twofactor.delete_all_barcodes_for_users for hr_management
2021-09-03 09:30:58,341 INFO scheduler Scheduled Job Start: frappe.website.doctype.web_page.web_page.check_publish_status for hr_management
2021-09-03 09:30:58,761 INFO scheduler Scheduled Job Complete: frappe.website.doctype.web_page.web_page.check_publish_status for hr_management
2021-09-03 09:30:58,866 INFO scheduler Scheduled Job Start: frappe.oauth.delete_oauth2_data for hr_management
2021-09-03 09:30:59,261 INFO scheduler Scheduled Job Complete: frappe.oauth.delete_oauth2_data for hr_management
2021-09-03 09:31:56,459 DEBUG scheduler Queued events for site dev1
2021-09-03 09:31:56,644 DEBUG scheduler Queued events for site hr_management
2021-09-03 09:32:56,892 DEBUG scheduler Queued events for site dev1
2021-09-03 09:32:56,930 INFO scheduler Scheduled Job Start: frappe.monitor.flush for dev1
2021-09-03 09:32:57,059 DEBUG scheduler Queued events for site hr_management
2021-09-03 09:32:57,232 INFO scheduler Scheduled Job Complete: frappe.monitor.flush for dev1
2021-09-03 09:32:57,333 INFO scheduler Scheduled Job Start: frappe.utils.global_search.sync_global_search for dev1
2021-09-03 09:32:57,630 INFO scheduler Scheduled Job Complete: frappe.utils.global_search.sync_global_search for dev1
2021-09-03 09:32:57,755 INFO scheduler Scheduled Job Start: frappe.integrations.doctype.razorpay_settings.razorpay_settings.capture_payment for dev1
2021-09-03 09:32:58,193 INFO scheduler Scheduled Job Complete: frappe.integrations.doctype.razorpay_settings.razorpay_settings.capture_payment for dev1
2021-09-03 09:32:58,301 INFO scheduler Scheduled Job Start: frappe.email.doctype.email_account.email_account.notify_unreplied for dev1
2021-09-03 09:32:58,623 INFO scheduler Scheduled Job Complete: frappe.email.doctype.email_account.email_account.notify_unreplied for dev1
2021-09-03 09:32:58,716 INFO scheduler Scheduled Job Start: frappe.email.doctype.email_account.email_account.pull for dev1
2021-09-03 09:32:59,055 INFO scheduler Scheduled Job Complete: frappe.email.doctype.email_account.email_account.pull for dev1
2021-09-03 09:32:59,147 INFO scheduler Scheduled Job Start: frappe.email.queue.flush for dev1
2021-09-03 09:32:59,445 INFO scheduler Scheduled Job Complete: frappe.email.queue.flush for dev1
2021-09-03 09:32:59,537 INFO scheduler Scheduled Job Start: frappe.monitor.flush for hr_management
2021-09-03 09:32:59,801 INFO scheduler Scheduled Job Complete: frappe.monitor.flush for hr_management
2021-09-03 09:32:59,905 INFO scheduler Scheduled Job Start: frappe.utils.global_search.sync_global_search for hr_management
2021-09-03 09:33:00,171 INFO scheduler Scheduled Job Complete: frappe.utils.global_search.sync_global_search for hr_management
2021-09-03 09:33:00,267 INFO scheduler Scheduled Job Start: frappe.integrations.doctype.razorpay_settings.razorpay_settings.capture_payment for hr_management
2021-09-03 09:33:00,654 INFO scheduler Scheduled Job Complete: frappe.integrations.doctype.razorpay_settings.razorpay_settings.capture_payment for hr_management
2021-09-03 09:33:00,757 INFO scheduler Scheduled Job Start: frappe.email.doctype.email_account.email_account.notify_unreplied for hr_management
2021-09-03 09:33:01,101 INFO scheduler Scheduled Job Complete: frappe.email.doctype.email_account.email_account.notify_unreplied for hr_management
2021-09-03 09:33:01,196 INFO scheduler Scheduled Job Start: frappe.email.doctype.email_account.email_account.pull for hr_management
2021-09-03 09:33:01,521 INFO scheduler Scheduled Job Complete: frappe.email.doctype.email_account.email_account.pull for hr_management
2021-09-03 09:33:01,627 INFO scheduler Scheduled Job Start: frappe.email.queue.flush for hr_management
2021-09-03 09:33:01,894 INFO scheduler Scheduled Job Complete: frappe.email.queue.flush for hr_management
2021-09-03 09:33:57,428 DEBUG scheduler Queued events for site dev1
2021-09-03 09:33:57,585 DEBUG scheduler Queued events for site hr_management
2021-09-03 09:34:57,798 DEBUG scheduler Queued events for site dev1
2021-09-03 09:34:57,933 DEBUG scheduler Queued events for site hr_management
2021-09-03 09:35:58,165 DEBUG scheduler Queued events for site dev1
2021-09-03 09:35:58,291 DEBUG scheduler Queued events for site hr_management
2021-09-03 09:36:58,524 DEBUG scheduler Queued events for site dev1
2021-09-03 09:36:58,564 INFO scheduler Scheduled Job Start: frappe.monitor.flush for dev1
2021-09-03 09:36:58,717 DEBUG scheduler Queued events for site hr_management
2021-09-03 09:36:58,987 INFO scheduler Scheduled Job Complete: frappe.monitor.flush for dev1
2021-09-03 09:36:59,093 INFO scheduler Scheduled Job Start: frappe.utils.global_search.sync_global_search for dev1
2021-09-03 09:36:59,354 INFO scheduler Scheduled Job Complete: frappe.utils.global_search.sync_global_search for dev1
2021-09-03 09:36:59,455 INFO scheduler Scheduled Job Start: frappe.integrations.doctype.razorpay_settings.razorpay_settings.capture_payment for dev1
2021-09-03 09:36:59,955 INFO scheduler Scheduled Job Complete: frappe.integrations.doctype.razorpay_settings.razorpay_settings.capture_payment for dev1
2021-09-03 09:37:00,064 INFO scheduler Scheduled Job Start: frappe.email.doctype.email_account.email_account.notify_unreplied for dev1
2021-09-03 09:37:00,534 INFO scheduler Scheduled Job Complete: frappe.email.doctype.email_account.email_account.notify_unreplied for dev1
2021-09-03 09:37:00,641 INFO scheduler Scheduled Job Start: frappe.email.doctype.email_account.email_account.pull for dev1
2021-09-03 09:37:01,023 INFO scheduler Scheduled Job Complete: frappe.email.doctype.email_account.email_account.pull for dev1
2021-09-03 09:37:01,122 INFO scheduler Scheduled Job Start: frappe.email.queue.flush for dev1
2021-09-03 09:37:01,410 INFO scheduler Scheduled Job Complete: frappe.email.queue.flush for dev1
2021-09-03 09:37:01,509 INFO scheduler Scheduled Job Start: frappe.monitor.flush for hr_management
2021-09-03 09:37:01,794 INFO scheduler Scheduled Job Complete: frappe.monitor.flush for hr_management
2021-09-03 09:37:01,904 INFO scheduler Scheduled Job Start: frappe.utils.global_search.sync_global_search for hr_management
2021-09-03 09:37:02,190 INFO scheduler Scheduled Job Complete: frappe.utils.global_search.sync_global_search for hr_management
2021-09-03 09:37:02,290 INFO scheduler Scheduled Job Start: frappe.integrations.doctype.razorpay_settings.razorpay_settings.capture_payment for hr_management
2021-09-03 09:37:02,800 INFO scheduler Scheduled Job Complete: frappe.integrations.doctype.razorpay_settings.razorpay_settings.capture_payment for hr_management
2021-09-03 09:37:02,894 INFO scheduler Scheduled Job Start: frappe.email.doctype.email_account.email_account.notify_unreplied for hr_management
2021-09-03 09:37:03,273 INFO scheduler Scheduled Job Complete: frappe.email.doctype.email_account.email_account.notify_unreplied for hr_management
2021-09-03 09:37:03,380 INFO scheduler Scheduled Job Start: frappe.email.doctype.email_account.email_account.pull for hr_management
2021-09-03 09:37:03,788 INFO scheduler Scheduled Job Complete: frappe.email.doctype.email_account.email_account.pull for hr_management
2021-09-03 09:37:03,892 INFO scheduler Scheduled Job Start: frappe.email.queue.flush for hr_management
2021-09-03 09:37:04,201 INFO scheduler Scheduled Job Complete: frappe.email.queue.flush for hr_management
2021-09-03 09:37:58,965 DEBUG scheduler Queued events for site dev1
2021-09-03 09:37:59,127 DEBUG scheduler Queued events for site hr_management
2021-09-03 09:38:59,332 DEBUG scheduler Queued events for site dev1
2021-09-03 09:38:59,483 DEBUG scheduler Queued events for site hr_management
2021-09-03 09:39:59,699 DEBUG scheduler Queued events for site dev1
2021-09-03 09:39:59,860 DEBUG scheduler Queued events for site hr_management
2021-09-03 09:41:00,081 DEBUG scheduler Queued events for site dev1
2021-09-03 09:41:00,116 INFO scheduler Scheduled Job Start: frappe.monitor.flush for dev1
2021-09-03 09:41:00,270 DEBUG scheduler Queued events for site hr_management
2021-09-03 09:41:00,415 INFO scheduler Scheduled Job Complete: frappe.monitor.flush for dev1
2021-09-03 09:41:00,510 INFO scheduler Scheduled Job Start: frappe.utils.global_search.sync_global_search for dev1
2021-09-03 09:41:00,793 INFO scheduler Scheduled Job Complete: frappe.utils.global_search.sync_global_search for dev1
2021-09-03 09:41:00,884 INFO scheduler Scheduled Job Start: frappe.integrations.doctype.razorpay_settings.razorpay_settings.capture_payment for dev1
2021-09-03 09:41:01,346 INFO scheduler Scheduled Job Complete: frappe.integrations.doctype.razorpay_settings.razorpay_settings.capture_payment for dev1
2021-09-03 09:41:01,427 INFO scheduler Scheduled Job Start: frappe.email.doctype.email_account.email_account.notify_unreplied for dev1
2021-09-03 09:41:01,758 INFO scheduler Scheduled Job Complete: frappe.email.doctype.email_account.email_account.notify_unreplied for dev1
2021-09-03 09:41:01,858 INFO scheduler Scheduled Job Start: frappe.email.doctype.email_account.email_account.pull for dev1
2021-09-03 09:41:02,247 INFO scheduler Scheduled Job Complete: frappe.email.doctype.email_account.email_account.pull for dev1
2021-09-03 09:41:02,335 INFO scheduler Scheduled Job Start: frappe.email.queue.flush for dev1
2021-09-03 09:41:02,612 INFO scheduler Scheduled Job Complete: frappe.email.queue.flush for dev1
2021-09-03 09:41:02,716 INFO scheduler Scheduled Job Start: frappe.monitor.flush for hr_management
2021-09-03 09:41:02,968 INFO scheduler Scheduled Job Complete: frappe.monitor.flush for hr_management
2021-09-03 09:41:03,079 INFO scheduler Scheduled Job Start: frappe.utils.global_search.sync_global_search for hr_management
2021-09-03 09:41:03,337 INFO scheduler Scheduled Job Complete: frappe.utils.global_search.sync_global_search for hr_management
2021-09-03 09:41:03,442 INFO scheduler Scheduled Job Start: frappe.integrations.doctype.razorpay_settings.razorpay_settings.capture_payment for hr_management
2021-09-03 09:41:03,834 INFO scheduler Scheduled Job Complete: frappe.integrations.doctype.razorpay_settings.razorpay_settings.capture_payment for hr_management
2021-09-03 09:41:03,924 INFO scheduler Scheduled Job Start: frappe.email.doctype.email_account.email_account.notify_unreplied for hr_management
2021-09-03 09:41:04,267 INFO scheduler Scheduled Job Complete: frappe.email.doctype.email_account.email_account.notify_unreplied for hr_management
2021-09-03 09:41:04,370 INFO scheduler Scheduled Job Start: frappe.email.doctype.email_account.email_account.pull for hr_management
2021-09-03 09:41:04,836 INFO scheduler Scheduled Job Complete: frappe.email.doctype.email_account.email_account.pull for hr_management
2021-09-03 09:41:04,943 INFO scheduler Scheduled Job Start: frappe.email.queue.flush for hr_management
2021-09-03 09:41:05,243 INFO scheduler Scheduled Job Complete: frappe.email.queue.flush for hr_management
2021-09-03 09:42:00,498 DEBUG scheduler Queued events for site dev1
2021-09-03 09:42:00,671 DEBUG scheduler Queued events for site hr_management
2021-09-03 09:43:00,892 DEBUG scheduler Queued events for site dev1
2021-09-03 09:43:01,025 DEBUG scheduler Queued events for site hr_management
2021-09-03 09:44:01,301 DEBUG scheduler Queued events for site dev1
2021-09-03 09:44:01,343 INFO scheduler Scheduled Job Start: frappe.monitor.flush for dev1
2021-09-03 09:44:01,506 DEBUG scheduler Queued events for site hr_management
2021-09-03 09:44:01,628 INFO scheduler Scheduled Job Complete: frappe.monitor.flush for dev1
2021-09-03 09:44:01,746 INFO scheduler Scheduled Job Start: frappe.utils.global_search.sync_global_search for dev1
2021-09-03 09:44:02,073 INFO scheduler Scheduled Job Complete: frappe.utils.global_search.sync_global_search for dev1
2021-09-03 09:44:02,175 INFO scheduler Scheduled Job Start: frappe.integrations.doctype.razorpay_settings.razorpay_settings.capture_payment for dev1
2021-09-03 09:44:02,606 INFO scheduler Scheduled Job Complete: frappe.integrations.doctype.razorpay_settings.razorpay_settings.capture_payment for dev1
2021-09-03 09:44:02,699 INFO scheduler Scheduled Job Start: frappe.email.doctype.email_account.email_account.notify_unreplied for dev1
2021-09-03 09:44:03,116 INFO scheduler Scheduled Job Complete: frappe.email.doctype.email_account.email_account.notify_unreplied for dev1
2021-09-03 09:44:03,211 INFO scheduler Scheduled Job Start: frappe.email.doctype.email_account.email_account.pull for dev1
2021-09-03 09:44:03,627 INFO scheduler Scheduled Job Complete: frappe.email.doctype.email_account.email_account.pull for dev1
2021-09-03 09:44:03,731 INFO scheduler Scheduled Job Start: frappe.email.queue.flush for dev1
2021-09-03 09:44:04,031 INFO scheduler Scheduled Job Complete: frappe.email.queue.flush for dev1
2021-09-03 09:44:04,124 INFO scheduler Scheduled Job Start: frappe.monitor.flush for hr_management
2021-09-03 09:44:04,438 INFO scheduler Scheduled Job Complete: frappe.monitor.flush for hr_management
2021-09-03 09:44:04,548 INFO scheduler Scheduled Job Start: frappe.utils.global_search.sync_global_search for hr_management
2021-09-03 09:44:04,845 INFO scheduler Scheduled Job Complete: frappe.utils.global_search.sync_global_search for hr_management
2021-09-03 09:44:04,973 INFO scheduler Scheduled Job Start: frappe.integrations.doctype.razorpay_settings.razorpay_settings.capture_payment for hr_management
2021-09-03 09:44:05,441 INFO scheduler Scheduled Job Complete: frappe.integrations.doctype.razorpay_settings.razorpay_settings.capture_payment for hr_management
2021-09-03 09:44:05,555 INFO scheduler Scheduled Job Start: frappe.email.doctype.email_account.email_account.notify_unreplied for hr_management
2021-09-03 09:44:05,952 INFO scheduler Scheduled Job Complete: frappe.email.doctype.email_account.email_account.notify_unreplied for hr_management
2021-09-03 09:44:06,055 INFO scheduler Scheduled Job Start: frappe.email.doctype.email_account.email_account.pull for hr_management
2021-09-03 09:44:06,441 INFO scheduler Scheduled Job Complete: frappe.email.doctype.email_account.email_account.pull for hr_management
2021-09-03 09:44:06,544 INFO scheduler Scheduled Job Start: frappe.email.queue.flush for hr_management
2021-09-03 09:44:06,822 INFO scheduler Scheduled Job Complete: frappe.email.queue.flush for hr_management
2021-09-03 09:45:01,749 DEBUG scheduler Queued events for site dev1
2021-09-03 09:45:01,810 INFO scheduler Scheduled Job Start: frappe.twofactor.delete_all_barcodes_for_users for dev1
2021-09-03 09:45:01,898 DEBUG scheduler Queued events for site hr_management
2021-09-03 09:45:02,252 INFO scheduler Scheduled Job Complete: frappe.twofactor.delete_all_barcodes_for_users for dev1
2021-09-03 09:45:02,358 INFO scheduler Scheduled Job Start: frappe.website.doctype.web_page.web_page.check_publish_status for dev1
2021-09-03 09:45:02,817 INFO scheduler Scheduled Job Complete: frappe.website.doctype.web_page.web_page.check_publish_status for dev1
2021-09-03 09:45:02,914 INFO scheduler Scheduled Job Start: frappe.oauth.delete_oauth2_data for dev1
2021-09-03 09:45:03,320 INFO scheduler Scheduled Job Complete: frappe.oauth.delete_oauth2_data for dev1
2021-09-03 09:45:03,413 INFO scheduler Scheduled Job Start: frappe.twofactor.delete_all_barcodes_for_users for hr_management
2021-09-03 09:45:03,778 INFO scheduler Scheduled Job Complete: frappe.twofactor.delete_all_barcodes_for_users for hr_management
2021-09-03 09:45:03,880 INFO scheduler Scheduled Job Start: frappe.website.doctype.web_page.web_page.check_publish_status for hr_management
2021-09-03 09:45:04,328 INFO scheduler Scheduled Job Complete: frappe.website.doctype.web_page.web_page.check_publish_status for hr_management
2021-09-03 09:45:04,433 INFO scheduler Scheduled Job Start: frappe.oauth.delete_oauth2_data for hr_management
2021-09-03 09:45:04,836 INFO scheduler Scheduled Job Complete: frappe.oauth.delete_oauth2_data for hr_management
2021-09-03 09:46:02,124 DEBUG scheduler Queued events for site dev1
2021-09-03 09:46:02,284 DEBUG scheduler Queued events for site hr_management
2021-09-03 09:47:02,519 DEBUG scheduler Queued events for site dev1
2021-09-03 09:47:02,686 DEBUG scheduler Queued events for site hr_management
2021-09-03 09:48:02,935 DEBUG scheduler Queued events for site dev1
2021-09-03 09:48:02,980 INFO scheduler Scheduled Job Start: frappe.monitor.flush for dev1
2021-09-03 09:48:03,138 DEBUG scheduler Queued events for site hr_management
2021-09-03 09:48:03,256 INFO scheduler Scheduled Job Complete: frappe.monitor.flush for dev1
2021-09-03 09:48:03,349 INFO scheduler Scheduled Job Start: frappe.utils.global_search.sync_global_search for dev1
2021-09-03 09:48:03,608 INFO scheduler Scheduled Job Complete: frappe.utils.global_search.sync_global_search for dev1
2021-09-03 09:48:03,722 INFO scheduler Scheduled Job Start: frappe.integrations.doctype.razorpay_settings.razorpay_settings.capture_payment for dev1
2021-09-03 09:48:04,180 INFO scheduler Scheduled Job Complete: frappe.integrations.doctype.razorpay_settings.razorpay_settings.capture_payment for dev1
2021-09-03 09:48:04,282 INFO scheduler Scheduled Job Start: frappe.email.doctype.email_account.email_account.notify_unreplied for dev1
2021-09-03 09:48:04,623 INFO scheduler Scheduled Job Complete: frappe.email.doctype.email_account.email_account.notify_unreplied for dev1
2021-09-03 09:48:04,717 INFO scheduler Scheduled Job Start: frappe.email.doctype.email_account.email_account.pull for dev1
2021-09-03 09:48:05,118 INFO scheduler Scheduled Job Complete: frappe.email.doctype.email_account.email_account.pull for dev1
2021-09-03 09:48:05,219 INFO scheduler Scheduled Job Start: frappe.email.queue.flush for dev1
2021-09-03 09:48:05,570 INFO scheduler Scheduled Job Complete: frappe.email.queue.flush for dev1
2021-09-03 09:48:05,667 INFO scheduler Scheduled Job Start: frappe.monitor.flush for hr_management
2021-09-03 09:48:06,032 INFO scheduler Scheduled Job Complete: frappe.monitor.flush for hr_management
2021-09-03 09:48:06,170 INFO scheduler Scheduled Job Start: frappe.utils.global_search.sync_global_search for hr_management
2021-09-03 09:48:06,628 INFO scheduler Scheduled Job Complete: frappe.utils.global_search.sync_global_search for hr_management
2021-09-03 09:48:06,760 INFO scheduler Scheduled Job Start: frappe.integrations.doctype.razorpay_settings.razorpay_settings.capture_payment for hr_management
2021-09-03 09:48:07,339 INFO scheduler Scheduled Job Complete: frappe.integrations.doctype.razorpay_settings.razorpay_settings.capture_payment for hr_management
2021-09-03 09:48:07,443 INFO scheduler Scheduled Job Start: frappe.email.doctype.email_account.email_account.notify_unreplied for hr_management
2021-09-03 09:48:07,896 INFO scheduler Scheduled Job Complete: frappe.email.doctype.email_account.email_account.notify_unreplied for hr_management
2021-09-03 09:48:07,979 INFO scheduler Scheduled Job Start: frappe.email.doctype.email_account.email_account.pull for hr_management
2021-09-03 09:48:08,359 INFO scheduler Scheduled Job Complete: frappe.email.doctype.email_account.email_account.pull for hr_management
2021-09-03 09:48:08,463 INFO scheduler Scheduled Job Start: frappe.email.queue.flush for hr_management
2021-09-03 09:48:08,835 INFO scheduler Scheduled Job Complete: frappe.email.queue.flush for hr_management
2021-09-03 09:49:03,376 DEBUG scheduler Queued events for site dev1
2021-09-03 09:49:03,524 DEBUG scheduler Queued events for site hr_management
2021-09-03 09:50:03,780 DEBUG scheduler Queued events for site dev1
2021-09-03 09:50:03,966 DEBUG scheduler Queued events for site hr_management
2021-09-03 09:51:04,189 DEBUG scheduler Queued events for site dev1
2021-09-03 09:51:04,420 DEBUG scheduler Queued events for site hr_management
2021-09-03 09:52:04,696 DEBUG scheduler Queued events for site dev1
2021-09-03 09:52:04,733 INFO scheduler Scheduled Job Start: frappe.monitor.flush for dev1
2021-09-03 09:52:04,868 DEBUG scheduler Queued events for site hr_management
2021-09-03 09:52:05,013 INFO scheduler Scheduled Job Complete: frappe.monitor.flush for dev1
2021-09-03 09:52:05,112 INFO scheduler Scheduled Job Start: frappe.utils.global_search.sync_global_search for dev1
2021-09-03 09:52:05,417 INFO scheduler Scheduled Job Complete: frappe.utils.global_search.sync_global_search for dev1
2021-09-03 09:52:05,520 INFO scheduler Scheduled Job Start: frappe.integrations.doctype.razorpay_settings.razorpay_settings.capture_payment for dev1
2021-09-03 09:52:05,944 INFO scheduler Scheduled Job Complete: frappe.integrations.doctype.razorpay_settings.razorpay_settings.capture_payment for dev1
2021-09-03 09:52:06,055 INFO scheduler Scheduled Job Start: frappe.email.doctype.email_account.email_account.notify_unreplied for dev1
2021-09-03 09:52:06,440 INFO scheduler Scheduled Job Complete: frappe.email.doctype.email_account.email_account.notify_unreplied for dev1
2021-09-03 09:52:06,544 INFO scheduler Scheduled Job Start: frappe.email.doctype.email_account.email_account.pull for dev1
2021-09-03 09:52:06,970 INFO scheduler Scheduled Job Complete: frappe.email.doctype.email_account.email_account.pull for dev1
2021-09-03 09:52:07,080 INFO scheduler Scheduled Job Start: frappe.email.queue.flush for dev1
2021-09-03 09:52:07,416 INFO scheduler Scheduled Job Complete: frappe.email.queue.flush for dev1
2021-09-03 09:52:07,502 INFO scheduler Scheduled Job Start: frappe.monitor.flush for hr_management
2021-09-03 09:52:07,802 INFO scheduler Scheduled Job Complete: frappe.monitor.flush for hr_management
2021-09-03 09:52:07,905 INFO scheduler Scheduled Job Start: frappe.utils.global_search.sync_global_search for hr_management
2021-09-03 09:52:08,174 INFO scheduler Scheduled Job Complete: frappe.utils.global_search.sync_global_search for hr_management
2021-09-03 09:52:08,274 INFO scheduler Scheduled Job Start: frappe.integrations.doctype.razorpay_settings.razorpay_settings.capture_payment for hr_management
2021-09-03 09:52:08,692 INFO scheduler Scheduled Job Complete: frappe.integrations.doctype.razorpay_settings.razorpay_settings.capture_payment for hr_management
2021-09-03 09:52:08,779 INFO scheduler Scheduled Job Start: frappe.email.doctype.email_account.email_account.notify_unreplied for hr_management
2021-09-03 09:52:09,165 INFO scheduler Scheduled Job Complete: frappe.email.doctype.email_account.email_account.notify_unreplied for hr_management
2021-09-03 09:52:09,260 INFO scheduler Scheduled Job Start: frappe.email.doctype.email_account.email_account.pull for hr_management
2021-09-03 09:52:09,648 INFO scheduler Scheduled Job Complete: frappe.email.doctype.email_account.email_account.pull for hr_management
2021-09-03 09:52:09,739 INFO scheduler Scheduled Job Start: frappe.email.queue.flush for hr_management
2021-09-03 09:52:10,001 INFO scheduler Scheduled Job Complete: frappe.email.queue.flush for hr_management
2021-09-03 09:53:05,133 DEBUG scheduler Queued events for site dev1
2021-09-03 09:53:05,294 DEBUG scheduler Queued events for site hr_management
2021-09-03 09:54:05,494 DEBUG scheduler Queued events for site dev1
2021-09-03 09:54:05,620 DEBUG scheduler Queued events for site hr_management
2021-09-03 09:55:05,825 DEBUG scheduler Queued events for site dev1
2021-09-03 09:55:05,943 DEBUG scheduler Queued events for site hr_management
2021-09-03 09:56:06,234 DEBUG scheduler Queued events for site dev1
2021-09-03 09:56:06,269 INFO scheduler Scheduled Job Start: frappe.monitor.flush for dev1
2021-09-03 09:56:06,410 DEBUG scheduler Queued events for site hr_management
2021-09-03 09:56:06,527 INFO scheduler Scheduled Job Complete: frappe.monitor.flush for dev1
2021-09-03 09:56:06,608 INFO scheduler Scheduled Job Start: frappe.utils.global_search.sync_global_search for dev1
2021-09-03 09:56:06,856 INFO scheduler Scheduled Job Complete: frappe.utils.global_search.sync_global_search for dev1
2021-09-03 09:56:06,951 INFO scheduler Scheduled Job Start: frappe.integrations.doctype.razorpay_settings.razorpay_settings.capture_payment for dev1
2021-09-03 09:56:07,400 INFO scheduler Scheduled Job Complete: frappe.integrations.doctype.razorpay_settings.razorpay_settings.capture_payment for dev1
2021-09-03 09:56:07,499 INFO scheduler Scheduled Job Start: frappe.email.doctype.email_account.email_account.notify_unreplied for dev1
2021-09-03 09:56:07,845 INFO scheduler Scheduled Job Complete: frappe.email.doctype.email_account.email_account.notify_unreplied for dev1
2021-09-03 09:56:07,930 INFO scheduler Scheduled Job Start: frappe.email.doctype.email_account.email_account.pull for dev1
2021-09-03 09:56:08,287 INFO scheduler Scheduled Job Complete: frappe.email.doctype.email_account.email_account.pull for dev1
