2021-09-02 13:18:52,879 DEBUG scheduler Queued events for site dev1
2021-09-02 13:19:53,269 DEBUG scheduler Queued events for site dev1
2021-09-02 13:20:53,707 DEBUG scheduler Queued events for site dev1
2021-09-02 13:20:53,753 INFO scheduler Scheduled Job Start: frappe.monitor.flush for dev1
2021-09-02 13:20:54,059 INFO scheduler Scheduled Job Complete: frappe.monitor.flush for dev1
2021-09-02 13:20:54,155 INFO scheduler Scheduled Job Start: frappe.utils.global_search.sync_global_search for dev1
2021-09-02 13:20:54,448 INFO scheduler Scheduled Job Complete: frappe.utils.global_search.sync_global_search for dev1
2021-09-02 13:20:54,543 INFO scheduler Scheduled Job Start: frappe.integrations.doctype.razorpay_settings.razorpay_settings.capture_payment for dev1
2021-09-02 13:20:54,994 INFO scheduler Scheduled Job Complete: frappe.integrations.doctype.razorpay_settings.razorpay_settings.capture_payment for dev1
2021-09-02 13:20:55,105 INFO scheduler Scheduled Job Start: frappe.email.doctype.email_account.email_account.notify_unreplied for dev1
2021-09-02 13:20:55,510 INFO scheduler Scheduled Job Complete: frappe.email.doctype.email_account.email_account.notify_unreplied for dev1
2021-09-02 13:20:55,621 INFO scheduler Scheduled Job Start: frappe.email.doctype.email_account.email_account.pull for dev1
2021-09-02 13:20:56,048 INFO scheduler Scheduled Job Complete: frappe.email.doctype.email_account.email_account.pull for dev1
2021-09-02 13:20:56,152 INFO scheduler Scheduled Job Start: frappe.email.queue.flush for dev1
2021-09-02 13:20:56,532 INFO scheduler Scheduled Job Complete: frappe.email.queue.flush for dev1
2021-09-02 13:20:56,641 INFO scheduler Scheduled Job Start: frappe.monitor.flush for hr_management
2021-09-02 13:20:56,933 INFO scheduler Scheduled Job Complete: frappe.monitor.flush for hr_management
2021-09-02 13:20:57,047 INFO scheduler Scheduled Job Start: frappe.utils.global_search.sync_global_search for hr_management
2021-09-02 13:20:57,420 INFO scheduler Scheduled Job Complete: frappe.utils.global_search.sync_global_search for hr_management
2021-09-02 13:20:57,531 INFO scheduler Scheduled Job Start: frappe.integrations.doctype.razorpay_settings.razorpay_settings.capture_payment for hr_management
2021-09-02 13:20:57,999 INFO scheduler Scheduled Job Complete: frappe.integrations.doctype.razorpay_settings.razorpay_settings.capture_payment for hr_management
2021-09-02 13:20:58,097 INFO scheduler Scheduled Job Start: frappe.email.doctype.email_account.email_account.notify_unreplied for hr_management
2021-09-02 13:20:58,508 INFO scheduler Scheduled Job Complete: frappe.email.doctype.email_account.email_account.notify_unreplied for hr_management
2021-09-02 13:20:58,616 INFO scheduler Scheduled Job Start: frappe.email.doctype.email_account.email_account.pull for hr_management
2021-09-02 13:20:59,004 INFO scheduler Scheduled Job Complete: frappe.email.doctype.email_account.email_account.pull for hr_management
2021-09-02 13:20:59,105 INFO scheduler Scheduled Job Start: frappe.email.queue.flush for hr_management
2021-09-02 13:20:59,436 INFO scheduler Scheduled Job Complete: frappe.email.queue.flush for hr_management
2021-09-02 13:21:54,189 DEBUG scheduler Queued events for site dev1
2021-09-02 13:22:54,574 DEBUG scheduler Queued events for site dev1
2021-09-02 13:23:54,925 DEBUG scheduler Queued events for site dev1
2021-09-02 13:24:55,323 DEBUG scheduler Queued events for site dev1
2021-09-02 13:24:55,361 INFO scheduler Scheduled Job Start: frappe.monitor.flush for dev1
2021-09-02 13:24:55,655 INFO scheduler Scheduled Job Complete: frappe.monitor.flush for dev1
2021-09-02 13:24:55,743 INFO scheduler Scheduled Job Start: frappe.utils.global_search.sync_global_search for dev1
2021-09-02 13:24:56,007 INFO scheduler Scheduled Job Complete: frappe.utils.global_search.sync_global_search for dev1
2021-09-02 13:24:56,120 INFO scheduler Scheduled Job Start: frappe.integrations.doctype.razorpay_settings.razorpay_settings.capture_payment for dev1
2021-09-02 13:24:56,494 INFO scheduler Scheduled Job Complete: frappe.integrations.doctype.razorpay_settings.razorpay_settings.capture_payment for dev1
2021-09-02 13:24:56,588 INFO scheduler Scheduled Job Start: frappe.email.doctype.email_account.email_account.notify_unreplied for dev1
2021-09-02 13:24:56,910 INFO scheduler Scheduled Job Complete: frappe.email.doctype.email_account.email_account.notify_unreplied for dev1
2021-09-02 13:24:57,014 INFO scheduler Scheduled Job Start: frappe.email.doctype.email_account.email_account.pull for dev1
2021-09-02 13:24:57,395 INFO scheduler Scheduled Job Complete: frappe.email.doctype.email_account.email_account.pull for dev1
2021-09-02 13:24:57,494 INFO scheduler Scheduled Job Start: frappe.email.queue.flush for dev1
2021-09-02 13:24:57,761 INFO scheduler Scheduled Job Complete: frappe.email.queue.flush for dev1
2021-09-02 13:24:57,851 INFO scheduler Scheduled Job Start: frappe.monitor.flush for hr_management
2021-09-02 13:24:58,094 INFO scheduler Scheduled Job Complete: frappe.monitor.flush for hr_management
2021-09-02 13:24:58,205 INFO scheduler Scheduled Job Start: frappe.utils.global_search.sync_global_search for hr_management
2021-09-02 13:24:58,439 INFO scheduler Scheduled Job Complete: frappe.utils.global_search.sync_global_search for hr_management
2021-09-02 13:24:58,537 INFO scheduler Scheduled Job Start: frappe.integrations.doctype.razorpay_settings.razorpay_settings.capture_payment for hr_management
2021-09-02 13:24:58,914 INFO scheduler Scheduled Job Complete: frappe.integrations.doctype.razorpay_settings.razorpay_settings.capture_payment for hr_management
2021-09-02 13:24:59,006 INFO scheduler Scheduled Job Start: frappe.email.doctype.email_account.email_account.notify_unreplied for hr_management
2021-09-02 13:24:59,313 INFO scheduler Scheduled Job Complete: frappe.email.doctype.email_account.email_account.notify_unreplied for hr_management
2021-09-02 13:24:59,397 INFO scheduler Scheduled Job Start: frappe.email.doctype.email_account.email_account.pull for hr_management
2021-09-02 13:24:59,734 INFO scheduler Scheduled Job Complete: frappe.email.doctype.email_account.email_account.pull for hr_management
2021-09-02 13:24:59,815 INFO scheduler Scheduled Job Start: frappe.email.queue.flush for hr_management
2021-09-02 13:25:00,082 INFO scheduler Scheduled Job Complete: frappe.email.queue.flush for hr_management
2021-09-02 13:25:55,769 DEBUG scheduler Queued events for site dev1
2021-09-02 13:26:56,172 DEBUG scheduler Queued events for site dev1
2021-09-02 13:27:56,564 DEBUG scheduler Queued events for site dev1
2021-09-02 13:28:56,962 DEBUG scheduler Queued events for site dev1
2021-09-02 13:28:56,998 INFO scheduler Scheduled Job Start: frappe.monitor.flush for dev1
2021-09-02 13:28:57,268 INFO scheduler Scheduled Job Complete: frappe.monitor.flush for dev1
2021-09-02 13:28:57,361 INFO scheduler Scheduled Job Start: frappe.utils.global_search.sync_global_search for dev1
2021-09-02 13:28:57,616 INFO scheduler Scheduled Job Complete: frappe.utils.global_search.sync_global_search for dev1
2021-09-02 13:28:57,725 INFO scheduler Scheduled Job Start: frappe.integrations.doctype.razorpay_settings.razorpay_settings.capture_payment for dev1
2021-09-02 13:28:58,120 INFO scheduler Scheduled Job Complete: frappe.integrations.doctype.razorpay_settings.razorpay_settings.capture_payment for dev1
2021-09-02 13:28:58,226 INFO scheduler Scheduled Job Start: frappe.email.doctype.email_account.email_account.notify_unreplied for dev1
2021-09-02 13:28:58,533 INFO scheduler Scheduled Job Complete: frappe.email.doctype.email_account.email_account.notify_unreplied for dev1
2021-09-02 13:28:58,631 INFO scheduler Scheduled Job Start: frappe.email.doctype.email_account.email_account.pull for dev1
2021-09-02 13:28:58,967 INFO scheduler Scheduled Job Complete: frappe.email.doctype.email_account.email_account.pull for dev1
2021-09-02 13:28:59,063 INFO scheduler Scheduled Job Start: frappe.email.queue.flush for dev1
2021-09-02 13:28:59,332 INFO scheduler Scheduled Job Complete: frappe.email.queue.flush for dev1
2021-09-02 13:28:59,420 INFO scheduler Scheduled Job Start: frappe.monitor.flush for hr_management
2021-09-02 13:28:59,659 INFO scheduler Scheduled Job Complete: frappe.monitor.flush for hr_management
2021-09-02 13:28:59,753 INFO scheduler Scheduled Job Start: frappe.utils.global_search.sync_global_search for hr_management
2021-09-02 13:28:59,988 INFO scheduler Scheduled Job Complete: frappe.utils.global_search.sync_global_search for hr_management
2021-09-02 13:29:00,106 INFO scheduler Scheduled Job Start: frappe.integrations.doctype.razorpay_settings.razorpay_settings.capture_payment for hr_management
2021-09-02 13:29:00,514 INFO scheduler Scheduled Job Complete: frappe.integrations.doctype.razorpay_settings.razorpay_settings.capture_payment for hr_management
2021-09-02 13:29:00,601 INFO scheduler Scheduled Job Start: frappe.email.doctype.email_account.email_account.notify_unreplied for hr_management
2021-09-02 13:29:00,913 INFO scheduler Scheduled Job Complete: frappe.email.doctype.email_account.email_account.notify_unreplied for hr_management
2021-09-02 13:29:01,017 INFO scheduler Scheduled Job Start: frappe.email.doctype.email_account.email_account.pull for hr_management
2021-09-02 13:29:01,342 INFO scheduler Scheduled Job Complete: frappe.email.doctype.email_account.email_account.pull for hr_management
2021-09-02 13:29:01,434 INFO scheduler Scheduled Job Start: frappe.email.queue.flush for hr_management
2021-09-02 13:29:01,713 INFO scheduler Scheduled Job Complete: frappe.email.queue.flush for hr_management
2021-09-02 13:29:57,372 DEBUG scheduler Queued events for site dev1
2021-09-02 13:30:57,728 DEBUG scheduler Queued events for site dev1
2021-09-02 13:30:57,812 INFO scheduler Scheduled Job Start: frappe.twofactor.delete_all_barcodes_for_users for dev1
2021-09-02 13:30:58,228 INFO scheduler Scheduled Job Complete: frappe.twofactor.delete_all_barcodes_for_users for dev1
2021-09-02 13:30:58,325 INFO scheduler Scheduled Job Start: frappe.website.doctype.web_page.web_page.check_publish_status for dev1
2021-09-02 13:30:58,771 INFO scheduler Scheduled Job Complete: frappe.website.doctype.web_page.web_page.check_publish_status for dev1
2021-09-02 13:30:58,863 INFO scheduler Scheduled Job Start: frappe.oauth.delete_oauth2_data for dev1
2021-09-02 13:30:59,248 INFO scheduler Scheduled Job Complete: frappe.oauth.delete_oauth2_data for dev1
2021-09-02 13:30:59,349 INFO scheduler Scheduled Job Start: frappe.twofactor.delete_all_barcodes_for_users for hr_management
2021-09-02 13:30:59,728 INFO scheduler Scheduled Job Complete: frappe.twofactor.delete_all_barcodes_for_users for hr_management
2021-09-02 13:30:59,833 INFO scheduler Scheduled Job Start: frappe.website.doctype.web_page.web_page.check_publish_status for hr_management
2021-09-02 13:31:00,272 INFO scheduler Scheduled Job Complete: frappe.website.doctype.web_page.web_page.check_publish_status for hr_management
2021-09-02 13:31:00,381 INFO scheduler Scheduled Job Start: frappe.oauth.delete_oauth2_data for hr_management
2021-09-02 13:31:00,748 INFO scheduler Scheduled Job Complete: frappe.oauth.delete_oauth2_data for hr_management
2021-09-02 13:31:58,198 DEBUG scheduler Queued events for site dev1
2021-09-02 13:32:58,677 DEBUG scheduler Queued events for site dev1
2021-09-02 13:32:58,718 INFO scheduler Scheduled Job Start: frappe.monitor.flush for dev1
2021-09-02 13:32:58,971 INFO scheduler Scheduled Job Complete: frappe.monitor.flush for dev1
2021-09-02 13:32:59,063 INFO scheduler Scheduled Job Start: frappe.utils.global_search.sync_global_search for dev1
2021-09-02 13:32:59,323 INFO scheduler Scheduled Job Complete: frappe.utils.global_search.sync_global_search for dev1
2021-09-02 13:32:59,418 INFO scheduler Scheduled Job Start: frappe.integrations.doctype.razorpay_settings.razorpay_settings.capture_payment for dev1
2021-09-02 13:32:59,816 INFO scheduler Scheduled Job Complete: frappe.integrations.doctype.razorpay_settings.razorpay_settings.capture_payment for dev1
2021-09-02 13:32:59,912 INFO scheduler Scheduled Job Start: frappe.email.doctype.email_account.email_account.notify_unreplied for dev1
2021-09-02 13:33:00,221 INFO scheduler Scheduled Job Complete: frappe.email.doctype.email_account.email_account.notify_unreplied for dev1
2021-09-02 13:33:00,337 INFO scheduler Scheduled Job Start: frappe.email.doctype.email_account.email_account.pull for dev1
2021-09-02 13:33:00,674 INFO scheduler Scheduled Job Complete: frappe.email.doctype.email_account.email_account.pull for dev1
2021-09-02 13:33:00,779 INFO scheduler Scheduled Job Start: frappe.email.queue.flush for dev1
2021-09-02 13:33:01,060 INFO scheduler Scheduled Job Complete: frappe.email.queue.flush for dev1
2021-09-02 13:33:01,152 INFO scheduler Scheduled Job Start: frappe.monitor.flush for hr_management
2021-09-02 13:33:01,407 INFO scheduler Scheduled Job Complete: frappe.monitor.flush for hr_management
2021-09-02 13:33:01,504 INFO scheduler Scheduled Job Start: frappe.utils.global_search.sync_global_search for hr_management
2021-09-02 13:33:01,783 INFO scheduler Scheduled Job Complete: frappe.utils.global_search.sync_global_search for hr_management
2021-09-02 13:33:01,874 INFO scheduler Scheduled Job Start: frappe.integrations.doctype.razorpay_settings.razorpay_settings.capture_payment for hr_management
2021-09-02 13:33:02,271 INFO scheduler Scheduled Job Complete: frappe.integrations.doctype.razorpay_settings.razorpay_settings.capture_payment for hr_management
2021-09-02 13:33:02,369 INFO scheduler Scheduled Job Start: frappe.email.doctype.email_account.email_account.notify_unreplied for hr_management
2021-09-02 13:33:02,677 INFO scheduler Scheduled Job Complete: frappe.email.doctype.email_account.email_account.notify_unreplied for hr_management
2021-09-02 13:33:02,776 INFO scheduler Scheduled Job Start: frappe.email.doctype.email_account.email_account.pull for hr_management
2021-09-02 13:33:03,103 INFO scheduler Scheduled Job Complete: frappe.email.doctype.email_account.email_account.pull for hr_management
2021-09-02 13:33:03,209 INFO scheduler Scheduled Job Start: frappe.email.queue.flush for hr_management
2021-09-02 13:33:03,481 INFO scheduler Scheduled Job Complete: frappe.email.queue.flush for hr_management
2021-09-02 13:33:59,086 DEBUG scheduler Queued events for site dev1
2021-09-02 13:34:59,494 DEBUG scheduler Queued events for site dev1
2021-09-02 13:35:59,868 DEBUG scheduler Queued events for site dev1
2021-09-02 13:36:00,102 INFO scheduler Scheduled Job Start: frappe.email.doctype.email_account.email_account.pull for hr_management
2021-09-02 13:36:00,436 INFO scheduler Scheduled Job Complete: frappe.email.doctype.email_account.email_account.pull for hr_management
2021-09-02 13:36:00,525 INFO scheduler Scheduled Job Start: frappe.email.queue.flush for hr_management
2021-09-02 13:36:00,807 INFO scheduler Scheduled Job Complete: frappe.email.queue.flush for hr_management
2021-09-02 13:37:00,287 DEBUG scheduler Queued events for site dev1
2021-09-02 13:37:00,335 INFO scheduler Scheduled Job Start: frappe.monitor.flush for dev1
2021-09-02 13:37:00,662 INFO scheduler Scheduled Job Complete: frappe.monitor.flush for dev1
2021-09-02 13:37:00,760 INFO scheduler Scheduled Job Start: frappe.utils.global_search.sync_global_search for dev1
2021-09-02 13:37:01,017 INFO scheduler Scheduled Job Complete: frappe.utils.global_search.sync_global_search for dev1
2021-09-02 13:37:01,117 INFO scheduler Scheduled Job Start: frappe.integrations.doctype.razorpay_settings.razorpay_settings.capture_payment for dev1
2021-09-02 13:37:01,505 INFO scheduler Scheduled Job Complete: frappe.integrations.doctype.razorpay_settings.razorpay_settings.capture_payment for dev1
2021-09-02 13:37:01,599 INFO scheduler Scheduled Job Start: frappe.email.doctype.email_account.email_account.notify_unreplied for dev1
2021-09-02 13:37:01,909 INFO scheduler Scheduled Job Complete: frappe.email.doctype.email_account.email_account.notify_unreplied for dev1
2021-09-02 13:37:02,018 INFO scheduler Scheduled Job Start: frappe.email.doctype.email_account.email_account.pull for dev1
2021-09-02 13:37:02,379 INFO scheduler Scheduled Job Complete: frappe.email.doctype.email_account.email_account.pull for dev1
2021-09-02 13:37:02,468 INFO scheduler Scheduled Job Start: frappe.email.queue.flush for dev1
2021-09-02 13:37:02,747 INFO scheduler Scheduled Job Complete: frappe.email.queue.flush for dev1
2021-09-02 13:37:02,835 INFO scheduler Scheduled Job Start: frappe.monitor.flush for hr_management
2021-09-02 13:37:03,094 INFO scheduler Scheduled Job Complete: frappe.monitor.flush for hr_management
2021-09-02 13:37:03,194 INFO scheduler Scheduled Job Start: frappe.utils.global_search.sync_global_search for hr_management
2021-09-02 13:37:03,432 INFO scheduler Scheduled Job Complete: frappe.utils.global_search.sync_global_search for hr_management
2021-09-02 13:37:03,524 INFO scheduler Scheduled Job Start: frappe.integrations.doctype.razorpay_settings.razorpay_settings.capture_payment for hr_management
2021-09-02 13:37:03,936 INFO scheduler Scheduled Job Complete: frappe.integrations.doctype.razorpay_settings.razorpay_settings.capture_payment for hr_management
2021-09-02 13:37:04,037 INFO scheduler Scheduled Job Start: frappe.email.doctype.email_account.email_account.notify_unreplied for hr_management
2021-09-02 13:37:04,367 INFO scheduler Scheduled Job Complete: frappe.email.doctype.email_account.email_account.notify_unreplied for hr_management
2021-09-02 13:38:00,778 DEBUG scheduler Queued events for site dev1
2021-09-02 13:39:01,158 DEBUG scheduler Queued events for site dev1
2021-09-02 13:40:01,557 DEBUG scheduler Queued events for site dev1
2021-09-02 13:40:01,595 INFO scheduler Scheduled Job Start: frappe.monitor.flush for dev1
2021-09-02 13:40:01,884 INFO scheduler Scheduled Job Complete: frappe.monitor.flush for dev1
2021-09-02 13:40:01,988 INFO scheduler Scheduled Job Start: frappe.utils.global_search.sync_global_search for dev1
2021-09-02 13:40:02,272 INFO scheduler Scheduled Job Complete: frappe.utils.global_search.sync_global_search for dev1
2021-09-02 13:40:02,372 INFO scheduler Scheduled Job Start: frappe.integrations.doctype.razorpay_settings.razorpay_settings.capture_payment for dev1
2021-09-02 13:40:02,739 INFO scheduler Scheduled Job Complete: frappe.integrations.doctype.razorpay_settings.razorpay_settings.capture_payment for dev1
2021-09-02 13:40:02,844 INFO scheduler Scheduled Job Start: frappe.email.doctype.email_account.email_account.notify_unreplied for dev1
2021-09-02 13:40:03,158 INFO scheduler Scheduled Job Complete: frappe.email.doctype.email_account.email_account.notify_unreplied for dev1
2021-09-02 13:40:03,253 INFO scheduler Scheduled Job Start: frappe.email.doctype.email_account.email_account.pull for dev1
2021-09-02 13:40:03,588 INFO scheduler Scheduled Job Complete: frappe.email.doctype.email_account.email_account.pull for dev1
2021-09-02 13:40:03,701 INFO scheduler Scheduled Job Start: frappe.email.queue.flush for dev1
2021-09-02 13:40:03,949 INFO scheduler Scheduled Job Complete: frappe.email.queue.flush for dev1
2021-09-02 13:40:04,043 INFO scheduler Scheduled Job Start: frappe.monitor.flush for hr_management
2021-09-02 13:40:04,300 INFO scheduler Scheduled Job Complete: frappe.monitor.flush for hr_management
2021-09-02 13:40:04,386 INFO scheduler Scheduled Job Start: frappe.utils.global_search.sync_global_search for hr_management
2021-09-02 13:40:04,654 INFO scheduler Scheduled Job Complete: frappe.utils.global_search.sync_global_search for hr_management
2021-09-02 13:40:04,751 INFO scheduler Scheduled Job Start: frappe.integrations.doctype.razorpay_settings.razorpay_settings.capture_payment for hr_management
2021-09-02 13:40:05,132 INFO scheduler Scheduled Job Complete: frappe.integrations.doctype.razorpay_settings.razorpay_settings.capture_payment for hr_management
2021-09-02 13:40:05,234 INFO scheduler Scheduled Job Start: frappe.email.doctype.email_account.email_account.notify_unreplied for hr_management
2021-09-02 13:40:05,547 INFO scheduler Scheduled Job Complete: frappe.email.doctype.email_account.email_account.notify_unreplied for hr_management
2021-09-02 13:40:05,634 INFO scheduler Scheduled Job Start: frappe.email.doctype.email_account.email_account.pull for hr_management
2021-09-02 13:40:05,956 INFO scheduler Scheduled Job Complete: frappe.email.doctype.email_account.email_account.pull for hr_management
2021-09-02 13:40:06,050 INFO scheduler Scheduled Job Start: frappe.email.queue.flush for hr_management
2021-09-02 13:40:06,318 INFO scheduler Scheduled Job Complete: frappe.email.queue.flush for hr_management
2021-09-02 13:41:01,996 DEBUG scheduler Queued events for site dev1
2021-09-02 13:42:02,434 DEBUG scheduler Queued events for site dev1
2021-09-02 13:43:02,832 DEBUG scheduler Queued events for site dev1
2021-09-02 13:44:03,312 DEBUG scheduler Queued events for site dev1
2021-09-02 13:44:03,363 INFO scheduler Scheduled Job Start: frappe.monitor.flush for dev1
2021-09-02 13:44:03,733 INFO scheduler Scheduled Job Complete: frappe.monitor.flush for dev1
2021-09-02 13:44:03,840 INFO scheduler Scheduled Job Start: frappe.utils.global_search.sync_global_search for dev1
2021-09-02 13:44:04,171 INFO scheduler Scheduled Job Complete: frappe.utils.global_search.sync_global_search for dev1
2021-09-02 13:44:04,280 INFO scheduler Scheduled Job Start: frappe.integrations.doctype.razorpay_settings.razorpay_settings.capture_payment for dev1
2021-09-02 13:44:04,772 INFO scheduler Scheduled Job Complete: frappe.integrations.doctype.razorpay_settings.razorpay_settings.capture_payment for dev1
2021-09-02 13:44:04,891 INFO scheduler Scheduled Job Start: frappe.email.doctype.email_account.email_account.notify_unreplied for dev1
2021-09-02 13:44:05,304 INFO scheduler Scheduled Job Complete: frappe.email.doctype.email_account.email_account.notify_unreplied for dev1
2021-09-02 13:44:05,401 INFO scheduler Scheduled Job Start: frappe.email.doctype.email_account.email_account.pull for dev1
2021-09-02 13:44:05,829 INFO scheduler Scheduled Job Complete: frappe.email.doctype.email_account.email_account.pull for dev1
2021-09-02 13:44:05,942 INFO scheduler Scheduled Job Start: frappe.email.queue.flush for dev1
2021-09-02 13:44:06,448 INFO scheduler Scheduled Job Complete: frappe.email.queue.flush for dev1
2021-09-02 13:44:06,536 INFO scheduler Scheduled Job Start: frappe.monitor.flush for hr_management
2021-09-02 13:44:06,811 INFO scheduler Scheduled Job Complete: frappe.monitor.flush for hr_management
2021-09-02 13:44:06,909 INFO scheduler Scheduled Job Start: frappe.utils.global_search.sync_global_search for hr_management
2021-09-02 13:44:07,202 INFO scheduler Scheduled Job Complete: frappe.utils.global_search.sync_global_search for hr_management
2021-09-02 13:44:07,294 INFO scheduler Scheduled Job Start: frappe.integrations.doctype.razorpay_settings.razorpay_settings.capture_payment for hr_management
2021-09-02 13:44:07,704 INFO scheduler Scheduled Job Complete: frappe.integrations.doctype.razorpay_settings.razorpay_settings.capture_payment for hr_management
2021-09-02 13:44:07,792 INFO scheduler Scheduled Job Start: frappe.email.doctype.email_account.email_account.notify_unreplied for hr_management
2021-09-02 13:44:08,133 INFO scheduler Scheduled Job Complete: frappe.email.doctype.email_account.email_account.notify_unreplied for hr_management
2021-09-02 13:44:08,244 INFO scheduler Scheduled Job Start: frappe.email.doctype.email_account.email_account.pull for hr_management
2021-09-02 13:44:08,629 INFO scheduler Scheduled Job Complete: frappe.email.doctype.email_account.email_account.pull for hr_management
2021-09-02 13:44:08,728 INFO scheduler Scheduled Job Start: frappe.email.queue.flush for hr_management
2021-09-02 13:44:09,033 INFO scheduler Scheduled Job Complete: frappe.email.queue.flush for hr_management
2021-09-02 13:45:03,847 DEBUG scheduler Queued events for site dev1
2021-09-02 13:45:03,924 INFO scheduler Scheduled Job Start: frappe.twofactor.delete_all_barcodes_for_users for dev1
2021-09-02 13:45:04,422 INFO scheduler Scheduled Job Complete: frappe.twofactor.delete_all_barcodes_for_users for dev1
2021-09-02 13:45:04,519 INFO scheduler Scheduled Job Start: frappe.website.doctype.web_page.web_page.check_publish_status for dev1
2021-09-02 13:45:04,967 INFO scheduler Scheduled Job Complete: frappe.website.doctype.web_page.web_page.check_publish_status for dev1
2021-09-02 13:45:05,076 INFO scheduler Scheduled Job Start: frappe.oauth.delete_oauth2_data for dev1
2021-09-02 13:45:05,506 INFO scheduler Scheduled Job Complete: frappe.oauth.delete_oauth2_data for dev1
2021-09-02 13:45:05,602 INFO scheduler Scheduled Job Start: frappe.twofactor.delete_all_barcodes_for_users for hr_management
2021-09-02 13:45:06,010 INFO scheduler Scheduled Job Complete: frappe.twofactor.delete_all_barcodes_for_users for hr_management
2021-09-02 13:45:06,107 INFO scheduler Scheduled Job Start: frappe.website.doctype.web_page.web_page.check_publish_status for hr_management
2021-09-02 13:45:06,574 INFO scheduler Scheduled Job Complete: frappe.website.doctype.web_page.web_page.check_publish_status for hr_management
2021-09-02 13:45:06,676 INFO scheduler Scheduled Job Start: frappe.oauth.delete_oauth2_data for hr_management
2021-09-02 13:45:07,041 INFO scheduler Scheduled Job Complete: frappe.oauth.delete_oauth2_data for hr_management
2021-09-02 13:46:04,312 DEBUG scheduler Queued events for site dev1
2021-09-02 13:47:04,705 DEBUG scheduler Queued events for site dev1
2021-09-02 13:48:05,121 DEBUG scheduler Queued events for site dev1
2021-09-02 13:48:05,174 INFO scheduler Scheduled Job Start: frappe.monitor.flush for dev1
2021-09-02 13:48:05,541 INFO scheduler Scheduled Job Complete: frappe.monitor.flush for dev1
2021-09-02 13:48:05,640 INFO scheduler Scheduled Job Start: frappe.utils.global_search.sync_global_search for dev1
2021-09-02 13:48:05,927 INFO scheduler Scheduled Job Complete: frappe.utils.global_search.sync_global_search for dev1
2021-09-02 13:48:06,028 INFO scheduler Scheduled Job Start: frappe.integrations.doctype.razorpay_settings.razorpay_settings.capture_payment for dev1
2021-09-02 13:48:06,477 INFO scheduler Scheduled Job Complete: frappe.integrations.doctype.razorpay_settings.razorpay_settings.capture_payment for dev1
2021-09-02 13:48:06,580 INFO scheduler Scheduled Job Start: frappe.email.doctype.email_account.email_account.notify_unreplied for dev1
2021-09-02 13:48:06,919 INFO scheduler Scheduled Job Complete: frappe.email.doctype.email_account.email_account.notify_unreplied for dev1
2021-09-02 13:48:07,008 INFO scheduler Scheduled Job Start: frappe.email.doctype.email_account.email_account.pull for dev1
2021-09-02 13:48:07,374 INFO scheduler Scheduled Job Complete: frappe.email.doctype.email_account.email_account.pull for dev1
2021-09-02 13:48:07,469 INFO scheduler Scheduled Job Start: frappe.email.queue.flush for dev1
2021-09-02 13:48:07,761 INFO scheduler Scheduled Job Complete: frappe.email.queue.flush for dev1
2021-09-02 13:48:07,872 INFO scheduler Scheduled Job Start: frappe.monitor.flush for hr_management
2021-09-02 13:48:08,158 INFO scheduler Scheduled Job Complete: frappe.monitor.flush for hr_management
2021-09-02 13:48:08,259 INFO scheduler Scheduled Job Start: frappe.utils.global_search.sync_global_search for hr_management
2021-09-02 13:48:08,502 INFO scheduler Scheduled Job Complete: frappe.utils.global_search.sync_global_search for hr_management
2021-09-02 13:48:08,599 INFO scheduler Scheduled Job Start: frappe.integrations.doctype.razorpay_settings.razorpay_settings.capture_payment for hr_management
2021-09-02 13:48:09,017 INFO scheduler Scheduled Job Complete: frappe.integrations.doctype.razorpay_settings.razorpay_settings.capture_payment for hr_management
2021-09-02 13:48:09,115 INFO scheduler Scheduled Job Start: frappe.email.doctype.email_account.email_account.notify_unreplied for hr_management
2021-09-02 13:48:09,436 INFO scheduler Scheduled Job Complete: frappe.email.doctype.email_account.email_account.notify_unreplied for hr_management
2021-09-02 13:48:09,546 INFO scheduler Scheduled Job Start: frappe.email.doctype.email_account.email_account.pull for hr_management
2021-09-02 13:48:09,888 INFO scheduler Scheduled Job Complete: frappe.email.doctype.email_account.email_account.pull for hr_management
2021-09-02 13:48:09,985 INFO scheduler Scheduled Job Start: frappe.email.queue.flush for hr_management
2021-09-02 13:48:10,298 INFO scheduler Scheduled Job Complete: frappe.email.queue.flush for hr_management
2021-09-02 13:49:05,681 DEBUG scheduler Queued events for site dev1
2021-09-02 13:50:06,134 DEBUG scheduler Queued events for site dev1
2021-09-02 13:51:06,506 DEBUG scheduler Queued events for site dev1
2021-09-02 13:52:06,914 DEBUG scheduler Queued events for site dev1
2021-09-02 13:52:06,956 INFO scheduler Scheduled Job Start: frappe.monitor.flush for dev1
2021-09-02 13:52:07,324 INFO scheduler Scheduled Job Complete: frappe.monitor.flush for dev1
2021-09-02 13:52:07,434 INFO scheduler Scheduled Job Start: frappe.utils.global_search.sync_global_search for dev1
2021-09-02 13:52:07,729 INFO scheduler Scheduled Job Complete: frappe.utils.global_search.sync_global_search for dev1
2021-09-02 13:52:07,841 INFO scheduler Scheduled Job Start: frappe.integrations.doctype.razorpay_settings.razorpay_settings.capture_payment for dev1
2021-09-02 13:52:08,270 INFO scheduler Scheduled Job Complete: frappe.integrations.doctype.razorpay_settings.razorpay_settings.capture_payment for dev1
2021-09-02 13:52:08,389 INFO scheduler Scheduled Job Start: frappe.email.doctype.email_account.email_account.notify_unreplied for dev1
2021-09-02 13:52:08,768 INFO scheduler Scheduled Job Complete: frappe.email.doctype.email_account.email_account.notify_unreplied for dev1
2021-09-02 13:52:08,859 INFO scheduler Scheduled Job Start: frappe.email.doctype.email_account.email_account.pull for dev1
2021-09-02 13:52:09,246 INFO scheduler Scheduled Job Complete: frappe.email.doctype.email_account.email_account.pull for dev1
2021-09-02 13:52:09,354 INFO scheduler Scheduled Job Start: frappe.email.queue.flush for dev1
2021-09-02 13:52:09,650 INFO scheduler Scheduled Job Complete: frappe.email.queue.flush for dev1
2021-09-02 13:52:09,746 INFO scheduler Scheduled Job Start: frappe.monitor.flush for hr_management
2021-09-02 13:52:10,008 INFO scheduler Scheduled Job Complete: frappe.monitor.flush for hr_management
2021-09-02 13:52:10,108 INFO scheduler Scheduled Job Start: frappe.utils.global_search.sync_global_search for hr_management
2021-09-02 13:52:10,400 INFO scheduler Scheduled Job Complete: frappe.utils.global_search.sync_global_search for hr_management
2021-09-02 13:52:10,495 INFO scheduler Scheduled Job Start: frappe.integrations.doctype.razorpay_settings.razorpay_settings.capture_payment for hr_management
2021-09-02 13:52:10,931 INFO scheduler Scheduled Job Complete: frappe.integrations.doctype.razorpay_settings.razorpay_settings.capture_payment for hr_management
2021-09-02 13:52:11,034 INFO scheduler Scheduled Job Start: frappe.email.doctype.email_account.email_account.notify_unreplied for hr_management
2021-09-02 13:52:11,401 INFO scheduler Scheduled Job Complete: frappe.email.doctype.email_account.email_account.notify_unreplied for hr_management
2021-09-02 13:52:11,503 INFO scheduler Scheduled Job Start: frappe.email.doctype.email_account.email_account.pull for hr_management
2021-09-02 13:52:11,871 INFO scheduler Scheduled Job Complete: frappe.email.doctype.email_account.email_account.pull for hr_management
2021-09-02 13:52:11,966 INFO scheduler Scheduled Job Start: frappe.email.queue.flush for hr_management
2021-09-02 13:52:12,275 INFO scheduler Scheduled Job Complete: frappe.email.queue.flush for hr_management
2021-09-02 13:53:07,416 DEBUG scheduler Queued events for site dev1
2021-09-02 13:54:07,796 DEBUG scheduler Queued events for site dev1
2021-09-02 13:55:08,164 DEBUG scheduler Queued events for site dev1
2021-09-02 13:56:08,561 DEBUG scheduler Queued events for site dev1
2021-09-02 13:56:08,601 INFO scheduler Scheduled Job Start: frappe.monitor.flush for dev1
2021-09-02 13:56:08,872 INFO scheduler Scheduled Job Complete: frappe.monitor.flush for dev1
2021-09-02 13:56:08,971 INFO scheduler Scheduled Job Start: frappe.utils.global_search.sync_global_search for dev1
2021-09-02 13:56:09,239 INFO scheduler Scheduled Job Complete: frappe.utils.global_search.sync_global_search for dev1
2021-09-02 13:56:09,331 INFO scheduler Scheduled Job Start: frappe.integrations.doctype.razorpay_settings.razorpay_settings.capture_payment for dev1
2021-09-02 13:56:09,709 INFO scheduler Scheduled Job Complete: frappe.integrations.doctype.razorpay_settings.razorpay_settings.capture_payment for dev1
2021-09-02 13:56:09,803 INFO scheduler Scheduled Job Start: frappe.email.doctype.email_account.email_account.notify_unreplied for dev1
2021-09-02 13:56:10,139 INFO scheduler Scheduled Job Complete: frappe.email.doctype.email_account.email_account.notify_unreplied for dev1
2021-09-02 13:56:10,239 INFO scheduler Scheduled Job Start: frappe.email.doctype.email_account.email_account.pull for dev1
2021-09-02 13:56:10,556 INFO scheduler Scheduled Job Complete: frappe.email.doctype.email_account.email_account.pull for dev1
2021-09-02 13:56:10,648 INFO scheduler Scheduled Job Start: frappe.email.queue.flush for dev1
2021-09-02 13:56:10,920 INFO scheduler Scheduled Job Complete: frappe.email.queue.flush for dev1
2021-09-02 13:56:11,001 INFO scheduler Scheduled Job Start: frappe.monitor.flush for hr_management
2021-09-02 13:56:11,268 INFO scheduler Scheduled Job Complete: frappe.monitor.flush for hr_management
2021-09-02 13:56:11,363 INFO scheduler Scheduled Job Start: frappe.utils.global_search.sync_global_search for hr_management
2021-09-02 13:56:11,623 INFO scheduler Scheduled Job Complete: frappe.utils.global_search.sync_global_search for hr_management
2021-09-02 13:56:11,707 INFO scheduler Scheduled Job Start: frappe.integrations.doctype.razorpay_settings.razorpay_settings.capture_payment for hr_management
2021-09-02 13:56:12,110 INFO scheduler Scheduled Job Complete: frappe.integrations.doctype.razorpay_settings.razorpay_settings.capture_payment for hr_management
2021-09-02 13:56:12,222 INFO scheduler Scheduled Job Start: frappe.email.doctype.email_account.email_account.notify_unreplied for hr_management
2021-09-02 13:56:12,579 INFO scheduler Scheduled Job Complete: frappe.email.doctype.email_account.email_account.notify_unreplied for hr_management
2021-09-02 13:56:12,681 INFO scheduler Scheduled Job Start: frappe.email.doctype.email_account.email_account.pull for hr_management
2021-09-02 13:56:13,040 INFO scheduler Scheduled Job Complete: frappe.email.doctype.email_account.email_account.pull for hr_management
2021-09-02 13:56:13,130 INFO scheduler Scheduled Job Start: frappe.email.queue.flush for hr_management
2021-09-02 13:56:13,404 INFO scheduler Scheduled Job Complete: frappe.email.queue.flush for hr_management
2021-09-02 13:57:09,005 DEBUG scheduler Queued events for site dev1
2021-09-02 13:58:09,443 DEBUG scheduler Queued events for site dev1
2021-09-02 13:59:09,828 DEBUG scheduler Queued events for site dev1
2021-09-02 14:00:10,267 INFO scheduler Scheduled Job Start: frappe.email.doctype.newsletter.newsletter.send_scheduled_email for dev1
2021-09-02 14:00:10,316 DEBUG scheduler Queued events for site dev1
2021-09-02 14:00:10,753 INFO scheduler Scheduled Job Complete: frappe.email.doctype.newsletter.newsletter.send_scheduled_email for dev1
2021-09-02 14:00:10,849 INFO scheduler Scheduled Job Start: frappe.integrations.doctype.google_calendar.google_calendar.sync for dev1
2021-09-02 14:00:11,409 INFO scheduler Scheduled Job Complete: frappe.integrations.doctype.google_calendar.google_calendar.sync for dev1
2021-09-02 14:00:11,509 INFO scheduler Scheduled Job Start: frappe.desk.form.document_follow.send_hourly_updates for dev1
2021-09-02 14:00:11,878 INFO scheduler Scheduled Job Complete: frappe.desk.form.document_follow.send_hourly_updates for dev1
2021-09-02 14:00:11,978 INFO scheduler Scheduled Job Start: frappe.deferred_insert.save_to_db for dev1
2021-09-02 14:00:12,398 INFO scheduler Scheduled Job Complete: frappe.deferred_insert.save_to_db for dev1
2021-09-02 14:00:12,502 INFO scheduler Scheduled Job Start: frappe.desk.page.backups.backups.delete_downloadable_backups for dev1
2021-09-02 14:00:12,864 INFO scheduler Scheduled Job Complete: frappe.desk.page.backups.backups.delete_downloadable_backups for dev1
2021-09-02 14:00:12,974 INFO scheduler Scheduled Job Start: frappe.utils.error.collect_error_snapshots for dev1
2021-09-02 14:00:13,338 INFO scheduler Scheduled Job Complete: frappe.utils.error.collect_error_snapshots for dev1
2021-09-02 14:00:13,432 INFO scheduler Scheduled Job Start: frappe.model.utils.user_settings.sync_user_settings for dev1
2021-09-02 14:00:13,779 INFO scheduler Scheduled Job Complete: frappe.model.utils.user_settings.sync_user_settings for dev1
2021-09-02 14:00:13,883 INFO scheduler Scheduled Job Start: frappe.model.utils.link_count.update_link_count for dev1
2021-09-02 14:00:14,241 INFO scheduler Scheduled Job Complete: frappe.model.utils.link_count.update_link_count for dev1
2021-09-02 14:00:14,342 INFO scheduler Scheduled Job Start: frappe.monitor.flush for dev1
2021-09-02 14:00:14,594 INFO scheduler Scheduled Job Complete: frappe.monitor.flush for dev1
2021-09-02 14:00:14,697 INFO scheduler Scheduled Job Start: frappe.utils.global_search.sync_global_search for dev1
2021-09-02 14:00:14,947 INFO scheduler Scheduled Job Complete: frappe.utils.global_search.sync_global_search for dev1
2021-09-02 14:00:15,035 INFO scheduler Scheduled Job Start: frappe.integrations.doctype.razorpay_settings.razorpay_settings.capture_payment for dev1
2021-09-02 14:00:15,430 INFO scheduler Scheduled Job Complete: frappe.integrations.doctype.razorpay_settings.razorpay_settings.capture_payment for dev1
2021-09-02 14:00:15,528 INFO scheduler Scheduled Job Start: frappe.email.doctype.email_account.email_account.notify_unreplied for dev1
2021-09-02 14:00:15,838 INFO scheduler Scheduled Job Complete: frappe.email.doctype.email_account.email_account.notify_unreplied for dev1
2021-09-02 14:00:15,939 INFO scheduler Scheduled Job Start: frappe.email.doctype.email_account.email_account.pull for dev1
2021-09-02 14:00:16,284 INFO scheduler Scheduled Job Complete: frappe.email.doctype.email_account.email_account.pull for dev1
2021-09-02 14:00:16,381 INFO scheduler Scheduled Job Start: frappe.email.queue.flush for dev1
2021-09-02 14:00:16,702 INFO scheduler Scheduled Job Complete: frappe.email.queue.flush for dev1
2021-09-02 14:00:16,796 INFO scheduler Scheduled Job Start: frappe.twofactor.delete_all_barcodes_for_users for dev1
2021-09-02 14:00:17,200 INFO scheduler Scheduled Job Complete: frappe.twofactor.delete_all_barcodes_for_users for dev1
2021-09-02 14:00:17,299 INFO scheduler Scheduled Job Start: frappe.website.doctype.web_page.web_page.check_publish_status for dev1
2021-09-02 14:00:17,749 INFO scheduler Scheduled Job Complete: frappe.website.doctype.web_page.web_page.check_publish_status for dev1
2021-09-02 14:00:17,858 INFO scheduler Scheduled Job Start: frappe.oauth.delete_oauth2_data for dev1
2021-09-02 14:00:18,253 INFO scheduler Scheduled Job Complete: frappe.oauth.delete_oauth2_data for dev1
2021-09-02 14:00:18,358 INFO scheduler Scheduled Job Start: frappe.email.doctype.newsletter.newsletter.send_scheduled_email for hr_management
2021-09-02 14:00:18,789 INFO scheduler Scheduled Job Complete: frappe.email.doctype.newsletter.newsletter.send_scheduled_email for hr_management
2021-09-02 14:00:18,901 INFO scheduler Scheduled Job Start: frappe.integrations.doctype.google_calendar.google_calendar.sync for hr_management
2021-09-02 14:00:19,440 INFO scheduler Scheduled Job Complete: frappe.integrations.doctype.google_calendar.google_calendar.sync for hr_management
2021-09-02 14:00:19,559 INFO scheduler Scheduled Job Start: frappe.desk.form.document_follow.send_hourly_updates for hr_management
2021-09-02 14:00:19,933 INFO scheduler Scheduled Job Complete: frappe.desk.form.document_follow.send_hourly_updates for hr_management
2021-09-02 14:00:20,046 INFO scheduler Scheduled Job Start: frappe.deferred_insert.save_to_db for hr_management
2021-09-02 14:00:20,428 INFO scheduler Scheduled Job Complete: frappe.deferred_insert.save_to_db for hr_management
2021-09-02 14:00:20,516 INFO scheduler Scheduled Job Start: frappe.desk.page.backups.backups.delete_downloadable_backups for hr_management
2021-09-02 14:00:20,882 INFO scheduler Scheduled Job Complete: frappe.desk.page.backups.backups.delete_downloadable_backups for hr_management
2021-09-02 14:00:20,989 INFO scheduler Scheduled Job Start: frappe.utils.error.collect_error_snapshots for hr_management
2021-09-02 14:00:21,358 INFO scheduler Scheduled Job Complete: frappe.utils.error.collect_error_snapshots for hr_management
2021-09-02 14:00:21,461 INFO scheduler Scheduled Job Start: frappe.model.utils.user_settings.sync_user_settings for hr_management
2021-09-02 14:00:21,827 INFO scheduler Scheduled Job Complete: frappe.model.utils.user_settings.sync_user_settings for hr_management
2021-09-02 14:00:21,926 INFO scheduler Scheduled Job Start: frappe.model.utils.link_count.update_link_count for hr_management
2021-09-02 14:00:22,298 INFO scheduler Scheduled Job Complete: frappe.model.utils.link_count.update_link_count for hr_management
2021-09-02 14:00:22,395 INFO scheduler Scheduled Job Start: frappe.monitor.flush for hr_management
2021-09-02 14:00:22,637 INFO scheduler Scheduled Job Complete: frappe.monitor.flush for hr_management
2021-09-02 14:00:22,733 INFO scheduler Scheduled Job Start: frappe.utils.global_search.sync_global_search for hr_management
2021-09-02 14:00:22,980 INFO scheduler Scheduled Job Complete: frappe.utils.global_search.sync_global_search for hr_management
2021-09-02 14:00:23,069 INFO scheduler Scheduled Job Start: frappe.integrations.doctype.razorpay_settings.razorpay_settings.capture_payment for hr_management
2021-09-02 14:00:23,456 INFO scheduler Scheduled Job Complete: frappe.integrations.doctype.razorpay_settings.razorpay_settings.capture_payment for hr_management
2021-09-02 14:00:23,544 INFO scheduler Scheduled Job Start: frappe.email.doctype.email_account.email_account.notify_unreplied for hr_management
2021-09-02 14:00:23,846 INFO scheduler Scheduled Job Complete: frappe.email.doctype.email_account.email_account.notify_unreplied for hr_management
2021-09-02 14:00:23,948 INFO scheduler Scheduled Job Start: frappe.email.doctype.email_account.email_account.pull for hr_management
2021-09-02 14:00:24,286 INFO scheduler Scheduled Job Complete: frappe.email.doctype.email_account.email_account.pull for hr_management
2021-09-02 14:00:24,385 INFO scheduler Scheduled Job Start: frappe.email.queue.flush for hr_management
2021-09-02 14:00:24,635 INFO scheduler Scheduled Job Complete: frappe.email.queue.flush for hr_management
2021-09-02 14:00:24,727 INFO scheduler Scheduled Job Start: frappe.twofactor.delete_all_barcodes_for_users for hr_management
2021-09-02 14:00:25,112 INFO scheduler Scheduled Job Complete: frappe.twofactor.delete_all_barcodes_for_users for hr_management
2021-09-02 14:00:25,221 INFO scheduler Scheduled Job Start: frappe.website.doctype.web_page.web_page.check_publish_status for hr_management
2021-09-02 14:00:25,642 INFO scheduler Scheduled Job Complete: frappe.website.doctype.web_page.web_page.check_publish_status for hr_management
2021-09-02 14:00:25,741 INFO scheduler Scheduled Job Start: frappe.oauth.delete_oauth2_data for hr_management
2021-09-02 14:00:26,122 INFO scheduler Scheduled Job Complete: frappe.oauth.delete_oauth2_data for hr_management
2021-09-02 14:01:10,915 DEBUG scheduler Queued events for site dev1
2021-09-02 14:02:11,298 DEBUG scheduler Queued events for site dev1
2021-09-02 14:03:11,692 DEBUG scheduler Queued events for site dev1
2021-09-02 14:04:12,102 DEBUG scheduler Queued events for site dev1
2021-09-02 14:04:12,145 INFO scheduler Scheduled Job Start: frappe.monitor.flush for dev1
2021-09-02 14:04:12,418 INFO scheduler Scheduled Job Complete: frappe.monitor.flush for dev1
2021-09-02 14:04:12,506 INFO scheduler Scheduled Job Start: frappe.utils.global_search.sync_global_search for dev1
2021-09-02 14:04:12,757 INFO scheduler Scheduled Job Complete: frappe.utils.global_search.sync_global_search for dev1
2021-09-02 14:04:12,857 INFO scheduler Scheduled Job Start: frappe.integrations.doctype.razorpay_settings.razorpay_settings.capture_payment for dev1
2021-09-02 14:04:13,251 INFO scheduler Scheduled Job Complete: frappe.integrations.doctype.razorpay_settings.razorpay_settings.capture_payment for dev1
2021-09-02 14:04:13,364 INFO scheduler Scheduled Job Start: frappe.email.doctype.email_account.email_account.notify_unreplied for dev1
2021-09-02 14:04:13,677 INFO scheduler Scheduled Job Complete: frappe.email.doctype.email_account.email_account.notify_unreplied for dev1
2021-09-02 14:04:13,766 INFO scheduler Scheduled Job Start: frappe.email.doctype.email_account.email_account.pull for dev1
2021-09-02 14:04:14,123 INFO scheduler Scheduled Job Complete: frappe.email.doctype.email_account.email_account.pull for dev1
2021-09-02 14:04:14,224 INFO scheduler Scheduled Job Start: frappe.email.queue.flush for dev1
2021-09-02 14:04:14,506 INFO scheduler Scheduled Job Complete: frappe.email.queue.flush for dev1
2021-09-02 14:04:14,611 INFO scheduler Scheduled Job Start: frappe.monitor.flush for hr_management
2021-09-02 14:04:14,875 INFO scheduler Scheduled Job Complete: frappe.monitor.flush for hr_management
2021-09-02 14:04:14,973 INFO scheduler Scheduled Job Start: frappe.utils.global_search.sync_global_search for hr_management
2021-09-02 14:04:15,231 INFO scheduler Scheduled Job Complete: frappe.utils.global_search.sync_global_search for hr_management
2021-09-02 14:04:15,333 INFO scheduler Scheduled Job Start: frappe.integrations.doctype.razorpay_settings.razorpay_settings.capture_payment for hr_management
2021-09-02 14:04:15,709 INFO scheduler Scheduled Job Complete: frappe.integrations.doctype.razorpay_settings.razorpay_settings.capture_payment for hr_management
2021-09-02 14:04:15,799 INFO scheduler Scheduled Job Start: frappe.email.doctype.email_account.email_account.notify_unreplied for hr_management
2021-09-02 14:04:16,117 INFO scheduler Scheduled Job Complete: frappe.email.doctype.email_account.email_account.notify_unreplied for hr_management
2021-09-02 14:04:16,216 INFO scheduler Scheduled Job Start: frappe.email.doctype.email_account.email_account.pull for hr_management
2021-09-02 14:04:16,549 INFO scheduler Scheduled Job Complete: frappe.email.doctype.email_account.email_account.pull for hr_management
2021-09-02 14:04:16,637 INFO scheduler Scheduled Job Start: frappe.email.queue.flush for hr_management
2021-09-02 14:04:16,896 INFO scheduler Scheduled Job Complete: frappe.email.queue.flush for hr_management
2021-09-02 14:05:12,540 DEBUG scheduler Queued events for site dev1
2021-09-02 14:06:12,926 DEBUG scheduler Queued events for site dev1
2021-09-02 14:07:13,268 DEBUG scheduler Queued events for site dev1
2021-09-02 14:08:13,675 DEBUG scheduler Queued events for site dev1
2021-09-02 14:08:13,727 INFO scheduler Scheduled Job Start: frappe.monitor.flush for dev1
2021-09-02 14:08:13,982 INFO scheduler Scheduled Job Complete: frappe.monitor.flush for dev1
2021-09-02 14:08:14,077 INFO scheduler Scheduled Job Start: frappe.utils.global_search.sync_global_search for dev1
2021-09-02 14:08:14,343 INFO scheduler Scheduled Job Complete: frappe.utils.global_search.sync_global_search for dev1
2021-09-02 14:08:14,454 INFO scheduler Scheduled Job Start: frappe.integrations.doctype.razorpay_settings.razorpay_settings.capture_payment for dev1
2021-09-02 14:08:14,833 INFO scheduler Scheduled Job Complete: frappe.integrations.doctype.razorpay_settings.razorpay_settings.capture_payment for dev1
2021-09-02 14:08:14,918 INFO scheduler Scheduled Job Start: frappe.email.doctype.email_account.email_account.notify_unreplied for dev1
2021-09-02 14:08:15,256 INFO scheduler Scheduled Job Complete: frappe.email.doctype.email_account.email_account.notify_unreplied for dev1
2021-09-02 14:08:15,347 INFO scheduler Scheduled Job Start: frappe.email.doctype.email_account.email_account.pull for dev1
2021-09-02 14:08:15,686 INFO scheduler Scheduled Job Complete: frappe.email.doctype.email_account.email_account.pull for dev1
2021-09-02 14:08:15,778 INFO scheduler Scheduled Job Start: frappe.email.queue.flush for dev1
2021-09-02 14:08:16,044 INFO scheduler Scheduled Job Complete: frappe.email.queue.flush for dev1
2021-09-02 14:08:16,139 INFO scheduler Scheduled Job Start: frappe.monitor.flush for hr_management
2021-09-02 14:08:16,408 INFO scheduler Scheduled Job Complete: frappe.monitor.flush for hr_management
2021-09-02 14:08:16,494 INFO scheduler Scheduled Job Start: frappe.utils.global_search.sync_global_search for hr_management
2021-09-02 14:08:16,746 INFO scheduler Scheduled Job Complete: frappe.utils.global_search.sync_global_search for hr_management
2021-09-02 14:08:16,851 INFO scheduler Scheduled Job Start: frappe.integrations.doctype.razorpay_settings.razorpay_settings.capture_payment for hr_management
2021-09-02 14:08:17,242 INFO scheduler Scheduled Job Complete: frappe.integrations.doctype.razorpay_settings.razorpay_settings.capture_payment for hr_management
2021-09-02 14:08:17,335 INFO scheduler Scheduled Job Start: frappe.email.doctype.email_account.email_account.notify_unreplied for hr_management
2021-09-02 14:08:17,636 INFO scheduler Scheduled Job Complete: frappe.email.doctype.email_account.email_account.notify_unreplied for hr_management
2021-09-02 14:08:17,738 INFO scheduler Scheduled Job Start: frappe.email.doctype.email_account.email_account.pull for hr_management
2021-09-02 14:08:18,064 INFO scheduler Scheduled Job Complete: frappe.email.doctype.email_account.email_account.pull for hr_management
2021-09-02 14:08:18,173 INFO scheduler Scheduled Job Start: frappe.email.queue.flush for hr_management
2021-09-02 14:08:18,446 INFO scheduler Scheduled Job Complete: frappe.email.queue.flush for hr_management
2021-09-02 14:09:14,116 DEBUG scheduler Queued events for site dev1
2021-09-02 14:10:14,525 DEBUG scheduler Queued events for site dev1
2021-09-02 14:11:14,897 DEBUG scheduler Queued events for site dev1
2021-09-02 14:12:15,294 DEBUG scheduler Queued events for site dev1
2021-09-02 14:12:15,334 INFO scheduler Scheduled Job Start: frappe.monitor.flush for dev1
2021-09-02 14:12:15,589 INFO scheduler Scheduled Job Complete: frappe.monitor.flush for dev1
2021-09-02 14:12:15,683 INFO scheduler Scheduled Job Start: frappe.utils.global_search.sync_global_search for dev1
2021-09-02 14:12:15,918 INFO scheduler Scheduled Job Complete: frappe.utils.global_search.sync_global_search for dev1
2021-09-02 14:12:16,016 INFO scheduler Scheduled Job Start: frappe.integrations.doctype.razorpay_settings.razorpay_settings.capture_payment for dev1
2021-09-02 14:12:16,396 INFO scheduler Scheduled Job Complete: frappe.integrations.doctype.razorpay_settings.razorpay_settings.capture_payment for dev1
2021-09-02 14:12:16,488 INFO scheduler Scheduled Job Start: frappe.email.doctype.email_account.email_account.notify_unreplied for dev1
2021-09-02 14:12:16,800 INFO scheduler Scheduled Job Complete: frappe.email.doctype.email_account.email_account.notify_unreplied for dev1
2021-09-02 14:12:16,897 INFO scheduler Scheduled Job Start: frappe.email.doctype.email_account.email_account.pull for dev1
2021-09-02 14:12:17,251 INFO scheduler Scheduled Job Complete: frappe.email.doctype.email_account.email_account.pull for dev1
2021-09-02 14:12:17,338 INFO scheduler Scheduled Job Start: frappe.email.queue.flush for dev1
2021-09-02 14:12:17,585 INFO scheduler Scheduled Job Complete: frappe.email.queue.flush for dev1
2021-09-02 14:12:17,668 INFO scheduler Scheduled Job Start: frappe.monitor.flush for hr_management
2021-09-02 14:12:17,897 INFO scheduler Scheduled Job Complete: frappe.monitor.flush for hr_management
2021-09-02 14:12:17,985 INFO scheduler Scheduled Job Start: frappe.utils.global_search.sync_global_search for hr_management
2021-09-02 14:12:18,234 INFO scheduler Scheduled Job Complete: frappe.utils.global_search.sync_global_search for hr_management
2021-09-02 14:12:18,319 INFO scheduler Scheduled Job Start: frappe.integrations.doctype.razorpay_settings.razorpay_settings.capture_payment for hr_management
2021-09-02 14:12:18,689 INFO scheduler Scheduled Job Complete: frappe.integrations.doctype.razorpay_settings.razorpay_settings.capture_payment for hr_management
2021-09-02 14:12:18,785 INFO scheduler Scheduled Job Start: frappe.email.doctype.email_account.email_account.notify_unreplied for hr_management
2021-09-02 14:12:19,087 INFO scheduler Scheduled Job Complete: frappe.email.doctype.email_account.email_account.notify_unreplied for hr_management
2021-09-02 14:12:19,194 INFO scheduler Scheduled Job Start: frappe.email.doctype.email_account.email_account.pull for hr_management
2021-09-02 14:12:19,519 INFO scheduler Scheduled Job Complete: frappe.email.doctype.email_account.email_account.pull for hr_management
2021-09-02 14:12:19,613 INFO scheduler Scheduled Job Start: frappe.email.queue.flush for hr_management
2021-09-02 14:12:19,897 INFO scheduler Scheduled Job Complete: frappe.email.queue.flush for hr_management
2021-09-02 14:13:15,722 DEBUG scheduler Queued events for site dev1
2021-09-02 14:14:16,109 DEBUG scheduler Queued events for site dev1
2021-09-02 14:15:16,534 DEBUG scheduler Queued events for site dev1
2021-09-02 14:15:16,596 INFO scheduler Scheduled Job Start: frappe.twofactor.delete_all_barcodes_for_users for dev1
2021-09-02 14:15:16,994 INFO scheduler Scheduled Job Complete: frappe.twofactor.delete_all_barcodes_for_users for dev1
2021-09-02 14:15:17,099 INFO scheduler Scheduled Job Start: frappe.website.doctype.web_page.web_page.check_publish_status for dev1
2021-09-02 14:15:17,565 INFO scheduler Scheduled Job Complete: frappe.website.doctype.web_page.web_page.check_publish_status for dev1
2021-09-02 14:15:17,674 INFO scheduler Scheduled Job Start: frappe.oauth.delete_oauth2_data for dev1
2021-09-02 14:15:18,072 INFO scheduler Scheduled Job Complete: frappe.oauth.delete_oauth2_data for dev1
2021-09-02 14:15:18,165 INFO scheduler Scheduled Job Start: frappe.twofactor.delete_all_barcodes_for_users for hr_management
2021-09-02 14:15:18,556 INFO scheduler Scheduled Job Complete: frappe.twofactor.delete_all_barcodes_for_users for hr_management
2021-09-02 14:15:18,654 INFO scheduler Scheduled Job Start: frappe.website.doctype.web_page.web_page.check_publish_status for hr_management
2021-09-02 14:15:19,086 INFO scheduler Scheduled Job Complete: frappe.website.doctype.web_page.web_page.check_publish_status for hr_management
2021-09-02 14:15:19,188 INFO scheduler Scheduled Job Start: frappe.oauth.delete_oauth2_data for hr_management
2021-09-02 14:15:19,579 INFO scheduler Scheduled Job Complete: frappe.oauth.delete_oauth2_data for hr_management
2021-09-02 14:16:16,961 DEBUG scheduler Queued events for site dev1
2021-09-02 14:16:16,999 INFO scheduler Scheduled Job Start: frappe.monitor.flush for dev1
2021-09-02 14:16:17,326 INFO scheduler Scheduled Job Complete: frappe.monitor.flush for dev1
2021-09-02 14:16:17,414 INFO scheduler Scheduled Job Start: frappe.utils.global_search.sync_global_search for dev1
2021-09-02 14:16:17,647 INFO scheduler Scheduled Job Complete: frappe.utils.global_search.sync_global_search for dev1
2021-09-02 14:16:17,747 INFO scheduler Scheduled Job Start: frappe.integrations.doctype.razorpay_settings.razorpay_settings.capture_payment for dev1
2021-09-02 14:16:18,123 INFO scheduler Scheduled Job Complete: frappe.integrations.doctype.razorpay_settings.razorpay_settings.capture_payment for dev1
2021-09-02 14:16:18,228 INFO scheduler Scheduled Job Start: frappe.email.doctype.email_account.email_account.notify_unreplied for dev1
2021-09-02 14:16:18,550 INFO scheduler Scheduled Job Complete: frappe.email.doctype.email_account.email_account.notify_unreplied for dev1
2021-09-02 14:16:18,643 INFO scheduler Scheduled Job Start: frappe.email.doctype.email_account.email_account.pull for dev1
2021-09-02 14:16:18,969 INFO scheduler Scheduled Job Complete: frappe.email.doctype.email_account.email_account.pull for dev1
2021-09-02 14:16:19,066 INFO scheduler Scheduled Job Start: frappe.email.queue.flush for dev1
2021-09-02 14:16:19,336 INFO scheduler Scheduled Job Complete: frappe.email.queue.flush for dev1
2021-09-02 14:16:19,425 INFO scheduler Scheduled Job Start: frappe.monitor.flush for hr_management
2021-09-02 14:16:19,658 INFO scheduler Scheduled Job Complete: frappe.monitor.flush for hr_management
2021-09-02 14:16:19,743 INFO scheduler Scheduled Job Start: frappe.utils.global_search.sync_global_search for hr_management
2021-09-02 14:16:20,013 INFO scheduler Scheduled Job Complete: frappe.utils.global_search.sync_global_search for hr_management
2021-09-02 14:16:20,109 INFO scheduler Scheduled Job Start: frappe.integrations.doctype.razorpay_settings.razorpay_settings.capture_payment for hr_management
2021-09-02 14:16:20,508 INFO scheduler Scheduled Job Complete: frappe.integrations.doctype.razorpay_settings.razorpay_settings.capture_payment for hr_management
2021-09-02 14:16:20,614 INFO scheduler Scheduled Job Start: frappe.email.doctype.email_account.email_account.notify_unreplied for hr_management
2021-09-02 14:16:20,908 INFO scheduler Scheduled Job Complete: frappe.email.doctype.email_account.email_account.notify_unreplied for hr_management
2021-09-02 14:16:21,007 INFO scheduler Scheduled Job Start: frappe.email.doctype.email_account.email_account.pull for hr_management
2021-09-02 14:16:21,339 INFO scheduler Scheduled Job Complete: frappe.email.doctype.email_account.email_account.pull for hr_management
2021-09-02 14:16:21,423 INFO scheduler Scheduled Job Start: frappe.email.queue.flush for hr_management
2021-09-02 14:16:21,683 INFO scheduler Scheduled Job Complete: frappe.email.queue.flush for hr_management
2021-09-02 14:17:17,440 DEBUG scheduler Queued events for site dev1
2021-09-02 14:18:17,824 DEBUG scheduler Queued events for site dev1
2021-09-02 14:19:18,210 DEBUG scheduler Queued events for site dev1
2021-09-02 14:20:18,615 DEBUG scheduler Queued events for site dev1
2021-09-02 14:20:18,656 INFO scheduler Scheduled Job Start: frappe.monitor.flush for dev1
2021-09-02 14:20:18,978 INFO scheduler Scheduled Job Complete: frappe.monitor.flush for dev1
2021-09-02 14:20:19,071 INFO scheduler Scheduled Job Start: frappe.utils.global_search.sync_global_search for dev1
2021-09-02 14:20:19,379 INFO scheduler Scheduled Job Complete: frappe.utils.global_search.sync_global_search for dev1
2021-09-02 14:20:19,477 INFO scheduler Scheduled Job Start: frappe.integrations.doctype.razorpay_settings.razorpay_settings.capture_payment for dev1
2021-09-02 14:20:19,901 INFO scheduler Scheduled Job Complete: frappe.integrations.doctype.razorpay_settings.razorpay_settings.capture_payment for dev1
2021-09-02 14:20:20,023 INFO scheduler Scheduled Job Start: frappe.email.doctype.email_account.email_account.notify_unreplied for dev1
2021-09-02 14:20:20,440 INFO scheduler Scheduled Job Complete: frappe.email.doctype.email_account.email_account.notify_unreplied for dev1
2021-09-02 14:20:20,543 INFO scheduler Scheduled Job Start: frappe.email.doctype.email_account.email_account.pull for dev1
2021-09-02 14:20:20,892 INFO scheduler Scheduled Job Complete: frappe.email.doctype.email_account.email_account.pull for dev1
2021-09-02 14:20:20,981 INFO scheduler Scheduled Job Start: frappe.email.queue.flush for dev1
2021-09-02 14:20:21,273 INFO scheduler Scheduled Job Complete: frappe.email.queue.flush for dev1
2021-09-02 14:20:21,383 INFO scheduler Scheduled Job Start: frappe.monitor.flush for hr_management
2021-09-02 14:20:21,741 INFO scheduler Scheduled Job Complete: frappe.monitor.flush for hr_management
2021-09-02 14:20:21,842 INFO scheduler Scheduled Job Start: frappe.utils.global_search.sync_global_search for hr_management
2021-09-02 14:20:22,094 INFO scheduler Scheduled Job Complete: frappe.utils.global_search.sync_global_search for hr_management
2021-09-02 14:20:22,191 INFO scheduler Scheduled Job Start: frappe.integrations.doctype.razorpay_settings.razorpay_settings.capture_payment for hr_management
2021-09-02 14:20:22,635 INFO scheduler Scheduled Job Complete: frappe.integrations.doctype.razorpay_settings.razorpay_settings.capture_payment for hr_management
2021-09-02 14:20:22,746 INFO scheduler Scheduled Job Start: frappe.email.doctype.email_account.email_account.notify_unreplied for hr_management
2021-09-02 14:20:23,092 INFO scheduler Scheduled Job Complete: frappe.email.doctype.email_account.email_account.notify_unreplied for hr_management
2021-09-02 14:20:23,191 INFO scheduler Scheduled Job Start: frappe.email.doctype.email_account.email_account.pull for hr_management
2021-09-02 14:20:23,536 INFO scheduler Scheduled Job Complete: frappe.email.doctype.email_account.email_account.pull for hr_management
2021-09-02 14:20:23,644 INFO scheduler Scheduled Job Start: frappe.email.queue.flush for hr_management
2021-09-02 14:20:23,928 INFO scheduler Scheduled Job Complete: frappe.email.queue.flush for hr_management
2021-09-02 14:21:19,092 DEBUG scheduler Queued events for site dev1
2021-09-02 14:22:19,483 DEBUG scheduler Queued events for site dev1
2021-09-02 14:23:19,847 DEBUG scheduler Queued events for site dev1
2021-09-02 14:24:20,243 DEBUG scheduler Queued events for site dev1
2021-09-02 14:24:20,288 INFO scheduler Scheduled Job Start: frappe.monitor.flush for dev1
2021-09-02 14:24:20,550 INFO scheduler Scheduled Job Complete: frappe.monitor.flush for dev1
2021-09-02 14:24:20,647 INFO scheduler Scheduled Job Start: frappe.utils.global_search.sync_global_search for dev1
2021-09-02 14:24:20,899 INFO scheduler Scheduled Job Complete: frappe.utils.global_search.sync_global_search for dev1
2021-09-02 14:24:21,005 INFO scheduler Scheduled Job Start: frappe.integrations.doctype.razorpay_settings.razorpay_settings.capture_payment for dev1
2021-09-02 14:24:21,457 INFO scheduler Scheduled Job Complete: frappe.integrations.doctype.razorpay_settings.razorpay_settings.capture_payment for dev1
2021-09-02 14:24:21,557 INFO scheduler Scheduled Job Start: frappe.email.doctype.email_account.email_account.notify_unreplied for dev1
2021-09-02 14:24:21,928 INFO scheduler Scheduled Job Complete: frappe.email.doctype.email_account.email_account.notify_unreplied for dev1
2021-09-02 14:24:22,025 INFO scheduler Scheduled Job Start: frappe.email.doctype.email_account.email_account.pull for dev1
2021-09-02 14:24:22,379 INFO scheduler Scheduled Job Complete: frappe.email.doctype.email_account.email_account.pull for dev1
2021-09-02 14:24:22,476 INFO scheduler Scheduled Job Start: frappe.email.queue.flush for dev1
2021-09-02 14:24:22,806 INFO scheduler Scheduled Job Complete: frappe.email.queue.flush for dev1
2021-09-02 14:24:22,915 INFO scheduler Scheduled Job Start: frappe.monitor.flush for hr_management
2021-09-02 14:24:23,203 INFO scheduler Scheduled Job Complete: frappe.monitor.flush for hr_management
2021-09-02 14:24:23,301 INFO scheduler Scheduled Job Start: frappe.utils.global_search.sync_global_search for hr_management
2021-09-02 14:24:23,537 INFO scheduler Scheduled Job Complete: frappe.utils.global_search.sync_global_search for hr_management
2021-09-02 14:24:23,635 INFO scheduler Scheduled Job Start: frappe.integrations.doctype.razorpay_settings.razorpay_settings.capture_payment for hr_management
2021-09-02 14:24:24,016 INFO scheduler Scheduled Job Complete: frappe.integrations.doctype.razorpay_settings.razorpay_settings.capture_payment for hr_management
2021-09-02 14:24:24,129 INFO scheduler Scheduled Job Start: frappe.email.doctype.email_account.email_account.notify_unreplied for hr_management
2021-09-02 14:24:24,468 INFO scheduler Scheduled Job Complete: frappe.email.doctype.email_account.email_account.notify_unreplied for hr_management
2021-09-02 14:24:24,554 INFO scheduler Scheduled Job Start: frappe.email.doctype.email_account.email_account.pull for hr_management
2021-09-02 14:24:24,874 INFO scheduler Scheduled Job Complete: frappe.email.doctype.email_account.email_account.pull for hr_management
2021-09-02 14:24:24,987 INFO scheduler Scheduled Job Start: frappe.email.queue.flush for hr_management
2021-09-02 14:24:25,273 INFO scheduler Scheduled Job Complete: frappe.email.queue.flush for hr_management
2021-09-02 14:25:20,690 DEBUG scheduler Queued events for site dev1
2021-09-02 14:26:21,083 DEBUG scheduler Queued events for site dev1
2021-09-02 14:27:21,477 DEBUG scheduler Queued events for site dev1
2021-09-02 14:28:21,857 DEBUG scheduler Queued events for site dev1
2021-09-02 14:28:21,893 INFO scheduler Scheduled Job Start: frappe.monitor.flush for dev1
2021-09-02 14:28:22,150 INFO scheduler Scheduled Job Complete: frappe.monitor.flush for dev1
2021-09-02 14:28:22,251 INFO scheduler Scheduled Job Start: frappe.utils.global_search.sync_global_search for dev1
2021-09-02 14:28:22,514 INFO scheduler Scheduled Job Complete: frappe.utils.global_search.sync_global_search for dev1
2021-09-02 14:28:22,608 INFO scheduler Scheduled Job Start: frappe.integrations.doctype.razorpay_settings.razorpay_settings.capture_payment for dev1
2021-09-02 14:28:23,024 INFO scheduler Scheduled Job Complete: frappe.integrations.doctype.razorpay_settings.razorpay_settings.capture_payment for dev1
2021-09-02 14:28:23,123 INFO scheduler Scheduled Job Start: frappe.email.doctype.email_account.email_account.notify_unreplied for dev1
2021-09-02 14:28:23,460 INFO scheduler Scheduled Job Complete: frappe.email.doctype.email_account.email_account.notify_unreplied for dev1
2021-09-02 14:28:23,565 INFO scheduler Scheduled Job Start: frappe.email.doctype.email_account.email_account.pull for dev1
2021-09-02 14:28:23,925 INFO scheduler Scheduled Job Complete: frappe.email.doctype.email_account.email_account.pull for dev1
2021-09-02 14:28:24,025 INFO scheduler Scheduled Job Start: frappe.email.queue.flush for dev1
2021-09-02 14:28:24,314 INFO scheduler Scheduled Job Complete: frappe.email.queue.flush for dev1
2021-09-02 14:28:24,407 INFO scheduler Scheduled Job Start: frappe.monitor.flush for hr_management
2021-09-02 14:28:24,655 INFO scheduler Scheduled Job Complete: frappe.monitor.flush for hr_management
2021-09-02 14:28:24,760 INFO scheduler Scheduled Job Start: frappe.utils.global_search.sync_global_search for hr_management
2021-09-02 14:28:25,015 INFO scheduler Scheduled Job Complete: frappe.utils.global_search.sync_global_search for hr_management
2021-09-02 14:28:25,109 INFO scheduler Scheduled Job Start: frappe.integrations.doctype.razorpay_settings.razorpay_settings.capture_payment for hr_management
2021-09-02 14:28:25,511 INFO scheduler Scheduled Job Complete: frappe.integrations.doctype.razorpay_settings.razorpay_settings.capture_payment for hr_management
2021-09-02 14:28:25,614 INFO scheduler Scheduled Job Start: frappe.email.doctype.email_account.email_account.notify_unreplied for hr_management
2021-09-02 14:28:25,940 INFO scheduler Scheduled Job Complete: frappe.email.doctype.email_account.email_account.notify_unreplied for hr_management
2021-09-02 14:28:26,029 INFO scheduler Scheduled Job Start: frappe.email.doctype.email_account.email_account.pull for hr_management
2021-09-02 14:28:26,368 INFO scheduler Scheduled Job Complete: frappe.email.doctype.email_account.email_account.pull for hr_management
2021-09-02 14:28:26,466 INFO scheduler Scheduled Job Start: frappe.email.queue.flush for hr_management
2021-09-02 14:28:26,725 INFO scheduler Scheduled Job Complete: frappe.email.queue.flush for hr_management
2021-09-02 14:29:22,355 DEBUG scheduler Queued events for site dev1
2021-09-02 14:30:22,755 DEBUG scheduler Queued events for site dev1
2021-09-02 14:30:22,822 INFO scheduler Scheduled Job Start: frappe.twofactor.delete_all_barcodes_for_users for dev1
2021-09-02 14:30:23,351 INFO scheduler Scheduled Job Complete: frappe.twofactor.delete_all_barcodes_for_users for dev1
2021-09-02 14:30:23,448 INFO scheduler Scheduled Job Start: frappe.website.doctype.web_page.web_page.check_publish_status for dev1
2021-09-02 14:30:23,877 INFO scheduler Scheduled Job Complete: frappe.website.doctype.web_page.web_page.check_publish_status for dev1
2021-09-02 14:30:23,984 INFO scheduler Scheduled Job Start: frappe.oauth.delete_oauth2_data for dev1
2021-09-02 14:30:24,468 INFO scheduler Scheduled Job Complete: frappe.oauth.delete_oauth2_data for dev1
2021-09-02 14:30:24,582 INFO scheduler Scheduled Job Start: frappe.twofactor.delete_all_barcodes_for_users for hr_management
2021-09-02 14:30:24,963 INFO scheduler Scheduled Job Complete: frappe.twofactor.delete_all_barcodes_for_users for hr_management
2021-09-02 14:30:25,054 INFO scheduler Scheduled Job Start: frappe.website.doctype.web_page.web_page.check_publish_status for hr_management
2021-09-02 14:30:25,513 INFO scheduler Scheduled Job Complete: frappe.website.doctype.web_page.web_page.check_publish_status for hr_management
2021-09-02 14:30:25,609 INFO scheduler Scheduled Job Start: frappe.oauth.delete_oauth2_data for hr_management
2021-09-02 14:30:25,994 INFO scheduler Scheduled Job Complete: frappe.oauth.delete_oauth2_data for hr_management
2021-09-02 14:31:23,181 DEBUG scheduler Queued events for site dev1
2021-09-02 14:32:23,611 DEBUG scheduler Queued events for site dev1
2021-09-02 14:32:23,651 INFO scheduler Scheduled Job Start: frappe.monitor.flush for dev1
2021-09-02 14:32:23,988 INFO scheduler Scheduled Job Complete: frappe.monitor.flush for dev1
2021-09-02 14:32:24,088 INFO scheduler Scheduled Job Start: frappe.utils.global_search.sync_global_search for dev1
2021-09-02 14:32:24,440 INFO scheduler Scheduled Job Complete: frappe.utils.global_search.sync_global_search for dev1
2021-09-02 14:32:24,554 INFO scheduler Scheduled Job Start: frappe.integrations.doctype.razorpay_settings.razorpay_settings.capture_payment for dev1
2021-09-02 14:32:25,103 INFO scheduler Scheduled Job Complete: frappe.integrations.doctype.razorpay_settings.razorpay_settings.capture_payment for dev1
2021-09-02 14:32:25,239 INFO scheduler Scheduled Job Start: frappe.email.doctype.email_account.email_account.notify_unreplied for dev1
2021-09-02 14:32:25,702 INFO scheduler Scheduled Job Complete: frappe.email.doctype.email_account.email_account.notify_unreplied for dev1
2021-09-02 14:32:25,809 INFO scheduler Scheduled Job Start: frappe.email.doctype.email_account.email_account.pull for dev1
2021-09-02 14:32:26,206 INFO scheduler Scheduled Job Complete: frappe.email.doctype.email_account.email_account.pull for dev1
2021-09-02 14:32:26,299 INFO scheduler Scheduled Job Start: frappe.email.queue.flush for dev1
2021-09-02 14:32:26,634 INFO scheduler Scheduled Job Complete: frappe.email.queue.flush for dev1
2021-09-02 14:32:26,727 INFO scheduler Scheduled Job Start: frappe.monitor.flush for hr_management
2021-09-02 14:32:27,023 INFO scheduler Scheduled Job Complete: frappe.monitor.flush for hr_management
2021-09-02 14:32:27,141 INFO scheduler Scheduled Job Start: frappe.utils.global_search.sync_global_search for hr_management
2021-09-02 14:32:27,463 INFO scheduler Scheduled Job Complete: frappe.utils.global_search.sync_global_search for hr_management
2021-09-02 14:32:27,553 INFO scheduler Scheduled Job Start: frappe.integrations.doctype.razorpay_settings.razorpay_settings.capture_payment for hr_management
2021-09-02 14:32:28,014 INFO scheduler Scheduled Job Complete: frappe.integrations.doctype.razorpay_settings.razorpay_settings.capture_payment for hr_management
2021-09-02 14:32:28,114 INFO scheduler Scheduled Job Start: frappe.email.doctype.email_account.email_account.notify_unreplied for hr_management
2021-09-02 14:32:28,503 INFO scheduler Scheduled Job Complete: frappe.email.doctype.email_account.email_account.notify_unreplied for hr_management
2021-09-02 14:32:28,609 INFO scheduler Scheduled Job Start: frappe.email.doctype.email_account.email_account.pull for hr_management
2021-09-02 14:32:28,978 INFO scheduler Scheduled Job Complete: frappe.email.doctype.email_account.email_account.pull for hr_management
2021-09-02 14:32:29,078 INFO scheduler Scheduled Job Start: frappe.email.queue.flush for hr_management
2021-09-02 14:32:29,395 INFO scheduler Scheduled Job Complete: frappe.email.queue.flush for hr_management
2021-09-02 14:33:24,134 DEBUG scheduler Queued events for site dev1
2021-09-02 14:34:24,535 DEBUG scheduler Queued events for site dev1
2021-09-02 14:35:24,918 DEBUG scheduler Queued events for site dev1
2021-09-02 14:36:25,331 DEBUG scheduler Queued events for site dev1
2021-09-02 14:36:25,368 INFO scheduler Scheduled Job Start: frappe.monitor.flush for dev1
2021-09-02 14:36:25,619 INFO scheduler Scheduled Job Complete: frappe.monitor.flush for dev1
2021-09-02 14:36:25,703 INFO scheduler Scheduled Job Start: frappe.utils.global_search.sync_global_search for dev1
2021-09-02 14:36:25,941 INFO scheduler Scheduled Job Complete: frappe.utils.global_search.sync_global_search for dev1
2021-09-02 14:36:26,034 INFO scheduler Scheduled Job Start: frappe.integrations.doctype.razorpay_settings.razorpay_settings.capture_payment for dev1
2021-09-02 14:36:26,421 INFO scheduler Scheduled Job Complete: frappe.integrations.doctype.razorpay_settings.razorpay_settings.capture_payment for dev1
2021-09-02 14:36:26,532 INFO scheduler Scheduled Job Start: frappe.email.doctype.email_account.email_account.notify_unreplied for dev1
2021-09-02 14:36:26,896 INFO scheduler Scheduled Job Complete: frappe.email.doctype.email_account.email_account.notify_unreplied for dev1
2021-09-02 14:36:27,015 INFO scheduler Scheduled Job Start: frappe.email.doctype.email_account.email_account.pull for dev1
2021-09-02 14:36:27,366 INFO scheduler Scheduled Job Complete: frappe.email.doctype.email_account.email_account.pull for dev1
2021-09-02 14:36:27,472 INFO scheduler Scheduled Job Start: frappe.email.queue.flush for dev1
2021-09-02 14:36:27,741 INFO scheduler Scheduled Job Complete: frappe.email.queue.flush for dev1
2021-09-02 14:36:27,829 INFO scheduler Scheduled Job Start: frappe.monitor.flush for hr_management
2021-09-02 14:36:28,078 INFO scheduler Scheduled Job Complete: frappe.monitor.flush for hr_management
2021-09-02 14:36:28,184 INFO scheduler Scheduled Job Start: frappe.utils.global_search.sync_global_search for hr_management
2021-09-02 14:36:28,467 INFO scheduler Scheduled Job Complete: frappe.utils.global_search.sync_global_search for hr_management
2021-09-02 14:36:28,558 INFO scheduler Scheduled Job Start: frappe.integrations.doctype.razorpay_settings.razorpay_settings.capture_payment for hr_management
2021-09-02 14:36:28,949 INFO scheduler Scheduled Job Complete: frappe.integrations.doctype.razorpay_settings.razorpay_settings.capture_payment for hr_management
2021-09-02 14:36:29,044 INFO scheduler Scheduled Job Start: frappe.email.doctype.email_account.email_account.notify_unreplied for hr_management
2021-09-02 14:36:29,363 INFO scheduler Scheduled Job Complete: frappe.email.doctype.email_account.email_account.notify_unreplied for hr_management
2021-09-02 14:36:29,450 INFO scheduler Scheduled Job Start: frappe.email.doctype.email_account.email_account.pull for hr_management
2021-09-02 14:36:29,768 INFO scheduler Scheduled Job Complete: frappe.email.doctype.email_account.email_account.pull for hr_management
2021-09-02 14:36:29,862 INFO scheduler Scheduled Job Start: frappe.email.queue.flush for hr_management
2021-09-02 14:36:30,122 INFO scheduler Scheduled Job Complete: frappe.email.queue.flush for hr_management
2021-09-02 14:37:25,738 DEBUG scheduler Queued events for site dev1
2021-09-02 14:38:26,148 DEBUG scheduler Queued events for site dev1
2021-09-02 14:39:26,517 DEBUG scheduler Queued events for site dev1
2021-09-02 14:40:26,943 DEBUG scheduler Queued events for site dev1
2021-09-02 14:40:26,981 INFO scheduler Scheduled Job Start: frappe.monitor.flush for dev1
2021-09-02 14:40:27,298 INFO scheduler Scheduled Job Complete: frappe.monitor.flush for dev1
2021-09-02 14:40:27,391 INFO scheduler Scheduled Job Start: frappe.utils.global_search.sync_global_search for dev1
2021-09-02 14:40:27,678 INFO scheduler Scheduled Job Complete: frappe.utils.global_search.sync_global_search for dev1
2021-09-02 14:40:27,788 INFO scheduler Scheduled Job Start: frappe.integrations.doctype.razorpay_settings.razorpay_settings.capture_payment for dev1
2021-09-02 14:40:28,260 INFO scheduler Scheduled Job Complete: frappe.integrations.doctype.razorpay_settings.razorpay_settings.capture_payment for dev1
2021-09-02 14:40:28,372 INFO scheduler Scheduled Job Start: frappe.email.doctype.email_account.email_account.notify_unreplied for dev1
2021-09-02 14:40:28,746 INFO scheduler Scheduled Job Complete: frappe.email.doctype.email_account.email_account.notify_unreplied for dev1
2021-09-02 14:40:28,850 INFO scheduler Scheduled Job Start: frappe.email.doctype.email_account.email_account.pull for dev1
2021-09-02 14:40:29,229 INFO scheduler Scheduled Job Complete: frappe.email.doctype.email_account.email_account.pull for dev1
2021-09-02 14:40:29,348 INFO scheduler Scheduled Job Start: frappe.email.queue.flush for dev1
2021-09-02 14:40:29,659 INFO scheduler Scheduled Job Complete: frappe.email.queue.flush for dev1
2021-09-02 14:40:29,760 INFO scheduler Scheduled Job Start: frappe.monitor.flush for hr_management
2021-09-02 14:40:30,022 INFO scheduler Scheduled Job Complete: frappe.monitor.flush for hr_management
2021-09-02 14:40:30,121 INFO scheduler Scheduled Job Start: frappe.utils.global_search.sync_global_search for hr_management
2021-09-02 14:40:30,411 INFO scheduler Scheduled Job Complete: frappe.utils.global_search.sync_global_search for hr_management
2021-09-02 14:40:30,509 INFO scheduler Scheduled Job Start: frappe.integrations.doctype.razorpay_settings.razorpay_settings.capture_payment for hr_management
2021-09-02 14:40:30,961 INFO scheduler Scheduled Job Complete: frappe.integrations.doctype.razorpay_settings.razorpay_settings.capture_payment for hr_management
2021-09-02 14:40:31,067 INFO scheduler Scheduled Job Start: frappe.email.doctype.email_account.email_account.notify_unreplied for hr_management
2021-09-02 14:40:31,407 INFO scheduler Scheduled Job Complete: frappe.email.doctype.email_account.email_account.notify_unreplied for hr_management
2021-09-02 14:40:31,515 INFO scheduler Scheduled Job Start: frappe.email.doctype.email_account.email_account.pull for hr_management
2021-09-02 14:40:31,861 INFO scheduler Scheduled Job Complete: frappe.email.doctype.email_account.email_account.pull for hr_management
2021-09-02 14:40:31,951 INFO scheduler Scheduled Job Start: frappe.email.queue.flush for hr_management
2021-09-02 14:40:32,261 INFO scheduler Scheduled Job Complete: frappe.email.queue.flush for hr_management
2021-09-02 14:41:27,356 DEBUG scheduler Queued events for site dev1
2021-09-02 14:42:27,762 DEBUG scheduler Queued events for site dev1
2021-09-02 14:43:28,154 DEBUG scheduler Queued events for site dev1
2021-09-02 14:44:28,562 DEBUG scheduler Queued events for site dev1
2021-09-02 14:44:28,601 INFO scheduler Scheduled Job Start: frappe.monitor.flush for dev1
2021-09-02 14:44:28,848 INFO scheduler Scheduled Job Complete: frappe.monitor.flush for dev1
2021-09-02 14:44:28,939 INFO scheduler Scheduled Job Start: frappe.utils.global_search.sync_global_search for dev1
2021-09-02 14:44:29,189 INFO scheduler Scheduled Job Complete: frappe.utils.global_search.sync_global_search for dev1
2021-09-02 14:44:29,281 INFO scheduler Scheduled Job Start: frappe.integrations.doctype.razorpay_settings.razorpay_settings.capture_payment for dev1
2021-09-02 14:44:29,663 INFO scheduler Scheduled Job Complete: frappe.integrations.doctype.razorpay_settings.razorpay_settings.capture_payment for dev1
2021-09-02 14:44:29,758 INFO scheduler Scheduled Job Start: frappe.email.doctype.email_account.email_account.notify_unreplied for dev1
2021-09-02 14:44:30,077 INFO scheduler Scheduled Job Complete: frappe.email.doctype.email_account.email_account.notify_unreplied for dev1
2021-09-02 14:44:30,186 INFO scheduler Scheduled Job Start: frappe.email.doctype.email_account.email_account.pull for dev1
2021-09-02 14:44:30,507 INFO scheduler Scheduled Job Complete: frappe.email.doctype.email_account.email_account.pull for dev1
2021-09-02 14:44:30,604 INFO scheduler Scheduled Job Start: frappe.email.queue.flush for dev1
2021-09-02 14:44:30,854 INFO scheduler Scheduled Job Complete: frappe.email.queue.flush for dev1
2021-09-02 14:44:30,959 INFO scheduler Scheduled Job Start: frappe.monitor.flush for hr_management
2021-09-02 14:44:31,229 INFO scheduler Scheduled Job Complete: frappe.monitor.flush for hr_management
2021-09-02 14:44:31,343 INFO scheduler Scheduled Job Start: frappe.utils.global_search.sync_global_search for hr_management
2021-09-02 14:44:31,593 INFO scheduler Scheduled Job Complete: frappe.utils.global_search.sync_global_search for hr_management
2021-09-02 14:44:31,683 INFO scheduler Scheduled Job Start: frappe.integrations.doctype.razorpay_settings.razorpay_settings.capture_payment for hr_management
2021-09-02 14:44:32,060 INFO scheduler Scheduled Job Complete: frappe.integrations.doctype.razorpay_settings.razorpay_settings.capture_payment for hr_management
2021-09-02 14:44:32,164 INFO scheduler Scheduled Job Start: frappe.email.doctype.email_account.email_account.notify_unreplied for hr_management
2021-09-02 14:44:32,522 INFO scheduler Scheduled Job Complete: frappe.email.doctype.email_account.email_account.notify_unreplied for hr_management
2021-09-02 14:44:32,611 INFO scheduler Scheduled Job Start: frappe.email.doctype.email_account.email_account.pull for hr_management
2021-09-02 14:44:32,931 INFO scheduler Scheduled Job Complete: frappe.email.doctype.email_account.email_account.pull for hr_management
2021-09-02 14:44:33,034 INFO scheduler Scheduled Job Start: frappe.email.queue.flush for hr_management
2021-09-02 14:44:33,319 INFO scheduler Scheduled Job Complete: frappe.email.queue.flush for hr_management
2021-09-02 14:45:28,973 DEBUG scheduler Queued events for site dev1
2021-09-02 14:45:29,038 INFO scheduler Scheduled Job Start: frappe.twofactor.delete_all_barcodes_for_users for dev1
2021-09-02 14:45:29,492 INFO scheduler Scheduled Job Complete: frappe.twofactor.delete_all_barcodes_for_users for dev1
2021-09-02 14:45:29,592 INFO scheduler Scheduled Job Start: frappe.website.doctype.web_page.web_page.check_publish_status for dev1
2021-09-02 14:45:30,080 INFO scheduler Scheduled Job Complete: frappe.website.doctype.web_page.web_page.check_publish_status for dev1
2021-09-02 14:45:30,197 INFO scheduler Scheduled Job Start: frappe.oauth.delete_oauth2_data for dev1
2021-09-02 14:45:30,610 INFO scheduler Scheduled Job Complete: frappe.oauth.delete_oauth2_data for dev1
2021-09-02 14:45:30,722 INFO scheduler Scheduled Job Start: frappe.twofactor.delete_all_barcodes_for_users for hr_management
2021-09-02 14:45:31,158 INFO scheduler Scheduled Job Complete: frappe.twofactor.delete_all_barcodes_for_users for hr_management
2021-09-02 14:45:31,261 INFO scheduler Scheduled Job Start: frappe.website.doctype.web_page.web_page.check_publish_status for hr_management
2021-09-02 14:45:31,719 INFO scheduler Scheduled Job Complete: frappe.website.doctype.web_page.web_page.check_publish_status for hr_management
2021-09-02 14:45:31,828 INFO scheduler Scheduled Job Start: frappe.oauth.delete_oauth2_data for hr_management
2021-09-02 14:45:32,229 INFO scheduler Scheduled Job Complete: frappe.oauth.delete_oauth2_data for hr_management
2021-09-02 14:46:29,397 DEBUG scheduler Queued events for site dev1
2021-09-02 14:47:29,792 DEBUG scheduler Queued events for site dev1
2021-09-02 14:48:30,212 DEBUG scheduler Queued events for site dev1
2021-09-02 14:48:30,248 INFO scheduler Scheduled Job Start: frappe.monitor.flush for dev1
2021-09-02 14:48:30,515 INFO scheduler Scheduled Job Complete: frappe.monitor.flush for dev1
2021-09-02 14:48:30,628 INFO scheduler Scheduled Job Start: frappe.utils.global_search.sync_global_search for dev1
2021-09-02 14:48:30,875 INFO scheduler Scheduled Job Complete: frappe.utils.global_search.sync_global_search for dev1
2021-09-02 14:48:30,963 INFO scheduler Scheduled Job Start: frappe.integrations.doctype.razorpay_settings.razorpay_settings.capture_payment for dev1
2021-09-02 14:48:31,396 INFO scheduler Scheduled Job Complete: frappe.integrations.doctype.razorpay_settings.razorpay_settings.capture_payment for dev1
2021-09-02 14:48:31,489 INFO scheduler Scheduled Job Start: frappe.email.doctype.email_account.email_account.notify_unreplied for dev1
2021-09-02 14:48:31,824 INFO scheduler Scheduled Job Complete: frappe.email.doctype.email_account.email_account.notify_unreplied for dev1
2021-09-02 14:48:31,918 INFO scheduler Scheduled Job Start: frappe.email.doctype.email_account.email_account.pull for dev1
2021-09-02 14:48:32,267 INFO scheduler Scheduled Job Complete: frappe.email.doctype.email_account.email_account.pull for dev1
2021-09-02 14:48:32,354 INFO scheduler Scheduled Job Start: frappe.email.queue.flush for dev1
2021-09-02 14:48:32,620 INFO scheduler Scheduled Job Complete: frappe.email.queue.flush for dev1
2021-09-02 14:48:32,703 INFO scheduler Scheduled Job Start: frappe.monitor.flush for hr_management
2021-09-02 14:48:32,955 INFO scheduler Scheduled Job Complete: frappe.monitor.flush for hr_management
2021-09-02 14:48:33,046 INFO scheduler Scheduled Job Start: frappe.utils.global_search.sync_global_search for hr_management
2021-09-02 14:48:33,321 INFO scheduler Scheduled Job Complete: frappe.utils.global_search.sync_global_search for hr_management
2021-09-02 14:48:33,422 INFO scheduler Scheduled Job Start: frappe.integrations.doctype.razorpay_settings.razorpay_settings.capture_payment for hr_management
2021-09-02 14:48:33,820 INFO scheduler Scheduled Job Complete: frappe.integrations.doctype.razorpay_settings.razorpay_settings.capture_payment for hr_management
2021-09-02 14:48:33,908 INFO scheduler Scheduled Job Start: frappe.email.doctype.email_account.email_account.notify_unreplied for hr_management
2021-09-02 14:48:34,231 INFO scheduler Scheduled Job Complete: frappe.email.doctype.email_account.email_account.notify_unreplied for hr_management
2021-09-02 14:48:34,317 INFO scheduler Scheduled Job Start: frappe.email.doctype.email_account.email_account.pull for hr_management
2021-09-02 14:48:34,642 INFO scheduler Scheduled Job Complete: frappe.email.doctype.email_account.email_account.pull for hr_management
2021-09-02 14:48:34,730 INFO scheduler Scheduled Job Start: frappe.email.queue.flush for hr_management
2021-09-02 14:48:34,995 INFO scheduler Scheduled Job Complete: frappe.email.queue.flush for hr_management
2021-09-02 14:49:30,650 DEBUG scheduler Queued events for site dev1
2021-09-02 14:50:31,072 DEBUG scheduler Queued events for site dev1
2021-09-02 14:51:31,440 DEBUG scheduler Queued events for site dev1
2021-09-02 14:52:31,837 DEBUG scheduler Queued events for site dev1
2021-09-02 14:52:31,873 INFO scheduler Scheduled Job Start: frappe.monitor.flush for dev1
2021-09-02 14:52:32,127 INFO scheduler Scheduled Job Complete: frappe.monitor.flush for dev1
2021-09-02 14:52:32,227 INFO scheduler Scheduled Job Start: frappe.utils.global_search.sync_global_search for dev1
2021-09-02 14:52:32,472 INFO scheduler Scheduled Job Complete: frappe.utils.global_search.sync_global_search for dev1
2021-09-02 14:52:32,563 INFO scheduler Scheduled Job Start: frappe.integrations.doctype.razorpay_settings.razorpay_settings.capture_payment for dev1
2021-09-02 14:52:32,942 INFO scheduler Scheduled Job Complete: frappe.integrations.doctype.razorpay_settings.razorpay_settings.capture_payment for dev1
2021-09-02 14:52:33,037 INFO scheduler Scheduled Job Start: frappe.email.doctype.email_account.email_account.notify_unreplied for dev1
2021-09-02 14:52:33,376 INFO scheduler Scheduled Job Complete: frappe.email.doctype.email_account.email_account.notify_unreplied for dev1
2021-09-02 14:52:33,479 INFO scheduler Scheduled Job Start: frappe.email.doctype.email_account.email_account.pull for dev1
2021-09-02 14:52:33,803 INFO scheduler Scheduled Job Complete: frappe.email.doctype.email_account.email_account.pull for dev1
2021-09-02 14:52:33,895 INFO scheduler Scheduled Job Start: frappe.email.queue.flush for dev1
2021-09-02 14:52:34,155 INFO scheduler Scheduled Job Complete: frappe.email.queue.flush for dev1
2021-09-02 14:52:34,250 INFO scheduler Scheduled Job Start: frappe.monitor.flush for hr_management
2021-09-02 14:52:34,498 INFO scheduler Scheduled Job Complete: frappe.monitor.flush for hr_management
2021-09-02 14:52:34,587 INFO scheduler Scheduled Job Start: frappe.utils.global_search.sync_global_search for hr_management
2021-09-02 14:52:34,852 INFO scheduler Scheduled Job Complete: frappe.utils.global_search.sync_global_search for hr_management
2021-09-02 14:52:34,934 INFO scheduler Scheduled Job Start: frappe.integrations.doctype.razorpay_settings.razorpay_settings.capture_payment for hr_management
2021-09-02 14:52:35,327 INFO scheduler Scheduled Job Complete: frappe.integrations.doctype.razorpay_settings.razorpay_settings.capture_payment for hr_management
2021-09-02 14:52:35,413 INFO scheduler Scheduled Job Start: frappe.email.doctype.email_account.email_account.notify_unreplied for hr_management
2021-09-02 14:52:35,718 INFO scheduler Scheduled Job Complete: frappe.email.doctype.email_account.email_account.notify_unreplied for hr_management
2021-09-02 14:52:35,811 INFO scheduler Scheduled Job Start: frappe.email.doctype.email_account.email_account.pull for hr_management
2021-09-02 14:52:36,142 INFO scheduler Scheduled Job Complete: frappe.email.doctype.email_account.email_account.pull for hr_management
2021-09-02 14:52:36,255 INFO scheduler Scheduled Job Start: frappe.email.queue.flush for hr_management
2021-09-02 14:52:36,517 INFO scheduler Scheduled Job Complete: frappe.email.queue.flush for hr_management
2021-09-02 14:53:32,255 DEBUG scheduler Queued events for site dev1
2021-09-02 14:54:32,647 DEBUG scheduler Queued events for site dev1
2021-09-02 14:55:33,005 DEBUG scheduler Queued events for site dev1
2021-09-02 14:56:33,455 DEBUG scheduler Queued events for site dev1
2021-09-02 14:56:33,500 INFO scheduler Scheduled Job Start: frappe.monitor.flush for dev1
2021-09-02 14:56:33,756 INFO scheduler Scheduled Job Complete: frappe.monitor.flush for dev1
2021-09-02 14:56:33,847 INFO scheduler Scheduled Job Start: frappe.utils.global_search.sync_global_search for dev1
2021-09-02 14:56:34,092 INFO scheduler Scheduled Job Complete: frappe.utils.global_search.sync_global_search for dev1
2021-09-02 14:56:34,187 INFO scheduler Scheduled Job Start: frappe.integrations.doctype.razorpay_settings.razorpay_settings.capture_payment for dev1
2021-09-02 14:56:34,580 INFO scheduler Scheduled Job Complete: frappe.integrations.doctype.razorpay_settings.razorpay_settings.capture_payment for dev1
2021-09-02 14:56:34,677 INFO scheduler Scheduled Job Start: frappe.email.doctype.email_account.email_account.notify_unreplied for dev1
2021-09-02 14:56:35,011 INFO scheduler Scheduled Job Complete: frappe.email.doctype.email_account.email_account.notify_unreplied for dev1
2021-09-02 14:56:35,097 INFO scheduler Scheduled Job Start: frappe.email.doctype.email_account.email_account.pull for dev1
2021-09-02 14:56:35,464 INFO scheduler Scheduled Job Complete: frappe.email.doctype.email_account.email_account.pull for dev1
2021-09-02 14:56:35,560 INFO scheduler Scheduled Job Start: frappe.email.queue.flush for dev1
2021-09-02 14:56:35,830 INFO scheduler Scheduled Job Complete: frappe.email.queue.flush for dev1
2021-09-02 14:56:35,915 INFO scheduler Scheduled Job Start: frappe.monitor.flush for hr_management
2021-09-02 14:56:36,160 INFO scheduler Scheduled Job Complete: frappe.monitor.flush for hr_management
2021-09-02 14:56:36,250 INFO scheduler Scheduled Job Start: frappe.utils.global_search.sync_global_search for hr_management
2021-09-02 14:56:36,490 INFO scheduler Scheduled Job Complete: frappe.utils.global_search.sync_global_search for hr_management
2021-09-02 14:56:36,582 INFO scheduler Scheduled Job Start: frappe.integrations.doctype.razorpay_settings.razorpay_settings.capture_payment for hr_management
2021-09-02 14:56:36,966 INFO scheduler Scheduled Job Complete: frappe.integrations.doctype.razorpay_settings.razorpay_settings.capture_payment for hr_management
2021-09-02 14:56:37,055 INFO scheduler Scheduled Job Start: frappe.email.doctype.email_account.email_account.notify_unreplied for hr_management
2021-09-02 14:56:37,370 INFO scheduler Scheduled Job Complete: frappe.email.doctype.email_account.email_account.notify_unreplied for hr_management
2021-09-02 14:56:37,461 INFO scheduler Scheduled Job Start: frappe.email.doctype.email_account.email_account.pull for hr_management
2021-09-02 14:56:37,829 INFO scheduler Scheduled Job Complete: frappe.email.doctype.email_account.email_account.pull for hr_management
2021-09-02 14:56:37,915 INFO scheduler Scheduled Job Start: frappe.email.queue.flush for hr_management
2021-09-02 14:56:38,212 INFO scheduler Scheduled Job Complete: frappe.email.queue.flush for hr_management
2021-09-02 14:57:33,888 DEBUG scheduler Queued events for site dev1
2021-09-02 14:58:34,297 DEBUG scheduler Queued events for site dev1
2021-09-02 14:59:34,651 DEBUG scheduler Queued events for site dev1
2021-09-02 15:00:35,098 INFO scheduler Scheduled Job Start: frappe.email.doctype.newsletter.newsletter.send_scheduled_email for dev1
2021-09-02 15:00:35,156 DEBUG scheduler Queued events for site dev1
2021-09-02 15:00:35,603 INFO scheduler Scheduled Job Complete: frappe.email.doctype.newsletter.newsletter.send_scheduled_email for dev1
2021-09-02 15:00:35,698 INFO scheduler Scheduled Job Start: frappe.integrations.doctype.google_calendar.google_calendar.sync for dev1
2021-09-02 15:00:36,328 INFO scheduler Scheduled Job Complete: frappe.integrations.doctype.google_calendar.google_calendar.sync for dev1
2021-09-02 15:00:36,425 INFO scheduler Scheduled Job Start: frappe.desk.form.document_follow.send_hourly_updates for dev1
2021-09-02 15:00:36,884 INFO scheduler Scheduled Job Complete: frappe.desk.form.document_follow.send_hourly_updates for dev1
2021-09-02 15:00:36,987 INFO scheduler Scheduled Job Start: frappe.deferred_insert.save_to_db for dev1
2021-09-02 15:00:37,507 INFO scheduler Scheduled Job Complete: frappe.deferred_insert.save_to_db for dev1
2021-09-02 15:00:37,606 INFO scheduler Scheduled Job Start: frappe.desk.page.backups.backups.delete_downloadable_backups for dev1
2021-09-02 15:00:38,007 INFO scheduler Scheduled Job Complete: frappe.desk.page.backups.backups.delete_downloadable_backups for dev1
2021-09-02 15:00:38,117 INFO scheduler Scheduled Job Start: frappe.utils.error.collect_error_snapshots for dev1
2021-09-02 15:00:38,520 INFO scheduler Scheduled Job Complete: frappe.utils.error.collect_error_snapshots for dev1
2021-09-02 15:00:38,619 INFO scheduler Scheduled Job Start: frappe.model.utils.user_settings.sync_user_settings for dev1
2021-09-02 15:00:38,981 INFO scheduler Scheduled Job Complete: frappe.model.utils.user_settings.sync_user_settings for dev1
2021-09-02 15:00:39,091 INFO scheduler Scheduled Job Start: frappe.model.utils.link_count.update_link_count for dev1
2021-09-02 15:00:39,533 INFO scheduler Scheduled Job Complete: frappe.model.utils.link_count.update_link_count for dev1
2021-09-02 15:00:39,627 INFO scheduler Scheduled Job Start: frappe.monitor.flush for dev1
2021-09-02 15:00:39,915 INFO scheduler Scheduled Job Complete: frappe.monitor.flush for dev1
2021-09-02 15:00:40,020 INFO scheduler Scheduled Job Start: frappe.utils.global_search.sync_global_search for dev1
2021-09-02 15:00:40,285 INFO scheduler Scheduled Job Complete: frappe.utils.global_search.sync_global_search for dev1
2021-09-02 15:00:40,378 INFO scheduler Scheduled Job Start: frappe.integrations.doctype.razorpay_settings.razorpay_settings.capture_payment for dev1
2021-09-02 15:00:40,838 INFO scheduler Scheduled Job Complete: frappe.integrations.doctype.razorpay_settings.razorpay_settings.capture_payment for dev1
2021-09-02 15:00:40,939 INFO scheduler Scheduled Job Start: frappe.email.doctype.email_account.email_account.notify_unreplied for dev1
2021-09-02 15:00:41,251 INFO scheduler Scheduled Job Complete: frappe.email.doctype.email_account.email_account.notify_unreplied for dev1
2021-09-02 15:00:41,367 INFO scheduler Scheduled Job Start: frappe.email.doctype.email_account.email_account.pull for dev1
2021-09-02 15:00:41,687 INFO scheduler Scheduled Job Complete: frappe.email.doctype.email_account.email_account.pull for dev1
2021-09-02 15:00:41,775 INFO scheduler Scheduled Job Start: frappe.email.queue.flush for dev1
2021-09-02 15:00:42,042 INFO scheduler Scheduled Job Complete: frappe.email.queue.flush for dev1
2021-09-02 15:00:42,133 INFO scheduler Scheduled Job Start: frappe.twofactor.delete_all_barcodes_for_users for dev1
2021-09-02 15:00:42,571 INFO scheduler Scheduled Job Complete: frappe.twofactor.delete_all_barcodes_for_users for dev1
2021-09-02 15:00:42,701 INFO scheduler Scheduled Job Start: frappe.website.doctype.web_page.web_page.check_publish_status for dev1
2021-09-02 15:00:43,195 INFO scheduler Scheduled Job Complete: frappe.website.doctype.web_page.web_page.check_publish_status for dev1
2021-09-02 15:00:43,288 INFO scheduler Scheduled Job Start: frappe.oauth.delete_oauth2_data for dev1
2021-09-02 15:00:43,714 INFO scheduler Scheduled Job Complete: frappe.oauth.delete_oauth2_data for dev1
2021-09-02 15:00:43,828 INFO scheduler Scheduled Job Start: frappe.email.doctype.newsletter.newsletter.send_scheduled_email for hr_management
2021-09-02 15:00:44,333 INFO scheduler Scheduled Job Complete: frappe.email.doctype.newsletter.newsletter.send_scheduled_email for hr_management
2021-09-02 15:00:44,442 INFO scheduler Scheduled Job Start: frappe.integrations.doctype.google_calendar.google_calendar.sync for hr_management
2021-09-02 15:00:45,037 INFO scheduler Scheduled Job Complete: frappe.integrations.doctype.google_calendar.google_calendar.sync for hr_management
2021-09-02 15:00:45,144 INFO scheduler Scheduled Job Start: frappe.desk.form.document_follow.send_hourly_updates for hr_management
2021-09-02 15:00:45,533 INFO scheduler Scheduled Job Complete: frappe.desk.form.document_follow.send_hourly_updates for hr_management
2021-09-02 15:00:45,641 INFO scheduler Scheduled Job Start: frappe.deferred_insert.save_to_db for hr_management
2021-09-02 15:00:46,009 INFO scheduler Scheduled Job Complete: frappe.deferred_insert.save_to_db for hr_management
2021-09-02 15:00:46,120 INFO scheduler Scheduled Job Start: frappe.desk.page.backups.backups.delete_downloadable_backups for hr_management
2021-09-02 15:00:46,529 INFO scheduler Scheduled Job Complete: frappe.desk.page.backups.backups.delete_downloadable_backups for hr_management
2021-09-02 15:00:46,645 INFO scheduler Scheduled Job Start: frappe.utils.error.collect_error_snapshots for hr_management
2021-09-02 15:00:47,041 INFO scheduler Scheduled Job Complete: frappe.utils.error.collect_error_snapshots for hr_management
2021-09-02 15:00:47,133 INFO scheduler Scheduled Job Start: frappe.model.utils.user_settings.sync_user_settings for hr_management
2021-09-02 15:00:47,510 INFO scheduler Scheduled Job Complete: frappe.model.utils.user_settings.sync_user_settings for hr_management
