2021-09-03 11:36:59,867 INFO scheduler Scheduled Job Complete: frappe.integrations.doctype.razorpay_settings.razorpay_settings.capture_payment for hr_management
2021-09-03 11:36:59,966 INFO scheduler Scheduled Job Start: frappe.email.doctype.email_account.email_account.notify_unreplied for hr_management
2021-09-03 11:37:00,311 INFO scheduler Scheduled Job Complete: frappe.email.doctype.email_account.email_account.notify_unreplied for hr_management
2021-09-03 11:37:00,426 INFO scheduler Scheduled Job Start: frappe.email.doctype.email_account.email_account.pull for hr_management
2021-09-03 11:37:00,790 INFO scheduler Scheduled Job Complete: frappe.email.doctype.email_account.email_account.pull for hr_management
2021-09-03 11:37:00,879 INFO scheduler Scheduled Job Start: frappe.email.queue.flush for hr_management
2021-09-03 11:37:01,138 INFO scheduler Scheduled Job Complete: frappe.email.queue.flush for hr_management
