2021-09-02 22:00:37,456 INFO scheduler Scheduled Job Complete: frappe.model.utils.user_settings.sync_user_settings for hr_management
2021-09-02 22:00:37,562 INFO scheduler Scheduled Job Start: frappe.model.utils.link_count.update_link_count for hr_management
2021-09-02 22:00:37,924 INFO scheduler Scheduled Job Complete: frappe.model.utils.link_count.update_link_count for hr_management
2021-09-02 22:00:38,028 INFO scheduler Scheduled Job Start: frappe.monitor.flush for hr_management
2021-09-02 22:00:38,286 INFO scheduler Scheduled Job Complete: frappe.monitor.flush for hr_management
2021-09-02 22:00:38,375 INFO scheduler Scheduled Job Start: frappe.utils.global_search.sync_global_search for hr_management
2021-09-02 22:00:38,628 INFO scheduler Scheduled Job Complete: frappe.utils.global_search.sync_global_search for hr_management
2021-09-02 22:00:38,714 INFO scheduler Scheduled Job Start: frappe.integrations.doctype.razorpay_settings.razorpay_settings.capture_payment for hr_management
2021-09-02 22:00:39,094 INFO scheduler Scheduled Job Complete: frappe.integrations.doctype.razorpay_settings.razorpay_settings.capture_payment for hr_management
2021-09-02 22:00:39,192 INFO scheduler Scheduled Job Start: frappe.email.doctype.email_account.email_account.notify_unreplied for hr_management
2021-09-02 22:00:39,506 INFO scheduler Scheduled Job Complete: frappe.email.doctype.email_account.email_account.notify_unreplied for hr_management
2021-09-02 22:00:39,601 INFO scheduler Scheduled Job Start: frappe.email.doctype.email_account.email_account.pull for hr_management
2021-09-02 22:00:39,930 INFO scheduler Scheduled Job Complete: frappe.email.doctype.email_account.email_account.pull for hr_management
2021-09-02 22:00:40,020 INFO scheduler Scheduled Job Start: frappe.email.queue.flush for hr_management
2021-09-02 22:00:40,312 INFO scheduler Scheduled Job Complete: frappe.email.queue.flush for hr_management
2021-09-02 22:00:40,405 INFO scheduler Scheduled Job Start: frappe.twofactor.delete_all_barcodes_for_users for hr_management
2021-09-02 22:00:40,790 INFO scheduler Scheduled Job Complete: frappe.twofactor.delete_all_barcodes_for_users for hr_management
2021-09-02 22:00:40,884 INFO scheduler Scheduled Job Start: frappe.website.doctype.web_page.web_page.check_publish_status for hr_management
2021-09-02 22:00:41,308 INFO scheduler Scheduled Job Complete: frappe.website.doctype.web_page.web_page.check_publish_status for hr_management
2021-09-02 22:00:41,411 INFO scheduler Scheduled Job Start: frappe.oauth.delete_oauth2_data for hr_management
2021-09-02 22:00:41,800 INFO scheduler Scheduled Job Complete: frappe.oauth.delete_oauth2_data for hr_management
