2021-09-03 09:56:08,376 INFO scheduler Scheduled Job Start: frappe.email.queue.flush for dev1
2021-09-03 09:56:08,639 INFO scheduler Scheduled Job Complete: frappe.email.queue.flush for dev1
2021-09-03 09:56:08,717 INFO scheduler Scheduled Job Start: frappe.monitor.flush for hr_management
2021-09-03 09:56:08,978 INFO scheduler Scheduled Job Complete: frappe.monitor.flush for hr_management
2021-09-03 09:56:09,065 INFO scheduler Scheduled Job Start: frappe.utils.global_search.sync_global_search for hr_management
2021-09-03 09:56:09,337 INFO scheduler Scheduled Job Complete: frappe.utils.global_search.sync_global_search for hr_management
2021-09-03 09:56:09,422 INFO scheduler Scheduled Job Start: frappe.integrations.doctype.razorpay_settings.razorpay_settings.capture_payment for hr_management
2021-09-03 09:56:09,819 INFO scheduler Scheduled Job Complete: frappe.integrations.doctype.razorpay_settings.razorpay_settings.capture_payment for hr_management
2021-09-03 09:56:09,906 INFO scheduler Scheduled Job Start: frappe.email.doctype.email_account.email_account.notify_unreplied for hr_management
2021-09-03 09:56:10,253 INFO scheduler Scheduled Job Complete: frappe.email.doctype.email_account.email_account.notify_unreplied for hr_management
2021-09-03 09:56:10,334 INFO scheduler Scheduled Job Start: frappe.email.doctype.email_account.email_account.pull for hr_management
2021-09-03 09:56:10,696 INFO scheduler Scheduled Job Complete: frappe.email.doctype.email_account.email_account.pull for hr_management
2021-09-03 09:56:10,799 INFO scheduler Scheduled Job Start: frappe.email.queue.flush for hr_management
2021-09-03 09:56:11,072 INFO scheduler Scheduled Job Complete: frappe.email.queue.flush for hr_management
