2021-09-02 22:02:26,886 DEBUG scheduler Queued events for site dev1
2021-09-02 22:03:27,248 DEBUG scheduler Queued events for site dev1
2021-09-02 22:04:27,646 DEBUG scheduler Queued events for site dev1
2021-09-02 22:04:27,684 INFO scheduler Scheduled Job Start: frappe.monitor.flush for dev1
2021-09-02 22:04:27,984 INFO scheduler Scheduled Job Complete: frappe.monitor.flush for dev1
2021-09-02 22:04:28,069 INFO scheduler Scheduled Job Start: frappe.utils.global_search.sync_global_search for dev1
2021-09-02 22:04:28,328 INFO scheduler Scheduled Job Complete: frappe.utils.global_search.sync_global_search for dev1
2021-09-02 22:04:28,432 INFO scheduler Scheduled Job Start: frappe.integrations.doctype.razorpay_settings.razorpay_settings.capture_payment for dev1
2021-09-02 22:04:28,804 INFO scheduler Scheduled Job Complete: frappe.integrations.doctype.razorpay_settings.razorpay_settings.capture_payment for dev1
2021-09-02 22:04:28,905 INFO scheduler Scheduled Job Start: frappe.email.doctype.email_account.email_account.notify_unreplied for dev1
2021-09-02 22:04:29,217 INFO scheduler Scheduled Job Complete: frappe.email.doctype.email_account.email_account.notify_unreplied for dev1
2021-09-02 22:04:29,326 INFO scheduler Scheduled Job Start: frappe.email.doctype.email_account.email_account.pull for dev1
2021-09-02 22:04:29,676 INFO scheduler Scheduled Job Complete: frappe.email.doctype.email_account.email_account.pull for dev1
2021-09-02 22:04:29,771 INFO scheduler Scheduled Job Start: frappe.email.queue.flush for dev1
2021-09-02 22:04:30,042 INFO scheduler Scheduled Job Complete: frappe.email.queue.flush for dev1
2021-09-02 22:04:30,153 INFO scheduler Scheduled Job Start: frappe.monitor.flush for hr_management
2021-09-02 22:04:30,417 INFO scheduler Scheduled Job Complete: frappe.monitor.flush for hr_management
2021-09-02 22:04:30,516 INFO scheduler Scheduled Job Start: frappe.utils.global_search.sync_global_search for hr_management
2021-09-02 22:04:30,749 INFO scheduler Scheduled Job Complete: frappe.utils.global_search.sync_global_search for hr_management
2021-09-02 22:04:30,836 INFO scheduler Scheduled Job Start: frappe.integrations.doctype.razorpay_settings.razorpay_settings.capture_payment for hr_management
2021-09-02 22:04:31,216 INFO scheduler Scheduled Job Complete: frappe.integrations.doctype.razorpay_settings.razorpay_settings.capture_payment for hr_management
2021-09-02 22:04:31,301 INFO scheduler Scheduled Job Start: frappe.email.doctype.email_account.email_account.notify_unreplied for hr_management
2021-09-02 22:04:31,623 INFO scheduler Scheduled Job Complete: frappe.email.doctype.email_account.email_account.notify_unreplied for hr_management
2021-09-02 22:04:31,711 INFO scheduler Scheduled Job Start: frappe.email.doctype.email_account.email_account.pull for hr_management
2021-09-02 22:04:32,036 INFO scheduler Scheduled Job Complete: frappe.email.doctype.email_account.email_account.pull for hr_management
2021-09-02 22:04:32,142 INFO scheduler Scheduled Job Start: frappe.email.queue.flush for hr_management
2021-09-02 22:04:32,415 INFO scheduler Scheduled Job Complete: frappe.email.queue.flush for hr_management
2021-09-02 22:05:28,101 DEBUG scheduler Queued events for site dev1
2021-09-02 22:06:28,496 DEBUG scheduler Queued events for site dev1
2021-09-02 22:07:28,808 DEBUG scheduler Queued events for site dev1
2021-09-02 22:08:29,191 DEBUG scheduler Queued events for site dev1
2021-09-02 22:08:29,237 INFO scheduler Scheduled Job Start: frappe.monitor.flush for dev1
2021-09-02 22:08:29,541 INFO scheduler Scheduled Job Complete: frappe.monitor.flush for dev1
2021-09-02 22:08:29,639 INFO scheduler Scheduled Job Start: frappe.utils.global_search.sync_global_search for dev1
2021-09-02 22:08:29,901 INFO scheduler Scheduled Job Complete: frappe.utils.global_search.sync_global_search for dev1
2021-09-02 22:08:30,005 INFO scheduler Scheduled Job Start: frappe.integrations.doctype.razorpay_settings.razorpay_settings.capture_payment for dev1
2021-09-02 22:08:30,406 INFO scheduler Scheduled Job Complete: frappe.integrations.doctype.razorpay_settings.razorpay_settings.capture_payment for dev1
2021-09-02 22:08:30,492 INFO scheduler Scheduled Job Start: frappe.email.doctype.email_account.email_account.notify_unreplied for dev1
2021-09-02 22:08:30,794 INFO scheduler Scheduled Job Complete: frappe.email.doctype.email_account.email_account.notify_unreplied for dev1
2021-09-02 22:08:30,892 INFO scheduler Scheduled Job Start: frappe.email.doctype.email_account.email_account.pull for dev1
2021-09-02 22:08:31,239 INFO scheduler Scheduled Job Complete: frappe.email.doctype.email_account.email_account.pull for dev1
2021-09-02 22:08:31,343 INFO scheduler Scheduled Job Start: frappe.email.queue.flush for dev1
2021-09-02 22:08:31,609 INFO scheduler Scheduled Job Complete: frappe.email.queue.flush for dev1
2021-09-02 22:08:31,696 INFO scheduler Scheduled Job Start: frappe.monitor.flush for hr_management
2021-09-02 22:08:31,947 INFO scheduler Scheduled Job Complete: frappe.monitor.flush for hr_management
2021-09-02 22:08:32,048 INFO scheduler Scheduled Job Start: frappe.utils.global_search.sync_global_search for hr_management
2021-09-02 22:08:32,315 INFO scheduler Scheduled Job Complete: frappe.utils.global_search.sync_global_search for hr_management
2021-09-02 22:08:32,426 INFO scheduler Scheduled Job Start: frappe.integrations.doctype.razorpay_settings.razorpay_settings.capture_payment for hr_management
2021-09-02 22:08:32,824 INFO scheduler Scheduled Job Complete: frappe.integrations.doctype.razorpay_settings.razorpay_settings.capture_payment for hr_management
2021-09-02 22:08:32,916 INFO scheduler Scheduled Job Start: frappe.email.doctype.email_account.email_account.notify_unreplied for hr_management
2021-09-02 22:08:33,255 INFO scheduler Scheduled Job Complete: frappe.email.doctype.email_account.email_account.notify_unreplied for hr_management
2021-09-02 22:08:33,357 INFO scheduler Scheduled Job Start: frappe.email.doctype.email_account.email_account.pull for hr_management
2021-09-02 22:08:33,681 INFO scheduler Scheduled Job Complete: frappe.email.doctype.email_account.email_account.pull for hr_management
2021-09-02 22:08:33,766 INFO scheduler Scheduled Job Start: frappe.email.queue.flush for hr_management
2021-09-02 22:08:34,050 INFO scheduler Scheduled Job Complete: frappe.email.queue.flush for hr_management
2021-09-02 22:09:29,670 DEBUG scheduler Queued events for site dev1
2021-09-02 22:10:30,061 DEBUG scheduler Queued events for site dev1
2021-09-02 22:11:30,457 DEBUG scheduler Queued events for site dev1
2021-09-02 22:12:30,841 DEBUG scheduler Queued events for site dev1
2021-09-02 22:12:30,887 INFO scheduler Scheduled Job Start: frappe.monitor.flush for dev1
2021-09-02 22:12:31,179 INFO scheduler Scheduled Job Complete: frappe.monitor.flush for dev1
2021-09-02 22:12:31,285 INFO scheduler Scheduled Job Start: frappe.utils.global_search.sync_global_search for dev1
2021-09-02 22:12:31,529 INFO scheduler Scheduled Job Complete: frappe.utils.global_search.sync_global_search for dev1
2021-09-02 22:12:31,618 INFO scheduler Scheduled Job Start: frappe.integrations.doctype.razorpay_settings.razorpay_settings.capture_payment for dev1
2021-09-02 22:12:31,995 INFO scheduler Scheduled Job Complete: frappe.integrations.doctype.razorpay_settings.razorpay_settings.capture_payment for dev1
2021-09-02 22:12:32,085 INFO scheduler Scheduled Job Start: frappe.email.doctype.email_account.email_account.notify_unreplied for dev1
2021-09-02 22:12:32,400 INFO scheduler Scheduled Job Complete: frappe.email.doctype.email_account.email_account.notify_unreplied for dev1
2021-09-02 22:12:32,499 INFO scheduler Scheduled Job Start: frappe.email.doctype.email_account.email_account.pull for dev1
2021-09-02 22:12:32,832 INFO scheduler Scheduled Job Complete: frappe.email.doctype.email_account.email_account.pull for dev1
2021-09-02 22:12:32,918 INFO scheduler Scheduled Job Start: frappe.email.queue.flush for dev1
2021-09-02 22:12:33,190 INFO scheduler Scheduled Job Complete: frappe.email.queue.flush for dev1
2021-09-02 22:12:33,279 INFO scheduler Scheduled Job Start: frappe.monitor.flush for hr_management
2021-09-02 22:12:33,513 INFO scheduler Scheduled Job Complete: frappe.monitor.flush for hr_management
2021-09-02 22:12:33,611 INFO scheduler Scheduled Job Start: frappe.utils.global_search.sync_global_search for hr_management
2021-09-02 22:12:33,879 INFO scheduler Scheduled Job Complete: frappe.utils.global_search.sync_global_search for hr_management
2021-09-02 22:12:33,969 INFO scheduler Scheduled Job Start: frappe.integrations.doctype.razorpay_settings.razorpay_settings.capture_payment for hr_management
2021-09-02 22:12:34,367 INFO scheduler Scheduled Job Complete: frappe.integrations.doctype.razorpay_settings.razorpay_settings.capture_payment for hr_management
2021-09-02 22:12:34,462 INFO scheduler Scheduled Job Start: frappe.email.doctype.email_account.email_account.notify_unreplied for hr_management
2021-09-02 22:12:34,785 INFO scheduler Scheduled Job Complete: frappe.email.doctype.email_account.email_account.notify_unreplied for hr_management
2021-09-02 22:12:34,885 INFO scheduler Scheduled Job Start: frappe.email.doctype.email_account.email_account.pull for hr_management
2021-09-02 22:12:35,232 INFO scheduler Scheduled Job Complete: frappe.email.doctype.email_account.email_account.pull for hr_management
2021-09-02 22:12:35,331 INFO scheduler Scheduled Job Start: frappe.email.queue.flush for hr_management
2021-09-02 22:12:35,590 INFO scheduler Scheduled Job Complete: frappe.email.queue.flush for hr_management
2021-09-02 22:13:31,307 DEBUG scheduler Queued events for site dev1
2021-09-02 22:14:31,708 DEBUG scheduler Queued events for site dev1
2021-09-02 22:15:32,075 DEBUG scheduler Queued events for site dev1
2021-09-02 22:15:32,138 INFO scheduler Scheduled Job Start: frappe.twofactor.delete_all_barcodes_for_users for dev1
2021-09-02 22:15:32,556 INFO scheduler Scheduled Job Complete: frappe.twofactor.delete_all_barcodes_for_users for dev1
2021-09-02 22:15:32,670 INFO scheduler Scheduled Job Start: frappe.website.doctype.web_page.web_page.check_publish_status for dev1
2021-09-02 22:15:33,131 INFO scheduler Scheduled Job Complete: frappe.website.doctype.web_page.web_page.check_publish_status for dev1
2021-09-02 22:15:33,240 INFO scheduler Scheduled Job Start: frappe.oauth.delete_oauth2_data for dev1
2021-09-02 22:15:33,621 INFO scheduler Scheduled Job Complete: frappe.oauth.delete_oauth2_data for dev1
2021-09-02 22:15:33,727 INFO scheduler Scheduled Job Start: frappe.twofactor.delete_all_barcodes_for_users for hr_management
2021-09-02 22:15:34,105 INFO scheduler Scheduled Job Complete: frappe.twofactor.delete_all_barcodes_for_users for hr_management
2021-09-02 22:15:34,209 INFO scheduler Scheduled Job Start: frappe.website.doctype.web_page.web_page.check_publish_status for hr_management
2021-09-02 22:15:34,632 INFO scheduler Scheduled Job Complete: frappe.website.doctype.web_page.web_page.check_publish_status for hr_management
2021-09-02 22:15:34,725 INFO scheduler Scheduled Job Start: frappe.oauth.delete_oauth2_data for hr_management
2021-09-02 22:15:35,103 INFO scheduler Scheduled Job Complete: frappe.oauth.delete_oauth2_data for hr_management
2021-09-02 22:16:32,493 DEBUG scheduler Queued events for site dev1
2021-09-02 22:16:32,528 INFO scheduler Scheduled Job Start: frappe.monitor.flush for dev1
2021-09-02 22:16:32,819 INFO scheduler Scheduled Job Complete: frappe.monitor.flush for dev1
2021-09-02 22:16:32,915 INFO scheduler Scheduled Job Start: frappe.utils.global_search.sync_global_search for dev1
2021-09-02 22:16:33,157 INFO scheduler Scheduled Job Complete: frappe.utils.global_search.sync_global_search for dev1
2021-09-02 22:16:33,247 INFO scheduler Scheduled Job Start: frappe.integrations.doctype.razorpay_settings.razorpay_settings.capture_payment for dev1
2021-09-02 22:16:33,615 INFO scheduler Scheduled Job Complete: frappe.integrations.doctype.razorpay_settings.razorpay_settings.capture_payment for dev1
2021-09-02 22:16:33,717 INFO scheduler Scheduled Job Start: frappe.email.doctype.email_account.email_account.notify_unreplied for dev1
2021-09-02 22:16:34,028 INFO scheduler Scheduled Job Complete: frappe.email.doctype.email_account.email_account.notify_unreplied for dev1
2021-09-02 22:16:34,119 INFO scheduler Scheduled Job Start: frappe.email.doctype.email_account.email_account.pull for dev1
2021-09-02 22:16:34,491 INFO scheduler Scheduled Job Complete: frappe.email.doctype.email_account.email_account.pull for dev1
2021-09-02 22:16:34,576 INFO scheduler Scheduled Job Start: frappe.email.queue.flush for dev1
2021-09-02 22:16:34,841 INFO scheduler Scheduled Job Complete: frappe.email.queue.flush for dev1
2021-09-02 22:16:34,945 INFO scheduler Scheduled Job Start: frappe.monitor.flush for hr_management
2021-09-02 22:16:35,181 INFO scheduler Scheduled Job Complete: frappe.monitor.flush for hr_management
2021-09-02 22:16:35,264 INFO scheduler Scheduled Job Start: frappe.utils.global_search.sync_global_search for hr_management
2021-09-02 22:16:35,525 INFO scheduler Scheduled Job Complete: frappe.utils.global_search.sync_global_search for hr_management
2021-09-02 22:16:35,615 INFO scheduler Scheduled Job Start: frappe.integrations.doctype.razorpay_settings.razorpay_settings.capture_payment for hr_management
2021-09-02 22:16:35,995 INFO scheduler Scheduled Job Complete: frappe.integrations.doctype.razorpay_settings.razorpay_settings.capture_payment for hr_management
2021-09-02 22:16:36,101 INFO scheduler Scheduled Job Start: frappe.email.doctype.email_account.email_account.notify_unreplied for hr_management
2021-09-02 22:16:36,432 INFO scheduler Scheduled Job Complete: frappe.email.doctype.email_account.email_account.notify_unreplied for hr_management
2021-09-02 22:16:36,526 INFO scheduler Scheduled Job Start: frappe.email.doctype.email_account.email_account.pull for hr_management
2021-09-02 22:16:36,857 INFO scheduler Scheduled Job Complete: frappe.email.doctype.email_account.email_account.pull for hr_management
2021-09-02 22:16:36,947 INFO scheduler Scheduled Job Start: frappe.email.queue.flush for hr_management
2021-09-02 22:16:37,203 INFO scheduler Scheduled Job Complete: frappe.email.queue.flush for hr_management
2021-09-02 22:17:32,924 DEBUG scheduler Queued events for site dev1
2021-09-02 22:18:33,325 DEBUG scheduler Queued events for site dev1
2021-09-02 22:19:33,707 DEBUG scheduler Queued events for site dev1
2021-09-02 22:20:34,090 DEBUG scheduler Queued events for site dev1
2021-09-02 22:20:34,130 INFO scheduler Scheduled Job Start: frappe.monitor.flush for dev1
2021-09-02 22:20:34,420 INFO scheduler Scheduled Job Complete: frappe.monitor.flush for dev1
2021-09-02 22:20:34,512 INFO scheduler Scheduled Job Start: frappe.utils.global_search.sync_global_search for dev1
2021-09-02 22:20:34,785 INFO scheduler Scheduled Job Complete: frappe.utils.global_search.sync_global_search for dev1
2021-09-02 22:20:34,906 INFO scheduler Scheduled Job Start: frappe.integrations.doctype.razorpay_settings.razorpay_settings.capture_payment for dev1
2021-09-02 22:20:35,303 INFO scheduler Scheduled Job Complete: frappe.integrations.doctype.razorpay_settings.razorpay_settings.capture_payment for dev1
2021-09-02 22:20:35,412 INFO scheduler Scheduled Job Start: frappe.email.doctype.email_account.email_account.notify_unreplied for dev1
2021-09-02 22:20:35,733 INFO scheduler Scheduled Job Complete: frappe.email.doctype.email_account.email_account.notify_unreplied for dev1
2021-09-02 22:20:35,817 INFO scheduler Scheduled Job Start: frappe.email.doctype.email_account.email_account.pull for dev1
2021-09-02 22:20:36,146 INFO scheduler Scheduled Job Complete: frappe.email.doctype.email_account.email_account.pull for dev1
2021-09-02 22:20:36,248 INFO scheduler Scheduled Job Start: frappe.email.queue.flush for dev1
2021-09-02 22:20:36,497 INFO scheduler Scheduled Job Complete: frappe.email.queue.flush for dev1
2021-09-02 22:20:36,600 INFO scheduler Scheduled Job Start: frappe.monitor.flush for hr_management
2021-09-02 22:20:36,857 INFO scheduler Scheduled Job Complete: frappe.monitor.flush for hr_management
2021-09-02 22:20:36,957 INFO scheduler Scheduled Job Start: frappe.utils.global_search.sync_global_search for hr_management
2021-09-02 22:20:37,210 INFO scheduler Scheduled Job Complete: frappe.utils.global_search.sync_global_search for hr_management
2021-09-02 22:20:37,331 INFO scheduler Scheduled Job Start: frappe.integrations.doctype.razorpay_settings.razorpay_settings.capture_payment for hr_management
2021-09-02 22:20:37,725 INFO scheduler Scheduled Job Complete: frappe.integrations.doctype.razorpay_settings.razorpay_settings.capture_payment for hr_management
2021-09-02 22:20:37,830 INFO scheduler Scheduled Job Start: frappe.email.doctype.email_account.email_account.notify_unreplied for hr_management
2021-09-02 22:20:38,134 INFO scheduler Scheduled Job Complete: frappe.email.doctype.email_account.email_account.notify_unreplied for hr_management
2021-09-02 22:20:38,253 INFO scheduler Scheduled Job Start: frappe.email.doctype.email_account.email_account.pull for hr_management
2021-09-02 22:20:38,612 INFO scheduler Scheduled Job Complete: frappe.email.doctype.email_account.email_account.pull for hr_management
2021-09-02 22:20:38,701 INFO scheduler Scheduled Job Start: frappe.email.queue.flush for hr_management
2021-09-02 22:20:39,006 INFO scheduler Scheduled Job Complete: frappe.email.queue.flush for hr_management
2021-09-02 22:21:34,566 DEBUG scheduler Queued events for site dev1
2021-09-02 22:22:35,023 DEBUG scheduler Queued events for site dev1
2021-09-02 22:23:35,392 DEBUG scheduler Queued events for site dev1
2021-09-02 22:24:35,823 DEBUG scheduler Queued events for site dev1
2021-09-02 22:24:35,873 INFO scheduler Scheduled Job Start: frappe.monitor.flush for dev1
2021-09-02 22:24:36,216 INFO scheduler Scheduled Job Complete: frappe.monitor.flush for dev1
2021-09-02 22:24:36,313 INFO scheduler Scheduled Job Start: frappe.utils.global_search.sync_global_search for dev1
2021-09-02 22:24:36,576 INFO scheduler Scheduled Job Complete: frappe.utils.global_search.sync_global_search for dev1
2021-09-02 22:24:36,665 INFO scheduler Scheduled Job Start: frappe.integrations.doctype.razorpay_settings.razorpay_settings.capture_payment for dev1
2021-09-02 22:24:37,043 INFO scheduler Scheduled Job Complete: frappe.integrations.doctype.razorpay_settings.razorpay_settings.capture_payment for dev1
2021-09-02 22:24:37,141 INFO scheduler Scheduled Job Start: frappe.email.doctype.email_account.email_account.notify_unreplied for dev1
2021-09-02 22:24:37,458 INFO scheduler Scheduled Job Complete: frappe.email.doctype.email_account.email_account.notify_unreplied for dev1
2021-09-02 22:24:37,572 INFO scheduler Scheduled Job Start: frappe.email.doctype.email_account.email_account.pull for dev1
2021-09-02 22:24:37,935 INFO scheduler Scheduled Job Complete: frappe.email.doctype.email_account.email_account.pull for dev1
2021-09-02 22:24:38,038 INFO scheduler Scheduled Job Start: frappe.email.queue.flush for dev1
2021-09-02 22:24:38,329 INFO scheduler Scheduled Job Complete: frappe.email.queue.flush for dev1
2021-09-02 22:24:38,426 INFO scheduler Scheduled Job Start: frappe.monitor.flush for hr_management
2021-09-02 22:24:38,687 INFO scheduler Scheduled Job Complete: frappe.monitor.flush for hr_management
2021-09-02 22:24:38,775 INFO scheduler Scheduled Job Start: frappe.utils.global_search.sync_global_search for hr_management
2021-09-02 22:24:39,041 INFO scheduler Scheduled Job Complete: frappe.utils.global_search.sync_global_search for hr_management
2021-09-02 22:24:39,141 INFO scheduler Scheduled Job Start: frappe.integrations.doctype.razorpay_settings.razorpay_settings.capture_payment for hr_management
2021-09-02 22:24:39,548 INFO scheduler Scheduled Job Complete: frappe.integrations.doctype.razorpay_settings.razorpay_settings.capture_payment for hr_management
2021-09-02 22:24:39,642 INFO scheduler Scheduled Job Start: frappe.email.doctype.email_account.email_account.notify_unreplied for hr_management
2021-09-02 22:24:39,965 INFO scheduler Scheduled Job Complete: frappe.email.doctype.email_account.email_account.notify_unreplied for hr_management
2021-09-02 22:24:40,054 INFO scheduler Scheduled Job Start: frappe.email.doctype.email_account.email_account.pull for hr_management
2021-09-02 22:24:40,424 INFO scheduler Scheduled Job Complete: frappe.email.doctype.email_account.email_account.pull for hr_management
2021-09-02 22:24:40,512 INFO scheduler Scheduled Job Start: frappe.email.queue.flush for hr_management
2021-09-02 22:24:40,786 INFO scheduler Scheduled Job Complete: frappe.email.queue.flush for hr_management
2021-09-02 22:25:36,329 DEBUG scheduler Queued events for site dev1
2021-09-02 22:26:36,741 DEBUG scheduler Queued events for site dev1
2021-09-02 22:27:37,144 DEBUG scheduler Queued events for site dev1
2021-09-02 22:28:37,541 DEBUG scheduler Queued events for site dev1
2021-09-02 22:28:37,583 INFO scheduler Scheduled Job Start: frappe.monitor.flush for dev1
2021-09-02 22:28:37,862 INFO scheduler Scheduled Job Complete: frappe.monitor.flush for dev1
2021-09-02 22:28:37,959 INFO scheduler Scheduled Job Start: frappe.utils.global_search.sync_global_search for dev1
2021-09-02 22:28:38,231 INFO scheduler Scheduled Job Complete: frappe.utils.global_search.sync_global_search for dev1
2021-09-02 22:28:38,328 INFO scheduler Scheduled Job Start: frappe.integrations.doctype.razorpay_settings.razorpay_settings.capture_payment for dev1
2021-09-02 22:28:38,721 INFO scheduler Scheduled Job Complete: frappe.integrations.doctype.razorpay_settings.razorpay_settings.capture_payment for dev1
2021-09-02 22:28:38,811 INFO scheduler Scheduled Job Start: frappe.email.doctype.email_account.email_account.notify_unreplied for dev1
2021-09-02 22:28:39,140 INFO scheduler Scheduled Job Complete: frappe.email.doctype.email_account.email_account.notify_unreplied for dev1
2021-09-02 22:28:39,240 INFO scheduler Scheduled Job Start: frappe.email.doctype.email_account.email_account.pull for dev1
2021-09-02 22:28:39,591 INFO scheduler Scheduled Job Complete: frappe.email.doctype.email_account.email_account.pull for dev1
2021-09-02 22:28:39,690 INFO scheduler Scheduled Job Start: frappe.email.queue.flush for dev1
2021-09-02 22:28:39,957 INFO scheduler Scheduled Job Complete: frappe.email.queue.flush for dev1
2021-09-02 22:28:40,057 INFO scheduler Scheduled Job Start: frappe.monitor.flush for hr_management
2021-09-02 22:28:40,366 INFO scheduler Scheduled Job Complete: frappe.monitor.flush for hr_management
2021-09-02 22:28:40,478 INFO scheduler Scheduled Job Start: frappe.utils.global_search.sync_global_search for hr_management
2021-09-02 22:28:40,750 INFO scheduler Scheduled Job Complete: frappe.utils.global_search.sync_global_search for hr_management
2021-09-02 22:28:40,858 INFO scheduler Scheduled Job Start: frappe.integrations.doctype.razorpay_settings.razorpay_settings.capture_payment for hr_management
2021-09-02 22:28:41,339 INFO scheduler Scheduled Job Complete: frappe.integrations.doctype.razorpay_settings.razorpay_settings.capture_payment for hr_management
2021-09-02 22:28:41,419 INFO scheduler Scheduled Job Start: frappe.email.doctype.email_account.email_account.notify_unreplied for hr_management
2021-09-02 22:28:41,738 INFO scheduler Scheduled Job Complete: frappe.email.doctype.email_account.email_account.notify_unreplied for hr_management
2021-09-02 22:28:41,856 INFO scheduler Scheduled Job Start: frappe.email.doctype.email_account.email_account.pull for hr_management
2021-09-02 22:28:42,255 INFO scheduler Scheduled Job Complete: frappe.email.doctype.email_account.email_account.pull for hr_management
2021-09-02 22:28:42,353 INFO scheduler Scheduled Job Start: frappe.email.queue.flush for hr_management
2021-09-02 22:28:42,635 INFO scheduler Scheduled Job Complete: frappe.email.queue.flush for hr_management
2021-09-02 22:29:37,978 DEBUG scheduler Queued events for site dev1
2021-09-02 22:30:38,394 DEBUG scheduler Queued events for site dev1
2021-09-02 22:30:38,459 INFO scheduler Scheduled Job Start: frappe.twofactor.delete_all_barcodes_for_users for dev1
2021-09-02 22:30:38,904 INFO scheduler Scheduled Job Complete: frappe.twofactor.delete_all_barcodes_for_users for dev1
2021-09-02 22:30:39,009 INFO scheduler Scheduled Job Start: frappe.website.doctype.web_page.web_page.check_publish_status for dev1
2021-09-02 22:30:39,472 INFO scheduler Scheduled Job Complete: frappe.website.doctype.web_page.web_page.check_publish_status for dev1
2021-09-02 22:30:39,574 INFO scheduler Scheduled Job Start: frappe.oauth.delete_oauth2_data for dev1
2021-09-02 22:30:39,988 INFO scheduler Scheduled Job Complete: frappe.oauth.delete_oauth2_data for dev1
2021-09-02 22:30:40,079 INFO scheduler Scheduled Job Start: frappe.twofactor.delete_all_barcodes_for_users for hr_management
2021-09-02 22:30:40,479 INFO scheduler Scheduled Job Complete: frappe.twofactor.delete_all_barcodes_for_users for hr_management
2021-09-02 22:30:40,590 INFO scheduler Scheduled Job Start: frappe.website.doctype.web_page.web_page.check_publish_status for hr_management
2021-09-02 22:30:41,054 INFO scheduler Scheduled Job Complete: frappe.website.doctype.web_page.web_page.check_publish_status for hr_management
2021-09-02 22:30:41,147 INFO scheduler Scheduled Job Start: frappe.oauth.delete_oauth2_data for hr_management
2021-09-02 22:30:41,551 INFO scheduler Scheduled Job Complete: frappe.oauth.delete_oauth2_data for hr_management
2021-09-02 22:31:38,831 DEBUG scheduler Queued events for site dev1
2021-09-02 22:32:39,287 DEBUG scheduler Queued events for site dev1
2021-09-02 22:32:39,328 INFO scheduler Scheduled Job Start: frappe.monitor.flush for dev1
2021-09-02 22:32:39,658 INFO scheduler Scheduled Job Complete: frappe.monitor.flush for dev1
2021-09-02 22:32:39,751 INFO scheduler Scheduled Job Start: frappe.utils.global_search.sync_global_search for dev1
2021-09-02 22:32:40,015 INFO scheduler Scheduled Job Complete: frappe.utils.global_search.sync_global_search for dev1
2021-09-02 22:32:40,108 INFO scheduler Scheduled Job Start: frappe.integrations.doctype.razorpay_settings.razorpay_settings.capture_payment for dev1
2021-09-02 22:32:40,559 INFO scheduler Scheduled Job Complete: frappe.integrations.doctype.razorpay_settings.razorpay_settings.capture_payment for dev1
2021-09-02 22:32:40,659 INFO scheduler Scheduled Job Start: frappe.email.doctype.email_account.email_account.notify_unreplied for dev1
2021-09-02 22:32:41,037 INFO scheduler Scheduled Job Complete: frappe.email.doctype.email_account.email_account.notify_unreplied for dev1
2021-09-02 22:32:41,129 INFO scheduler Scheduled Job Start: frappe.email.doctype.email_account.email_account.pull for dev1
2021-09-02 22:32:41,520 INFO scheduler Scheduled Job Complete: frappe.email.doctype.email_account.email_account.pull for dev1
2021-09-02 22:32:41,610 INFO scheduler Scheduled Job Start: frappe.email.queue.flush for dev1
2021-09-02 22:32:41,895 INFO scheduler Scheduled Job Complete: frappe.email.queue.flush for dev1
2021-09-02 22:32:41,985 INFO scheduler Scheduled Job Start: frappe.monitor.flush for hr_management
2021-09-02 22:32:42,267 INFO scheduler Scheduled Job Complete: frappe.monitor.flush for hr_management
2021-09-02 22:32:42,362 INFO scheduler Scheduled Job Start: frappe.utils.global_search.sync_global_search for hr_management
2021-09-02 22:32:42,630 INFO scheduler Scheduled Job Complete: frappe.utils.global_search.sync_global_search for hr_management
2021-09-02 22:32:42,723 INFO scheduler Scheduled Job Start: frappe.integrations.doctype.razorpay_settings.razorpay_settings.capture_payment for hr_management
2021-09-02 22:32:43,114 INFO scheduler Scheduled Job Complete: frappe.integrations.doctype.razorpay_settings.razorpay_settings.capture_payment for hr_management
2021-09-02 22:32:43,229 INFO scheduler Scheduled Job Start: frappe.email.doctype.email_account.email_account.notify_unreplied for hr_management
2021-09-02 22:32:43,560 INFO scheduler Scheduled Job Complete: frappe.email.doctype.email_account.email_account.notify_unreplied for hr_management
2021-09-02 22:32:43,658 INFO scheduler Scheduled Job Start: frappe.email.doctype.email_account.email_account.pull for hr_management
2021-09-02 22:32:44,001 INFO scheduler Scheduled Job Complete: frappe.email.doctype.email_account.email_account.pull for hr_management
2021-09-02 22:32:44,094 INFO scheduler Scheduled Job Start: frappe.email.queue.flush for hr_management
2021-09-02 22:32:44,384 INFO scheduler Scheduled Job Complete: frappe.email.queue.flush for hr_management
2021-09-02 22:33:39,775 DEBUG scheduler Queued events for site dev1
2021-09-02 22:34:40,211 DEBUG scheduler Queued events for site dev1
2021-09-02 22:35:40,605 DEBUG scheduler Queued events for site dev1
2021-09-02 22:36:41,026 DEBUG scheduler Queued events for site dev1
2021-09-02 22:36:41,065 INFO scheduler Scheduled Job Start: frappe.monitor.flush for dev1
2021-09-02 22:36:41,343 INFO scheduler Scheduled Job Complete: frappe.monitor.flush for dev1
2021-09-02 22:36:41,438 INFO scheduler Scheduled Job Start: frappe.utils.global_search.sync_global_search for dev1
2021-09-02 22:36:41,670 INFO scheduler Scheduled Job Complete: frappe.utils.global_search.sync_global_search for dev1
2021-09-02 22:36:41,760 INFO scheduler Scheduled Job Start: frappe.integrations.doctype.razorpay_settings.razorpay_settings.capture_payment for dev1
2021-09-02 22:36:42,155 INFO scheduler Scheduled Job Complete: frappe.integrations.doctype.razorpay_settings.razorpay_settings.capture_payment for dev1
2021-09-02 22:36:42,261 INFO scheduler Scheduled Job Start: frappe.email.doctype.email_account.email_account.notify_unreplied for dev1
2021-09-02 22:36:42,570 INFO scheduler Scheduled Job Complete: frappe.email.doctype.email_account.email_account.notify_unreplied for dev1
2021-09-02 22:36:42,664 INFO scheduler Scheduled Job Start: frappe.email.doctype.email_account.email_account.pull for dev1
2021-09-02 22:36:42,998 INFO scheduler Scheduled Job Complete: frappe.email.doctype.email_account.email_account.pull for dev1
2021-09-02 22:36:43,089 INFO scheduler Scheduled Job Start: frappe.email.queue.flush for dev1
2021-09-02 22:36:43,387 INFO scheduler Scheduled Job Complete: frappe.email.queue.flush for dev1
2021-09-02 22:36:43,499 INFO scheduler Scheduled Job Start: frappe.monitor.flush for hr_management
2021-09-02 22:36:43,799 INFO scheduler Scheduled Job Complete: frappe.monitor.flush for hr_management
2021-09-02 22:36:43,892 INFO scheduler Scheduled Job Start: frappe.utils.global_search.sync_global_search for hr_management
2021-09-02 22:36:44,155 INFO scheduler Scheduled Job Complete: frappe.utils.global_search.sync_global_search for hr_management
2021-09-02 22:36:44,277 INFO scheduler Scheduled Job Start: frappe.integrations.doctype.razorpay_settings.razorpay_settings.capture_payment for hr_management
2021-09-02 22:36:44,671 INFO scheduler Scheduled Job Complete: frappe.integrations.doctype.razorpay_settings.razorpay_settings.capture_payment for hr_management
2021-09-02 22:36:44,777 INFO scheduler Scheduled Job Start: frappe.email.doctype.email_account.email_account.notify_unreplied for hr_management
2021-09-02 22:36:45,106 INFO scheduler Scheduled Job Complete: frappe.email.doctype.email_account.email_account.notify_unreplied for hr_management
2021-09-02 22:36:45,209 INFO scheduler Scheduled Job Start: frappe.email.doctype.email_account.email_account.pull for hr_management
2021-09-02 22:36:45,540 INFO scheduler Scheduled Job Complete: frappe.email.doctype.email_account.email_account.pull for hr_management
2021-09-02 22:36:45,636 INFO scheduler Scheduled Job Start: frappe.email.queue.flush for hr_management
2021-09-02 22:36:45,916 INFO scheduler Scheduled Job Complete: frappe.email.queue.flush for hr_management
2021-09-02 22:37:41,480 DEBUG scheduler Queued events for site dev1
2021-09-02 22:38:41,882 DEBUG scheduler Queued events for site dev1
2021-09-02 22:39:42,272 DEBUG scheduler Queued events for site dev1
2021-09-02 22:40:42,655 DEBUG scheduler Queued events for site dev1
2021-09-02 22:40:42,693 INFO scheduler Scheduled Job Start: frappe.monitor.flush for dev1
2021-09-02 22:40:42,982 INFO scheduler Scheduled Job Complete: frappe.monitor.flush for dev1
2021-09-02 22:40:43,087 INFO scheduler Scheduled Job Start: frappe.utils.global_search.sync_global_search for dev1
2021-09-02 22:40:43,344 INFO scheduler Scheduled Job Complete: frappe.utils.global_search.sync_global_search for dev1
2021-09-02 22:40:43,428 INFO scheduler Scheduled Job Start: frappe.integrations.doctype.razorpay_settings.razorpay_settings.capture_payment for dev1
2021-09-02 22:40:43,808 INFO scheduler Scheduled Job Complete: frappe.integrations.doctype.razorpay_settings.razorpay_settings.capture_payment for dev1
2021-09-02 22:40:43,901 INFO scheduler Scheduled Job Start: frappe.email.doctype.email_account.email_account.notify_unreplied for dev1
2021-09-02 22:40:44,251 INFO scheduler Scheduled Job Complete: frappe.email.doctype.email_account.email_account.notify_unreplied for dev1
2021-09-02 22:40:44,335 INFO scheduler Scheduled Job Start: frappe.email.doctype.email_account.email_account.pull for dev1
2021-09-02 22:40:44,667 INFO scheduler Scheduled Job Complete: frappe.email.doctype.email_account.email_account.pull for dev1
2021-09-02 22:40:44,761 INFO scheduler Scheduled Job Start: frappe.email.queue.flush for dev1
2021-09-02 22:40:45,025 INFO scheduler Scheduled Job Complete: frappe.email.queue.flush for dev1
2021-09-02 22:40:45,120 INFO scheduler Scheduled Job Start: frappe.monitor.flush for hr_management
2021-09-02 22:40:45,386 INFO scheduler Scheduled Job Complete: frappe.monitor.flush for hr_management
2021-09-02 22:40:45,481 INFO scheduler Scheduled Job Start: frappe.utils.global_search.sync_global_search for hr_management
2021-09-02 22:40:45,747 INFO scheduler Scheduled Job Complete: frappe.utils.global_search.sync_global_search for hr_management
2021-09-02 22:40:45,858 INFO scheduler Scheduled Job Start: frappe.integrations.doctype.razorpay_settings.razorpay_settings.capture_payment for hr_management
2021-09-02 22:40:46,258 INFO scheduler Scheduled Job Complete: frappe.integrations.doctype.razorpay_settings.razorpay_settings.capture_payment for hr_management
2021-09-02 22:40:46,356 INFO scheduler Scheduled Job Start: frappe.email.doctype.email_account.email_account.notify_unreplied for hr_management
2021-09-02 22:40:46,665 INFO scheduler Scheduled Job Complete: frappe.email.doctype.email_account.email_account.notify_unreplied for hr_management
2021-09-02 22:40:46,760 INFO scheduler Scheduled Job Start: frappe.email.doctype.email_account.email_account.pull for hr_management
2021-09-02 22:40:47,076 INFO scheduler Scheduled Job Complete: frappe.email.doctype.email_account.email_account.pull for hr_management
2021-09-02 22:40:47,201 INFO scheduler Scheduled Job Start: frappe.email.queue.flush for hr_management
2021-09-02 22:40:47,482 INFO scheduler Scheduled Job Complete: frappe.email.queue.flush for hr_management
2021-09-02 22:41:43,093 DEBUG scheduler Queued events for site dev1
2021-09-02 22:42:43,531 DEBUG scheduler Queued events for site dev1
2021-09-02 22:43:43,919 DEBUG scheduler Queued events for site dev1
2021-09-02 22:44:44,339 DEBUG scheduler Queued events for site dev1
2021-09-02 22:44:44,374 INFO scheduler Scheduled Job Start: frappe.monitor.flush for dev1
2021-09-02 22:44:44,641 INFO scheduler Scheduled Job Complete: frappe.monitor.flush for dev1
2021-09-02 22:44:44,730 INFO scheduler Scheduled Job Start: frappe.utils.global_search.sync_global_search for dev1
2021-09-02 22:44:44,981 INFO scheduler Scheduled Job Complete: frappe.utils.global_search.sync_global_search for dev1
2021-09-02 22:44:45,069 INFO scheduler Scheduled Job Start: frappe.integrations.doctype.razorpay_settings.razorpay_settings.capture_payment for dev1
2021-09-02 22:44:45,468 INFO scheduler Scheduled Job Complete: frappe.integrations.doctype.razorpay_settings.razorpay_settings.capture_payment for dev1
2021-09-02 22:44:45,570 INFO scheduler Scheduled Job Start: frappe.email.doctype.email_account.email_account.notify_unreplied for dev1
2021-09-02 22:44:45,880 INFO scheduler Scheduled Job Complete: frappe.email.doctype.email_account.email_account.notify_unreplied for dev1
2021-09-02 22:44:45,982 INFO scheduler Scheduled Job Start: frappe.email.doctype.email_account.email_account.pull for dev1
2021-09-02 22:44:46,333 INFO scheduler Scheduled Job Complete: frappe.email.doctype.email_account.email_account.pull for dev1
2021-09-02 22:44:46,420 INFO scheduler Scheduled Job Start: frappe.email.queue.flush for dev1
2021-09-02 22:44:46,703 INFO scheduler Scheduled Job Complete: frappe.email.queue.flush for dev1
2021-09-02 22:44:46,799 INFO scheduler Scheduled Job Start: frappe.monitor.flush for hr_management
2021-09-02 22:44:47,051 INFO scheduler Scheduled Job Complete: frappe.monitor.flush for hr_management
2021-09-02 22:44:47,143 INFO scheduler Scheduled Job Start: frappe.utils.global_search.sync_global_search for hr_management
2021-09-02 22:44:47,407 INFO scheduler Scheduled Job Complete: frappe.utils.global_search.sync_global_search for hr_management
2021-09-02 22:44:47,503 INFO scheduler Scheduled Job Start: frappe.integrations.doctype.razorpay_settings.razorpay_settings.capture_payment for hr_management
2021-09-02 22:44:47,890 INFO scheduler Scheduled Job Complete: frappe.integrations.doctype.razorpay_settings.razorpay_settings.capture_payment for hr_management
2021-09-02 22:44:47,984 INFO scheduler Scheduled Job Start: frappe.email.doctype.email_account.email_account.notify_unreplied for hr_management
2021-09-02 22:44:48,331 INFO scheduler Scheduled Job Complete: frappe.email.doctype.email_account.email_account.notify_unreplied for hr_management
2021-09-02 22:44:48,422 INFO scheduler Scheduled Job Start: frappe.email.doctype.email_account.email_account.pull for hr_management
2021-09-02 22:44:48,781 INFO scheduler Scheduled Job Complete: frappe.email.doctype.email_account.email_account.pull for hr_management
2021-09-02 22:44:48,873 INFO scheduler Scheduled Job Start: frappe.email.queue.flush for hr_management
2021-09-02 22:44:49,160 INFO scheduler Scheduled Job Complete: frappe.email.queue.flush for hr_management
2021-09-02 22:45:44,779 DEBUG scheduler Queued events for site dev1
2021-09-02 22:45:44,844 INFO scheduler Scheduled Job Start: frappe.twofactor.delete_all_barcodes_for_users for dev1
2021-09-02 22:45:45,363 INFO scheduler Scheduled Job Complete: frappe.twofactor.delete_all_barcodes_for_users for dev1
2021-09-02 22:45:45,495 INFO scheduler Scheduled Job Start: frappe.website.doctype.web_page.web_page.check_publish_status for dev1
2021-09-02 22:45:45,990 INFO scheduler Scheduled Job Complete: frappe.website.doctype.web_page.web_page.check_publish_status for dev1
2021-09-02 22:45:46,083 INFO scheduler Scheduled Job Start: frappe.oauth.delete_oauth2_data for dev1
2021-09-02 22:45:46,549 INFO scheduler Scheduled Job Complete: frappe.oauth.delete_oauth2_data for dev1
2021-09-02 22:45:46,647 INFO scheduler Scheduled Job Start: frappe.twofactor.delete_all_barcodes_for_users for hr_management
2021-09-02 22:45:47,053 INFO scheduler Scheduled Job Complete: frappe.twofactor.delete_all_barcodes_for_users for hr_management
2021-09-02 22:45:47,155 INFO scheduler Scheduled Job Start: frappe.website.doctype.web_page.web_page.check_publish_status for hr_management
2021-09-02 22:45:47,641 INFO scheduler Scheduled Job Complete: frappe.website.doctype.web_page.web_page.check_publish_status for hr_management
2021-09-02 22:45:47,762 INFO scheduler Scheduled Job Start: frappe.oauth.delete_oauth2_data for hr_management
2021-09-02 22:45:48,156 INFO scheduler Scheduled Job Complete: frappe.oauth.delete_oauth2_data for hr_management
2021-09-02 22:46:45,226 DEBUG scheduler Queued events for site dev1
2021-09-02 22:47:45,629 DEBUG scheduler Queued events for site dev1
2021-09-02 22:48:46,021 DEBUG scheduler Queued events for site dev1
2021-09-02 22:48:46,056 INFO scheduler Scheduled Job Start: frappe.monitor.flush for dev1
2021-09-02 22:48:46,372 INFO scheduler Scheduled Job Complete: frappe.monitor.flush for dev1
2021-09-02 22:48:46,465 INFO scheduler Scheduled Job Start: frappe.utils.global_search.sync_global_search for dev1
2021-09-02 22:48:46,723 INFO scheduler Scheduled Job Complete: frappe.utils.global_search.sync_global_search for dev1
2021-09-02 22:48:46,828 INFO scheduler Scheduled Job Start: frappe.integrations.doctype.razorpay_settings.razorpay_settings.capture_payment for dev1
2021-09-02 22:48:47,258 INFO scheduler Scheduled Job Complete: frappe.integrations.doctype.razorpay_settings.razorpay_settings.capture_payment for dev1
2021-09-02 22:48:47,356 INFO scheduler Scheduled Job Start: frappe.email.doctype.email_account.email_account.notify_unreplied for dev1
2021-09-02 22:48:47,714 INFO scheduler Scheduled Job Complete: frappe.email.doctype.email_account.email_account.notify_unreplied for dev1
2021-09-02 22:48:47,821 INFO scheduler Scheduled Job Start: frappe.email.doctype.email_account.email_account.pull for dev1
2021-09-02 22:48:48,155 INFO scheduler Scheduled Job Complete: frappe.email.doctype.email_account.email_account.pull for dev1
2021-09-02 22:48:48,260 INFO scheduler Scheduled Job Start: frappe.email.queue.flush for dev1
2021-09-02 22:48:48,532 INFO scheduler Scheduled Job Complete: frappe.email.queue.flush for dev1
2021-09-02 22:48:48,656 INFO scheduler Scheduled Job Start: frappe.monitor.flush for hr_management
2021-09-02 22:48:49,015 INFO scheduler Scheduled Job Complete: frappe.monitor.flush for hr_management
2021-09-02 22:48:49,106 INFO scheduler Scheduled Job Start: frappe.utils.global_search.sync_global_search for hr_management
2021-09-02 22:48:49,370 INFO scheduler Scheduled Job Complete: frappe.utils.global_search.sync_global_search for hr_management
2021-09-02 22:48:49,461 INFO scheduler Scheduled Job Start: frappe.integrations.doctype.razorpay_settings.razorpay_settings.capture_payment for hr_management
2021-09-02 22:48:49,882 INFO scheduler Scheduled Job Complete: frappe.integrations.doctype.razorpay_settings.razorpay_settings.capture_payment for hr_management
2021-09-02 22:48:49,970 INFO scheduler Scheduled Job Start: frappe.email.doctype.email_account.email_account.notify_unreplied for hr_management
2021-09-02 22:48:50,301 INFO scheduler Scheduled Job Complete: frappe.email.doctype.email_account.email_account.notify_unreplied for hr_management
2021-09-02 22:48:50,387 INFO scheduler Scheduled Job Start: frappe.email.doctype.email_account.email_account.pull for hr_management
2021-09-02 22:48:50,721 INFO scheduler Scheduled Job Complete: frappe.email.doctype.email_account.email_account.pull for hr_management
2021-09-02 22:48:50,821 INFO scheduler Scheduled Job Start: frappe.email.queue.flush for hr_management
2021-09-02 22:48:51,106 INFO scheduler Scheduled Job Complete: frappe.email.queue.flush for hr_management
2021-09-02 22:49:46,506 DEBUG scheduler Queued events for site dev1
2021-09-02 22:50:46,908 DEBUG scheduler Queued events for site dev1
2021-09-02 22:51:47,358 DEBUG scheduler Queued events for site dev1
2021-09-02 22:52:47,763 DEBUG scheduler Queued events for site dev1
2021-09-02 22:52:47,802 INFO scheduler Scheduled Job Start: frappe.monitor.flush for dev1
2021-09-02 22:52:48,109 INFO scheduler Scheduled Job Complete: frappe.monitor.flush for dev1
2021-09-02 22:52:48,220 INFO scheduler Scheduled Job Start: frappe.utils.global_search.sync_global_search for dev1
2021-09-02 22:52:48,486 INFO scheduler Scheduled Job Complete: frappe.utils.global_search.sync_global_search for dev1
2021-09-02 22:52:48,586 INFO scheduler Scheduled Job Start: frappe.integrations.doctype.razorpay_settings.razorpay_settings.capture_payment for dev1
2021-09-02 22:52:48,997 INFO scheduler Scheduled Job Complete: frappe.integrations.doctype.razorpay_settings.razorpay_settings.capture_payment for dev1
2021-09-02 22:52:49,098 INFO scheduler Scheduled Job Start: frappe.email.doctype.email_account.email_account.notify_unreplied for dev1
2021-09-02 22:52:49,432 INFO scheduler Scheduled Job Complete: frappe.email.doctype.email_account.email_account.notify_unreplied for dev1
2021-09-02 22:52:49,538 INFO scheduler Scheduled Job Start: frappe.email.doctype.email_account.email_account.pull for dev1
2021-09-02 22:52:49,885 INFO scheduler Scheduled Job Complete: frappe.email.doctype.email_account.email_account.pull for dev1
2021-09-02 22:52:49,987 INFO scheduler Scheduled Job Start: frappe.email.queue.flush for dev1
2021-09-02 22:52:50,297 INFO scheduler Scheduled Job Complete: frappe.email.queue.flush for dev1
2021-09-02 22:52:50,390 INFO scheduler Scheduled Job Start: frappe.monitor.flush for hr_management
2021-09-02 22:52:50,654 INFO scheduler Scheduled Job Complete: frappe.monitor.flush for hr_management
2021-09-02 22:52:50,755 INFO scheduler Scheduled Job Start: frappe.utils.global_search.sync_global_search for hr_management
2021-09-02 22:52:51,003 INFO scheduler Scheduled Job Complete: frappe.utils.global_search.sync_global_search for hr_management
2021-09-02 22:52:51,095 INFO scheduler Scheduled Job Start: frappe.integrations.doctype.razorpay_settings.razorpay_settings.capture_payment for hr_management
2021-09-02 22:52:51,515 INFO scheduler Scheduled Job Complete: frappe.integrations.doctype.razorpay_settings.razorpay_settings.capture_payment for hr_management
2021-09-02 22:52:51,605 INFO scheduler Scheduled Job Start: frappe.email.doctype.email_account.email_account.notify_unreplied for hr_management
2021-09-02 22:52:51,937 INFO scheduler Scheduled Job Complete: frappe.email.doctype.email_account.email_account.notify_unreplied for hr_management
2021-09-02 22:52:52,035 INFO scheduler Scheduled Job Start: frappe.email.doctype.email_account.email_account.pull for hr_management
2021-09-02 22:52:52,384 INFO scheduler Scheduled Job Complete: frappe.email.doctype.email_account.email_account.pull for hr_management
2021-09-02 22:52:52,472 INFO scheduler Scheduled Job Start: frappe.email.queue.flush for hr_management
2021-09-02 22:52:52,750 INFO scheduler Scheduled Job Complete: frappe.email.queue.flush for hr_management
2021-09-02 22:53:48,255 DEBUG scheduler Queued events for site dev1
2021-09-02 22:54:48,648 DEBUG scheduler Queued events for site dev1
2021-09-02 22:55:49,027 DEBUG scheduler Queued events for site dev1
2021-09-02 22:56:49,435 DEBUG scheduler Queued events for site dev1
2021-09-02 22:56:49,486 INFO scheduler Scheduled Job Start: frappe.monitor.flush for dev1
2021-09-02 22:56:49,788 INFO scheduler Scheduled Job Complete: frappe.monitor.flush for dev1
2021-09-02 22:56:49,880 INFO scheduler Scheduled Job Start: frappe.utils.global_search.sync_global_search for dev1
2021-09-02 22:56:50,130 INFO scheduler Scheduled Job Complete: frappe.utils.global_search.sync_global_search for dev1
2021-09-02 22:56:50,235 INFO scheduler Scheduled Job Start: frappe.integrations.doctype.razorpay_settings.razorpay_settings.capture_payment for dev1
2021-09-02 22:56:50,619 INFO scheduler Scheduled Job Complete: frappe.integrations.doctype.razorpay_settings.razorpay_settings.capture_payment for dev1
2021-09-02 22:56:50,730 INFO scheduler Scheduled Job Start: frappe.email.doctype.email_account.email_account.notify_unreplied for dev1
2021-09-02 22:56:51,031 INFO scheduler Scheduled Job Complete: frappe.email.doctype.email_account.email_account.notify_unreplied for dev1
2021-09-02 22:56:51,125 INFO scheduler Scheduled Job Start: frappe.email.doctype.email_account.email_account.pull for dev1
2021-09-02 22:56:51,486 INFO scheduler Scheduled Job Complete: frappe.email.doctype.email_account.email_account.pull for dev1
2021-09-02 22:56:51,592 INFO scheduler Scheduled Job Start: frappe.email.queue.flush for dev1
2021-09-02 22:56:51,887 INFO scheduler Scheduled Job Complete: frappe.email.queue.flush for dev1
2021-09-02 22:56:51,981 INFO scheduler Scheduled Job Start: frappe.monitor.flush for hr_management
2021-09-02 22:56:52,264 INFO scheduler Scheduled Job Complete: frappe.monitor.flush for hr_management
2021-09-02 22:56:52,356 INFO scheduler Scheduled Job Start: frappe.utils.global_search.sync_global_search for hr_management
2021-09-02 22:56:52,614 INFO scheduler Scheduled Job Complete: frappe.utils.global_search.sync_global_search for hr_management
2021-09-02 22:56:52,700 INFO scheduler Scheduled Job Start: frappe.integrations.doctype.razorpay_settings.razorpay_settings.capture_payment for hr_management
2021-09-02 22:56:53,103 INFO scheduler Scheduled Job Complete: frappe.integrations.doctype.razorpay_settings.razorpay_settings.capture_payment for hr_management
2021-09-02 22:56:53,218 INFO scheduler Scheduled Job Start: frappe.email.doctype.email_account.email_account.notify_unreplied for hr_management
2021-09-02 22:56:53,515 INFO scheduler Scheduled Job Complete: frappe.email.doctype.email_account.email_account.notify_unreplied for hr_management
2021-09-02 22:56:53,607 INFO scheduler Scheduled Job Start: frappe.email.doctype.email_account.email_account.pull for hr_management
2021-09-02 22:56:53,967 INFO scheduler Scheduled Job Complete: frappe.email.doctype.email_account.email_account.pull for hr_management
2021-09-02 22:56:54,058 INFO scheduler Scheduled Job Start: frappe.email.queue.flush for hr_management
2021-09-02 22:56:54,346 INFO scheduler Scheduled Job Complete: frappe.email.queue.flush for hr_management
2021-09-02 22:57:49,909 DEBUG scheduler Queued events for site dev1
2021-09-02 22:58:50,338 DEBUG scheduler Queued events for site dev1
2021-09-02 22:59:50,719 DEBUG scheduler Queued events for site dev1
2021-09-02 23:00:51,151 INFO scheduler Scheduled Job Start: frappe.email.doctype.newsletter.newsletter.send_scheduled_email for dev1
2021-09-02 23:00:51,233 DEBUG scheduler Queued events for site dev1
2021-09-02 23:00:51,687 INFO scheduler Scheduled Job Complete: frappe.email.doctype.newsletter.newsletter.send_scheduled_email for dev1
2021-09-02 23:00:51,777 INFO scheduler Scheduled Job Start: frappe.integrations.doctype.google_calendar.google_calendar.sync for dev1
2021-09-02 23:00:52,386 INFO scheduler Scheduled Job Complete: frappe.integrations.doctype.google_calendar.google_calendar.sync for dev1
2021-09-02 23:00:52,490 INFO scheduler Scheduled Job Start: frappe.desk.form.document_follow.send_hourly_updates for dev1
2021-09-02 23:00:52,869 INFO scheduler Scheduled Job Complete: frappe.desk.form.document_follow.send_hourly_updates for dev1
2021-09-02 23:00:52,978 INFO scheduler Scheduled Job Start: frappe.deferred_insert.save_to_db for dev1
2021-09-02 23:00:53,368 INFO scheduler Scheduled Job Complete: frappe.deferred_insert.save_to_db for dev1
2021-09-02 23:00:53,463 INFO scheduler Scheduled Job Start: frappe.desk.page.backups.backups.delete_downloadable_backups for dev1
2021-09-02 23:00:53,851 INFO scheduler Scheduled Job Complete: frappe.desk.page.backups.backups.delete_downloadable_backups for dev1
2021-09-02 23:00:53,953 INFO scheduler Scheduled Job Start: frappe.utils.error.collect_error_snapshots for dev1
2021-09-02 23:00:54,338 INFO scheduler Scheduled Job Complete: frappe.utils.error.collect_error_snapshots for dev1
2021-09-02 23:00:54,454 INFO scheduler Scheduled Job Start: frappe.model.utils.user_settings.sync_user_settings for dev1
2021-09-02 23:00:54,850 INFO scheduler Scheduled Job Complete: frappe.model.utils.user_settings.sync_user_settings for dev1
2021-09-02 23:00:54,955 INFO scheduler Scheduled Job Start: frappe.model.utils.link_count.update_link_count for dev1
2021-09-02 23:00:55,328 INFO scheduler Scheduled Job Complete: frappe.model.utils.link_count.update_link_count for dev1
2021-09-02 23:00:55,431 INFO scheduler Scheduled Job Start: frappe.monitor.flush for dev1
2021-09-02 23:00:55,673 INFO scheduler Scheduled Job Complete: frappe.monitor.flush for dev1
2021-09-02 23:00:55,771 INFO scheduler Scheduled Job Start: frappe.utils.global_search.sync_global_search for dev1
2021-09-02 23:00:56,029 INFO scheduler Scheduled Job Complete: frappe.utils.global_search.sync_global_search for dev1
2021-09-02 23:00:56,129 INFO scheduler Scheduled Job Start: frappe.integrations.doctype.razorpay_settings.razorpay_settings.capture_payment for dev1
2021-09-02 23:00:56,530 INFO scheduler Scheduled Job Complete: frappe.integrations.doctype.razorpay_settings.razorpay_settings.capture_payment for dev1
2021-09-02 23:00:56,627 INFO scheduler Scheduled Job Start: frappe.email.doctype.email_account.email_account.notify_unreplied for dev1
2021-09-02 23:00:56,971 INFO scheduler Scheduled Job Complete: frappe.email.doctype.email_account.email_account.notify_unreplied for dev1
2021-09-02 23:00:57,073 INFO scheduler Scheduled Job Start: frappe.email.doctype.email_account.email_account.pull for dev1
2021-09-02 23:00:57,436 INFO scheduler Scheduled Job Complete: frappe.email.doctype.email_account.email_account.pull for dev1
2021-09-02 23:00:57,516 INFO scheduler Scheduled Job Start: frappe.email.queue.flush for dev1
2021-09-02 23:00:57,788 INFO scheduler Scheduled Job Complete: frappe.email.queue.flush for dev1
2021-09-02 23:00:57,883 INFO scheduler Scheduled Job Start: frappe.twofactor.delete_all_barcodes_for_users for dev1
2021-09-02 23:00:58,299 INFO scheduler Scheduled Job Complete: frappe.twofactor.delete_all_barcodes_for_users for dev1
2021-09-02 23:00:58,411 INFO scheduler Scheduled Job Start: frappe.website.doctype.web_page.web_page.check_publish_status for dev1
2021-09-02 23:00:58,873 INFO scheduler Scheduled Job Complete: frappe.website.doctype.web_page.web_page.check_publish_status for dev1
2021-09-02 23:00:59,002 INFO scheduler Scheduled Job Start: frappe.oauth.delete_oauth2_data for dev1
2021-09-02 23:00:59,421 INFO scheduler Scheduled Job Complete: frappe.oauth.delete_oauth2_data for dev1
2021-09-02 23:00:59,510 INFO scheduler Scheduled Job Start: frappe.email.doctype.newsletter.newsletter.send_scheduled_email for hr_management
2021-09-02 23:00:59,947 INFO scheduler Scheduled Job Complete: frappe.email.doctype.newsletter.newsletter.send_scheduled_email for hr_management
2021-09-02 23:01:00,039 INFO scheduler Scheduled Job Start: frappe.integrations.doctype.google_calendar.google_calendar.sync for hr_management
2021-09-02 23:01:00,615 INFO scheduler Scheduled Job Complete: frappe.integrations.doctype.google_calendar.google_calendar.sync for hr_management
2021-09-02 23:01:00,731 INFO scheduler Scheduled Job Start: frappe.desk.form.document_follow.send_hourly_updates for hr_management
2021-09-02 23:01:01,111 INFO scheduler Scheduled Job Complete: frappe.desk.form.document_follow.send_hourly_updates for hr_management
2021-09-02 23:01:01,218 INFO scheduler Scheduled Job Start: frappe.deferred_insert.save_to_db for hr_management
2021-09-02 23:01:01,572 INFO scheduler Scheduled Job Complete: frappe.deferred_insert.save_to_db for hr_management
2021-09-02 23:01:01,674 INFO scheduler Scheduled Job Start: frappe.desk.page.backups.backups.delete_downloadable_backups for hr_management
2021-09-02 23:01:02,067 INFO scheduler Scheduled Job Complete: frappe.desk.page.backups.backups.delete_downloadable_backups for hr_management
2021-09-02 23:01:02,194 INFO scheduler Scheduled Job Start: frappe.utils.error.collect_error_snapshots for hr_management
2021-09-02 23:01:02,551 INFO scheduler Scheduled Job Complete: frappe.utils.error.collect_error_snapshots for hr_management
2021-09-02 23:01:02,665 INFO scheduler Scheduled Job Start: frappe.model.utils.user_settings.sync_user_settings for hr_management
2021-09-02 23:01:03,046 INFO scheduler Scheduled Job Complete: frappe.model.utils.user_settings.sync_user_settings for hr_management
2021-09-02 23:01:03,150 INFO scheduler Scheduled Job Start: frappe.model.utils.link_count.update_link_count for hr_management
2021-09-02 23:01:03,551 INFO scheduler Scheduled Job Complete: frappe.model.utils.link_count.update_link_count for hr_management
2021-09-02 23:01:03,640 INFO scheduler Scheduled Job Start: frappe.monitor.flush for hr_management
2021-09-02 23:01:03,885 INFO scheduler Scheduled Job Complete: frappe.monitor.flush for hr_management
2021-09-02 23:01:04,002 INFO scheduler Scheduled Job Start: frappe.utils.global_search.sync_global_search for hr_management
2021-09-02 23:01:04,307 INFO scheduler Scheduled Job Complete: frappe.utils.global_search.sync_global_search for hr_management
2021-09-02 23:01:04,398 INFO scheduler Scheduled Job Start: frappe.integrations.doctype.razorpay_settings.razorpay_settings.capture_payment for hr_management
2021-09-02 23:01:04,807 INFO scheduler Scheduled Job Complete: frappe.integrations.doctype.razorpay_settings.razorpay_settings.capture_payment for hr_management
2021-09-02 23:01:04,906 INFO scheduler Scheduled Job Start: frappe.email.doctype.email_account.email_account.notify_unreplied for hr_management
2021-09-02 23:01:05,243 INFO scheduler Scheduled Job Complete: frappe.email.doctype.email_account.email_account.notify_unreplied for hr_management
2021-09-02 23:01:05,346 INFO scheduler Scheduled Job Start: frappe.email.doctype.email_account.email_account.pull for hr_management
2021-09-02 23:01:05,673 INFO scheduler Scheduled Job Complete: frappe.email.doctype.email_account.email_account.pull for hr_management
2021-09-02 23:01:05,770 INFO scheduler Scheduled Job Start: frappe.email.queue.flush for hr_management
2021-09-02 23:01:06,038 INFO scheduler Scheduled Job Complete: frappe.email.queue.flush for hr_management
2021-09-02 23:01:06,133 INFO scheduler Scheduled Job Start: frappe.twofactor.delete_all_barcodes_for_users for hr_management
2021-09-02 23:01:06,569 INFO scheduler Scheduled Job Complete: frappe.twofactor.delete_all_barcodes_for_users for hr_management
2021-09-02 23:01:06,678 INFO scheduler Scheduled Job Start: frappe.website.doctype.web_page.web_page.check_publish_status for hr_management
2021-09-02 23:01:07,133 INFO scheduler Scheduled Job Complete: frappe.website.doctype.web_page.web_page.check_publish_status for hr_management
2021-09-02 23:01:07,245 INFO scheduler Scheduled Job Start: frappe.oauth.delete_oauth2_data for hr_management
2021-09-02 23:01:07,634 INFO scheduler Scheduled Job Complete: frappe.oauth.delete_oauth2_data for hr_management
2021-09-02 23:01:51,857 DEBUG scheduler Queued events for site dev1
2021-09-02 23:02:52,274 DEBUG scheduler Queued events for site dev1
2021-09-02 23:03:52,641 DEBUG scheduler Queued events for site dev1
2021-09-02 23:04:53,065 DEBUG scheduler Queued events for site dev1
2021-09-02 23:04:53,111 INFO scheduler Scheduled Job Start: frappe.monitor.flush for dev1
2021-09-02 23:04:53,395 INFO scheduler Scheduled Job Complete: frappe.monitor.flush for dev1
2021-09-02 23:04:53,484 INFO scheduler Scheduled Job Start: frappe.utils.global_search.sync_global_search for dev1
2021-09-02 23:04:53,732 INFO scheduler Scheduled Job Complete: frappe.utils.global_search.sync_global_search for dev1
2021-09-02 23:04:53,825 INFO scheduler Scheduled Job Start: frappe.integrations.doctype.razorpay_settings.razorpay_settings.capture_payment for dev1
2021-09-02 23:04:54,225 INFO scheduler Scheduled Job Complete: frappe.integrations.doctype.razorpay_settings.razorpay_settings.capture_payment for dev1
2021-09-02 23:04:54,320 INFO scheduler Scheduled Job Start: frappe.email.doctype.email_account.email_account.notify_unreplied for dev1
2021-09-02 23:04:54,632 INFO scheduler Scheduled Job Complete: frappe.email.doctype.email_account.email_account.notify_unreplied for dev1
2021-09-02 23:04:54,725 INFO scheduler Scheduled Job Start: frappe.email.doctype.email_account.email_account.pull for dev1
2021-09-02 23:04:55,074 INFO scheduler Scheduled Job Complete: frappe.email.doctype.email_account.email_account.pull for dev1
2021-09-02 23:04:55,164 INFO scheduler Scheduled Job Start: frappe.email.queue.flush for dev1
2021-09-02 23:04:55,471 INFO scheduler Scheduled Job Complete: frappe.email.queue.flush for dev1
2021-09-02 23:04:55,566 INFO scheduler Scheduled Job Start: frappe.monitor.flush for hr_management
2021-09-02 23:04:55,824 INFO scheduler Scheduled Job Complete: frappe.monitor.flush for hr_management
2021-09-02 23:04:55,913 INFO scheduler Scheduled Job Start: frappe.utils.global_search.sync_global_search for hr_management
2021-09-02 23:04:56,164 INFO scheduler Scheduled Job Complete: frappe.utils.global_search.sync_global_search for hr_management
2021-09-02 23:04:56,298 INFO scheduler Scheduled Job Start: frappe.integrations.doctype.razorpay_settings.razorpay_settings.capture_payment for hr_management
2021-09-02 23:04:56,703 INFO scheduler Scheduled Job Complete: frappe.integrations.doctype.razorpay_settings.razorpay_settings.capture_payment for hr_management
2021-09-02 23:04:56,800 INFO scheduler Scheduled Job Start: frappe.email.doctype.email_account.email_account.notify_unreplied for hr_management
2021-09-02 23:04:57,098 INFO scheduler Scheduled Job Complete: frappe.email.doctype.email_account.email_account.notify_unreplied for hr_management
2021-09-02 23:04:57,200 INFO scheduler Scheduled Job Start: frappe.email.doctype.email_account.email_account.pull for hr_management
2021-09-02 23:04:57,535 INFO scheduler Scheduled Job Complete: frappe.email.doctype.email_account.email_account.pull for hr_management
2021-09-02 23:04:57,627 INFO scheduler Scheduled Job Start: frappe.email.queue.flush for hr_management
2021-09-02 23:04:57,881 INFO scheduler Scheduled Job Complete: frappe.email.queue.flush for hr_management
2021-09-02 23:05:53,524 DEBUG scheduler Queued events for site dev1
2021-09-02 23:06:53,904 DEBUG scheduler Queued events for site dev1
2021-09-02 23:07:54,322 DEBUG scheduler Queued events for site dev1
2021-09-02 23:08:54,804 DEBUG scheduler Queued events for site dev1
2021-09-02 23:08:54,862 INFO scheduler Scheduled Job Start: frappe.monitor.flush for dev1
2021-09-02 23:08:55,252 INFO scheduler Scheduled Job Complete: frappe.monitor.flush for dev1
2021-09-02 23:08:55,376 INFO scheduler Scheduled Job Start: frappe.utils.global_search.sync_global_search for dev1
2021-09-02 23:08:55,724 INFO scheduler Scheduled Job Complete: frappe.utils.global_search.sync_global_search for dev1
2021-09-02 23:08:55,835 INFO scheduler Scheduled Job Start: frappe.integrations.doctype.razorpay_settings.razorpay_settings.capture_payment for dev1
2021-09-02 23:08:56,365 INFO scheduler Scheduled Job Complete: frappe.integrations.doctype.razorpay_settings.razorpay_settings.capture_payment for dev1
2021-09-02 23:08:56,476 INFO scheduler Scheduled Job Start: frappe.email.doctype.email_account.email_account.notify_unreplied for dev1
2021-09-02 23:08:56,894 INFO scheduler Scheduled Job Complete: frappe.email.doctype.email_account.email_account.notify_unreplied for dev1
2021-09-02 23:08:57,005 INFO scheduler Scheduled Job Start: frappe.email.doctype.email_account.email_account.pull for dev1
2021-09-02 23:08:57,475 INFO scheduler Scheduled Job Complete: frappe.email.doctype.email_account.email_account.pull for dev1
2021-09-02 23:08:57,590 INFO scheduler Scheduled Job Start: frappe.email.queue.flush for dev1
2021-09-02 23:08:57,947 INFO scheduler Scheduled Job Complete: frappe.email.queue.flush for dev1
2021-09-02 23:08:58,066 INFO scheduler Scheduled Job Start: frappe.monitor.flush for hr_management
2021-09-02 23:08:58,399 INFO scheduler Scheduled Job Complete: frappe.monitor.flush for hr_management
2021-09-02 23:08:58,515 INFO scheduler Scheduled Job Start: frappe.utils.global_search.sync_global_search for hr_management
2021-09-02 23:08:58,862 INFO scheduler Scheduled Job Complete: frappe.utils.global_search.sync_global_search for hr_management
2021-09-02 23:08:58,976 INFO scheduler Scheduled Job Start: frappe.integrations.doctype.razorpay_settings.razorpay_settings.capture_payment for hr_management
2021-09-02 23:08:59,508 INFO scheduler Scheduled Job Complete: frappe.integrations.doctype.razorpay_settings.razorpay_settings.capture_payment for hr_management
2021-09-02 23:08:59,624 INFO scheduler Scheduled Job Start: frappe.email.doctype.email_account.email_account.notify_unreplied for hr_management
2021-09-02 23:09:00,041 INFO scheduler Scheduled Job Complete: frappe.email.doctype.email_account.email_account.notify_unreplied for hr_management
2021-09-02 23:09:00,161 INFO scheduler Scheduled Job Start: frappe.email.doctype.email_account.email_account.pull for hr_management
2021-09-02 23:09:00,636 INFO scheduler Scheduled Job Complete: frappe.email.doctype.email_account.email_account.pull for hr_management
2021-09-02 23:09:00,752 INFO scheduler Scheduled Job Start: frappe.email.queue.flush for hr_management
2021-09-02 23:09:01,131 INFO scheduler Scheduled Job Complete: frappe.email.queue.flush for hr_management
2021-09-02 23:09:55,382 DEBUG scheduler Queued events for site dev1
2021-09-02 23:10:55,839 DEBUG scheduler Queued events for site dev1
2021-09-02 23:11:56,304 DEBUG scheduler Queued events for site dev1
2021-09-02 23:12:56,797 DEBUG scheduler Queued events for site dev1
2021-09-02 23:12:56,843 INFO scheduler Scheduled Job Start: frappe.monitor.flush for dev1
2021-09-02 23:12:57,225 INFO scheduler Scheduled Job Complete: frappe.monitor.flush for dev1
2021-09-02 23:12:57,330 INFO scheduler Scheduled Job Start: frappe.utils.global_search.sync_global_search for dev1
2021-09-02 23:12:57,671 INFO scheduler Scheduled Job Complete: frappe.utils.global_search.sync_global_search for dev1
2021-09-02 23:12:57,784 INFO scheduler Scheduled Job Start: frappe.integrations.doctype.razorpay_settings.razorpay_settings.capture_payment for dev1
2021-09-02 23:12:58,298 INFO scheduler Scheduled Job Complete: frappe.integrations.doctype.razorpay_settings.razorpay_settings.capture_payment for dev1
2021-09-02 23:12:58,410 INFO scheduler Scheduled Job Start: frappe.email.doctype.email_account.email_account.notify_unreplied for dev1
2021-09-02 23:12:58,845 INFO scheduler Scheduled Job Complete: frappe.email.doctype.email_account.email_account.notify_unreplied for dev1
2021-09-02 23:12:58,959 INFO scheduler Scheduled Job Start: frappe.email.doctype.email_account.email_account.pull for dev1
2021-09-02 23:12:59,458 INFO scheduler Scheduled Job Complete: frappe.email.doctype.email_account.email_account.pull for dev1
2021-09-02 23:12:59,576 INFO scheduler Scheduled Job Start: frappe.email.queue.flush for dev1
2021-09-02 23:12:59,940 INFO scheduler Scheduled Job Complete: frappe.email.queue.flush for dev1
2021-09-02 23:13:00,073 INFO scheduler Scheduled Job Start: frappe.monitor.flush for hr_management
2021-09-02 23:13:00,395 INFO scheduler Scheduled Job Complete: frappe.monitor.flush for hr_management
2021-09-02 23:13:00,501 INFO scheduler Scheduled Job Start: frappe.utils.global_search.sync_global_search for hr_management
2021-09-02 23:13:00,839 INFO scheduler Scheduled Job Complete: frappe.utils.global_search.sync_global_search for hr_management
2021-09-02 23:13:00,953 INFO scheduler Scheduled Job Start: frappe.integrations.doctype.razorpay_settings.razorpay_settings.capture_payment for hr_management
2021-09-02 23:13:01,465 INFO scheduler Scheduled Job Complete: frappe.integrations.doctype.razorpay_settings.razorpay_settings.capture_payment for hr_management
2021-09-02 23:13:01,576 INFO scheduler Scheduled Job Start: frappe.email.doctype.email_account.email_account.notify_unreplied for hr_management
2021-09-02 23:13:02,011 INFO scheduler Scheduled Job Complete: frappe.email.doctype.email_account.email_account.notify_unreplied for hr_management
2021-09-02 23:13:02,127 INFO scheduler Scheduled Job Start: frappe.email.doctype.email_account.email_account.pull for hr_management
2021-09-02 23:13:02,580 INFO scheduler Scheduled Job Complete: frappe.email.doctype.email_account.email_account.pull for hr_management
2021-09-02 23:13:02,695 INFO scheduler Scheduled Job Start: frappe.email.queue.flush for hr_management
2021-09-02 23:13:03,055 INFO scheduler Scheduled Job Complete: frappe.email.queue.flush for hr_management
2021-09-02 23:13:57,445 DEBUG scheduler Queued events for site dev1
2021-09-02 23:14:57,961 DEBUG scheduler Queued events for site dev1
2021-09-02 23:15:58,390 DEBUG scheduler Queued events for site dev1
2021-09-02 23:15:58,477 INFO scheduler Scheduled Job Start: frappe.twofactor.delete_all_barcodes_for_users for dev1
2021-09-02 23:15:59,037 INFO scheduler Scheduled Job Complete: frappe.twofactor.delete_all_barcodes_for_users for dev1
2021-09-02 23:15:59,148 INFO scheduler Scheduled Job Start: frappe.website.doctype.web_page.web_page.check_publish_status for dev1
2021-09-02 23:15:59,722 INFO scheduler Scheduled Job Complete: frappe.website.doctype.web_page.web_page.check_publish_status for dev1
2021-09-02 23:15:59,837 INFO scheduler Scheduled Job Start: frappe.oauth.delete_oauth2_data for dev1
2021-09-02 23:16:00,401 INFO scheduler Scheduled Job Complete: frappe.oauth.delete_oauth2_data for dev1
2021-09-02 23:16:00,513 INFO scheduler Scheduled Job Start: frappe.twofactor.delete_all_barcodes_for_users for hr_management
2021-09-02 23:16:01,037 INFO scheduler Scheduled Job Complete: frappe.twofactor.delete_all_barcodes_for_users for hr_management
2021-09-02 23:16:01,148 INFO scheduler Scheduled Job Start: frappe.website.doctype.web_page.web_page.check_publish_status for hr_management
2021-09-02 23:16:01,765 INFO scheduler Scheduled Job Complete: frappe.website.doctype.web_page.web_page.check_publish_status for hr_management
2021-09-02 23:16:01,877 INFO scheduler Scheduled Job Start: frappe.oauth.delete_oauth2_data for hr_management
2021-09-02 23:16:02,432 INFO scheduler Scheduled Job Complete: frappe.oauth.delete_oauth2_data for hr_management
2021-09-02 23:16:58,924 DEBUG scheduler Queued events for site dev1
2021-09-02 23:16:58,966 INFO scheduler Scheduled Job Start: frappe.monitor.flush for dev1
2021-09-02 23:16:59,351 INFO scheduler Scheduled Job Complete: frappe.monitor.flush for dev1
2021-09-02 23:16:59,462 INFO scheduler Scheduled Job Start: frappe.utils.global_search.sync_global_search for dev1
2021-09-02 23:16:59,794 INFO scheduler Scheduled Job Complete: frappe.utils.global_search.sync_global_search for dev1
2021-09-02 23:16:59,892 INFO scheduler Scheduled Job Start: frappe.integrations.doctype.razorpay_settings.razorpay_settings.capture_payment for dev1
2021-09-02 23:17:00,431 INFO scheduler Scheduled Job Complete: frappe.integrations.doctype.razorpay_settings.razorpay_settings.capture_payment for dev1
2021-09-02 23:17:00,549 INFO scheduler Scheduled Job Start: frappe.email.doctype.email_account.email_account.notify_unreplied for dev1
2021-09-02 23:17:00,939 INFO scheduler Scheduled Job Complete: frappe.email.doctype.email_account.email_account.notify_unreplied for dev1
2021-09-02 23:17:01,044 INFO scheduler Scheduled Job Start: frappe.email.doctype.email_account.email_account.pull for dev1
2021-09-02 23:17:01,481 INFO scheduler Scheduled Job Complete: frappe.email.doctype.email_account.email_account.pull for dev1
2021-09-02 23:17:01,596 INFO scheduler Scheduled Job Start: frappe.email.queue.flush for dev1
2021-09-02 23:17:01,983 INFO scheduler Scheduled Job Complete: frappe.email.queue.flush for dev1
2021-09-02 23:17:02,091 INFO scheduler Scheduled Job Start: frappe.monitor.flush for hr_management
2021-09-02 23:17:02,445 INFO scheduler Scheduled Job Complete: frappe.monitor.flush for hr_management
2021-09-02 23:17:02,569 INFO scheduler Scheduled Job Start: frappe.utils.global_search.sync_global_search for hr_management
2021-09-02 23:17:02,898 INFO scheduler Scheduled Job Complete: frappe.utils.global_search.sync_global_search for hr_management
2021-09-02 23:17:02,995 INFO scheduler Scheduled Job Start: frappe.integrations.doctype.razorpay_settings.razorpay_settings.capture_payment for hr_management
2021-09-02 23:17:03,566 INFO scheduler Scheduled Job Complete: frappe.integrations.doctype.razorpay_settings.razorpay_settings.capture_payment for hr_management
2021-09-02 23:17:03,685 INFO scheduler Scheduled Job Start: frappe.email.doctype.email_account.email_account.notify_unreplied for hr_management
2021-09-02 23:17:04,064 INFO scheduler Scheduled Job Complete: frappe.email.doctype.email_account.email_account.notify_unreplied for hr_management
2021-09-02 23:17:04,170 INFO scheduler Scheduled Job Start: frappe.email.doctype.email_account.email_account.pull for hr_management
2021-09-02 23:17:04,591 INFO scheduler Scheduled Job Complete: frappe.email.doctype.email_account.email_account.pull for hr_management
2021-09-02 23:17:04,718 INFO scheduler Scheduled Job Start: frappe.email.queue.flush for hr_management
2021-09-02 23:17:05,104 INFO scheduler Scheduled Job Complete: frappe.email.queue.flush for hr_management
2021-09-02 23:17:59,473 DEBUG scheduler Queued events for site dev1
2021-09-02 23:18:59,920 DEBUG scheduler Queued events for site dev1
2021-09-02 23:20:00,419 DEBUG scheduler Queued events for site dev1
2021-09-02 23:20:00,473 INFO scheduler Scheduled Job Start: frappe.monitor.flush for dev1
2021-09-02 23:20:00,879 INFO scheduler Scheduled Job Complete: frappe.monitor.flush for dev1
2021-09-02 23:20:00,979 INFO scheduler Scheduled Job Start: frappe.utils.global_search.sync_global_search for dev1
2021-09-02 23:20:01,286 INFO scheduler Scheduled Job Complete: frappe.utils.global_search.sync_global_search for dev1
2021-09-02 23:20:01,400 INFO scheduler Scheduled Job Start: frappe.integrations.doctype.razorpay_settings.razorpay_settings.capture_payment for dev1
2021-09-02 23:20:01,891 INFO scheduler Scheduled Job Complete: frappe.integrations.doctype.razorpay_settings.razorpay_settings.capture_payment for dev1
2021-09-02 23:20:02,004 INFO scheduler Scheduled Job Start: frappe.email.doctype.email_account.email_account.notify_unreplied for dev1
2021-09-02 23:20:02,434 INFO scheduler Scheduled Job Complete: frappe.email.doctype.email_account.email_account.notify_unreplied for dev1
2021-09-02 23:20:02,541 INFO scheduler Scheduled Job Start: frappe.email.doctype.email_account.email_account.pull for dev1
2021-09-02 23:20:02,954 INFO scheduler Scheduled Job Complete: frappe.email.doctype.email_account.email_account.pull for dev1
2021-09-02 23:20:03,055 INFO scheduler Scheduled Job Start: frappe.email.queue.flush for dev1
2021-09-02 23:20:03,412 INFO scheduler Scheduled Job Complete: frappe.email.queue.flush for dev1
2021-09-02 23:20:03,517 INFO scheduler Scheduled Job Start: frappe.monitor.flush for hr_management
2021-09-02 23:20:03,821 INFO scheduler Scheduled Job Complete: frappe.monitor.flush for hr_management
2021-09-02 23:20:03,933 INFO scheduler Scheduled Job Start: frappe.utils.global_search.sync_global_search for hr_management
2021-09-02 23:20:04,250 INFO scheduler Scheduled Job Complete: frappe.utils.global_search.sync_global_search for hr_management
2021-09-02 23:20:04,355 INFO scheduler Scheduled Job Start: frappe.integrations.doctype.razorpay_settings.razorpay_settings.capture_payment for hr_management
2021-09-02 23:20:04,820 INFO scheduler Scheduled Job Complete: frappe.integrations.doctype.razorpay_settings.razorpay_settings.capture_payment for hr_management
2021-09-02 23:20:04,921 INFO scheduler Scheduled Job Start: frappe.email.doctype.email_account.email_account.notify_unreplied for hr_management
2021-09-02 23:20:05,319 INFO scheduler Scheduled Job Complete: frappe.email.doctype.email_account.email_account.notify_unreplied for hr_management
2021-09-02 23:20:05,417 INFO scheduler Scheduled Job Start: frappe.email.doctype.email_account.email_account.pull for hr_management
2021-09-02 23:20:05,831 INFO scheduler Scheduled Job Complete: frappe.email.doctype.email_account.email_account.pull for hr_management
2021-09-02 23:20:05,937 INFO scheduler Scheduled Job Start: frappe.email.queue.flush for hr_management
2021-09-02 23:20:06,264 INFO scheduler Scheduled Job Complete: frappe.email.queue.flush for hr_management
2021-09-02 23:21:00,983 DEBUG scheduler Queued events for site dev1
2021-09-02 23:22:01,429 DEBUG scheduler Queued events for site dev1
2021-09-02 23:23:01,852 DEBUG scheduler Queued events for site dev1
2021-09-02 23:24:02,296 DEBUG scheduler Queued events for site dev1
2021-09-02 23:24:02,333 INFO scheduler Scheduled Job Start: frappe.monitor.flush for dev1
2021-09-02 23:24:02,601 INFO scheduler Scheduled Job Complete: frappe.monitor.flush for dev1
2021-09-02 23:24:02,686 INFO scheduler Scheduled Job Start: frappe.utils.global_search.sync_global_search for dev1
2021-09-02 23:24:02,949 INFO scheduler Scheduled Job Complete: frappe.utils.global_search.sync_global_search for dev1
2021-09-02 23:24:03,035 INFO scheduler Scheduled Job Start: frappe.integrations.doctype.razorpay_settings.razorpay_settings.capture_payment for dev1
2021-09-02 23:24:03,509 INFO scheduler Scheduled Job Complete: frappe.integrations.doctype.razorpay_settings.razorpay_settings.capture_payment for dev1
2021-09-02 23:24:03,613 INFO scheduler Scheduled Job Start: frappe.email.doctype.email_account.email_account.notify_unreplied for dev1
2021-09-02 23:24:03,925 INFO scheduler Scheduled Job Complete: frappe.email.doctype.email_account.email_account.notify_unreplied for dev1
2021-09-02 23:24:04,014 INFO scheduler Scheduled Job Start: frappe.email.doctype.email_account.email_account.pull for dev1
2021-09-02 23:24:04,379 INFO scheduler Scheduled Job Complete: frappe.email.doctype.email_account.email_account.pull for dev1
2021-09-02 23:24:04,481 INFO scheduler Scheduled Job Start: frappe.email.queue.flush for dev1
2021-09-02 23:24:04,749 INFO scheduler Scheduled Job Complete: frappe.email.queue.flush for dev1
2021-09-02 23:24:04,849 INFO scheduler Scheduled Job Start: frappe.monitor.flush for hr_management
2021-09-02 23:24:05,109 INFO scheduler Scheduled Job Complete: frappe.monitor.flush for hr_management
2021-09-02 23:24:05,214 INFO scheduler Scheduled Job Start: frappe.utils.global_search.sync_global_search for hr_management
2021-09-02 23:24:05,465 INFO scheduler Scheduled Job Complete: frappe.utils.global_search.sync_global_search for hr_management
2021-09-02 23:24:05,551 INFO scheduler Scheduled Job Start: frappe.integrations.doctype.razorpay_settings.razorpay_settings.capture_payment for hr_management
2021-09-02 23:24:05,929 INFO scheduler Scheduled Job Complete: frappe.integrations.doctype.razorpay_settings.razorpay_settings.capture_payment for hr_management
2021-09-02 23:24:06,020 INFO scheduler Scheduled Job Start: frappe.email.doctype.email_account.email_account.notify_unreplied for hr_management
2021-09-02 23:24:06,341 INFO scheduler Scheduled Job Complete: frappe.email.doctype.email_account.email_account.notify_unreplied for hr_management
2021-09-02 23:24:06,438 INFO scheduler Scheduled Job Start: frappe.email.doctype.email_account.email_account.pull for hr_management
2021-09-02 23:24:06,777 INFO scheduler Scheduled Job Complete: frappe.email.doctype.email_account.email_account.pull for hr_management
2021-09-02 23:24:06,874 INFO scheduler Scheduled Job Start: frappe.email.queue.flush for hr_management
2021-09-02 23:24:07,145 INFO scheduler Scheduled Job Complete: frappe.email.queue.flush for hr_management
2021-09-02 23:25:02,717 DEBUG scheduler Queued events for site dev1
2021-09-02 23:26:03,105 DEBUG scheduler Queued events for site dev1
2021-09-02 23:27:03,498 DEBUG scheduler Queued events for site dev1
2021-09-03 08:12:46,217 INFO scheduler Scheduled Job Start: frappe.integrations.doctype.google_drive.google_drive.daily_backup for dev1
2021-09-03 08:12:46,314 INFO scheduler Scheduled Job Start: frappe.core.doctype.log_settings.log_settings.run_log_clean_up for dev1
2021-09-03 08:12:47,464 DEBUG scheduler Queued events for site dev1
2021-09-03 08:12:47,709 INFO scheduler Scheduled Job Complete: frappe.core.doctype.log_settings.log_settings.run_log_clean_up for dev1
2021-09-03 08:12:48,056 INFO scheduler Scheduled Job Start: frappe.core.doctype.prepared_report.prepared_report.delete_expired_prepared_reports for dev1
2021-09-03 08:12:48,154 INFO scheduler Scheduled Job Complete: frappe.integrations.doctype.google_drive.google_drive.daily_backup for dev1
2021-09-03 08:12:48,419 INFO scheduler Scheduled Job Start: frappe.integrations.doctype.s3_backup_settings.s3_backup_settings.take_backups_daily for dev1
2021-09-03 08:12:49,314 INFO scheduler Scheduled Job Complete: frappe.core.doctype.prepared_report.prepared_report.delete_expired_prepared_reports for dev1
2021-09-03 08:12:49,535 INFO scheduler Scheduled Job Start: frappe.email.doctype.unhandled_email.unhandled_email.remove_old_unhandled_emails for dev1
2021-09-03 08:12:49,640 INFO scheduler Scheduled Job Complete: frappe.integrations.doctype.s3_backup_settings.s3_backup_settings.take_backups_daily for dev1
2021-09-03 08:12:49,883 INFO scheduler Scheduled Job Start: frappe.utils.change_log.check_for_update for dev1
2021-09-03 08:12:50,353 INFO scheduler Scheduled Job Complete: frappe.email.doctype.unhandled_email.unhandled_email.remove_old_unhandled_emails for dev1
2021-09-03 08:12:50,511 INFO scheduler Scheduled Job Start: frappe.automation.doctype.auto_repeat.auto_repeat.set_auto_repeat_as_completed for dev1
2021-09-03 08:12:51,417 INFO scheduler Scheduled Job Complete: frappe.automation.doctype.auto_repeat.auto_repeat.set_auto_repeat_as_completed for dev1
2021-09-03 08:12:51,586 INFO scheduler Scheduled Job Start: frappe.automation.doctype.auto_repeat.auto_repeat.make_auto_repeat_entry for dev1
2021-09-03 08:12:52,468 INFO scheduler Scheduled Job Complete: frappe.automation.doctype.auto_repeat.auto_repeat.make_auto_repeat_entry for dev1
2021-09-03 08:12:52,638 INFO scheduler Scheduled Job Start: frappe.integrations.doctype.google_contacts.google_contacts.sync for dev1
2021-09-03 08:12:52,853 INFO scheduler Scheduled Job Complete: frappe.utils.change_log.check_for_update for dev1
2021-09-03 08:12:53,058 INFO scheduler Scheduled Job Start: frappe.integrations.doctype.dropbox_settings.dropbox_settings.take_backups_daily for dev1
2021-09-03 08:12:53,864 INFO scheduler Scheduled Job Complete: frappe.integrations.doctype.google_contacts.google_contacts.sync for dev1
2021-09-03 08:12:54,082 INFO scheduler Scheduled Job Start: frappe.social.doctype.energy_point_settings.energy_point_settings.allocate_review_points for dev1
2021-09-03 08:12:54,194 INFO scheduler Scheduled Job Complete: frappe.integrations.doctype.dropbox_settings.dropbox_settings.take_backups_daily for dev1
2021-09-03 08:12:54,412 INFO scheduler Scheduled Job Start: frappe.integrations.doctype.google_drive.google_drive.daily_backup for hr_management
2021-09-03 08:12:54,906 INFO scheduler Scheduled Job Complete: frappe.social.doctype.energy_point_settings.energy_point_settings.allocate_review_points for dev1
2021-09-03 08:12:55,075 INFO scheduler Scheduled Job Start: frappe.desk.form.document_follow.send_daily_updates for dev1
2021-09-03 08:12:55,505 INFO scheduler Scheduled Job Complete: frappe.integrations.doctype.google_drive.google_drive.daily_backup for hr_management
2021-09-03 08:12:55,687 INFO scheduler Scheduled Job Start: frappe.integrations.doctype.s3_backup_settings.s3_backup_settings.take_backups_daily for hr_management
2021-09-03 08:12:55,888 INFO scheduler Scheduled Job Complete: frappe.desk.form.document_follow.send_daily_updates for dev1
2021-09-03 08:12:56,042 INFO scheduler Scheduled Job Start: frappe.website.doctype.personal_data_deletion_request.personal_data_deletion_request.remove_unverified_record for dev1
2021-09-03 08:12:56,507 INFO scheduler Scheduled Job Complete: frappe.integrations.doctype.s3_backup_settings.s3_backup_settings.take_backups_daily for hr_management
2021-09-03 08:12:56,659 INFO scheduler Scheduled Job Start: frappe.utils.change_log.check_for_update for hr_management
2021-09-03 08:12:56,740 INFO scheduler Scheduled Job Complete: frappe.website.doctype.personal_data_deletion_request.personal_data_deletion_request.remove_unverified_record for dev1
2021-09-03 08:12:56,882 INFO scheduler Scheduled Job Start: frappe.email.doctype.auto_email_report.auto_email_report.send_daily for dev1
2021-09-03 08:12:57,994 INFO scheduler Scheduled Job Complete: frappe.email.doctype.auto_email_report.auto_email_report.send_daily for dev1
2021-09-03 08:12:58,155 INFO scheduler Scheduled Job Start: frappe.utils.scheduler.restrict_scheduler_events_if_dormant for dev1
2021-09-03 08:12:58,859 INFO scheduler Scheduled Job Failed: frappe.utils.scheduler.restrict_scheduler_events_if_dormant for dev1
2021-09-03 08:12:59,004 INFO scheduler Scheduled Job Complete: frappe.utils.change_log.check_for_update for hr_management
2021-09-03 08:12:59,043 INFO scheduler Scheduled Job Start: frappe.email.doctype.notification.notification.trigger_daily_alerts for dev1
2021-09-03 08:12:59,176 INFO scheduler Scheduled Job Start: frappe.integrations.doctype.dropbox_settings.dropbox_settings.take_backups_daily for hr_management
2021-09-03 08:13:00,077 INFO scheduler Scheduled Job Complete: frappe.email.doctype.notification.notification.trigger_daily_alerts for dev1
2021-09-03 08:13:00,303 INFO scheduler Scheduled Job Start: frappe.sessions.clear_expired_sessions for dev1
2021-09-03 08:13:00,525 INFO scheduler Scheduled Job Complete: frappe.integrations.doctype.dropbox_settings.dropbox_settings.take_backups_daily for hr_management
2021-09-03 08:13:01,069 INFO scheduler Scheduled Job Complete: frappe.sessions.clear_expired_sessions for dev1
2021-09-03 08:13:01,205 INFO scheduler Scheduled Job Start: frappe.desk.doctype.event.event.send_event_digest for dev1
2021-09-03 08:13:01,951 INFO scheduler Scheduled Job Complete: frappe.desk.doctype.event.event.send_event_digest for dev1
2021-09-03 08:13:02,086 INFO scheduler Scheduled Job Start: frappe.core.doctype.error_log.error_log.set_old_logs_as_seen for dev1
2021-09-03 08:13:02,750 INFO scheduler Scheduled Job Complete: frappe.core.doctype.error_log.error_log.set_old_logs_as_seen for dev1
2021-09-03 08:13:02,864 INFO scheduler Scheduled Job Start: frappe.desk.notifications.clear_notifications for dev1
2021-09-03 08:13:03,463 INFO scheduler Scheduled Job Complete: frappe.desk.notifications.clear_notifications for dev1
2021-09-03 08:13:03,579 INFO scheduler Scheduled Job Start: frappe.email.queue.set_expiry_for_email_queue for dev1
2021-09-03 08:13:04,230 INFO scheduler Scheduled Job Complete: frappe.email.queue.set_expiry_for_email_queue for dev1
2021-09-03 08:13:04,428 INFO scheduler Scheduled Job Start: frappe.email.doctype.newsletter.newsletter.send_scheduled_email for dev1
2021-09-03 08:13:05,268 INFO scheduler Scheduled Job Complete: frappe.email.doctype.newsletter.newsletter.send_scheduled_email for dev1
2021-09-03 08:13:05,411 INFO scheduler Scheduled Job Start: frappe.integrations.doctype.google_calendar.google_calendar.sync for dev1
2021-09-03 08:13:06,348 INFO scheduler Scheduled Job Complete: frappe.integrations.doctype.google_calendar.google_calendar.sync for dev1
2021-09-03 08:13:06,473 INFO scheduler Scheduled Job Start: frappe.desk.form.document_follow.send_hourly_updates for dev1
2021-09-03 08:13:07,020 INFO scheduler Scheduled Job Complete: frappe.desk.form.document_follow.send_hourly_updates for dev1
2021-09-03 08:13:07,115 INFO scheduler Scheduled Job Start: frappe.deferred_insert.save_to_db for dev1
2021-09-03 08:13:07,516 INFO scheduler Scheduled Job Complete: frappe.deferred_insert.save_to_db for dev1
2021-09-03 08:13:07,615 INFO scheduler Scheduled Job Start: frappe.desk.page.backups.backups.delete_downloadable_backups for dev1
2021-09-03 08:13:08,036 INFO scheduler Scheduled Job Complete: frappe.desk.page.backups.backups.delete_downloadable_backups for dev1
2021-09-03 08:13:08,141 INFO scheduler Scheduled Job Start: frappe.utils.error.collect_error_snapshots for dev1
2021-09-03 08:13:08,524 INFO scheduler Scheduled Job Complete: frappe.utils.error.collect_error_snapshots for dev1
2021-09-03 08:13:08,608 INFO scheduler Scheduled Job Start: frappe.model.utils.user_settings.sync_user_settings for dev1
2021-09-03 08:13:08,983 INFO scheduler Scheduled Job Complete: frappe.model.utils.user_settings.sync_user_settings for dev1
2021-09-03 08:13:09,070 INFO scheduler Scheduled Job Start: frappe.model.utils.link_count.update_link_count for dev1
2021-09-03 08:13:09,557 INFO scheduler Scheduled Job Complete: frappe.model.utils.link_count.update_link_count for dev1
2021-09-03 08:13:09,679 INFO scheduler Scheduled Job Start: frappe.monitor.flush for dev1
2021-09-03 08:13:09,951 INFO scheduler Scheduled Job Complete: frappe.monitor.flush for dev1
2021-09-03 08:13:10,046 INFO scheduler Scheduled Job Start: frappe.utils.global_search.sync_global_search for dev1
2021-09-03 08:13:10,300 INFO scheduler Scheduled Job Complete: frappe.utils.global_search.sync_global_search for dev1
2021-09-03 08:13:10,389 INFO scheduler Scheduled Job Start: frappe.integrations.doctype.razorpay_settings.razorpay_settings.capture_payment for dev1
2021-09-03 08:13:10,808 INFO scheduler Scheduled Job Complete: frappe.integrations.doctype.razorpay_settings.razorpay_settings.capture_payment for dev1
2021-09-03 08:13:10,919 INFO scheduler Scheduled Job Start: frappe.email.doctype.email_account.email_account.notify_unreplied for dev1
2021-09-03 08:13:11,309 INFO scheduler Scheduled Job Complete: frappe.email.doctype.email_account.email_account.notify_unreplied for dev1
2021-09-03 08:13:11,406 INFO scheduler Scheduled Job Start: frappe.email.doctype.email_account.email_account.pull for dev1
2021-09-03 08:13:11,818 INFO scheduler Scheduled Job Complete: frappe.email.doctype.email_account.email_account.pull for dev1
2021-09-03 08:13:11,918 INFO scheduler Scheduled Job Start: frappe.email.queue.flush for dev1
2021-09-03 08:13:12,195 INFO scheduler Scheduled Job Complete: frappe.email.queue.flush for dev1
2021-09-03 08:13:12,276 INFO scheduler Scheduled Job Start: frappe.twofactor.delete_all_barcodes_for_users for dev1
2021-09-03 08:13:12,674 INFO scheduler Scheduled Job Complete: frappe.twofactor.delete_all_barcodes_for_users for dev1
2021-09-03 08:13:12,794 INFO scheduler Scheduled Job Start: frappe.website.doctype.web_page.web_page.check_publish_status for dev1
2021-09-03 08:13:13,325 INFO scheduler Scheduled Job Complete: frappe.website.doctype.web_page.web_page.check_publish_status for dev1
2021-09-03 08:13:13,428 INFO scheduler Scheduled Job Start: frappe.oauth.delete_oauth2_data for dev1
2021-09-03 08:13:13,909 INFO scheduler Scheduled Job Complete: frappe.oauth.delete_oauth2_data for dev1
2021-09-03 08:13:14,058 INFO scheduler Scheduled Job Start: frappe.core.doctype.log_settings.log_settings.run_log_clean_up for hr_management
2021-09-03 08:13:14,621 INFO scheduler Scheduled Job Complete: frappe.core.doctype.log_settings.log_settings.run_log_clean_up for hr_management
2021-09-03 08:13:14,729 INFO scheduler Scheduled Job Start: frappe.core.doctype.prepared_report.prepared_report.delete_expired_prepared_reports for hr_management
2021-09-03 08:13:15,440 INFO scheduler Scheduled Job Complete: frappe.core.doctype.prepared_report.prepared_report.delete_expired_prepared_reports for hr_management
2021-09-03 08:13:15,562 INFO scheduler Scheduled Job Start: frappe.email.doctype.unhandled_email.unhandled_email.remove_old_unhandled_emails for hr_management
2021-09-03 08:13:15,968 INFO scheduler Scheduled Job Complete: frappe.email.doctype.unhandled_email.unhandled_email.remove_old_unhandled_emails for hr_management
2021-09-03 08:13:16,094 INFO scheduler Scheduled Job Start: frappe.automation.doctype.auto_repeat.auto_repeat.set_auto_repeat_as_completed for hr_management
2021-09-03 08:13:16,787 INFO scheduler Scheduled Job Complete: frappe.automation.doctype.auto_repeat.auto_repeat.set_auto_repeat_as_completed for hr_management
2021-09-03 08:13:16,909 INFO scheduler Scheduled Job Start: frappe.automation.doctype.auto_repeat.auto_repeat.make_auto_repeat_entry for hr_management
2021-09-03 08:13:17,504 INFO scheduler Scheduled Job Complete: frappe.automation.doctype.auto_repeat.auto_repeat.make_auto_repeat_entry for hr_management
2021-09-03 08:13:17,596 INFO scheduler Scheduled Job Start: frappe.integrations.doctype.google_contacts.google_contacts.sync for hr_management
2021-09-03 08:13:18,296 INFO scheduler Scheduled Job Complete: frappe.integrations.doctype.google_contacts.google_contacts.sync for hr_management
2021-09-03 08:13:18,399 INFO scheduler Scheduled Job Start: frappe.social.doctype.energy_point_settings.energy_point_settings.allocate_review_points for hr_management
2021-09-03 08:13:18,793 INFO scheduler Scheduled Job Complete: frappe.social.doctype.energy_point_settings.energy_point_settings.allocate_review_points for hr_management
2021-09-03 08:13:18,904 INFO scheduler Scheduled Job Start: frappe.desk.form.document_follow.send_daily_updates for hr_management
2021-09-03 08:13:19,323 INFO scheduler Scheduled Job Complete: frappe.desk.form.document_follow.send_daily_updates for hr_management
2021-09-03 08:13:19,428 INFO scheduler Scheduled Job Start: frappe.website.doctype.personal_data_deletion_request.personal_data_deletion_request.remove_unverified_record for hr_management
2021-09-03 08:13:19,835 INFO scheduler Scheduled Job Complete: frappe.website.doctype.personal_data_deletion_request.personal_data_deletion_request.remove_unverified_record for hr_management
2021-09-03 08:13:19,944 INFO scheduler Scheduled Job Start: frappe.email.doctype.auto_email_report.auto_email_report.send_daily for hr_management
2021-09-03 08:13:20,676 INFO scheduler Scheduled Job Complete: frappe.email.doctype.auto_email_report.auto_email_report.send_daily for hr_management
2021-09-03 08:13:20,766 INFO scheduler Scheduled Job Start: frappe.utils.scheduler.restrict_scheduler_events_if_dormant for hr_management
2021-09-03 08:13:21,146 INFO scheduler Scheduled Job Failed: frappe.utils.scheduler.restrict_scheduler_events_if_dormant for hr_management
2021-09-03 08:13:21,240 INFO scheduler Scheduled Job Start: frappe.email.doctype.notification.notification.trigger_daily_alerts for hr_management
2021-09-03 08:13:21,642 INFO scheduler Scheduled Job Complete: frappe.email.doctype.notification.notification.trigger_daily_alerts for hr_management
2021-09-03 08:13:21,735 INFO scheduler Scheduled Job Start: frappe.sessions.clear_expired_sessions for hr_management
2021-09-03 08:13:22,283 INFO scheduler Scheduled Job Complete: frappe.sessions.clear_expired_sessions for hr_management
2021-09-03 08:13:22,377 INFO scheduler Scheduled Job Start: frappe.desk.doctype.event.event.send_event_digest for hr_management
2021-09-03 08:13:22,798 INFO scheduler Scheduled Job Complete: frappe.desk.doctype.event.event.send_event_digest for hr_management
2021-09-03 08:13:22,898 INFO scheduler Scheduled Job Start: frappe.core.doctype.error_log.error_log.set_old_logs_as_seen for hr_management
2021-09-03 08:13:23,321 INFO scheduler Scheduled Job Complete: frappe.core.doctype.error_log.error_log.set_old_logs_as_seen for hr_management
2021-09-03 08:13:23,417 INFO scheduler Scheduled Job Start: frappe.desk.notifications.clear_notifications for hr_management
2021-09-03 08:13:23,833 INFO scheduler Scheduled Job Complete: frappe.desk.notifications.clear_notifications for hr_management
2021-09-03 08:13:23,944 INFO scheduler Scheduled Job Start: frappe.email.queue.set_expiry_for_email_queue for hr_management
2021-09-03 08:13:24,388 INFO scheduler Scheduled Job Complete: frappe.email.queue.set_expiry_for_email_queue for hr_management
2021-09-03 08:13:24,477 INFO scheduler Scheduled Job Start: frappe.email.doctype.newsletter.newsletter.send_scheduled_email for hr_management
2021-09-03 08:13:24,962 INFO scheduler Scheduled Job Complete: frappe.email.doctype.newsletter.newsletter.send_scheduled_email for hr_management
2021-09-03 08:13:25,049 INFO scheduler Scheduled Job Start: frappe.integrations.doctype.google_calendar.google_calendar.sync for hr_management
2021-09-03 08:13:25,629 INFO scheduler Scheduled Job Complete: frappe.integrations.doctype.google_calendar.google_calendar.sync for hr_management
2021-09-03 08:13:25,733 INFO scheduler Scheduled Job Start: frappe.desk.form.document_follow.send_hourly_updates for hr_management
2021-09-03 08:13:26,140 INFO scheduler Scheduled Job Complete: frappe.desk.form.document_follow.send_hourly_updates for hr_management
2021-09-03 08:13:26,241 INFO scheduler Scheduled Job Start: frappe.deferred_insert.save_to_db for hr_management
2021-09-03 08:13:26,612 INFO scheduler Scheduled Job Complete: frappe.deferred_insert.save_to_db for hr_management
2021-09-03 08:13:26,722 INFO scheduler Scheduled Job Start: frappe.desk.page.backups.backups.delete_downloadable_backups for hr_management
2021-09-03 08:13:27,161 INFO scheduler Scheduled Job Complete: frappe.desk.page.backups.backups.delete_downloadable_backups for hr_management
2021-09-03 08:13:27,266 INFO scheduler Scheduled Job Start: frappe.utils.error.collect_error_snapshots for hr_management
2021-09-03 08:13:27,679 INFO scheduler Scheduled Job Complete: frappe.utils.error.collect_error_snapshots for hr_management
2021-09-03 08:13:27,783 INFO scheduler Scheduled Job Start: frappe.model.utils.user_settings.sync_user_settings for hr_management
2021-09-03 08:13:28,217 INFO scheduler Scheduled Job Complete: frappe.model.utils.user_settings.sync_user_settings for hr_management
2021-09-03 08:13:28,300 INFO scheduler Scheduled Job Start: frappe.model.utils.link_count.update_link_count for hr_management
2021-09-03 08:13:28,830 INFO scheduler Scheduled Job Complete: frappe.model.utils.link_count.update_link_count for hr_management
2021-09-03 08:13:28,929 INFO scheduler Scheduled Job Start: frappe.monitor.flush for hr_management
2021-09-03 08:13:29,270 INFO scheduler Scheduled Job Complete: frappe.monitor.flush for hr_management
2021-09-03 08:13:29,363 INFO scheduler Scheduled Job Start: frappe.utils.global_search.sync_global_search for hr_management
2021-09-03 08:13:29,651 INFO scheduler Scheduled Job Complete: frappe.utils.global_search.sync_global_search for hr_management
2021-09-03 08:13:29,732 INFO scheduler Scheduled Job Start: frappe.integrations.doctype.razorpay_settings.razorpay_settings.capture_payment for hr_management
2021-09-03 08:13:30,135 INFO scheduler Scheduled Job Complete: frappe.integrations.doctype.razorpay_settings.razorpay_settings.capture_payment for hr_management
2021-09-03 08:13:30,232 INFO scheduler Scheduled Job Start: frappe.email.doctype.email_account.email_account.notify_unreplied for hr_management
2021-09-03 08:13:30,544 INFO scheduler Scheduled Job Complete: frappe.email.doctype.email_account.email_account.notify_unreplied for hr_management
2021-09-03 08:13:30,648 INFO scheduler Scheduled Job Start: frappe.email.doctype.email_account.email_account.pull for hr_management
2021-09-03 08:13:31,022 INFO scheduler Scheduled Job Complete: frappe.email.doctype.email_account.email_account.pull for hr_management
2021-09-03 08:13:31,113 INFO scheduler Scheduled Job Start: frappe.email.queue.flush for hr_management
2021-09-03 08:13:31,422 INFO scheduler Scheduled Job Complete: frappe.email.queue.flush for hr_management
2021-09-03 08:13:31,520 INFO scheduler Scheduled Job Start: frappe.twofactor.delete_all_barcodes_for_users for hr_management
2021-09-03 08:13:32,013 INFO scheduler Scheduled Job Complete: frappe.twofactor.delete_all_barcodes_for_users for hr_management
2021-09-03 08:13:32,107 INFO scheduler Scheduled Job Start: frappe.website.doctype.web_page.web_page.check_publish_status for hr_management
2021-09-03 08:13:32,706 INFO scheduler Scheduled Job Complete: frappe.website.doctype.web_page.web_page.check_publish_status for hr_management
2021-09-03 08:13:32,791 INFO scheduler Scheduled Job Start: frappe.oauth.delete_oauth2_data for hr_management
2021-09-03 08:13:50,354 DEBUG scheduler Queued events for site dev1
