2021-09-03 09:57:06,638 DEBUG scheduler Queued events for site dev1
2021-09-03 09:58:07,010 DEBUG scheduler Queued events for site dev1
2021-09-03 09:59:07,370 DEBUG scheduler Queued events for site dev1
2021-09-03 10:00:07,882 DEBUG scheduler Queued events for site dev1
2021-09-03 10:01:08,424 DEBUG scheduler Queued events for site dev1
2021-09-03 10:02:08,836 DEBUG scheduler Queued events for site dev1
2021-09-03 10:03:09,208 DEBUG scheduler Queued events for site dev1
2021-09-03 10:04:09,587 DEBUG scheduler Queued events for site dev1
2021-09-03 10:05:10,085 DEBUG scheduler Queued events for site dev1
2021-09-03 10:06:10,460 DEBUG scheduler Queued events for site dev1
2021-09-03 10:07:10,826 DEBUG scheduler Queued events for site dev1
2021-09-03 10:08:11,215 DEBUG scheduler Queued events for site dev1
2021-09-03 10:09:11,695 DEBUG scheduler Queued events for site dev1
2021-09-03 10:10:12,065 DEBUG scheduler Queued events for site dev1
2021-09-03 10:11:12,418 DEBUG scheduler Queued events for site dev1
2021-09-03 10:12:12,780 DEBUG scheduler Queued events for site dev1
2021-09-03 10:13:13,203 DEBUG scheduler Queued events for site dev1
2021-09-03 10:14:13,559 DEBUG scheduler Queued events for site dev1
2021-09-03 10:15:13,915 DEBUG scheduler Queued events for site dev1
2021-09-03 10:16:14,344 DEBUG scheduler Queued events for site dev1
2021-09-03 10:17:14,768 DEBUG scheduler Queued events for site dev1
2021-09-03 10:18:15,163 DEBUG scheduler Queued events for site dev1
2021-09-03 10:19:15,510 DEBUG scheduler Queued events for site dev1
2021-09-03 10:20:15,881 DEBUG scheduler Queued events for site dev1
2021-09-03 10:21:16,336 DEBUG scheduler Queued events for site dev1
2021-09-03 10:22:16,742 DEBUG scheduler Queued events for site dev1
2021-09-03 10:23:17,116 DEBUG scheduler Queued events for site dev1
2021-09-03 10:24:17,512 DEBUG scheduler Queued events for site dev1
2021-09-03 10:25:17,949 DEBUG scheduler Queued events for site dev1
2021-09-03 10:26:18,357 DEBUG scheduler Queued events for site dev1
2021-09-03 10:27:18,731 DEBUG scheduler Queued events for site dev1
2021-09-03 10:28:19,107 DEBUG scheduler Queued events for site dev1
2021-09-03 10:29:19,565 DEBUG scheduler Queued events for site dev1
2021-09-03 10:30:19,971 DEBUG scheduler Queued events for site dev1
