2021-09-03 11:37:56,801 DEBUG scheduler Queued events for site hr_management
2021-09-03 11:38:57,127 DEBUG scheduler Queued events for site hr_management
2021-09-03 11:39:57,478 DEBUG scheduler Queued events for site hr_management
2021-09-03 11:40:57,889 DEBUG scheduler Queued events for site hr_management
2021-09-03 11:41:58,276 DEBUG scheduler Queued events for site hr_management
2021-09-03 11:42:58,629 DEBUG scheduler Queued events for site hr_management
2021-09-03 11:43:58,970 DEBUG scheduler Queued events for site hr_management
2021-09-03 11:44:59,362 DEBUG scheduler Queued events for site hr_management
2021-09-03 11:45:59,846 DEBUG scheduler Queued events for site hr_management
2021-09-03 11:47:00,244 DEBUG scheduler Queued events for site hr_management
2021-09-03 11:48:00,640 DEBUG scheduler Queued events for site hr_management
2021-09-03 11:49:01,038 DEBUG scheduler Queued events for site hr_management
2021-09-03 11:50:01,445 DEBUG scheduler Queued events for site hr_management
2021-09-03 11:51:01,937 DEBUG scheduler Queued events for site hr_management
2021-09-03 11:52:02,409 DEBUG scheduler Queued events for site hr_management
2021-09-03 11:53:02,818 DEBUG scheduler Queued events for site hr_management
2021-09-03 11:54:03,146 DEBUG scheduler Queued events for site hr_management
2021-09-03 11:55:03,558 DEBUG scheduler Queued events for site hr_management
2021-09-03 11:56:03,995 DEBUG scheduler Queued events for site hr_management
2021-09-03 11:57:04,379 DEBUG scheduler Queued events for site hr_management
2021-09-03 11:58:04,728 DEBUG scheduler Queued events for site hr_management
2021-09-03 11:59:05,086 DEBUG scheduler Queued events for site hr_management
2021-09-03 12:00:05,975 DEBUG scheduler Queued events for site hr_management
2021-09-03 12:01:06,409 DEBUG scheduler Queued events for site hr_management
2021-09-03 12:02:06,760 DEBUG scheduler Queued events for site hr_management
2021-09-03 12:03:07,117 DEBUG scheduler Queued events for site hr_management
2021-09-03 12:04:07,565 DEBUG scheduler Queued events for site hr_management
2021-09-03 12:05:07,938 DEBUG scheduler Queued events for site hr_management
2021-09-03 12:06:08,267 DEBUG scheduler Queued events for site hr_management
2021-09-03 12:07:08,641 DEBUG scheduler Queued events for site hr_management
2021-09-03 12:08:09,033 DEBUG scheduler Queued events for site hr_management
2021-09-03 12:09:09,450 DEBUG scheduler Queued events for site hr_management
2021-09-03 12:10:09,783 DEBUG scheduler Queued events for site hr_management
2021-09-03 12:11:10,129 DEBUG scheduler Queued events for site hr_management
2021-09-03 12:12:10,565 DEBUG scheduler Queued events for site hr_management
2021-09-03 12:13:10,980 DEBUG scheduler Queued events for site hr_management
2021-09-03 12:14:11,335 DEBUG scheduler Queued events for site hr_management
2021-09-03 12:15:11,689 DEBUG scheduler Queued events for site hr_management
2021-09-03 12:16:12,135 DEBUG scheduler Queued events for site hr_management
2021-09-03 12:17:12,553 DEBUG scheduler Queued events for site hr_management
2021-09-03 12:18:12,883 DEBUG scheduler Queued events for site hr_management
2021-09-03 12:19:13,219 DEBUG scheduler Queued events for site hr_management
2021-09-03 12:20:13,631 DEBUG scheduler Queued events for site hr_management
2021-09-03 12:21:14,032 DEBUG scheduler Queued events for site hr_management
2021-09-03 12:22:14,365 DEBUG scheduler Queued events for site hr_management
2021-09-03 12:23:14,690 DEBUG scheduler Queued events for site hr_management
2021-09-03 12:24:15,110 DEBUG scheduler Queued events for site hr_management
2021-09-03 12:25:15,463 DEBUG scheduler Queued events for site hr_management
2021-09-03 12:26:15,795 DEBUG scheduler Queued events for site hr_management
2021-09-03 12:27:16,140 DEBUG scheduler Queued events for site hr_management
2021-09-03 12:28:16,595 DEBUG scheduler Queued events for site hr_management
2021-09-03 12:29:16,978 DEBUG scheduler Queued events for site hr_management
2021-09-03 12:30:17,344 DEBUG scheduler Queued events for site hr_management
2021-09-03 12:31:17,738 DEBUG scheduler Queued events for site hr_management
2021-09-03 12:32:18,138 DEBUG scheduler Queued events for site hr_management
2021-09-03 12:33:18,546 DEBUG scheduler Queued events for site hr_management
2021-09-03 12:34:18,882 DEBUG scheduler Queued events for site hr_management
2021-09-03 12:35:19,221 DEBUG scheduler Queued events for site hr_management
2021-09-03 12:36:19,652 DEBUG scheduler Queued events for site hr_management
2021-09-03 12:37:20,048 DEBUG scheduler Queued events for site hr_management
2021-09-03 12:38:20,388 DEBUG scheduler Queued events for site hr_management
2021-09-03 12:39:20,694 DEBUG scheduler Queued events for site hr_management
2021-09-03 12:40:21,130 DEBUG scheduler Queued events for site hr_management
2021-09-03 12:41:21,531 DEBUG scheduler Queued events for site hr_management
2021-09-03 12:42:21,890 DEBUG scheduler Queued events for site hr_management
2021-09-03 12:43:22,257 DEBUG scheduler Queued events for site hr_management
2021-09-03 12:44:22,645 DEBUG scheduler Queued events for site hr_management
2021-09-03 12:45:23,170 DEBUG scheduler Queued events for site hr_management
2021-09-03 12:46:23,551 DEBUG scheduler Queued events for site hr_management
2021-09-03 12:47:23,896 DEBUG scheduler Queued events for site hr_management
2021-09-03 12:48:24,309 DEBUG scheduler Queued events for site hr_management
2021-09-03 12:49:24,688 DEBUG scheduler Queued events for site hr_management
2021-09-03 12:50:25,023 DEBUG scheduler Queued events for site hr_management
2021-09-03 12:51:25,346 DEBUG scheduler Queued events for site hr_management
2021-09-03 12:52:25,801 DEBUG scheduler Queued events for site hr_management
2021-09-03 12:53:26,212 DEBUG scheduler Queued events for site hr_management
2021-09-03 12:54:26,554 DEBUG scheduler Queued events for site hr_management
2021-09-03 12:55:26,900 DEBUG scheduler Queued events for site hr_management
2021-09-03 12:56:27,297 DEBUG scheduler Queued events for site hr_management
2021-09-03 12:57:27,688 DEBUG scheduler Queued events for site hr_management
2021-09-03 12:58:28,004 DEBUG scheduler Queued events for site hr_management
2021-09-03 12:59:28,342 DEBUG scheduler Queued events for site hr_management
2021-09-03 13:00:28,929 DEBUG scheduler Queued events for site hr_management
2021-09-03 13:01:29,321 DEBUG scheduler Queued events for site hr_management
2021-09-03 13:02:29,673 DEBUG scheduler Queued events for site hr_management
2021-09-03 13:03:30,050 DEBUG scheduler Queued events for site hr_management
2021-09-03 13:04:30,533 DEBUG scheduler Queued events for site hr_management
2021-09-03 13:05:30,900 DEBUG scheduler Queued events for site hr_management
2021-09-03 13:06:31,269 DEBUG scheduler Queued events for site hr_management
2021-09-03 13:07:31,621 DEBUG scheduler Queued events for site hr_management
2021-09-03 13:08:32,172 DEBUG scheduler Queued events for site hr_management
2021-09-03 13:09:32,582 DEBUG scheduler Queued events for site hr_management
2021-09-03 13:10:32,929 DEBUG scheduler Queued events for site hr_management
2021-09-03 13:11:33,358 DEBUG scheduler Queued events for site hr_management
2021-09-03 13:12:33,852 DEBUG scheduler Queued events for site hr_management
