2021-09-02 15:53:01,002 INFO scheduler Scheduled Job Complete: frappe.email.doctype.email_account.email_account.pull for hr_management
2021-09-02 15:53:01,091 INFO scheduler Scheduled Job Start: frappe.email.queue.flush for hr_management
2021-09-02 15:53:01,380 INFO scheduler Scheduled Job Complete: frappe.email.queue.flush for hr_management
