2021-09-03 09:37:03,273 INFO scheduler Scheduled Job Complete: frappe.email.doctype.email_account.email_account.notify_unreplied for hr_management
2021-09-03 09:37:03,380 INFO scheduler Scheduled Job Start: frappe.email.doctype.email_account.email_account.pull for hr_management
2021-09-03 09:37:03,788 INFO scheduler Scheduled Job Complete: frappe.email.doctype.email_account.email_account.pull for hr_management
2021-09-03 09:37:03,892 INFO scheduler Scheduled Job Start: frappe.email.queue.flush for hr_management
2021-09-03 09:37:04,201 INFO scheduler Scheduled Job Complete: frappe.email.queue.flush for hr_management
