2021-09-03 09:38:59,483 DEBUG scheduler Queued events for site hr_management
2021-09-03 09:39:59,860 DEBUG scheduler Queued events for site hr_management
2021-09-03 09:41:00,270 DEBUG scheduler Queued events for site hr_management
2021-09-03 09:41:02,716 INFO scheduler Scheduled Job Start: frappe.monitor.flush for hr_management
2021-09-03 09:41:02,968 INFO scheduler Scheduled Job Complete: frappe.monitor.flush for hr_management
2021-09-03 09:41:03,079 INFO scheduler Scheduled Job Start: frappe.utils.global_search.sync_global_search for hr_management
2021-09-03 09:41:03,337 INFO scheduler Scheduled Job Complete: frappe.utils.global_search.sync_global_search for hr_management
2021-09-03 09:41:03,442 INFO scheduler Scheduled Job Start: frappe.integrations.doctype.razorpay_settings.razorpay_settings.capture_payment for hr_management
2021-09-03 09:41:03,834 INFO scheduler Scheduled Job Complete: frappe.integrations.doctype.razorpay_settings.razorpay_settings.capture_payment for hr_management
2021-09-03 09:41:03,924 INFO scheduler Scheduled Job Start: frappe.email.doctype.email_account.email_account.notify_unreplied for hr_management
2021-09-03 09:41:04,267 INFO scheduler Scheduled Job Complete: frappe.email.doctype.email_account.email_account.notify_unreplied for hr_management
2021-09-03 09:41:04,370 INFO scheduler Scheduled Job Start: frappe.email.doctype.email_account.email_account.pull for hr_management
2021-09-03 09:41:04,836 INFO scheduler Scheduled Job Complete: frappe.email.doctype.email_account.email_account.pull for hr_management
2021-09-03 09:41:04,943 INFO scheduler Scheduled Job Start: frappe.email.queue.flush for hr_management
2021-09-03 09:41:05,243 INFO scheduler Scheduled Job Complete: frappe.email.queue.flush for hr_management
2021-09-03 09:42:00,671 DEBUG scheduler Queued events for site hr_management
2021-09-03 09:43:01,025 DEBUG scheduler Queued events for site hr_management
2021-09-03 09:44:01,506 DEBUG scheduler Queued events for site hr_management
2021-09-03 09:44:04,124 INFO scheduler Scheduled Job Start: frappe.monitor.flush for hr_management
2021-09-03 09:44:04,438 INFO scheduler Scheduled Job Complete: frappe.monitor.flush for hr_management
2021-09-03 09:44:04,548 INFO scheduler Scheduled Job Start: frappe.utils.global_search.sync_global_search for hr_management
2021-09-03 09:44:04,845 INFO scheduler Scheduled Job Complete: frappe.utils.global_search.sync_global_search for hr_management
2021-09-03 09:44:04,973 INFO scheduler Scheduled Job Start: frappe.integrations.doctype.razorpay_settings.razorpay_settings.capture_payment for hr_management
2021-09-03 09:44:05,441 INFO scheduler Scheduled Job Complete: frappe.integrations.doctype.razorpay_settings.razorpay_settings.capture_payment for hr_management
2021-09-03 09:44:05,555 INFO scheduler Scheduled Job Start: frappe.email.doctype.email_account.email_account.notify_unreplied for hr_management
2021-09-03 09:44:05,952 INFO scheduler Scheduled Job Complete: frappe.email.doctype.email_account.email_account.notify_unreplied for hr_management
2021-09-03 09:44:06,055 INFO scheduler Scheduled Job Start: frappe.email.doctype.email_account.email_account.pull for hr_management
2021-09-03 09:44:06,441 INFO scheduler Scheduled Job Complete: frappe.email.doctype.email_account.email_account.pull for hr_management
2021-09-03 09:44:06,544 INFO scheduler Scheduled Job Start: frappe.email.queue.flush for hr_management
2021-09-03 09:44:06,822 INFO scheduler Scheduled Job Complete: frappe.email.queue.flush for hr_management
2021-09-03 09:45:01,898 DEBUG scheduler Queued events for site hr_management
2021-09-03 09:45:03,413 INFO scheduler Scheduled Job Start: frappe.twofactor.delete_all_barcodes_for_users for hr_management
2021-09-03 09:45:03,778 INFO scheduler Scheduled Job Complete: frappe.twofactor.delete_all_barcodes_for_users for hr_management
2021-09-03 09:45:03,880 INFO scheduler Scheduled Job Start: frappe.website.doctype.web_page.web_page.check_publish_status for hr_management
2021-09-03 09:45:04,328 INFO scheduler Scheduled Job Complete: frappe.website.doctype.web_page.web_page.check_publish_status for hr_management
2021-09-03 09:45:04,433 INFO scheduler Scheduled Job Start: frappe.oauth.delete_oauth2_data for hr_management
2021-09-03 09:45:04,836 INFO scheduler Scheduled Job Complete: frappe.oauth.delete_oauth2_data for hr_management
2021-09-03 09:46:02,284 DEBUG scheduler Queued events for site hr_management
2021-09-03 09:47:02,686 DEBUG scheduler Queued events for site hr_management
2021-09-03 09:48:03,138 DEBUG scheduler Queued events for site hr_management
2021-09-03 09:48:05,667 INFO scheduler Scheduled Job Start: frappe.monitor.flush for hr_management
2021-09-03 09:48:06,032 INFO scheduler Scheduled Job Complete: frappe.monitor.flush for hr_management
2021-09-03 09:48:06,170 INFO scheduler Scheduled Job Start: frappe.utils.global_search.sync_global_search for hr_management
2021-09-03 09:48:06,628 INFO scheduler Scheduled Job Complete: frappe.utils.global_search.sync_global_search for hr_management
2021-09-03 09:48:06,760 INFO scheduler Scheduled Job Start: frappe.integrations.doctype.razorpay_settings.razorpay_settings.capture_payment for hr_management
2021-09-03 09:48:07,339 INFO scheduler Scheduled Job Complete: frappe.integrations.doctype.razorpay_settings.razorpay_settings.capture_payment for hr_management
2021-09-03 09:48:07,443 INFO scheduler Scheduled Job Start: frappe.email.doctype.email_account.email_account.notify_unreplied for hr_management
2021-09-03 09:48:07,896 INFO scheduler Scheduled Job Complete: frappe.email.doctype.email_account.email_account.notify_unreplied for hr_management
2021-09-03 09:48:07,979 INFO scheduler Scheduled Job Start: frappe.email.doctype.email_account.email_account.pull for hr_management
2021-09-03 09:48:08,359 INFO scheduler Scheduled Job Complete: frappe.email.doctype.email_account.email_account.pull for hr_management
2021-09-03 09:48:08,463 INFO scheduler Scheduled Job Start: frappe.email.queue.flush for hr_management
2021-09-03 09:48:08,835 INFO scheduler Scheduled Job Complete: frappe.email.queue.flush for hr_management
2021-09-03 09:49:03,524 DEBUG scheduler Queued events for site hr_management
2021-09-03 09:50:03,966 DEBUG scheduler Queued events for site hr_management
2021-09-03 09:51:04,420 DEBUG scheduler Queued events for site hr_management
2021-09-03 09:52:04,868 DEBUG scheduler Queued events for site hr_management
2021-09-03 09:52:07,502 INFO scheduler Scheduled Job Start: frappe.monitor.flush for hr_management
2021-09-03 09:52:07,802 INFO scheduler Scheduled Job Complete: frappe.monitor.flush for hr_management
2021-09-03 09:52:07,905 INFO scheduler Scheduled Job Start: frappe.utils.global_search.sync_global_search for hr_management
2021-09-03 09:52:08,174 INFO scheduler Scheduled Job Complete: frappe.utils.global_search.sync_global_search for hr_management
2021-09-03 09:52:08,274 INFO scheduler Scheduled Job Start: frappe.integrations.doctype.razorpay_settings.razorpay_settings.capture_payment for hr_management
2021-09-03 09:52:08,692 INFO scheduler Scheduled Job Complete: frappe.integrations.doctype.razorpay_settings.razorpay_settings.capture_payment for hr_management
2021-09-03 09:52:08,779 INFO scheduler Scheduled Job Start: frappe.email.doctype.email_account.email_account.notify_unreplied for hr_management
2021-09-03 09:52:09,165 INFO scheduler Scheduled Job Complete: frappe.email.doctype.email_account.email_account.notify_unreplied for hr_management
2021-09-03 09:52:09,260 INFO scheduler Scheduled Job Start: frappe.email.doctype.email_account.email_account.pull for hr_management
2021-09-03 09:52:09,648 INFO scheduler Scheduled Job Complete: frappe.email.doctype.email_account.email_account.pull for hr_management
2021-09-03 09:52:09,739 INFO scheduler Scheduled Job Start: frappe.email.queue.flush for hr_management
2021-09-03 09:52:10,001 INFO scheduler Scheduled Job Complete: frappe.email.queue.flush for hr_management
2021-09-03 09:53:05,294 DEBUG scheduler Queued events for site hr_management
2021-09-03 09:54:05,620 DEBUG scheduler Queued events for site hr_management
2021-09-03 09:55:05,943 DEBUG scheduler Queued events for site hr_management
2021-09-03 09:56:06,410 DEBUG scheduler Queued events for site hr_management
2021-09-03 09:56:08,717 INFO scheduler Scheduled Job Start: frappe.monitor.flush for hr_management
2021-09-03 09:56:08,978 INFO scheduler Scheduled Job Complete: frappe.monitor.flush for hr_management
2021-09-03 09:56:09,065 INFO scheduler Scheduled Job Start: frappe.utils.global_search.sync_global_search for hr_management
2021-09-03 09:56:09,337 INFO scheduler Scheduled Job Complete: frappe.utils.global_search.sync_global_search for hr_management
2021-09-03 09:56:09,422 INFO scheduler Scheduled Job Start: frappe.integrations.doctype.razorpay_settings.razorpay_settings.capture_payment for hr_management
2021-09-03 09:56:09,819 INFO scheduler Scheduled Job Complete: frappe.integrations.doctype.razorpay_settings.razorpay_settings.capture_payment for hr_management
2021-09-03 09:56:09,906 INFO scheduler Scheduled Job Start: frappe.email.doctype.email_account.email_account.notify_unreplied for hr_management
2021-09-03 09:56:10,253 INFO scheduler Scheduled Job Complete: frappe.email.doctype.email_account.email_account.notify_unreplied for hr_management
2021-09-03 09:56:10,334 INFO scheduler Scheduled Job Start: frappe.email.doctype.email_account.email_account.pull for hr_management
2021-09-03 09:56:10,696 INFO scheduler Scheduled Job Complete: frappe.email.doctype.email_account.email_account.pull for hr_management
2021-09-03 09:56:10,799 INFO scheduler Scheduled Job Start: frappe.email.queue.flush for hr_management
2021-09-03 09:56:11,072 INFO scheduler Scheduled Job Complete: frappe.email.queue.flush for hr_management
2021-09-03 09:57:06,796 DEBUG scheduler Queued events for site hr_management
2021-09-03 09:58:07,137 DEBUG scheduler Queued events for site hr_management
2021-09-03 09:59:07,512 DEBUG scheduler Queued events for site hr_management
2021-09-03 10:00:08,191 DEBUG scheduler Queued events for site hr_management
2021-09-03 10:00:17,811 INFO scheduler Scheduled Job Start: frappe.email.doctype.newsletter.newsletter.send_scheduled_email for hr_management
2021-09-03 10:00:18,385 INFO scheduler Scheduled Job Complete: frappe.email.doctype.newsletter.newsletter.send_scheduled_email for hr_management
2021-09-03 10:00:18,491 INFO scheduler Scheduled Job Start: frappe.integrations.doctype.google_calendar.google_calendar.sync for hr_management
2021-09-03 10:00:19,210 INFO scheduler Scheduled Job Complete: frappe.integrations.doctype.google_calendar.google_calendar.sync for hr_management
2021-09-03 10:00:19,313 INFO scheduler Scheduled Job Start: frappe.desk.form.document_follow.send_hourly_updates for hr_management
2021-09-03 10:00:19,770 INFO scheduler Scheduled Job Complete: frappe.desk.form.document_follow.send_hourly_updates for hr_management
2021-09-03 10:00:19,881 INFO scheduler Scheduled Job Start: frappe.deferred_insert.save_to_db for hr_management
2021-09-03 10:00:20,291 INFO scheduler Scheduled Job Complete: frappe.deferred_insert.save_to_db for hr_management
2021-09-03 10:00:20,396 INFO scheduler Scheduled Job Start: frappe.desk.page.backups.backups.delete_downloadable_backups for hr_management
2021-09-03 10:00:20,869 INFO scheduler Scheduled Job Complete: frappe.desk.page.backups.backups.delete_downloadable_backups for hr_management
2021-09-03 10:00:20,994 INFO scheduler Scheduled Job Start: frappe.utils.error.collect_error_snapshots for hr_management
2021-09-03 10:00:21,627 INFO scheduler Scheduled Job Complete: frappe.utils.error.collect_error_snapshots for hr_management
2021-09-03 10:00:21,761 INFO scheduler Scheduled Job Start: frappe.model.utils.user_settings.sync_user_settings for hr_management
2021-09-03 10:00:22,333 INFO scheduler Scheduled Job Complete: frappe.model.utils.user_settings.sync_user_settings for hr_management
2021-09-03 10:00:22,463 INFO scheduler Scheduled Job Start: frappe.model.utils.link_count.update_link_count for hr_management
2021-09-03 10:00:23,046 INFO scheduler Scheduled Job Complete: frappe.model.utils.link_count.update_link_count for hr_management
2021-09-03 10:00:23,168 INFO scheduler Scheduled Job Start: frappe.monitor.flush for hr_management
2021-09-03 10:00:23,585 INFO scheduler Scheduled Job Complete: frappe.monitor.flush for hr_management
2021-09-03 10:00:23,705 INFO scheduler Scheduled Job Start: frappe.utils.global_search.sync_global_search for hr_management
2021-09-03 10:00:24,049 INFO scheduler Scheduled Job Complete: frappe.utils.global_search.sync_global_search for hr_management
2021-09-03 10:00:24,137 INFO scheduler Scheduled Job Start: frappe.integrations.doctype.razorpay_settings.razorpay_settings.capture_payment for hr_management
2021-09-03 10:00:24,571 INFO scheduler Scheduled Job Complete: frappe.integrations.doctype.razorpay_settings.razorpay_settings.capture_payment for hr_management
2021-09-03 10:00:24,658 INFO scheduler Scheduled Job Start: frappe.email.doctype.email_account.email_account.notify_unreplied for hr_management
2021-09-03 10:00:24,981 INFO scheduler Scheduled Job Complete: frappe.email.doctype.email_account.email_account.notify_unreplied for hr_management
2021-09-03 10:00:25,089 INFO scheduler Scheduled Job Start: frappe.email.doctype.email_account.email_account.pull for hr_management
2021-09-03 10:00:25,430 INFO scheduler Scheduled Job Complete: frappe.email.doctype.email_account.email_account.pull for hr_management
2021-09-03 10:00:25,537 INFO scheduler Scheduled Job Start: frappe.email.queue.flush for hr_management
2021-09-03 10:00:25,835 INFO scheduler Scheduled Job Complete: frappe.email.queue.flush for hr_management
2021-09-03 10:00:25,931 INFO scheduler Scheduled Job Start: frappe.twofactor.delete_all_barcodes_for_users for hr_management
2021-09-03 10:00:26,369 INFO scheduler Scheduled Job Complete: frappe.twofactor.delete_all_barcodes_for_users for hr_management
2021-09-03 10:00:26,464 INFO scheduler Scheduled Job Start: frappe.website.doctype.web_page.web_page.check_publish_status for hr_management
2021-09-03 10:00:26,950 INFO scheduler Scheduled Job Complete: frappe.website.doctype.web_page.web_page.check_publish_status for hr_management
2021-09-03 10:00:27,086 INFO scheduler Scheduled Job Start: frappe.oauth.delete_oauth2_data for hr_management
2021-09-03 10:00:27,557 INFO scheduler Scheduled Job Complete: frappe.oauth.delete_oauth2_data for hr_management
2021-09-03 10:01:08,596 DEBUG scheduler Queued events for site hr_management
2021-09-03 10:02:09,000 DEBUG scheduler Queued events for site hr_management
2021-09-03 10:03:09,334 DEBUG scheduler Queued events for site hr_management
2021-09-03 10:04:09,836 DEBUG scheduler Queued events for site hr_management
2021-09-03 10:04:12,253 INFO scheduler Scheduled Job Start: frappe.monitor.flush for hr_management
2021-09-03 10:04:12,525 INFO scheduler Scheduled Job Complete: frappe.monitor.flush for hr_management
2021-09-03 10:04:12,629 INFO scheduler Scheduled Job Start: frappe.utils.global_search.sync_global_search for hr_management
2021-09-03 10:04:12,906 INFO scheduler Scheduled Job Complete: frappe.utils.global_search.sync_global_search for hr_management
2021-09-03 10:04:13,008 INFO scheduler Scheduled Job Start: frappe.integrations.doctype.razorpay_settings.razorpay_settings.capture_payment for hr_management
2021-09-03 10:04:13,561 INFO scheduler Scheduled Job Complete: frappe.integrations.doctype.razorpay_settings.razorpay_settings.capture_payment for hr_management
2021-09-03 10:04:13,671 INFO scheduler Scheduled Job Start: frappe.email.doctype.email_account.email_account.notify_unreplied for hr_management
2021-09-03 10:04:14,070 INFO scheduler Scheduled Job Complete: frappe.email.doctype.email_account.email_account.notify_unreplied for hr_management
2021-09-03 10:04:14,165 INFO scheduler Scheduled Job Start: frappe.email.doctype.email_account.email_account.pull for hr_management
2021-09-03 10:04:14,524 INFO scheduler Scheduled Job Complete: frappe.email.doctype.email_account.email_account.pull for hr_management
2021-09-03 10:04:14,614 INFO scheduler Scheduled Job Start: frappe.email.queue.flush for hr_management
2021-09-03 10:04:14,922 INFO scheduler Scheduled Job Complete: frappe.email.queue.flush for hr_management
2021-09-03 10:05:10,253 DEBUG scheduler Queued events for site hr_management
2021-09-03 10:06:10,591 DEBUG scheduler Queued events for site hr_management
2021-09-03 10:07:10,981 DEBUG scheduler Queued events for site hr_management
2021-09-03 10:08:11,452 DEBUG scheduler Queued events for site hr_management
2021-09-03 10:08:13,808 INFO scheduler Scheduled Job Start: frappe.monitor.flush for hr_management
2021-09-03 10:08:14,056 INFO scheduler Scheduled Job Complete: frappe.monitor.flush for hr_management
2021-09-03 10:08:14,149 INFO scheduler Scheduled Job Start: frappe.utils.global_search.sync_global_search for hr_management
2021-09-03 10:08:14,393 INFO scheduler Scheduled Job Complete: frappe.utils.global_search.sync_global_search for hr_management
2021-09-03 10:08:14,474 INFO scheduler Scheduled Job Start: frappe.integrations.doctype.razorpay_settings.razorpay_settings.capture_payment for hr_management
2021-09-03 10:08:14,881 INFO scheduler Scheduled Job Complete: frappe.integrations.doctype.razorpay_settings.razorpay_settings.capture_payment for hr_management
2021-09-03 10:08:14,962 INFO scheduler Scheduled Job Start: frappe.email.doctype.email_account.email_account.notify_unreplied for hr_management
2021-09-03 10:08:15,290 INFO scheduler Scheduled Job Complete: frappe.email.doctype.email_account.email_account.notify_unreplied for hr_management
2021-09-03 10:08:15,388 INFO scheduler Scheduled Job Start: frappe.email.doctype.email_account.email_account.pull for hr_management
2021-09-03 10:08:15,759 INFO scheduler Scheduled Job Complete: frappe.email.doctype.email_account.email_account.pull for hr_management
2021-09-03 10:08:15,848 INFO scheduler Scheduled Job Start: frappe.email.queue.flush for hr_management
2021-09-03 10:08:16,158 INFO scheduler Scheduled Job Complete: frappe.email.queue.flush for hr_management
2021-09-03 10:09:11,848 DEBUG scheduler Queued events for site hr_management
2021-09-03 10:10:12,197 DEBUG scheduler Queued events for site hr_management
2021-09-03 10:11:12,534 DEBUG scheduler Queued events for site hr_management
2021-09-03 10:12:12,962 DEBUG scheduler Queued events for site hr_management
2021-09-03 10:12:15,537 INFO scheduler Scheduled Job Start: frappe.monitor.flush for hr_management
2021-09-03 10:12:15,845 INFO scheduler Scheduled Job Complete: frappe.monitor.flush for hr_management
2021-09-03 10:12:15,952 INFO scheduler Scheduled Job Start: frappe.utils.global_search.sync_global_search for hr_management
2021-09-03 10:12:16,270 INFO scheduler Scheduled Job Complete: frappe.utils.global_search.sync_global_search for hr_management
2021-09-03 10:12:16,374 INFO scheduler Scheduled Job Start: frappe.integrations.doctype.razorpay_settings.razorpay_settings.capture_payment for hr_management
2021-09-03 10:12:16,857 INFO scheduler Scheduled Job Complete: frappe.integrations.doctype.razorpay_settings.razorpay_settings.capture_payment for hr_management
2021-09-03 10:12:16,964 INFO scheduler Scheduled Job Start: frappe.email.doctype.email_account.email_account.notify_unreplied for hr_management
2021-09-03 10:12:17,345 INFO scheduler Scheduled Job Complete: frappe.email.doctype.email_account.email_account.notify_unreplied for hr_management
2021-09-03 10:12:17,445 INFO scheduler Scheduled Job Start: frappe.email.doctype.email_account.email_account.pull for hr_management
2021-09-03 10:12:17,833 INFO scheduler Scheduled Job Complete: frappe.email.doctype.email_account.email_account.pull for hr_management
2021-09-03 10:12:17,929 INFO scheduler Scheduled Job Start: frappe.email.queue.flush for hr_management
2021-09-03 10:12:18,283 INFO scheduler Scheduled Job Complete: frappe.email.queue.flush for hr_management
2021-09-03 10:13:13,379 DEBUG scheduler Queued events for site hr_management
2021-09-03 10:14:13,694 DEBUG scheduler Queued events for site hr_management
2021-09-03 10:15:14,081 DEBUG scheduler Queued events for site hr_management
2021-09-03 10:15:15,715 INFO scheduler Scheduled Job Start: frappe.twofactor.delete_all_barcodes_for_users for hr_management
2021-09-03 10:15:16,127 INFO scheduler Scheduled Job Complete: frappe.twofactor.delete_all_barcodes_for_users for hr_management
2021-09-03 10:15:16,219 INFO scheduler Scheduled Job Start: frappe.website.doctype.web_page.web_page.check_publish_status for hr_management
2021-09-03 10:15:16,638 INFO scheduler Scheduled Job Complete: frappe.website.doctype.web_page.web_page.check_publish_status for hr_management
2021-09-03 10:15:16,728 INFO scheduler Scheduled Job Start: frappe.oauth.delete_oauth2_data for hr_management
2021-09-03 10:15:17,129 INFO scheduler Scheduled Job Complete: frappe.oauth.delete_oauth2_data for hr_management
2021-09-03 10:16:14,517 DEBUG scheduler Queued events for site hr_management
2021-09-03 10:16:16,810 INFO scheduler Scheduled Job Start: frappe.monitor.flush for hr_management
2021-09-03 10:16:17,080 INFO scheduler Scheduled Job Complete: frappe.monitor.flush for hr_management
2021-09-03 10:16:17,163 INFO scheduler Scheduled Job Start: frappe.utils.global_search.sync_global_search for hr_management
2021-09-03 10:16:17,413 INFO scheduler Scheduled Job Complete: frappe.utils.global_search.sync_global_search for hr_management
2021-09-03 10:16:17,502 INFO scheduler Scheduled Job Start: frappe.integrations.doctype.razorpay_settings.razorpay_settings.capture_payment for hr_management
2021-09-03 10:16:17,874 INFO scheduler Scheduled Job Complete: frappe.integrations.doctype.razorpay_settings.razorpay_settings.capture_payment for hr_management
2021-09-03 10:16:17,957 INFO scheduler Scheduled Job Start: frappe.email.doctype.email_account.email_account.notify_unreplied for hr_management
2021-09-03 10:16:18,295 INFO scheduler Scheduled Job Complete: frappe.email.doctype.email_account.email_account.notify_unreplied for hr_management
2021-09-03 10:16:18,385 INFO scheduler Scheduled Job Start: frappe.email.doctype.email_account.email_account.pull for hr_management
2021-09-03 10:16:18,716 INFO scheduler Scheduled Job Complete: frappe.email.doctype.email_account.email_account.pull for hr_management
2021-09-03 10:16:18,796 INFO scheduler Scheduled Job Start: frappe.email.queue.flush for hr_management
2021-09-03 10:16:19,066 INFO scheduler Scheduled Job Complete: frappe.email.queue.flush for hr_management
2021-09-03 10:17:14,954 DEBUG scheduler Queued events for site hr_management
2021-09-03 10:18:15,295 DEBUG scheduler Queued events for site hr_management
2021-09-03 10:19:15,632 DEBUG scheduler Queued events for site hr_management
2021-09-03 10:20:16,109 DEBUG scheduler Queued events for site hr_management
2021-09-03 10:20:18,346 INFO scheduler Scheduled Job Start: frappe.monitor.flush for hr_management
2021-09-03 10:20:18,591 INFO scheduler Scheduled Job Complete: frappe.monitor.flush for hr_management
2021-09-03 10:20:18,694 INFO scheduler Scheduled Job Start: frappe.utils.global_search.sync_global_search for hr_management
2021-09-03 10:20:18,931 INFO scheduler Scheduled Job Complete: frappe.utils.global_search.sync_global_search for hr_management
2021-09-03 10:20:19,028 INFO scheduler Scheduled Job Start: frappe.integrations.doctype.razorpay_settings.razorpay_settings.capture_payment for hr_management
2021-09-03 10:20:19,412 INFO scheduler Scheduled Job Complete: frappe.integrations.doctype.razorpay_settings.razorpay_settings.capture_payment for hr_management
2021-09-03 10:20:19,508 INFO scheduler Scheduled Job Start: frappe.email.doctype.email_account.email_account.notify_unreplied for hr_management
2021-09-03 10:20:19,824 INFO scheduler Scheduled Job Complete: frappe.email.doctype.email_account.email_account.notify_unreplied for hr_management
2021-09-03 10:20:19,925 INFO scheduler Scheduled Job Start: frappe.email.doctype.email_account.email_account.pull for hr_management
2021-09-03 10:20:20,263 INFO scheduler Scheduled Job Complete: frappe.email.doctype.email_account.email_account.pull for hr_management
2021-09-03 10:20:20,345 INFO scheduler Scheduled Job Start: frappe.email.queue.flush for hr_management
2021-09-03 10:20:20,607 INFO scheduler Scheduled Job Complete: frappe.email.queue.flush for hr_management
2021-09-03 10:21:16,500 DEBUG scheduler Queued events for site hr_management
2021-09-03 10:22:16,892 DEBUG scheduler Queued events for site hr_management
2021-09-03 10:23:17,263 DEBUG scheduler Queued events for site hr_management
2021-09-03 10:24:17,712 DEBUG scheduler Queued events for site hr_management
2021-09-03 10:24:20,018 INFO scheduler Scheduled Job Start: frappe.monitor.flush for hr_management
2021-09-03 10:24:20,271 INFO scheduler Scheduled Job Complete: frappe.monitor.flush for hr_management
2021-09-03 10:24:20,369 INFO scheduler Scheduled Job Start: frappe.utils.global_search.sync_global_search for hr_management
2021-09-03 10:24:20,620 INFO scheduler Scheduled Job Complete: frappe.utils.global_search.sync_global_search for hr_management
2021-09-03 10:24:20,712 INFO scheduler Scheduled Job Start: frappe.integrations.doctype.razorpay_settings.razorpay_settings.capture_payment for hr_management
2021-09-03 10:24:21,089 INFO scheduler Scheduled Job Complete: frappe.integrations.doctype.razorpay_settings.razorpay_settings.capture_payment for hr_management
2021-09-03 10:24:21,193 INFO scheduler Scheduled Job Start: frappe.email.doctype.email_account.email_account.notify_unreplied for hr_management
2021-09-03 10:24:21,522 INFO scheduler Scheduled Job Complete: frappe.email.doctype.email_account.email_account.notify_unreplied for hr_management
2021-09-03 10:24:21,615 INFO scheduler Scheduled Job Start: frappe.email.doctype.email_account.email_account.pull for hr_management
2021-09-03 10:24:21,930 INFO scheduler Scheduled Job Complete: frappe.email.doctype.email_account.email_account.pull for hr_management
2021-09-03 10:24:22,030 INFO scheduler Scheduled Job Start: frappe.email.queue.flush for hr_management
2021-09-03 10:24:22,284 INFO scheduler Scheduled Job Complete: frappe.email.queue.flush for hr_management
2021-09-03 10:25:18,105 DEBUG scheduler Queued events for site hr_management
2021-09-03 10:26:18,513 DEBUG scheduler Queued events for site hr_management
2021-09-03 10:27:18,854 DEBUG scheduler Queued events for site hr_management
2021-09-03 10:28:19,332 DEBUG scheduler Queued events for site hr_management
2021-09-03 10:28:21,630 INFO scheduler Scheduled Job Start: frappe.monitor.flush for hr_management
2021-09-03 10:28:21,886 INFO scheduler Scheduled Job Complete: frappe.monitor.flush for hr_management
2021-09-03 10:28:21,973 INFO scheduler Scheduled Job Start: frappe.utils.global_search.sync_global_search for hr_management
2021-09-03 10:28:22,251 INFO scheduler Scheduled Job Complete: frappe.utils.global_search.sync_global_search for hr_management
2021-09-03 10:28:22,333 INFO scheduler Scheduled Job Start: frappe.integrations.doctype.razorpay_settings.razorpay_settings.capture_payment for hr_management
2021-09-03 10:28:22,723 INFO scheduler Scheduled Job Complete: frappe.integrations.doctype.razorpay_settings.razorpay_settings.capture_payment for hr_management
2021-09-03 10:28:22,813 INFO scheduler Scheduled Job Start: frappe.email.doctype.email_account.email_account.notify_unreplied for hr_management
2021-09-03 10:28:23,140 INFO scheduler Scheduled Job Complete: frappe.email.doctype.email_account.email_account.notify_unreplied for hr_management
2021-09-03 10:28:23,224 INFO scheduler Scheduled Job Start: frappe.email.doctype.email_account.email_account.pull for hr_management
2021-09-03 10:28:23,555 INFO scheduler Scheduled Job Complete: frappe.email.doctype.email_account.email_account.pull for hr_management
2021-09-03 10:28:23,646 INFO scheduler Scheduled Job Start: frappe.email.queue.flush for hr_management
2021-09-03 10:28:23,932 INFO scheduler Scheduled Job Complete: frappe.email.queue.flush for hr_management
2021-09-03 10:29:19,730 DEBUG scheduler Queued events for site hr_management
2021-09-03 10:30:20,151 DEBUG scheduler Queued events for site hr_management
2021-09-03 10:30:21,567 INFO scheduler Scheduled Job Start: frappe.twofactor.delete_all_barcodes_for_users for hr_management
2021-09-03 10:30:21,965 INFO scheduler Scheduled Job Complete: frappe.twofactor.delete_all_barcodes_for_users for hr_management
2021-09-03 10:30:22,069 INFO scheduler Scheduled Job Start: frappe.website.doctype.web_page.web_page.check_publish_status for hr_management
2021-09-03 10:30:22,488 INFO scheduler Scheduled Job Complete: frappe.website.doctype.web_page.web_page.check_publish_status for hr_management
2021-09-03 10:30:22,588 INFO scheduler Scheduled Job Start: frappe.oauth.delete_oauth2_data for hr_management
2021-09-03 10:30:22,947 INFO scheduler Scheduled Job Complete: frappe.oauth.delete_oauth2_data for hr_management
2021-09-03 10:38:33,388 DEBUG scheduler Queued events for site hr_management
2021-09-03 10:38:35,924 INFO scheduler Scheduled Job Start: frappe.monitor.flush for hr_management
2021-09-03 10:38:36,382 INFO scheduler Scheduled Job Complete: frappe.monitor.flush for hr_management
2021-09-03 10:38:36,466 INFO scheduler Scheduled Job Start: frappe.utils.global_search.sync_global_search for hr_management
2021-09-03 10:38:36,701 INFO scheduler Scheduled Job Complete: frappe.utils.global_search.sync_global_search for hr_management
2021-09-03 10:38:36,789 INFO scheduler Scheduled Job Start: frappe.integrations.doctype.razorpay_settings.razorpay_settings.capture_payment for hr_management
2021-09-03 10:38:37,282 INFO scheduler Scheduled Job Complete: frappe.integrations.doctype.razorpay_settings.razorpay_settings.capture_payment for hr_management
2021-09-03 10:38:37,377 INFO scheduler Scheduled Job Start: frappe.email.doctype.email_account.email_account.notify_unreplied for hr_management
2021-09-03 10:38:37,800 INFO scheduler Scheduled Job Complete: frappe.email.doctype.email_account.email_account.notify_unreplied for hr_management
2021-09-03 10:38:37,896 INFO scheduler Scheduled Job Start: frappe.email.doctype.email_account.email_account.pull for hr_management
2021-09-03 10:38:38,409 INFO scheduler Scheduled Job Complete: frappe.email.doctype.email_account.email_account.pull for hr_management
2021-09-03 10:38:38,494 INFO scheduler Scheduled Job Start: frappe.email.queue.flush for hr_management
2021-09-03 10:38:38,837 INFO scheduler Scheduled Job Complete: frappe.email.queue.flush for hr_management
2021-09-03 10:39:33,795 DEBUG scheduler Queued events for site hr_management
2021-09-03 10:40:34,199 DEBUG scheduler Queued events for site hr_management
2021-09-03 10:40:36,464 INFO scheduler Scheduled Job Start: frappe.monitor.flush for hr_management
2021-09-03 10:40:36,712 INFO scheduler Scheduled Job Complete: frappe.monitor.flush for hr_management
2021-09-03 10:40:36,789 INFO scheduler Scheduled Job Start: frappe.utils.global_search.sync_global_search for hr_management
2021-09-03 10:40:37,041 INFO scheduler Scheduled Job Complete: frappe.utils.global_search.sync_global_search for hr_management
2021-09-03 10:40:37,139 INFO scheduler Scheduled Job Start: frappe.integrations.doctype.razorpay_settings.razorpay_settings.capture_payment for hr_management
2021-09-03 10:40:37,523 INFO scheduler Scheduled Job Complete: frappe.integrations.doctype.razorpay_settings.razorpay_settings.capture_payment for hr_management
2021-09-03 10:40:37,623 INFO scheduler Scheduled Job Start: frappe.email.doctype.email_account.email_account.notify_unreplied for hr_management
2021-09-03 10:40:37,948 INFO scheduler Scheduled Job Complete: frappe.email.doctype.email_account.email_account.notify_unreplied for hr_management
2021-09-03 10:40:38,054 INFO scheduler Scheduled Job Start: frappe.email.doctype.email_account.email_account.pull for hr_management
2021-09-03 10:40:38,386 INFO scheduler Scheduled Job Complete: frappe.email.doctype.email_account.email_account.pull for hr_management
2021-09-03 10:40:38,484 INFO scheduler Scheduled Job Start: frappe.email.queue.flush for hr_management
2021-09-03 10:40:38,772 INFO scheduler Scheduled Job Complete: frappe.email.queue.flush for hr_management
2021-09-03 10:41:34,612 DEBUG scheduler Queued events for site hr_management
2021-09-03 10:42:34,927 DEBUG scheduler Queued events for site hr_management
2021-09-03 10:43:35,282 DEBUG scheduler Queued events for site hr_management
2021-09-03 10:44:35,786 DEBUG scheduler Queued events for site hr_management
2021-09-03 10:44:38,409 INFO scheduler Scheduled Job Start: frappe.monitor.flush for hr_management
2021-09-03 10:44:38,672 INFO scheduler Scheduled Job Complete: frappe.monitor.flush for hr_management
2021-09-03 10:44:38,778 INFO scheduler Scheduled Job Start: frappe.utils.global_search.sync_global_search for hr_management
2021-09-03 10:44:39,102 INFO scheduler Scheduled Job Complete: frappe.utils.global_search.sync_global_search for hr_management
2021-09-03 10:44:39,205 INFO scheduler Scheduled Job Start: frappe.integrations.doctype.razorpay_settings.razorpay_settings.capture_payment for hr_management
2021-09-03 10:44:39,649 INFO scheduler Scheduled Job Complete: frappe.integrations.doctype.razorpay_settings.razorpay_settings.capture_payment for hr_management
2021-09-03 10:44:39,740 INFO scheduler Scheduled Job Start: frappe.email.doctype.email_account.email_account.notify_unreplied for hr_management
2021-09-03 10:44:40,100 INFO scheduler Scheduled Job Complete: frappe.email.doctype.email_account.email_account.notify_unreplied for hr_management
2021-09-03 10:44:40,185 INFO scheduler Scheduled Job Start: frappe.email.doctype.email_account.email_account.pull for hr_management
2021-09-03 10:44:40,554 INFO scheduler Scheduled Job Complete: frappe.email.doctype.email_account.email_account.pull for hr_management
2021-09-03 10:44:40,660 INFO scheduler Scheduled Job Start: frappe.email.queue.flush for hr_management
2021-09-03 10:44:40,955 INFO scheduler Scheduled Job Complete: frappe.email.queue.flush for hr_management
2021-09-03 10:45:36,207 DEBUG scheduler Queued events for site hr_management
2021-09-03 10:45:37,904 INFO scheduler Scheduled Job Start: frappe.twofactor.delete_all_barcodes_for_users for hr_management
2021-09-03 10:45:38,543 INFO scheduler Scheduled Job Complete: frappe.twofactor.delete_all_barcodes_for_users for hr_management
2021-09-03 10:45:38,656 INFO scheduler Scheduled Job Start: frappe.website.doctype.web_page.web_page.check_publish_status for hr_management
2021-09-03 10:45:39,126 INFO scheduler Scheduled Job Complete: frappe.website.doctype.web_page.web_page.check_publish_status for hr_management
2021-09-03 10:45:39,222 INFO scheduler Scheduled Job Start: frappe.oauth.delete_oauth2_data for hr_management
2021-09-03 10:45:39,659 INFO scheduler Scheduled Job Complete: frappe.oauth.delete_oauth2_data for hr_management
2021-09-03 10:46:36,682 DEBUG scheduler Queued events for site hr_management
2021-09-03 10:47:36,997 DEBUG scheduler Queued events for site hr_management
2021-09-03 10:48:37,452 DEBUG scheduler Queued events for site hr_management
2021-09-03 10:48:39,941 INFO scheduler Scheduled Job Start: frappe.monitor.flush for hr_management
2021-09-03 10:48:40,208 INFO scheduler Scheduled Job Complete: frappe.monitor.flush for hr_management
2021-09-03 10:48:40,301 INFO scheduler Scheduled Job Start: frappe.utils.global_search.sync_global_search for hr_management
2021-09-03 10:48:40,582 INFO scheduler Scheduled Job Complete: frappe.utils.global_search.sync_global_search for hr_management
2021-09-03 10:48:40,670 INFO scheduler Scheduled Job Start: frappe.integrations.doctype.razorpay_settings.razorpay_settings.capture_payment for hr_management
2021-09-03 10:48:41,080 INFO scheduler Scheduled Job Complete: frappe.integrations.doctype.razorpay_settings.razorpay_settings.capture_payment for hr_management
2021-09-03 10:48:41,185 INFO scheduler Scheduled Job Start: frappe.email.doctype.email_account.email_account.notify_unreplied for hr_management
2021-09-03 10:48:41,516 INFO scheduler Scheduled Job Complete: frappe.email.doctype.email_account.email_account.notify_unreplied for hr_management
2021-09-03 10:48:41,626 INFO scheduler Scheduled Job Start: frappe.email.doctype.email_account.email_account.pull for hr_management
2021-09-03 10:48:41,964 INFO scheduler Scheduled Job Complete: frappe.email.doctype.email_account.email_account.pull for hr_management
2021-09-03 10:48:42,061 INFO scheduler Scheduled Job Start: frappe.email.queue.flush for hr_management
2021-09-03 10:48:42,358 INFO scheduler Scheduled Job Complete: frappe.email.queue.flush for hr_management
2021-09-03 10:49:37,838 DEBUG scheduler Queued events for site hr_management
2021-09-03 10:50:38,190 DEBUG scheduler Queued events for site hr_management
2021-09-03 10:51:38,532 DEBUG scheduler Queued events for site hr_management
2021-09-03 10:52:39,048 DEBUG scheduler Queued events for site hr_management
2021-09-03 10:52:41,814 INFO scheduler Scheduled Job Start: frappe.monitor.flush for hr_management
2021-09-03 10:52:42,142 INFO scheduler Scheduled Job Complete: frappe.monitor.flush for hr_management
2021-09-03 10:52:42,244 INFO scheduler Scheduled Job Start: frappe.utils.global_search.sync_global_search for hr_management
2021-09-03 10:52:42,528 INFO scheduler Scheduled Job Complete: frappe.utils.global_search.sync_global_search for hr_management
2021-09-03 10:52:42,610 INFO scheduler Scheduled Job Start: frappe.integrations.doctype.razorpay_settings.razorpay_settings.capture_payment for hr_management
2021-09-03 10:52:43,030 INFO scheduler Scheduled Job Complete: frappe.integrations.doctype.razorpay_settings.razorpay_settings.capture_payment for hr_management
2021-09-03 10:52:43,127 INFO scheduler Scheduled Job Start: frappe.email.doctype.email_account.email_account.notify_unreplied for hr_management
2021-09-03 10:52:43,474 INFO scheduler Scheduled Job Complete: frappe.email.doctype.email_account.email_account.notify_unreplied for hr_management
2021-09-03 10:52:43,588 INFO scheduler Scheduled Job Start: frappe.email.doctype.email_account.email_account.pull for hr_management
2021-09-03 10:52:43,993 INFO scheduler Scheduled Job Complete: frappe.email.doctype.email_account.email_account.pull for hr_management
2021-09-03 10:52:44,114 INFO scheduler Scheduled Job Start: frappe.email.queue.flush for hr_management
2021-09-03 10:52:44,439 INFO scheduler Scheduled Job Complete: frappe.email.queue.flush for hr_management
2021-09-03 10:53:39,426 DEBUG scheduler Queued events for site hr_management
2021-09-03 10:54:39,781 DEBUG scheduler Queued events for site hr_management
2021-09-03 10:55:40,109 DEBUG scheduler Queued events for site hr_management
2021-09-03 10:56:40,551 DEBUG scheduler Queued events for site hr_management
2021-09-03 10:56:43,133 INFO scheduler Scheduled Job Start: frappe.monitor.flush for hr_management
2021-09-03 10:56:43,417 INFO scheduler Scheduled Job Complete: frappe.monitor.flush for hr_management
2021-09-03 10:56:43,512 INFO scheduler Scheduled Job Start: frappe.utils.global_search.sync_global_search for hr_management
2021-09-03 10:56:43,818 INFO scheduler Scheduled Job Complete: frappe.utils.global_search.sync_global_search for hr_management
2021-09-03 10:56:43,917 INFO scheduler Scheduled Job Start: frappe.integrations.doctype.razorpay_settings.razorpay_settings.capture_payment for hr_management
2021-09-03 10:56:44,348 INFO scheduler Scheduled Job Complete: frappe.integrations.doctype.razorpay_settings.razorpay_settings.capture_payment for hr_management
2021-09-03 10:56:44,448 INFO scheduler Scheduled Job Start: frappe.email.doctype.email_account.email_account.notify_unreplied for hr_management
2021-09-03 10:56:44,779 INFO scheduler Scheduled Job Complete: frappe.email.doctype.email_account.email_account.notify_unreplied for hr_management
2021-09-03 10:56:44,879 INFO scheduler Scheduled Job Start: frappe.email.doctype.email_account.email_account.pull for hr_management
2021-09-03 10:56:45,232 INFO scheduler Scheduled Job Complete: frappe.email.doctype.email_account.email_account.pull for hr_management
2021-09-03 10:56:45,308 INFO scheduler Scheduled Job Start: frappe.email.queue.flush for hr_management
2021-09-03 10:56:45,662 INFO scheduler Scheduled Job Complete: frappe.email.queue.flush for hr_management
2021-09-03 10:57:40,977 DEBUG scheduler Queued events for site hr_management
2021-09-03 10:58:41,346 DEBUG scheduler Queued events for site hr_management
2021-09-03 10:59:41,721 DEBUG scheduler Queued events for site hr_management
2021-09-03 11:00:42,414 DEBUG scheduler Queued events for site hr_management
2021-09-03 11:00:50,907 INFO scheduler Scheduled Job Start: frappe.email.doctype.newsletter.newsletter.send_scheduled_email for hr_management
2021-09-03 11:00:51,455 INFO scheduler Scheduled Job Complete: frappe.email.doctype.newsletter.newsletter.send_scheduled_email for hr_management
2021-09-03 11:00:51,574 INFO scheduler Scheduled Job Start: frappe.integrations.doctype.google_calendar.google_calendar.sync for hr_management
2021-09-03 11:00:52,226 INFO scheduler Scheduled Job Complete: frappe.integrations.doctype.google_calendar.google_calendar.sync for hr_management
2021-09-03 11:00:52,328 INFO scheduler Scheduled Job Start: frappe.desk.form.document_follow.send_hourly_updates for hr_management
2021-09-03 11:00:52,726 INFO scheduler Scheduled Job Complete: frappe.desk.form.document_follow.send_hourly_updates for hr_management
2021-09-03 11:00:52,823 INFO scheduler Scheduled Job Start: frappe.deferred_insert.save_to_db for hr_management
2021-09-03 11:00:53,208 INFO scheduler Scheduled Job Complete: frappe.deferred_insert.save_to_db for hr_management
2021-09-03 11:00:53,312 INFO scheduler Scheduled Job Start: frappe.desk.page.backups.backups.delete_downloadable_backups for hr_management
2021-09-03 11:00:53,735 INFO scheduler Scheduled Job Complete: frappe.desk.page.backups.backups.delete_downloadable_backups for hr_management
2021-09-03 11:00:53,834 INFO scheduler Scheduled Job Start: frappe.utils.error.collect_error_snapshots for hr_management
2021-09-03 11:00:54,201 INFO scheduler Scheduled Job Complete: frappe.utils.error.collect_error_snapshots for hr_management
2021-09-03 11:00:54,302 INFO scheduler Scheduled Job Start: frappe.model.utils.user_settings.sync_user_settings for hr_management
2021-09-03 11:00:54,670 INFO scheduler Scheduled Job Complete: frappe.model.utils.user_settings.sync_user_settings for hr_management
2021-09-03 11:00:54,774 INFO scheduler Scheduled Job Start: frappe.model.utils.link_count.update_link_count for hr_management
2021-09-03 11:00:55,167 INFO scheduler Scheduled Job Complete: frappe.model.utils.link_count.update_link_count for hr_management
2021-09-03 11:00:55,277 INFO scheduler Scheduled Job Start: frappe.monitor.flush for hr_management
2021-09-03 11:00:55,540 INFO scheduler Scheduled Job Complete: frappe.monitor.flush for hr_management
2021-09-03 11:00:55,643 INFO scheduler Scheduled Job Start: frappe.utils.global_search.sync_global_search for hr_management
2021-09-03 11:00:55,942 INFO scheduler Scheduled Job Complete: frappe.utils.global_search.sync_global_search for hr_management
2021-09-03 11:00:56,037 INFO scheduler Scheduled Job Start: frappe.integrations.doctype.razorpay_settings.razorpay_settings.capture_payment for hr_management
2021-09-03 11:00:56,448 INFO scheduler Scheduled Job Complete: frappe.integrations.doctype.razorpay_settings.razorpay_settings.capture_payment for hr_management
2021-09-03 11:00:56,548 INFO scheduler Scheduled Job Start: frappe.email.doctype.email_account.email_account.notify_unreplied for hr_management
2021-09-03 11:00:56,883 INFO scheduler Scheduled Job Complete: frappe.email.doctype.email_account.email_account.notify_unreplied for hr_management
2021-09-03 11:00:56,982 INFO scheduler Scheduled Job Start: frappe.email.doctype.email_account.email_account.pull for hr_management
2021-09-03 11:00:57,332 INFO scheduler Scheduled Job Complete: frappe.email.doctype.email_account.email_account.pull for hr_management
2021-09-03 11:00:57,439 INFO scheduler Scheduled Job Start: frappe.email.queue.flush for hr_management
2021-09-03 11:00:57,731 INFO scheduler Scheduled Job Complete: frappe.email.queue.flush for hr_management
2021-09-03 11:00:57,822 INFO scheduler Scheduled Job Start: frappe.twofactor.delete_all_barcodes_for_users for hr_management
2021-09-03 11:00:58,234 INFO scheduler Scheduled Job Complete: frappe.twofactor.delete_all_barcodes_for_users for hr_management
2021-09-03 11:00:58,344 INFO scheduler Scheduled Job Start: frappe.website.doctype.web_page.web_page.check_publish_status for hr_management
2021-09-03 11:00:58,825 INFO scheduler Scheduled Job Complete: frappe.website.doctype.web_page.web_page.check_publish_status for hr_management
2021-09-03 11:00:58,926 INFO scheduler Scheduled Job Start: frappe.oauth.delete_oauth2_data for hr_management
2021-09-03 11:00:59,348 INFO scheduler Scheduled Job Complete: frappe.oauth.delete_oauth2_data for hr_management
2021-09-03 11:01:42,795 DEBUG scheduler Queued events for site hr_management
2021-09-03 11:02:43,149 DEBUG scheduler Queued events for site hr_management
2021-09-03 11:03:43,492 DEBUG scheduler Queued events for site hr_management
2021-09-03 11:04:43,902 DEBUG scheduler Queued events for site hr_management
2021-09-03 11:04:46,345 INFO scheduler Scheduled Job Start: frappe.monitor.flush for hr_management
2021-09-03 11:04:46,621 INFO scheduler Scheduled Job Complete: frappe.monitor.flush for hr_management
2021-09-03 11:04:46,702 INFO scheduler Scheduled Job Start: frappe.utils.global_search.sync_global_search for hr_management
2021-09-03 11:04:46,967 INFO scheduler Scheduled Job Complete: frappe.utils.global_search.sync_global_search for hr_management
2021-09-03 11:04:47,074 INFO scheduler Scheduled Job Start: frappe.integrations.doctype.razorpay_settings.razorpay_settings.capture_payment for hr_management
2021-09-03 11:04:47,494 INFO scheduler Scheduled Job Complete: frappe.integrations.doctype.razorpay_settings.razorpay_settings.capture_payment for hr_management
2021-09-03 11:04:47,589 INFO scheduler Scheduled Job Start: frappe.email.doctype.email_account.email_account.notify_unreplied for hr_management
2021-09-03 11:04:47,937 INFO scheduler Scheduled Job Complete: frappe.email.doctype.email_account.email_account.notify_unreplied for hr_management
2021-09-03 11:04:48,030 INFO scheduler Scheduled Job Start: frappe.email.doctype.email_account.email_account.pull for hr_management
2021-09-03 11:04:48,389 INFO scheduler Scheduled Job Complete: frappe.email.doctype.email_account.email_account.pull for hr_management
2021-09-03 11:04:48,491 INFO scheduler Scheduled Job Start: frappe.email.queue.flush for hr_management
2021-09-03 11:04:48,780 INFO scheduler Scheduled Job Complete: frappe.email.queue.flush for hr_management
2021-09-03 11:05:44,306 DEBUG scheduler Queued events for site hr_management
2021-09-03 11:06:44,647 DEBUG scheduler Queued events for site hr_management
2021-09-03 11:07:44,995 DEBUG scheduler Queued events for site hr_management
2021-09-03 11:08:45,515 DEBUG scheduler Queued events for site hr_management
2021-09-03 11:08:48,251 INFO scheduler Scheduled Job Start: frappe.monitor.flush for hr_management
2021-09-03 11:08:48,559 INFO scheduler Scheduled Job Complete: frappe.monitor.flush for hr_management
2021-09-03 11:08:48,667 INFO scheduler Scheduled Job Start: frappe.utils.global_search.sync_global_search for hr_management
2021-09-03 11:08:48,963 INFO scheduler Scheduled Job Complete: frappe.utils.global_search.sync_global_search for hr_management
2021-09-03 11:08:49,048 INFO scheduler Scheduled Job Start: frappe.integrations.doctype.razorpay_settings.razorpay_settings.capture_payment for hr_management
2021-09-03 11:08:49,491 INFO scheduler Scheduled Job Complete: frappe.integrations.doctype.razorpay_settings.razorpay_settings.capture_payment for hr_management
2021-09-03 11:08:49,599 INFO scheduler Scheduled Job Start: frappe.email.doctype.email_account.email_account.notify_unreplied for hr_management
2021-09-03 11:08:49,953 INFO scheduler Scheduled Job Complete: frappe.email.doctype.email_account.email_account.notify_unreplied for hr_management
2021-09-03 11:08:50,060 INFO scheduler Scheduled Job Start: frappe.email.doctype.email_account.email_account.pull for hr_management
2021-09-03 11:08:50,448 INFO scheduler Scheduled Job Complete: frappe.email.doctype.email_account.email_account.pull for hr_management
2021-09-03 11:08:50,546 INFO scheduler Scheduled Job Start: frappe.email.queue.flush for hr_management
2021-09-03 11:08:50,823 INFO scheduler Scheduled Job Complete: frappe.email.queue.flush for hr_management
2021-09-03 11:09:45,926 DEBUG scheduler Queued events for site hr_management
2021-09-03 11:10:46,291 DEBUG scheduler Queued events for site hr_management
2021-09-03 11:11:46,621 DEBUG scheduler Queued events for site hr_management
2021-09-03 11:12:47,090 DEBUG scheduler Queued events for site hr_management
2021-09-03 11:12:49,664 INFO scheduler Scheduled Job Start: frappe.monitor.flush for hr_management
2021-09-03 11:12:49,967 INFO scheduler Scheduled Job Complete: frappe.monitor.flush for hr_management
2021-09-03 11:12:50,051 INFO scheduler Scheduled Job Start: frappe.utils.global_search.sync_global_search for hr_management
2021-09-03 11:12:50,319 INFO scheduler Scheduled Job Complete: frappe.utils.global_search.sync_global_search for hr_management
2021-09-03 11:12:50,413 INFO scheduler Scheduled Job Start: frappe.integrations.doctype.razorpay_settings.razorpay_settings.capture_payment for hr_management
2021-09-03 11:12:50,845 INFO scheduler Scheduled Job Complete: frappe.integrations.doctype.razorpay_settings.razorpay_settings.capture_payment for hr_management
2021-09-03 11:12:50,928 INFO scheduler Scheduled Job Start: frappe.email.doctype.email_account.email_account.notify_unreplied for hr_management
2021-09-03 11:12:51,396 INFO scheduler Scheduled Job Complete: frappe.email.doctype.email_account.email_account.notify_unreplied for hr_management
2021-09-03 11:12:51,504 INFO scheduler Scheduled Job Start: frappe.email.doctype.email_account.email_account.pull for hr_management
2021-09-03 11:12:51,868 INFO scheduler Scheduled Job Complete: frappe.email.doctype.email_account.email_account.pull for hr_management
2021-09-03 11:12:51,964 INFO scheduler Scheduled Job Start: frappe.email.queue.flush for hr_management
2021-09-03 11:12:52,251 INFO scheduler Scheduled Job Complete: frappe.email.queue.flush for hr_management
2021-09-03 11:13:47,499 DEBUG scheduler Queued events for site hr_management
2021-09-03 11:14:47,801 DEBUG scheduler Queued events for site hr_management
2021-09-03 11:15:48,219 DEBUG scheduler Queued events for site hr_management
2021-09-03 11:15:49,721 INFO scheduler Scheduled Job Start: frappe.twofactor.delete_all_barcodes_for_users for hr_management
2021-09-03 11:15:50,121 INFO scheduler Scheduled Job Complete: frappe.twofactor.delete_all_barcodes_for_users for hr_management
2021-09-03 11:15:50,222 INFO scheduler Scheduled Job Start: frappe.website.doctype.web_page.web_page.check_publish_status for hr_management
2021-09-03 11:15:50,653 INFO scheduler Scheduled Job Complete: frappe.website.doctype.web_page.web_page.check_publish_status for hr_management
2021-09-03 11:15:50,759 INFO scheduler Scheduled Job Start: frappe.oauth.delete_oauth2_data for hr_management
2021-09-03 11:15:51,158 INFO scheduler Scheduled Job Complete: frappe.oauth.delete_oauth2_data for hr_management
2021-09-03 11:16:48,665 DEBUG scheduler Queued events for site hr_management
2021-09-03 11:16:50,936 INFO scheduler Scheduled Job Start: frappe.monitor.flush for hr_management
2021-09-03 11:16:51,197 INFO scheduler Scheduled Job Complete: frappe.monitor.flush for hr_management
2021-09-03 11:16:51,290 INFO scheduler Scheduled Job Start: frappe.utils.global_search.sync_global_search for hr_management
2021-09-03 11:16:51,539 INFO scheduler Scheduled Job Complete: frappe.utils.global_search.sync_global_search for hr_management
2021-09-03 11:16:51,616 INFO scheduler Scheduled Job Start: frappe.integrations.doctype.razorpay_settings.razorpay_settings.capture_payment for hr_management
2021-09-03 11:16:52,022 INFO scheduler Scheduled Job Complete: frappe.integrations.doctype.razorpay_settings.razorpay_settings.capture_payment for hr_management
2021-09-03 11:16:52,118 INFO scheduler Scheduled Job Start: frappe.email.doctype.email_account.email_account.notify_unreplied for hr_management
2021-09-03 11:16:52,434 INFO scheduler Scheduled Job Complete: frappe.email.doctype.email_account.email_account.notify_unreplied for hr_management
2021-09-03 11:16:52,521 INFO scheduler Scheduled Job Start: frappe.email.doctype.email_account.email_account.pull for hr_management
2021-09-03 11:16:52,845 INFO scheduler Scheduled Job Complete: frappe.email.doctype.email_account.email_account.pull for hr_management
2021-09-03 11:16:52,951 INFO scheduler Scheduled Job Start: frappe.email.queue.flush for hr_management
2021-09-03 11:16:53,233 INFO scheduler Scheduled Job Complete: frappe.email.queue.flush for hr_management
2021-09-03 11:17:49,078 DEBUG scheduler Queued events for site hr_management
2021-09-03 11:18:49,416 DEBUG scheduler Queued events for site hr_management
2021-09-03 11:19:49,765 DEBUG scheduler Queued events for site hr_management
2021-09-03 11:20:50,250 DEBUG scheduler Queued events for site hr_management
2021-09-03 11:20:52,760 INFO scheduler Scheduled Job Start: frappe.monitor.flush for hr_management
2021-09-03 11:20:53,022 INFO scheduler Scheduled Job Complete: frappe.monitor.flush for hr_management
2021-09-03 11:20:53,108 INFO scheduler Scheduled Job Start: frappe.utils.global_search.sync_global_search for hr_management
2021-09-03 11:20:53,355 INFO scheduler Scheduled Job Complete: frappe.utils.global_search.sync_global_search for hr_management
2021-09-03 11:20:53,455 INFO scheduler Scheduled Job Start: frappe.integrations.doctype.razorpay_settings.razorpay_settings.capture_payment for hr_management
2021-09-03 11:20:53,830 INFO scheduler Scheduled Job Complete: frappe.integrations.doctype.razorpay_settings.razorpay_settings.capture_payment for hr_management
2021-09-03 11:20:53,923 INFO scheduler Scheduled Job Start: frappe.email.doctype.email_account.email_account.notify_unreplied for hr_management
2021-09-03 11:20:54,266 INFO scheduler Scheduled Job Complete: frappe.email.doctype.email_account.email_account.notify_unreplied for hr_management
2021-09-03 11:20:54,368 INFO scheduler Scheduled Job Start: frappe.email.doctype.email_account.email_account.pull for hr_management
2021-09-03 11:20:54,690 INFO scheduler Scheduled Job Complete: frappe.email.doctype.email_account.email_account.pull for hr_management
2021-09-03 11:20:54,787 INFO scheduler Scheduled Job Start: frappe.email.queue.flush for hr_management
2021-09-03 11:20:55,066 INFO scheduler Scheduled Job Complete: frappe.email.queue.flush for hr_management
2021-09-03 11:21:50,686 DEBUG scheduler Queued events for site hr_management
2021-09-03 11:22:51,020 DEBUG scheduler Queued events for site hr_management
2021-09-03 11:23:51,357 DEBUG scheduler Queued events for site hr_management
2021-09-03 11:24:51,805 DEBUG scheduler Queued events for site hr_management
2021-09-03 11:24:54,379 INFO scheduler Scheduled Job Start: frappe.monitor.flush for hr_management
2021-09-03 11:24:54,663 INFO scheduler Scheduled Job Complete: frappe.monitor.flush for hr_management
2021-09-03 11:24:54,755 INFO scheduler Scheduled Job Start: frappe.utils.global_search.sync_global_search for hr_management
2021-09-03 11:24:54,993 INFO scheduler Scheduled Job Complete: frappe.utils.global_search.sync_global_search for hr_management
2021-09-03 11:24:55,087 INFO scheduler Scheduled Job Start: frappe.integrations.doctype.razorpay_settings.razorpay_settings.capture_payment for hr_management
2021-09-03 11:24:55,487 INFO scheduler Scheduled Job Complete: frappe.integrations.doctype.razorpay_settings.razorpay_settings.capture_payment for hr_management
2021-09-03 11:24:55,581 INFO scheduler Scheduled Job Start: frappe.email.doctype.email_account.email_account.notify_unreplied for hr_management
2021-09-03 11:24:55,920 INFO scheduler Scheduled Job Complete: frappe.email.doctype.email_account.email_account.notify_unreplied for hr_management
2021-09-03 11:24:56,014 INFO scheduler Scheduled Job Start: frappe.email.doctype.email_account.email_account.pull for hr_management
2021-09-03 11:24:56,391 INFO scheduler Scheduled Job Complete: frappe.email.doctype.email_account.email_account.pull for hr_management
2021-09-03 11:24:56,495 INFO scheduler Scheduled Job Start: frappe.email.queue.flush for hr_management
2021-09-03 11:24:56,784 INFO scheduler Scheduled Job Complete: frappe.email.queue.flush for hr_management
2021-09-03 11:25:52,222 DEBUG scheduler Queued events for site hr_management
2021-09-03 11:26:52,579 DEBUG scheduler Queued events for site hr_management
2021-09-03 11:27:52,949 DEBUG scheduler Queued events for site hr_management
2021-09-03 11:28:53,371 DEBUG scheduler Queued events for site hr_management
2021-09-03 11:28:55,808 INFO scheduler Scheduled Job Start: frappe.monitor.flush for hr_management
2021-09-03 11:28:56,056 INFO scheduler Scheduled Job Complete: frappe.monitor.flush for hr_management
2021-09-03 11:28:56,163 INFO scheduler Scheduled Job Start: frappe.utils.global_search.sync_global_search for hr_management
2021-09-03 11:28:56,407 INFO scheduler Scheduled Job Complete: frappe.utils.global_search.sync_global_search for hr_management
2021-09-03 11:28:56,488 INFO scheduler Scheduled Job Start: frappe.integrations.doctype.razorpay_settings.razorpay_settings.capture_payment for hr_management
2021-09-03 11:28:56,867 INFO scheduler Scheduled Job Complete: frappe.integrations.doctype.razorpay_settings.razorpay_settings.capture_payment for hr_management
2021-09-03 11:28:56,962 INFO scheduler Scheduled Job Start: frappe.email.doctype.email_account.email_account.notify_unreplied for hr_management
2021-09-03 11:28:57,290 INFO scheduler Scheduled Job Complete: frappe.email.doctype.email_account.email_account.notify_unreplied for hr_management
2021-09-03 11:28:57,392 INFO scheduler Scheduled Job Start: frappe.email.doctype.email_account.email_account.pull for hr_management
2021-09-03 11:28:57,724 INFO scheduler Scheduled Job Complete: frappe.email.doctype.email_account.email_account.pull for hr_management
2021-09-03 11:28:57,818 INFO scheduler Scheduled Job Start: frappe.email.queue.flush for hr_management
2021-09-03 11:28:58,089 INFO scheduler Scheduled Job Complete: frappe.email.queue.flush for hr_management
2021-09-03 11:29:53,834 DEBUG scheduler Queued events for site hr_management
2021-09-03 11:30:54,208 DEBUG scheduler Queued events for site hr_management
2021-09-03 11:30:55,844 INFO scheduler Scheduled Job Start: frappe.twofactor.delete_all_barcodes_for_users for hr_management
2021-09-03 11:30:56,320 INFO scheduler Scheduled Job Complete: frappe.twofactor.delete_all_barcodes_for_users for hr_management
2021-09-03 11:30:56,419 INFO scheduler Scheduled Job Start: frappe.website.doctype.web_page.web_page.check_publish_status for hr_management
2021-09-03 11:30:56,927 INFO scheduler Scheduled Job Complete: frappe.website.doctype.web_page.web_page.check_publish_status for hr_management
2021-09-03 11:30:57,044 INFO scheduler Scheduled Job Start: frappe.oauth.delete_oauth2_data for hr_management
2021-09-03 11:30:57,522 INFO scheduler Scheduled Job Complete: frappe.oauth.delete_oauth2_data for hr_management
2021-09-03 11:31:54,592 DEBUG scheduler Queued events for site hr_management
2021-09-03 11:32:54,958 DEBUG scheduler Queued events for site hr_management
2021-09-03 11:32:57,296 INFO scheduler Scheduled Job Start: frappe.monitor.flush for hr_management
2021-09-03 11:32:57,543 INFO scheduler Scheduled Job Complete: frappe.monitor.flush for hr_management
2021-09-03 11:32:57,638 INFO scheduler Scheduled Job Start: frappe.utils.global_search.sync_global_search for hr_management
2021-09-03 11:32:57,903 INFO scheduler Scheduled Job Complete: frappe.utils.global_search.sync_global_search for hr_management
2021-09-03 11:32:57,995 INFO scheduler Scheduled Job Start: frappe.integrations.doctype.razorpay_settings.razorpay_settings.capture_payment for hr_management
2021-09-03 11:32:58,390 INFO scheduler Scheduled Job Complete: frappe.integrations.doctype.razorpay_settings.razorpay_settings.capture_payment for hr_management
2021-09-03 11:32:58,487 INFO scheduler Scheduled Job Start: frappe.email.doctype.email_account.email_account.notify_unreplied for hr_management
2021-09-03 11:32:58,799 INFO scheduler Scheduled Job Complete: frappe.email.doctype.email_account.email_account.notify_unreplied for hr_management
2021-09-03 11:32:58,884 INFO scheduler Scheduled Job Start: frappe.email.doctype.email_account.email_account.pull for hr_management
2021-09-03 11:32:59,229 INFO scheduler Scheduled Job Complete: frappe.email.doctype.email_account.email_account.pull for hr_management
2021-09-03 11:32:59,320 INFO scheduler Scheduled Job Start: frappe.email.queue.flush for hr_management
2021-09-03 11:32:59,584 INFO scheduler Scheduled Job Complete: frappe.email.queue.flush for hr_management
2021-09-03 11:33:55,367 DEBUG scheduler Queued events for site hr_management
2021-09-03 11:34:55,691 DEBUG scheduler Queued events for site hr_management
2021-09-03 11:35:56,038 DEBUG scheduler Queued events for site hr_management
2021-09-03 11:36:56,412 DEBUG scheduler Queued events for site hr_management
2021-09-03 11:36:58,734 INFO scheduler Scheduled Job Start: frappe.monitor.flush for hr_management
2021-09-03 11:36:59,019 INFO scheduler Scheduled Job Complete: frappe.monitor.flush for hr_management
2021-09-03 11:36:59,115 INFO scheduler Scheduled Job Start: frappe.utils.global_search.sync_global_search for hr_management
2021-09-03 11:36:59,365 INFO scheduler Scheduled Job Complete: frappe.utils.global_search.sync_global_search for hr_management
2021-09-03 11:36:59,483 INFO scheduler Scheduled Job Start: frappe.integrations.doctype.razorpay_settings.razorpay_settings.capture_payment for hr_management
2021-09-03 11:36:59,867 INFO scheduler Scheduled Job Complete: frappe.integrations.doctype.razorpay_settings.razorpay_settings.capture_payment for hr_management
2021-09-03 11:36:59,966 INFO scheduler Scheduled Job Start: frappe.email.doctype.email_account.email_account.notify_unreplied for hr_management
2021-09-03 11:37:00,311 INFO scheduler Scheduled Job Complete: frappe.email.doctype.email_account.email_account.notify_unreplied for hr_management
2021-09-03 11:37:00,426 INFO scheduler Scheduled Job Start: frappe.email.doctype.email_account.email_account.pull for hr_management
2021-09-03 11:37:00,790 INFO scheduler Scheduled Job Complete: frappe.email.doctype.email_account.email_account.pull for hr_management
2021-09-03 11:37:00,879 INFO scheduler Scheduled Job Start: frappe.email.queue.flush for hr_management
2021-09-03 11:37:01,138 INFO scheduler Scheduled Job Complete: frappe.email.queue.flush for hr_management
2021-09-03 11:37:56,801 DEBUG scheduler Queued events for site hr_management
2021-09-03 11:38:57,127 DEBUG scheduler Queued events for site hr_management
2021-09-03 11:39:57,478 DEBUG scheduler Queued events for site hr_management
2021-09-03 11:40:57,889 DEBUG scheduler Queued events for site hr_management
2021-09-03 11:41:00,143 INFO scheduler Scheduled Job Start: frappe.monitor.flush for hr_management
2021-09-03 11:41:00,395 INFO scheduler Scheduled Job Complete: frappe.monitor.flush for hr_management
2021-09-03 11:41:00,493 INFO scheduler Scheduled Job Start: frappe.utils.global_search.sync_global_search for hr_management
2021-09-03 11:41:00,743 INFO scheduler Scheduled Job Complete: frappe.utils.global_search.sync_global_search for hr_management
2021-09-03 11:41:00,827 INFO scheduler Scheduled Job Start: frappe.integrations.doctype.razorpay_settings.razorpay_settings.capture_payment for hr_management
2021-09-03 11:41:01,221 INFO scheduler Scheduled Job Complete: frappe.integrations.doctype.razorpay_settings.razorpay_settings.capture_payment for hr_management
2021-09-03 11:41:01,318 INFO scheduler Scheduled Job Start: frappe.email.doctype.email_account.email_account.notify_unreplied for hr_management
2021-09-03 11:41:01,655 INFO scheduler Scheduled Job Complete: frappe.email.doctype.email_account.email_account.notify_unreplied for hr_management
2021-09-03 11:41:01,746 INFO scheduler Scheduled Job Start: frappe.email.doctype.email_account.email_account.pull for hr_management
2021-09-03 11:41:02,073 INFO scheduler Scheduled Job Complete: frappe.email.doctype.email_account.email_account.pull for hr_management
2021-09-03 11:41:02,175 INFO scheduler Scheduled Job Start: frappe.email.queue.flush for hr_management
2021-09-03 11:41:02,452 INFO scheduler Scheduled Job Complete: frappe.email.queue.flush for hr_management
2021-09-03 11:41:58,276 DEBUG scheduler Queued events for site hr_management
2021-09-03 11:42:58,629 DEBUG scheduler Queued events for site hr_management
2021-09-03 11:43:58,970 DEBUG scheduler Queued events for site hr_management
2021-09-03 11:44:59,362 DEBUG scheduler Queued events for site hr_management
2021-09-03 11:45:01,764 INFO scheduler Scheduled Job Start: frappe.monitor.flush for hr_management
2021-09-03 11:45:02,000 INFO scheduler Scheduled Job Complete: frappe.monitor.flush for hr_management
2021-09-03 11:45:02,094 INFO scheduler Scheduled Job Start: frappe.utils.global_search.sync_global_search for hr_management
2021-09-03 11:45:02,334 INFO scheduler Scheduled Job Complete: frappe.utils.global_search.sync_global_search for hr_management
2021-09-03 11:45:02,427 INFO scheduler Scheduled Job Start: frappe.integrations.doctype.razorpay_settings.razorpay_settings.capture_payment for hr_management
2021-09-03 11:45:02,806 INFO scheduler Scheduled Job Complete: frappe.integrations.doctype.razorpay_settings.razorpay_settings.capture_payment for hr_management
2021-09-03 11:45:02,906 INFO scheduler Scheduled Job Start: frappe.email.doctype.email_account.email_account.notify_unreplied for hr_management
2021-09-03 11:45:03,240 INFO scheduler Scheduled Job Complete: frappe.email.doctype.email_account.email_account.notify_unreplied for hr_management
2021-09-03 11:45:03,327 INFO scheduler Scheduled Job Start: frappe.email.doctype.email_account.email_account.pull for hr_management
2021-09-03 11:45:03,647 INFO scheduler Scheduled Job Complete: frappe.email.doctype.email_account.email_account.pull for hr_management
2021-09-03 11:45:03,757 INFO scheduler Scheduled Job Start: frappe.email.queue.flush for hr_management
2021-09-03 11:45:04,021 INFO scheduler Scheduled Job Complete: frappe.email.queue.flush for hr_management
2021-09-03 11:45:59,846 DEBUG scheduler Queued events for site hr_management
2021-09-03 11:46:01,443 INFO scheduler Scheduled Job Start: frappe.twofactor.delete_all_barcodes_for_users for hr_management
2021-09-03 11:46:01,867 INFO scheduler Scheduled Job Complete: frappe.twofactor.delete_all_barcodes_for_users for hr_management
2021-09-03 11:46:01,961 INFO scheduler Scheduled Job Start: frappe.website.doctype.web_page.web_page.check_publish_status for hr_management
2021-09-03 11:46:02,419 INFO scheduler Scheduled Job Complete: frappe.website.doctype.web_page.web_page.check_publish_status for hr_management
2021-09-03 11:46:02,518 INFO scheduler Scheduled Job Start: frappe.oauth.delete_oauth2_data for hr_management
2021-09-03 11:46:02,992 INFO scheduler Scheduled Job Complete: frappe.oauth.delete_oauth2_data for hr_management
2021-09-03 11:47:00,244 DEBUG scheduler Queued events for site hr_management
2021-09-03 11:48:00,640 DEBUG scheduler Queued events for site hr_management
2021-09-03 11:48:03,088 INFO scheduler Scheduled Job Start: frappe.monitor.flush for hr_management
2021-09-03 11:48:03,344 INFO scheduler Scheduled Job Complete: frappe.monitor.flush for hr_management
2021-09-03 11:48:03,447 INFO scheduler Scheduled Job Start: frappe.utils.global_search.sync_global_search for hr_management
2021-09-03 11:48:03,722 INFO scheduler Scheduled Job Complete: frappe.utils.global_search.sync_global_search for hr_management
2021-09-03 11:48:03,814 INFO scheduler Scheduled Job Start: frappe.integrations.doctype.razorpay_settings.razorpay_settings.capture_payment for hr_management
2021-09-03 11:48:04,236 INFO scheduler Scheduled Job Complete: frappe.integrations.doctype.razorpay_settings.razorpay_settings.capture_payment for hr_management
2021-09-03 11:48:04,325 INFO scheduler Scheduled Job Start: frappe.email.doctype.email_account.email_account.notify_unreplied for hr_management
2021-09-03 11:48:04,625 INFO scheduler Scheduled Job Complete: frappe.email.doctype.email_account.email_account.notify_unreplied for hr_management
2021-09-03 11:48:04,739 INFO scheduler Scheduled Job Start: frappe.email.doctype.email_account.email_account.pull for hr_management
2021-09-03 11:48:05,082 INFO scheduler Scheduled Job Complete: frappe.email.doctype.email_account.email_account.pull for hr_management
2021-09-03 11:48:05,174 INFO scheduler Scheduled Job Start: frappe.email.queue.flush for hr_management
2021-09-03 11:48:05,462 INFO scheduler Scheduled Job Complete: frappe.email.queue.flush for hr_management
2021-09-03 11:49:01,038 DEBUG scheduler Queued events for site hr_management
2021-09-03 11:50:01,445 DEBUG scheduler Queued events for site hr_management
2021-09-03 11:51:01,937 DEBUG scheduler Queued events for site hr_management
2021-09-03 11:52:02,409 DEBUG scheduler Queued events for site hr_management
2021-09-03 11:52:04,755 INFO scheduler Scheduled Job Start: frappe.monitor.flush for hr_management
2021-09-03 11:52:05,007 INFO scheduler Scheduled Job Complete: frappe.monitor.flush for hr_management
2021-09-03 11:52:05,123 INFO scheduler Scheduled Job Start: frappe.utils.global_search.sync_global_search for hr_management
2021-09-03 11:52:05,391 INFO scheduler Scheduled Job Complete: frappe.utils.global_search.sync_global_search for hr_management
2021-09-03 11:52:05,498 INFO scheduler Scheduled Job Start: frappe.integrations.doctype.razorpay_settings.razorpay_settings.capture_payment for hr_management
2021-09-03 11:52:05,932 INFO scheduler Scheduled Job Complete: frappe.integrations.doctype.razorpay_settings.razorpay_settings.capture_payment for hr_management
2021-09-03 11:52:06,031 INFO scheduler Scheduled Job Start: frappe.email.doctype.email_account.email_account.notify_unreplied for hr_management
2021-09-03 11:52:06,350 INFO scheduler Scheduled Job Complete: frappe.email.doctype.email_account.email_account.notify_unreplied for hr_management
2021-09-03 11:52:06,454 INFO scheduler Scheduled Job Start: frappe.email.doctype.email_account.email_account.pull for hr_management
2021-09-03 11:52:06,797 INFO scheduler Scheduled Job Complete: frappe.email.doctype.email_account.email_account.pull for hr_management
2021-09-03 11:52:06,904 INFO scheduler Scheduled Job Start: frappe.email.queue.flush for hr_management
2021-09-03 11:52:07,192 INFO scheduler Scheduled Job Complete: frappe.email.queue.flush for hr_management
2021-09-03 11:53:02,818 DEBUG scheduler Queued events for site hr_management
2021-09-03 11:54:03,146 DEBUG scheduler Queued events for site hr_management
2021-09-03 11:55:03,558 DEBUG scheduler Queued events for site hr_management
2021-09-03 11:56:03,995 DEBUG scheduler Queued events for site hr_management
2021-09-03 11:56:06,450 INFO scheduler Scheduled Job Start: frappe.monitor.flush for hr_management
2021-09-03 11:56:06,708 INFO scheduler Scheduled Job Complete: frappe.monitor.flush for hr_management
2021-09-03 11:56:06,806 INFO scheduler Scheduled Job Start: frappe.utils.global_search.sync_global_search for hr_management
2021-09-03 11:56:07,038 INFO scheduler Scheduled Job Complete: frappe.utils.global_search.sync_global_search for hr_management
2021-09-03 11:56:07,133 INFO scheduler Scheduled Job Start: frappe.integrations.doctype.razorpay_settings.razorpay_settings.capture_payment for hr_management
2021-09-03 11:56:07,543 INFO scheduler Scheduled Job Complete: frappe.integrations.doctype.razorpay_settings.razorpay_settings.capture_payment for hr_management
2021-09-03 11:56:07,645 INFO scheduler Scheduled Job Start: frappe.email.doctype.email_account.email_account.notify_unreplied for hr_management
2021-09-03 11:56:07,975 INFO scheduler Scheduled Job Complete: frappe.email.doctype.email_account.email_account.notify_unreplied for hr_management
2021-09-03 11:56:08,075 INFO scheduler Scheduled Job Start: frappe.email.doctype.email_account.email_account.pull for hr_management
2021-09-03 11:56:08,432 INFO scheduler Scheduled Job Complete: frappe.email.doctype.email_account.email_account.pull for hr_management
2021-09-03 11:56:08,516 INFO scheduler Scheduled Job Start: frappe.email.queue.flush for hr_management
2021-09-03 11:56:08,780 INFO scheduler Scheduled Job Complete: frappe.email.queue.flush for hr_management
2021-09-03 11:57:04,379 DEBUG scheduler Queued events for site hr_management
2021-09-03 11:58:04,728 DEBUG scheduler Queued events for site hr_management
2021-09-03 11:59:05,086 DEBUG scheduler Queued events for site hr_management
2021-09-03 12:00:05,975 DEBUG scheduler Queued events for site hr_management
2021-09-03 12:00:14,131 INFO scheduler Scheduled Job Start: frappe.email.doctype.newsletter.newsletter.send_scheduled_email for hr_management
2021-09-03 12:00:14,617 INFO scheduler Scheduled Job Complete: frappe.email.doctype.newsletter.newsletter.send_scheduled_email for hr_management
2021-09-03 12:00:14,734 INFO scheduler Scheduled Job Start: frappe.integrations.doctype.google_calendar.google_calendar.sync for hr_management
2021-09-03 12:00:15,340 INFO scheduler Scheduled Job Complete: frappe.integrations.doctype.google_calendar.google_calendar.sync for hr_management
2021-09-03 12:00:15,445 INFO scheduler Scheduled Job Start: frappe.desk.form.document_follow.send_hourly_updates for hr_management
2021-09-03 12:00:15,819 INFO scheduler Scheduled Job Complete: frappe.desk.form.document_follow.send_hourly_updates for hr_management
2021-09-03 12:00:15,924 INFO scheduler Scheduled Job Start: frappe.deferred_insert.save_to_db for hr_management
2021-09-03 12:00:16,300 INFO scheduler Scheduled Job Complete: frappe.deferred_insert.save_to_db for hr_management
2021-09-03 12:00:16,406 INFO scheduler Scheduled Job Start: frappe.desk.page.backups.backups.delete_downloadable_backups for hr_management
2021-09-03 12:00:16,793 INFO scheduler Scheduled Job Complete: frappe.desk.page.backups.backups.delete_downloadable_backups for hr_management
2021-09-03 12:00:16,894 INFO scheduler Scheduled Job Start: frappe.utils.error.collect_error_snapshots for hr_management
2021-09-03 12:00:17,347 INFO scheduler Scheduled Job Complete: frappe.utils.error.collect_error_snapshots for hr_management
2021-09-03 12:00:17,461 INFO scheduler Scheduled Job Start: frappe.model.utils.user_settings.sync_user_settings for hr_management
2021-09-03 12:00:17,907 INFO scheduler Scheduled Job Complete: frappe.model.utils.user_settings.sync_user_settings for hr_management
2021-09-03 12:00:18,008 INFO scheduler Scheduled Job Start: frappe.model.utils.link_count.update_link_count for hr_management
2021-09-03 12:00:18,456 INFO scheduler Scheduled Job Complete: frappe.model.utils.link_count.update_link_count for hr_management
2021-09-03 12:00:18,578 INFO scheduler Scheduled Job Start: frappe.monitor.flush for hr_management
2021-09-03 12:00:19,011 INFO scheduler Scheduled Job Complete: frappe.monitor.flush for hr_management
2021-09-03 12:00:19,152 INFO scheduler Scheduled Job Start: frappe.utils.global_search.sync_global_search for hr_management
2021-09-03 12:00:19,475 INFO scheduler Scheduled Job Complete: frappe.utils.global_search.sync_global_search for hr_management
2021-09-03 12:00:19,584 INFO scheduler Scheduled Job Start: frappe.integrations.doctype.razorpay_settings.razorpay_settings.capture_payment for hr_management
2021-09-03 12:00:20,176 INFO scheduler Scheduled Job Complete: frappe.integrations.doctype.razorpay_settings.razorpay_settings.capture_payment for hr_management
2021-09-03 12:00:20,277 INFO scheduler Scheduled Job Start: frappe.email.doctype.email_account.email_account.notify_unreplied for hr_management
2021-09-03 12:00:20,627 INFO scheduler Scheduled Job Complete: frappe.email.doctype.email_account.email_account.notify_unreplied for hr_management
2021-09-03 12:00:20,715 INFO scheduler Scheduled Job Start: frappe.email.doctype.email_account.email_account.pull for hr_management
2021-09-03 12:00:21,071 INFO scheduler Scheduled Job Complete: frappe.email.doctype.email_account.email_account.pull for hr_management
2021-09-03 12:00:21,155 INFO scheduler Scheduled Job Start: frappe.email.queue.flush for hr_management
2021-09-03 12:00:21,451 INFO scheduler Scheduled Job Complete: frappe.email.queue.flush for hr_management
2021-09-03 12:00:21,542 INFO scheduler Scheduled Job Start: frappe.twofactor.delete_all_barcodes_for_users for hr_management
2021-09-03 12:00:21,937 INFO scheduler Scheduled Job Complete: frappe.twofactor.delete_all_barcodes_for_users for hr_management
2021-09-03 12:00:22,042 INFO scheduler Scheduled Job Start: frappe.website.doctype.web_page.web_page.check_publish_status for hr_management
2021-09-03 12:00:22,467 INFO scheduler Scheduled Job Complete: frappe.website.doctype.web_page.web_page.check_publish_status for hr_management
2021-09-03 12:00:22,553 INFO scheduler Scheduled Job Start: frappe.oauth.delete_oauth2_data for hr_management
2021-09-03 12:00:22,930 INFO scheduler Scheduled Job Complete: frappe.oauth.delete_oauth2_data for hr_management
2021-09-03 12:01:06,409 DEBUG scheduler Queued events for site hr_management
2021-09-03 12:02:06,760 DEBUG scheduler Queued events for site hr_management
2021-09-03 12:03:07,117 DEBUG scheduler Queued events for site hr_management
2021-09-03 12:04:07,565 DEBUG scheduler Queued events for site hr_management
2021-09-03 12:04:09,780 INFO scheduler Scheduled Job Start: frappe.monitor.flush for hr_management
2021-09-03 12:04:10,057 INFO scheduler Scheduled Job Complete: frappe.monitor.flush for hr_management
2021-09-03 12:04:10,160 INFO scheduler Scheduled Job Start: frappe.utils.global_search.sync_global_search for hr_management
2021-09-03 12:04:10,424 INFO scheduler Scheduled Job Complete: frappe.utils.global_search.sync_global_search for hr_management
2021-09-03 12:04:10,511 INFO scheduler Scheduled Job Start: frappe.integrations.doctype.razorpay_settings.razorpay_settings.capture_payment for hr_management
2021-09-03 12:04:10,893 INFO scheduler Scheduled Job Complete: frappe.integrations.doctype.razorpay_settings.razorpay_settings.capture_payment for hr_management
2021-09-03 12:04:10,991 INFO scheduler Scheduled Job Start: frappe.email.doctype.email_account.email_account.notify_unreplied for hr_management
2021-09-03 12:04:11,318 INFO scheduler Scheduled Job Complete: frappe.email.doctype.email_account.email_account.notify_unreplied for hr_management
2021-09-03 12:04:11,402 INFO scheduler Scheduled Job Start: frappe.email.doctype.email_account.email_account.pull for hr_management
2021-09-03 12:04:11,736 INFO scheduler Scheduled Job Complete: frappe.email.doctype.email_account.email_account.pull for hr_management
2021-09-03 12:04:11,815 INFO scheduler Scheduled Job Start: frappe.email.queue.flush for hr_management
2021-09-03 12:04:12,105 INFO scheduler Scheduled Job Complete: frappe.email.queue.flush for hr_management
2021-09-03 12:05:07,938 DEBUG scheduler Queued events for site hr_management
2021-09-03 12:06:08,267 DEBUG scheduler Queued events for site hr_management
2021-09-03 12:07:08,641 DEBUG scheduler Queued events for site hr_management
2021-09-03 12:08:09,033 DEBUG scheduler Queued events for site hr_management
2021-09-03 12:08:11,291 INFO scheduler Scheduled Job Start: frappe.monitor.flush for hr_management
2021-09-03 12:08:11,552 INFO scheduler Scheduled Job Complete: frappe.monitor.flush for hr_management
2021-09-03 12:08:11,646 INFO scheduler Scheduled Job Start: frappe.utils.global_search.sync_global_search for hr_management
2021-09-03 12:08:11,900 INFO scheduler Scheduled Job Complete: frappe.utils.global_search.sync_global_search for hr_management
2021-09-03 12:08:12,000 INFO scheduler Scheduled Job Start: frappe.integrations.doctype.razorpay_settings.razorpay_settings.capture_payment for hr_management
2021-09-03 12:08:12,404 INFO scheduler Scheduled Job Complete: frappe.integrations.doctype.razorpay_settings.razorpay_settings.capture_payment for hr_management
2021-09-03 12:08:12,500 INFO scheduler Scheduled Job Start: frappe.email.doctype.email_account.email_account.notify_unreplied for hr_management
2021-09-03 12:08:12,832 INFO scheduler Scheduled Job Complete: frappe.email.doctype.email_account.email_account.notify_unreplied for hr_management
2021-09-03 12:08:12,929 INFO scheduler Scheduled Job Start: frappe.email.doctype.email_account.email_account.pull for hr_management
2021-09-03 12:08:13,292 INFO scheduler Scheduled Job Complete: frappe.email.doctype.email_account.email_account.pull for hr_management
2021-09-03 12:08:13,389 INFO scheduler Scheduled Job Start: frappe.email.queue.flush for hr_management
2021-09-03 12:08:13,655 INFO scheduler Scheduled Job Complete: frappe.email.queue.flush for hr_management
2021-09-03 12:09:09,450 DEBUG scheduler Queued events for site hr_management
2021-09-03 12:10:09,783 DEBUG scheduler Queued events for site hr_management
2021-09-03 12:11:10,129 DEBUG scheduler Queued events for site hr_management
2021-09-03 12:12:10,565 DEBUG scheduler Queued events for site hr_management
2021-09-03 12:12:12,831 INFO scheduler Scheduled Job Start: frappe.monitor.flush for hr_management
2021-09-03 12:12:13,093 INFO scheduler Scheduled Job Complete: frappe.monitor.flush for hr_management
2021-09-03 12:12:13,181 INFO scheduler Scheduled Job Start: frappe.utils.global_search.sync_global_search for hr_management
2021-09-03 12:12:13,435 INFO scheduler Scheduled Job Complete: frappe.utils.global_search.sync_global_search for hr_management
2021-09-03 12:12:13,522 INFO scheduler Scheduled Job Start: frappe.integrations.doctype.razorpay_settings.razorpay_settings.capture_payment for hr_management
2021-09-03 12:12:13,918 INFO scheduler Scheduled Job Complete: frappe.integrations.doctype.razorpay_settings.razorpay_settings.capture_payment for hr_management
2021-09-03 12:12:14,013 INFO scheduler Scheduled Job Start: frappe.email.doctype.email_account.email_account.notify_unreplied for hr_management
2021-09-03 12:12:14,327 INFO scheduler Scheduled Job Complete: frappe.email.doctype.email_account.email_account.notify_unreplied for hr_management
2021-09-03 12:12:14,412 INFO scheduler Scheduled Job Start: frappe.email.doctype.email_account.email_account.pull for hr_management
2021-09-03 12:12:14,751 INFO scheduler Scheduled Job Complete: frappe.email.doctype.email_account.email_account.pull for hr_management
2021-09-03 12:12:14,832 INFO scheduler Scheduled Job Start: frappe.email.queue.flush for hr_management
2021-09-03 12:12:15,103 INFO scheduler Scheduled Job Complete: frappe.email.queue.flush for hr_management
2021-09-03 12:13:10,980 DEBUG scheduler Queued events for site hr_management
2021-09-03 12:14:11,335 DEBUG scheduler Queued events for site hr_management
2021-09-03 12:15:11,689 DEBUG scheduler Queued events for site hr_management
2021-09-03 12:15:13,238 INFO scheduler Scheduled Job Start: frappe.twofactor.delete_all_barcodes_for_users for hr_management
2021-09-03 12:15:13,611 INFO scheduler Scheduled Job Complete: frappe.twofactor.delete_all_barcodes_for_users for hr_management
2021-09-03 12:15:13,713 INFO scheduler Scheduled Job Start: frappe.website.doctype.web_page.web_page.check_publish_status for hr_management
2021-09-03 12:15:14,146 INFO scheduler Scheduled Job Complete: frappe.website.doctype.web_page.web_page.check_publish_status for hr_management
2021-09-03 12:15:14,245 INFO scheduler Scheduled Job Start: frappe.oauth.delete_oauth2_data for hr_management
2021-09-03 12:15:14,627 INFO scheduler Scheduled Job Complete: frappe.oauth.delete_oauth2_data for hr_management
2021-09-03 12:16:12,135 DEBUG scheduler Queued events for site hr_management
2021-09-03 12:16:14,337 INFO scheduler Scheduled Job Start: frappe.monitor.flush for hr_management
2021-09-03 12:16:14,589 INFO scheduler Scheduled Job Complete: frappe.monitor.flush for hr_management
2021-09-03 12:16:14,683 INFO scheduler Scheduled Job Start: frappe.utils.global_search.sync_global_search for hr_management
2021-09-03 12:16:14,959 INFO scheduler Scheduled Job Complete: frappe.utils.global_search.sync_global_search for hr_management
2021-09-03 12:16:15,038 INFO scheduler Scheduled Job Start: frappe.integrations.doctype.razorpay_settings.razorpay_settings.capture_payment for hr_management
2021-09-03 12:16:15,409 INFO scheduler Scheduled Job Complete: frappe.integrations.doctype.razorpay_settings.razorpay_settings.capture_payment for hr_management
2021-09-03 12:16:15,493 INFO scheduler Scheduled Job Start: frappe.email.doctype.email_account.email_account.notify_unreplied for hr_management
2021-09-03 12:16:15,799 INFO scheduler Scheduled Job Complete: frappe.email.doctype.email_account.email_account.notify_unreplied for hr_management
2021-09-03 12:16:15,898 INFO scheduler Scheduled Job Start: frappe.email.doctype.email_account.email_account.pull for hr_management
2021-09-03 12:16:16,208 INFO scheduler Scheduled Job Complete: frappe.email.doctype.email_account.email_account.pull for hr_management
2021-09-03 12:16:16,289 INFO scheduler Scheduled Job Start: frappe.email.queue.flush for hr_management
2021-09-03 12:16:16,537 INFO scheduler Scheduled Job Complete: frappe.email.queue.flush for hr_management
2021-09-03 12:17:12,553 DEBUG scheduler Queued events for site hr_management
2021-09-03 12:18:12,883 DEBUG scheduler Queued events for site hr_management
2021-09-03 12:19:13,219 DEBUG scheduler Queued events for site hr_management
2021-09-03 12:20:13,631 DEBUG scheduler Queued events for site hr_management
2021-09-03 12:20:15,853 INFO scheduler Scheduled Job Start: frappe.monitor.flush for hr_management
2021-09-03 12:20:16,133 INFO scheduler Scheduled Job Complete: frappe.monitor.flush for hr_management
2021-09-03 12:20:16,206 INFO scheduler Scheduled Job Start: frappe.utils.global_search.sync_global_search for hr_management
2021-09-03 12:20:16,433 INFO scheduler Scheduled Job Complete: frappe.utils.global_search.sync_global_search for hr_management
2021-09-03 12:20:16,527 INFO scheduler Scheduled Job Start: frappe.integrations.doctype.razorpay_settings.razorpay_settings.capture_payment for hr_management
2021-09-03 12:20:16,906 INFO scheduler Scheduled Job Complete: frappe.integrations.doctype.razorpay_settings.razorpay_settings.capture_payment for hr_management
2021-09-03 12:20:17,007 INFO scheduler Scheduled Job Start: frappe.email.doctype.email_account.email_account.notify_unreplied for hr_management
2021-09-03 12:20:17,314 INFO scheduler Scheduled Job Complete: frappe.email.doctype.email_account.email_account.notify_unreplied for hr_management
2021-09-03 12:20:17,394 INFO scheduler Scheduled Job Start: frappe.email.doctype.email_account.email_account.pull for hr_management
2021-09-03 12:20:17,719 INFO scheduler Scheduled Job Complete: frappe.email.doctype.email_account.email_account.pull for hr_management
2021-09-03 12:20:17,819 INFO scheduler Scheduled Job Start: frappe.email.queue.flush for hr_management
2021-09-03 12:20:18,093 INFO scheduler Scheduled Job Complete: frappe.email.queue.flush for hr_management
2021-09-03 12:21:14,032 DEBUG scheduler Queued events for site hr_management
2021-09-03 12:22:14,365 DEBUG scheduler Queued events for site hr_management
2021-09-03 12:23:14,690 DEBUG scheduler Queued events for site hr_management
2021-09-03 12:24:15,110 DEBUG scheduler Queued events for site hr_management
2021-09-03 12:24:17,370 INFO scheduler Scheduled Job Start: frappe.monitor.flush for hr_management
2021-09-03 12:24:17,608 INFO scheduler Scheduled Job Complete: frappe.monitor.flush for hr_management
2021-09-03 12:24:17,694 INFO scheduler Scheduled Job Start: frappe.utils.global_search.sync_global_search for hr_management
2021-09-03 12:24:17,968 INFO scheduler Scheduled Job Complete: frappe.utils.global_search.sync_global_search for hr_management
2021-09-03 12:24:18,077 INFO scheduler Scheduled Job Start: frappe.integrations.doctype.razorpay_settings.razorpay_settings.capture_payment for hr_management
2021-09-03 12:24:18,472 INFO scheduler Scheduled Job Complete: frappe.integrations.doctype.razorpay_settings.razorpay_settings.capture_payment for hr_management
2021-09-03 12:24:18,553 INFO scheduler Scheduled Job Start: frappe.email.doctype.email_account.email_account.notify_unreplied for hr_management
2021-09-03 12:24:18,874 INFO scheduler Scheduled Job Complete: frappe.email.doctype.email_account.email_account.notify_unreplied for hr_management
2021-09-03 12:24:18,957 INFO scheduler Scheduled Job Start: frappe.email.doctype.email_account.email_account.pull for hr_management
2021-09-03 12:24:19,315 INFO scheduler Scheduled Job Complete: frappe.email.doctype.email_account.email_account.pull for hr_management
2021-09-03 12:24:19,397 INFO scheduler Scheduled Job Start: frappe.email.queue.flush for hr_management
2021-09-03 12:24:19,658 INFO scheduler Scheduled Job Complete: frappe.email.queue.flush for hr_management
2021-09-03 12:25:15,463 DEBUG scheduler Queued events for site hr_management
2021-09-03 12:26:15,795 DEBUG scheduler Queued events for site hr_management
2021-09-03 12:27:16,140 DEBUG scheduler Queued events for site hr_management
2021-09-03 12:28:16,595 DEBUG scheduler Queued events for site hr_management
2021-09-03 12:28:18,808 INFO scheduler Scheduled Job Start: frappe.monitor.flush for hr_management
2021-09-03 12:28:19,052 INFO scheduler Scheduled Job Complete: frappe.monitor.flush for hr_management
2021-09-03 12:28:19,144 INFO scheduler Scheduled Job Start: frappe.utils.global_search.sync_global_search for hr_management
2021-09-03 12:28:19,385 INFO scheduler Scheduled Job Complete: frappe.utils.global_search.sync_global_search for hr_management
2021-09-03 12:28:19,464 INFO scheduler Scheduled Job Start: frappe.integrations.doctype.razorpay_settings.razorpay_settings.capture_payment for hr_management
2021-09-03 12:28:19,838 INFO scheduler Scheduled Job Complete: frappe.integrations.doctype.razorpay_settings.razorpay_settings.capture_payment for hr_management
2021-09-03 12:28:19,943 INFO scheduler Scheduled Job Start: frappe.email.doctype.email_account.email_account.notify_unreplied for hr_management
2021-09-03 12:28:20,258 INFO scheduler Scheduled Job Complete: frappe.email.doctype.email_account.email_account.notify_unreplied for hr_management
2021-09-03 12:28:20,354 INFO scheduler Scheduled Job Start: frappe.email.doctype.email_account.email_account.pull for hr_management
2021-09-03 12:28:20,718 INFO scheduler Scheduled Job Complete: frappe.email.doctype.email_account.email_account.pull for hr_management
2021-09-03 12:28:20,799 INFO scheduler Scheduled Job Start: frappe.email.queue.flush for hr_management
2021-09-03 12:28:21,049 INFO scheduler Scheduled Job Complete: frappe.email.queue.flush for hr_management
2021-09-03 12:29:16,978 DEBUG scheduler Queued events for site hr_management
2021-09-03 12:30:17,344 DEBUG scheduler Queued events for site hr_management
2021-09-03 12:30:18,775 INFO scheduler Scheduled Job Start: frappe.twofactor.delete_all_barcodes_for_users for hr_management
2021-09-03 12:30:19,180 INFO scheduler Scheduled Job Complete: frappe.twofactor.delete_all_barcodes_for_users for hr_management
2021-09-03 12:30:19,264 INFO scheduler Scheduled Job Start: frappe.website.doctype.web_page.web_page.check_publish_status for hr_management
2021-09-03 12:30:19,721 INFO scheduler Scheduled Job Complete: frappe.website.doctype.web_page.web_page.check_publish_status for hr_management
2021-09-03 12:30:19,826 INFO scheduler Scheduled Job Start: frappe.oauth.delete_oauth2_data for hr_management
2021-09-03 12:30:20,219 INFO scheduler Scheduled Job Complete: frappe.oauth.delete_oauth2_data for hr_management
2021-09-03 12:31:17,738 DEBUG scheduler Queued events for site hr_management
2021-09-03 12:32:18,138 DEBUG scheduler Queued events for site hr_management
2021-09-03 12:32:20,501 INFO scheduler Scheduled Job Start: frappe.monitor.flush for hr_management
2021-09-03 12:32:20,746 INFO scheduler Scheduled Job Complete: frappe.monitor.flush for hr_management
2021-09-03 12:32:20,827 INFO scheduler Scheduled Job Start: frappe.utils.global_search.sync_global_search for hr_management
2021-09-03 12:32:21,089 INFO scheduler Scheduled Job Complete: frappe.utils.global_search.sync_global_search for hr_management
2021-09-03 12:32:21,170 INFO scheduler Scheduled Job Start: frappe.integrations.doctype.razorpay_settings.razorpay_settings.capture_payment for hr_management
2021-09-03 12:32:21,555 INFO scheduler Scheduled Job Complete: frappe.integrations.doctype.razorpay_settings.razorpay_settings.capture_payment for hr_management
2021-09-03 12:32:21,636 INFO scheduler Scheduled Job Start: frappe.email.doctype.email_account.email_account.notify_unreplied for hr_management
2021-09-03 12:32:21,955 INFO scheduler Scheduled Job Complete: frappe.email.doctype.email_account.email_account.notify_unreplied for hr_management
2021-09-03 12:32:22,039 INFO scheduler Scheduled Job Start: frappe.email.doctype.email_account.email_account.pull for hr_management
2021-09-03 12:32:22,384 INFO scheduler Scheduled Job Complete: frappe.email.doctype.email_account.email_account.pull for hr_management
2021-09-03 12:32:22,476 INFO scheduler Scheduled Job Start: frappe.email.queue.flush for hr_management
2021-09-03 12:32:22,741 INFO scheduler Scheduled Job Complete: frappe.email.queue.flush for hr_management
2021-09-03 12:33:18,546 DEBUG scheduler Queued events for site hr_management
2021-09-03 12:34:18,882 DEBUG scheduler Queued events for site hr_management
2021-09-03 12:35:19,221 DEBUG scheduler Queued events for site hr_management
2021-09-03 12:36:19,652 DEBUG scheduler Queued events for site hr_management
2021-09-03 12:36:21,904 INFO scheduler Scheduled Job Start: frappe.monitor.flush for hr_management
2021-09-03 12:36:22,158 INFO scheduler Scheduled Job Complete: frappe.monitor.flush for hr_management
2021-09-03 12:36:22,260 INFO scheduler Scheduled Job Start: frappe.utils.global_search.sync_global_search for hr_management
2021-09-03 12:36:22,516 INFO scheduler Scheduled Job Complete: frappe.utils.global_search.sync_global_search for hr_management
2021-09-03 12:36:22,603 INFO scheduler Scheduled Job Start: frappe.integrations.doctype.razorpay_settings.razorpay_settings.capture_payment for hr_management
2021-09-03 12:36:23,007 INFO scheduler Scheduled Job Complete: frappe.integrations.doctype.razorpay_settings.razorpay_settings.capture_payment for hr_management
2021-09-03 12:36:23,091 INFO scheduler Scheduled Job Start: frappe.email.doctype.email_account.email_account.notify_unreplied for hr_management
2021-09-03 12:36:23,421 INFO scheduler Scheduled Job Complete: frappe.email.doctype.email_account.email_account.notify_unreplied for hr_management
2021-09-03 12:36:23,522 INFO scheduler Scheduled Job Start: frappe.email.doctype.email_account.email_account.pull for hr_management
2021-09-03 12:36:23,896 INFO scheduler Scheduled Job Complete: frappe.email.doctype.email_account.email_account.pull for hr_management
2021-09-03 12:36:23,997 INFO scheduler Scheduled Job Start: frappe.email.queue.flush for hr_management
2021-09-03 12:36:24,266 INFO scheduler Scheduled Job Complete: frappe.email.queue.flush for hr_management
2021-09-03 12:37:20,048 DEBUG scheduler Queued events for site hr_management
2021-09-03 12:38:20,388 DEBUG scheduler Queued events for site hr_management
2021-09-03 12:39:20,694 DEBUG scheduler Queued events for site hr_management
2021-09-03 12:40:21,130 DEBUG scheduler Queued events for site hr_management
2021-09-03 12:40:23,413 INFO scheduler Scheduled Job Start: frappe.monitor.flush for hr_management
2021-09-03 12:40:23,659 INFO scheduler Scheduled Job Complete: frappe.monitor.flush for hr_management
2021-09-03 12:40:23,743 INFO scheduler Scheduled Job Start: frappe.utils.global_search.sync_global_search for hr_management
2021-09-03 12:40:23,998 INFO scheduler Scheduled Job Complete: frappe.utils.global_search.sync_global_search for hr_management
2021-09-03 12:40:24,088 INFO scheduler Scheduled Job Start: frappe.integrations.doctype.razorpay_settings.razorpay_settings.capture_payment for hr_management
2021-09-03 12:40:24,455 INFO scheduler Scheduled Job Complete: frappe.integrations.doctype.razorpay_settings.razorpay_settings.capture_payment for hr_management
2021-09-03 12:40:24,534 INFO scheduler Scheduled Job Start: frappe.email.doctype.email_account.email_account.notify_unreplied for hr_management
2021-09-03 12:40:24,854 INFO scheduler Scheduled Job Complete: frappe.email.doctype.email_account.email_account.notify_unreplied for hr_management
2021-09-03 12:40:24,938 INFO scheduler Scheduled Job Start: frappe.email.doctype.email_account.email_account.pull for hr_management
2021-09-03 12:40:25,263 INFO scheduler Scheduled Job Complete: frappe.email.doctype.email_account.email_account.pull for hr_management
2021-09-03 12:40:25,345 INFO scheduler Scheduled Job Start: frappe.email.queue.flush for hr_management
2021-09-03 12:40:25,605 INFO scheduler Scheduled Job Complete: frappe.email.queue.flush for hr_management
2021-09-03 12:41:21,531 DEBUG scheduler Queued events for site hr_management
2021-09-03 12:42:21,890 DEBUG scheduler Queued events for site hr_management
2021-09-03 12:43:22,257 DEBUG scheduler Queued events for site hr_management
2021-09-03 12:44:22,645 DEBUG scheduler Queued events for site hr_management
2021-09-03 12:44:24,885 INFO scheduler Scheduled Job Start: frappe.monitor.flush for hr_management
2021-09-03 12:44:25,154 INFO scheduler Scheduled Job Complete: frappe.monitor.flush for hr_management
2021-09-03 12:44:25,235 INFO scheduler Scheduled Job Start: frappe.utils.global_search.sync_global_search for hr_management
2021-09-03 12:44:25,503 INFO scheduler Scheduled Job Complete: frappe.utils.global_search.sync_global_search for hr_management
2021-09-03 12:44:25,597 INFO scheduler Scheduled Job Start: frappe.integrations.doctype.razorpay_settings.razorpay_settings.capture_payment for hr_management
2021-09-03 12:44:25,979 INFO scheduler Scheduled Job Complete: frappe.integrations.doctype.razorpay_settings.razorpay_settings.capture_payment for hr_management
2021-09-03 12:44:26,065 INFO scheduler Scheduled Job Start: frappe.email.doctype.email_account.email_account.notify_unreplied for hr_management
2021-09-03 12:44:26,390 INFO scheduler Scheduled Job Complete: frappe.email.doctype.email_account.email_account.notify_unreplied for hr_management
2021-09-03 12:44:26,488 INFO scheduler Scheduled Job Start: frappe.email.doctype.email_account.email_account.pull for hr_management
2021-09-03 12:44:26,829 INFO scheduler Scheduled Job Complete: frappe.email.doctype.email_account.email_account.pull for hr_management
2021-09-03 12:44:26,924 INFO scheduler Scheduled Job Start: frappe.email.queue.flush for hr_management
2021-09-03 12:44:27,214 INFO scheduler Scheduled Job Complete: frappe.email.queue.flush for hr_management
2021-09-03 12:45:23,170 DEBUG scheduler Queued events for site hr_management
