2021-09-02 22:01:26,657 DEBUG scheduler Queued events for site hr_management
2021-09-02 22:02:27,012 DEBUG scheduler Queued events for site hr_management
2021-09-02 22:03:27,378 DEBUG scheduler Queued events for site hr_management
2021-09-02 22:04:27,839 DEBUG scheduler Queued events for site hr_management
2021-09-02 22:04:30,153 INFO scheduler Scheduled Job Start: frappe.monitor.flush for hr_management
2021-09-02 22:04:30,417 INFO scheduler Scheduled Job Complete: frappe.monitor.flush for hr_management
2021-09-02 22:04:30,516 INFO scheduler Scheduled Job Start: frappe.utils.global_search.sync_global_search for hr_management
2021-09-02 22:04:30,749 INFO scheduler Scheduled Job Complete: frappe.utils.global_search.sync_global_search for hr_management
2021-09-02 22:04:30,836 INFO scheduler Scheduled Job Start: frappe.integrations.doctype.razorpay_settings.razorpay_settings.capture_payment for hr_management
2021-09-02 22:04:31,216 INFO scheduler Scheduled Job Complete: frappe.integrations.doctype.razorpay_settings.razorpay_settings.capture_payment for hr_management
2021-09-02 22:04:31,301 INFO scheduler Scheduled Job Start: frappe.email.doctype.email_account.email_account.notify_unreplied for hr_management
2021-09-02 22:04:31,623 INFO scheduler Scheduled Job Complete: frappe.email.doctype.email_account.email_account.notify_unreplied for hr_management
2021-09-02 22:04:31,711 INFO scheduler Scheduled Job Start: frappe.email.doctype.email_account.email_account.pull for hr_management
2021-09-02 22:04:32,036 INFO scheduler Scheduled Job Complete: frappe.email.doctype.email_account.email_account.pull for hr_management
2021-09-02 22:04:32,142 INFO scheduler Scheduled Job Start: frappe.email.queue.flush for hr_management
2021-09-02 22:04:32,415 INFO scheduler Scheduled Job Complete: frappe.email.queue.flush for hr_management
2021-09-02 22:05:28,265 DEBUG scheduler Queued events for site hr_management
2021-09-02 22:06:28,599 DEBUG scheduler Queued events for site hr_management
2021-09-02 22:07:28,916 DEBUG scheduler Queued events for site hr_management
2021-09-02 22:08:29,395 DEBUG scheduler Queued events for site hr_management
2021-09-02 22:08:31,696 INFO scheduler Scheduled Job Start: frappe.monitor.flush for hr_management
2021-09-02 22:08:31,947 INFO scheduler Scheduled Job Complete: frappe.monitor.flush for hr_management
2021-09-02 22:08:32,048 INFO scheduler Scheduled Job Start: frappe.utils.global_search.sync_global_search for hr_management
2021-09-02 22:08:32,315 INFO scheduler Scheduled Job Complete: frappe.utils.global_search.sync_global_search for hr_management
2021-09-02 22:08:32,426 INFO scheduler Scheduled Job Start: frappe.integrations.doctype.razorpay_settings.razorpay_settings.capture_payment for hr_management
2021-09-02 22:08:32,824 INFO scheduler Scheduled Job Complete: frappe.integrations.doctype.razorpay_settings.razorpay_settings.capture_payment for hr_management
2021-09-02 22:08:32,916 INFO scheduler Scheduled Job Start: frappe.email.doctype.email_account.email_account.notify_unreplied for hr_management
2021-09-02 22:08:33,255 INFO scheduler Scheduled Job Complete: frappe.email.doctype.email_account.email_account.notify_unreplied for hr_management
2021-09-02 22:08:33,357 INFO scheduler Scheduled Job Start: frappe.email.doctype.email_account.email_account.pull for hr_management
2021-09-02 22:08:33,681 INFO scheduler Scheduled Job Complete: frappe.email.doctype.email_account.email_account.pull for hr_management
2021-09-02 22:08:33,766 INFO scheduler Scheduled Job Start: frappe.email.queue.flush for hr_management
2021-09-02 22:08:34,050 INFO scheduler Scheduled Job Complete: frappe.email.queue.flush for hr_management
2021-09-02 22:09:29,823 DEBUG scheduler Queued events for site hr_management
2021-09-02 22:10:30,205 DEBUG scheduler Queued events for site hr_management
2021-09-02 22:11:30,579 DEBUG scheduler Queued events for site hr_management
2021-09-02 22:12:31,047 DEBUG scheduler Queued events for site hr_management
2021-09-02 22:12:33,279 INFO scheduler Scheduled Job Start: frappe.monitor.flush for hr_management
2021-09-02 22:12:33,513 INFO scheduler Scheduled Job Complete: frappe.monitor.flush for hr_management
2021-09-02 22:12:33,611 INFO scheduler Scheduled Job Start: frappe.utils.global_search.sync_global_search for hr_management
2021-09-02 22:12:33,879 INFO scheduler Scheduled Job Complete: frappe.utils.global_search.sync_global_search for hr_management
2021-09-02 22:12:33,969 INFO scheduler Scheduled Job Start: frappe.integrations.doctype.razorpay_settings.razorpay_settings.capture_payment for hr_management
2021-09-02 22:12:34,367 INFO scheduler Scheduled Job Complete: frappe.integrations.doctype.razorpay_settings.razorpay_settings.capture_payment for hr_management
2021-09-02 22:12:34,462 INFO scheduler Scheduled Job Start: frappe.email.doctype.email_account.email_account.notify_unreplied for hr_management
2021-09-02 22:12:34,785 INFO scheduler Scheduled Job Complete: frappe.email.doctype.email_account.email_account.notify_unreplied for hr_management
2021-09-02 22:12:34,885 INFO scheduler Scheduled Job Start: frappe.email.doctype.email_account.email_account.pull for hr_management
2021-09-02 22:12:35,232 INFO scheduler Scheduled Job Complete: frappe.email.doctype.email_account.email_account.pull for hr_management
2021-09-02 22:12:35,331 INFO scheduler Scheduled Job Start: frappe.email.queue.flush for hr_management
2021-09-02 22:12:35,590 INFO scheduler Scheduled Job Complete: frappe.email.queue.flush for hr_management
2021-09-02 22:13:31,483 DEBUG scheduler Queued events for site hr_management
2021-09-02 22:14:31,848 DEBUG scheduler Queued events for site hr_management
2021-09-02 22:15:32,218 DEBUG scheduler Queued events for site hr_management
2021-09-02 22:15:33,727 INFO scheduler Scheduled Job Start: frappe.twofactor.delete_all_barcodes_for_users for hr_management
2021-09-02 22:15:34,105 INFO scheduler Scheduled Job Complete: frappe.twofactor.delete_all_barcodes_for_users for hr_management
2021-09-02 22:15:34,209 INFO scheduler Scheduled Job Start: frappe.website.doctype.web_page.web_page.check_publish_status for hr_management
2021-09-02 22:15:34,632 INFO scheduler Scheduled Job Complete: frappe.website.doctype.web_page.web_page.check_publish_status for hr_management
2021-09-02 22:15:34,725 INFO scheduler Scheduled Job Start: frappe.oauth.delete_oauth2_data for hr_management
2021-09-02 22:15:35,103 INFO scheduler Scheduled Job Complete: frappe.oauth.delete_oauth2_data for hr_management
2021-09-02 22:16:32,684 DEBUG scheduler Queued events for site hr_management
2021-09-02 22:16:34,945 INFO scheduler Scheduled Job Start: frappe.monitor.flush for hr_management
2021-09-02 22:16:35,181 INFO scheduler Scheduled Job Complete: frappe.monitor.flush for hr_management
2021-09-02 22:16:35,264 INFO scheduler Scheduled Job Start: frappe.utils.global_search.sync_global_search for hr_management
2021-09-02 22:16:35,525 INFO scheduler Scheduled Job Complete: frappe.utils.global_search.sync_global_search for hr_management
2021-09-02 22:16:35,615 INFO scheduler Scheduled Job Start: frappe.integrations.doctype.razorpay_settings.razorpay_settings.capture_payment for hr_management
2021-09-02 22:16:35,995 INFO scheduler Scheduled Job Complete: frappe.integrations.doctype.razorpay_settings.razorpay_settings.capture_payment for hr_management
2021-09-02 22:16:36,101 INFO scheduler Scheduled Job Start: frappe.email.doctype.email_account.email_account.notify_unreplied for hr_management
2021-09-02 22:16:36,432 INFO scheduler Scheduled Job Complete: frappe.email.doctype.email_account.email_account.notify_unreplied for hr_management
2021-09-02 22:16:36,526 INFO scheduler Scheduled Job Start: frappe.email.doctype.email_account.email_account.pull for hr_management
2021-09-02 22:16:36,857 INFO scheduler Scheduled Job Complete: frappe.email.doctype.email_account.email_account.pull for hr_management
2021-09-02 22:16:36,947 INFO scheduler Scheduled Job Start: frappe.email.queue.flush for hr_management
2021-09-02 22:16:37,203 INFO scheduler Scheduled Job Complete: frappe.email.queue.flush for hr_management
2021-09-02 22:17:33,094 DEBUG scheduler Queued events for site hr_management
2021-09-02 22:18:33,464 DEBUG scheduler Queued events for site hr_management
2021-09-02 22:19:33,831 DEBUG scheduler Queued events for site hr_management
2021-09-02 22:20:34,265 DEBUG scheduler Queued events for site hr_management
2021-09-02 22:20:36,600 INFO scheduler Scheduled Job Start: frappe.monitor.flush for hr_management
2021-09-02 22:20:36,857 INFO scheduler Scheduled Job Complete: frappe.monitor.flush for hr_management
2021-09-02 22:20:36,957 INFO scheduler Scheduled Job Start: frappe.utils.global_search.sync_global_search for hr_management
2021-09-02 22:20:37,210 INFO scheduler Scheduled Job Complete: frappe.utils.global_search.sync_global_search for hr_management
2021-09-02 22:20:37,331 INFO scheduler Scheduled Job Start: frappe.integrations.doctype.razorpay_settings.razorpay_settings.capture_payment for hr_management
2021-09-02 22:20:37,725 INFO scheduler Scheduled Job Complete: frappe.integrations.doctype.razorpay_settings.razorpay_settings.capture_payment for hr_management
2021-09-02 22:20:37,830 INFO scheduler Scheduled Job Start: frappe.email.doctype.email_account.email_account.notify_unreplied for hr_management
2021-09-02 22:20:38,134 INFO scheduler Scheduled Job Complete: frappe.email.doctype.email_account.email_account.notify_unreplied for hr_management
2021-09-02 22:20:38,253 INFO scheduler Scheduled Job Start: frappe.email.doctype.email_account.email_account.pull for hr_management
2021-09-02 22:20:38,612 INFO scheduler Scheduled Job Complete: frappe.email.doctype.email_account.email_account.pull for hr_management
2021-09-02 22:20:38,701 INFO scheduler Scheduled Job Start: frappe.email.queue.flush for hr_management
2021-09-02 22:20:39,006 INFO scheduler Scheduled Job Complete: frappe.email.queue.flush for hr_management
2021-09-02 22:21:34,769 DEBUG scheduler Queued events for site hr_management
2021-09-02 22:22:35,154 DEBUG scheduler Queued events for site hr_management
2021-09-02 22:23:35,538 DEBUG scheduler Queued events for site hr_management
2021-09-02 22:24:36,049 DEBUG scheduler Queued events for site hr_management
2021-09-02 22:24:38,426 INFO scheduler Scheduled Job Start: frappe.monitor.flush for hr_management
2021-09-02 22:24:38,687 INFO scheduler Scheduled Job Complete: frappe.monitor.flush for hr_management
2021-09-02 22:24:38,775 INFO scheduler Scheduled Job Start: frappe.utils.global_search.sync_global_search for hr_management
2021-09-02 22:24:39,041 INFO scheduler Scheduled Job Complete: frappe.utils.global_search.sync_global_search for hr_management
2021-09-02 22:24:39,141 INFO scheduler Scheduled Job Start: frappe.integrations.doctype.razorpay_settings.razorpay_settings.capture_payment for hr_management
2021-09-02 22:24:39,548 INFO scheduler Scheduled Job Complete: frappe.integrations.doctype.razorpay_settings.razorpay_settings.capture_payment for hr_management
2021-09-02 22:24:39,642 INFO scheduler Scheduled Job Start: frappe.email.doctype.email_account.email_account.notify_unreplied for hr_management
2021-09-02 22:24:39,965 INFO scheduler Scheduled Job Complete: frappe.email.doctype.email_account.email_account.notify_unreplied for hr_management
2021-09-02 22:24:40,054 INFO scheduler Scheduled Job Start: frappe.email.doctype.email_account.email_account.pull for hr_management
2021-09-02 22:24:40,424 INFO scheduler Scheduled Job Complete: frappe.email.doctype.email_account.email_account.pull for hr_management
2021-09-02 22:24:40,512 INFO scheduler Scheduled Job Start: frappe.email.queue.flush for hr_management
2021-09-02 22:24:40,786 INFO scheduler Scheduled Job Complete: frappe.email.queue.flush for hr_management
2021-09-02 22:25:36,496 DEBUG scheduler Queued events for site hr_management
2021-09-02 22:26:36,877 DEBUG scheduler Queued events for site hr_management
2021-09-02 22:27:37,288 DEBUG scheduler Queued events for site hr_management
2021-09-02 22:28:37,711 DEBUG scheduler Queued events for site hr_management
2021-09-02 22:28:40,057 INFO scheduler Scheduled Job Start: frappe.monitor.flush for hr_management
2021-09-02 22:28:40,366 INFO scheduler Scheduled Job Complete: frappe.monitor.flush for hr_management
2021-09-02 22:28:40,478 INFO scheduler Scheduled Job Start: frappe.utils.global_search.sync_global_search for hr_management
2021-09-02 22:28:40,750 INFO scheduler Scheduled Job Complete: frappe.utils.global_search.sync_global_search for hr_management
2021-09-02 22:28:40,858 INFO scheduler Scheduled Job Start: frappe.integrations.doctype.razorpay_settings.razorpay_settings.capture_payment for hr_management
2021-09-02 22:28:41,339 INFO scheduler Scheduled Job Complete: frappe.integrations.doctype.razorpay_settings.razorpay_settings.capture_payment for hr_management
2021-09-02 22:28:41,419 INFO scheduler Scheduled Job Start: frappe.email.doctype.email_account.email_account.notify_unreplied for hr_management
2021-09-02 22:28:41,738 INFO scheduler Scheduled Job Complete: frappe.email.doctype.email_account.email_account.notify_unreplied for hr_management
2021-09-02 22:28:41,856 INFO scheduler Scheduled Job Start: frappe.email.doctype.email_account.email_account.pull for hr_management
2021-09-02 22:28:42,255 INFO scheduler Scheduled Job Complete: frappe.email.doctype.email_account.email_account.pull for hr_management
2021-09-02 22:28:42,353 INFO scheduler Scheduled Job Start: frappe.email.queue.flush for hr_management
2021-09-02 22:28:42,635 INFO scheduler Scheduled Job Complete: frappe.email.queue.flush for hr_management
2021-09-02 22:29:38,148 DEBUG scheduler Queued events for site hr_management
2021-09-02 22:30:38,544 DEBUG scheduler Queued events for site hr_management
2021-09-02 22:30:40,079 INFO scheduler Scheduled Job Start: frappe.twofactor.delete_all_barcodes_for_users for hr_management
2021-09-02 22:30:40,479 INFO scheduler Scheduled Job Complete: frappe.twofactor.delete_all_barcodes_for_users for hr_management
2021-09-02 22:30:40,590 INFO scheduler Scheduled Job Start: frappe.website.doctype.web_page.web_page.check_publish_status for hr_management
2021-09-02 22:30:41,054 INFO scheduler Scheduled Job Complete: frappe.website.doctype.web_page.web_page.check_publish_status for hr_management
2021-09-02 22:30:41,147 INFO scheduler Scheduled Job Start: frappe.oauth.delete_oauth2_data for hr_management
2021-09-02 22:30:41,551 INFO scheduler Scheduled Job Complete: frappe.oauth.delete_oauth2_data for hr_management
2021-09-02 22:31:38,998 DEBUG scheduler Queued events for site hr_management
2021-09-02 22:32:39,519 DEBUG scheduler Queued events for site hr_management
2021-09-02 22:32:41,985 INFO scheduler Scheduled Job Start: frappe.monitor.flush for hr_management
2021-09-02 22:32:42,267 INFO scheduler Scheduled Job Complete: frappe.monitor.flush for hr_management
2021-09-02 22:32:42,362 INFO scheduler Scheduled Job Start: frappe.utils.global_search.sync_global_search for hr_management
2021-09-02 22:32:42,630 INFO scheduler Scheduled Job Complete: frappe.utils.global_search.sync_global_search for hr_management
2021-09-02 22:32:42,723 INFO scheduler Scheduled Job Start: frappe.integrations.doctype.razorpay_settings.razorpay_settings.capture_payment for hr_management
2021-09-02 22:32:43,114 INFO scheduler Scheduled Job Complete: frappe.integrations.doctype.razorpay_settings.razorpay_settings.capture_payment for hr_management
2021-09-02 22:32:43,229 INFO scheduler Scheduled Job Start: frappe.email.doctype.email_account.email_account.notify_unreplied for hr_management
2021-09-02 22:32:43,560 INFO scheduler Scheduled Job Complete: frappe.email.doctype.email_account.email_account.notify_unreplied for hr_management
2021-09-02 22:32:43,658 INFO scheduler Scheduled Job Start: frappe.email.doctype.email_account.email_account.pull for hr_management
2021-09-02 22:32:44,001 INFO scheduler Scheduled Job Complete: frappe.email.doctype.email_account.email_account.pull for hr_management
2021-09-02 22:32:44,094 INFO scheduler Scheduled Job Start: frappe.email.queue.flush for hr_management
2021-09-02 22:32:44,384 INFO scheduler Scheduled Job Complete: frappe.email.queue.flush for hr_management
2021-09-02 22:33:39,942 DEBUG scheduler Queued events for site hr_management
2021-09-02 22:34:40,351 DEBUG scheduler Queued events for site hr_management
2021-09-02 22:35:40,748 DEBUG scheduler Queued events for site hr_management
2021-09-02 22:36:41,206 DEBUG scheduler Queued events for site hr_management
2021-09-02 22:36:43,499 INFO scheduler Scheduled Job Start: frappe.monitor.flush for hr_management
2021-09-02 22:36:43,799 INFO scheduler Scheduled Job Complete: frappe.monitor.flush for hr_management
2021-09-02 22:36:43,892 INFO scheduler Scheduled Job Start: frappe.utils.global_search.sync_global_search for hr_management
2021-09-02 22:36:44,155 INFO scheduler Scheduled Job Complete: frappe.utils.global_search.sync_global_search for hr_management
2021-09-02 22:36:44,277 INFO scheduler Scheduled Job Start: frappe.integrations.doctype.razorpay_settings.razorpay_settings.capture_payment for hr_management
2021-09-02 22:36:44,671 INFO scheduler Scheduled Job Complete: frappe.integrations.doctype.razorpay_settings.razorpay_settings.capture_payment for hr_management
2021-09-02 22:36:44,777 INFO scheduler Scheduled Job Start: frappe.email.doctype.email_account.email_account.notify_unreplied for hr_management
2021-09-02 22:36:45,106 INFO scheduler Scheduled Job Complete: frappe.email.doctype.email_account.email_account.notify_unreplied for hr_management
2021-09-02 22:36:45,209 INFO scheduler Scheduled Job Start: frappe.email.doctype.email_account.email_account.pull for hr_management
2021-09-02 22:36:45,540 INFO scheduler Scheduled Job Complete: frappe.email.doctype.email_account.email_account.pull for hr_management
2021-09-02 22:36:45,636 INFO scheduler Scheduled Job Start: frappe.email.queue.flush for hr_management
2021-09-02 22:36:45,916 INFO scheduler Scheduled Job Complete: frappe.email.queue.flush for hr_management
2021-09-02 22:37:41,646 DEBUG scheduler Queued events for site hr_management
2021-09-02 22:38:42,029 DEBUG scheduler Queued events for site hr_management
2021-09-02 22:39:42,399 DEBUG scheduler Queued events for site hr_management
2021-09-02 22:40:42,840 DEBUG scheduler Queued events for site hr_management
2021-09-02 22:40:45,120 INFO scheduler Scheduled Job Start: frappe.monitor.flush for hr_management
2021-09-02 22:40:45,386 INFO scheduler Scheduled Job Complete: frappe.monitor.flush for hr_management
2021-09-02 22:40:45,481 INFO scheduler Scheduled Job Start: frappe.utils.global_search.sync_global_search for hr_management
2021-09-02 22:40:45,747 INFO scheduler Scheduled Job Complete: frappe.utils.global_search.sync_global_search for hr_management
2021-09-02 22:40:45,858 INFO scheduler Scheduled Job Start: frappe.integrations.doctype.razorpay_settings.razorpay_settings.capture_payment for hr_management
2021-09-02 22:40:46,258 INFO scheduler Scheduled Job Complete: frappe.integrations.doctype.razorpay_settings.razorpay_settings.capture_payment for hr_management
2021-09-02 22:40:46,356 INFO scheduler Scheduled Job Start: frappe.email.doctype.email_account.email_account.notify_unreplied for hr_management
2021-09-02 22:40:46,665 INFO scheduler Scheduled Job Complete: frappe.email.doctype.email_account.email_account.notify_unreplied for hr_management
2021-09-02 22:40:46,760 INFO scheduler Scheduled Job Start: frappe.email.doctype.email_account.email_account.pull for hr_management
2021-09-02 22:40:47,076 INFO scheduler Scheduled Job Complete: frappe.email.doctype.email_account.email_account.pull for hr_management
2021-09-02 22:40:47,201 INFO scheduler Scheduled Job Start: frappe.email.queue.flush for hr_management
2021-09-02 22:40:47,482 INFO scheduler Scheduled Job Complete: frappe.email.queue.flush for hr_management
2021-09-02 22:41:43,277 DEBUG scheduler Queued events for site hr_management
2021-09-02 22:42:43,677 DEBUG scheduler Queued events for site hr_management
2021-09-02 22:43:44,069 DEBUG scheduler Queued events for site hr_management
2021-09-02 22:44:44,499 DEBUG scheduler Queued events for site hr_management
2021-09-02 22:44:46,799 INFO scheduler Scheduled Job Start: frappe.monitor.flush for hr_management
2021-09-02 22:44:47,051 INFO scheduler Scheduled Job Complete: frappe.monitor.flush for hr_management
2021-09-02 22:44:47,143 INFO scheduler Scheduled Job Start: frappe.utils.global_search.sync_global_search for hr_management
2021-09-02 22:44:47,407 INFO scheduler Scheduled Job Complete: frappe.utils.global_search.sync_global_search for hr_management
2021-09-02 22:44:47,503 INFO scheduler Scheduled Job Start: frappe.integrations.doctype.razorpay_settings.razorpay_settings.capture_payment for hr_management
2021-09-02 22:44:47,890 INFO scheduler Scheduled Job Complete: frappe.integrations.doctype.razorpay_settings.razorpay_settings.capture_payment for hr_management
2021-09-02 22:44:47,984 INFO scheduler Scheduled Job Start: frappe.email.doctype.email_account.email_account.notify_unreplied for hr_management
2021-09-02 22:44:48,331 INFO scheduler Scheduled Job Complete: frappe.email.doctype.email_account.email_account.notify_unreplied for hr_management
2021-09-02 22:44:48,422 INFO scheduler Scheduled Job Start: frappe.email.doctype.email_account.email_account.pull for hr_management
2021-09-02 22:44:48,781 INFO scheduler Scheduled Job Complete: frappe.email.doctype.email_account.email_account.pull for hr_management
2021-09-02 22:44:48,873 INFO scheduler Scheduled Job Start: frappe.email.queue.flush for hr_management
2021-09-02 22:44:49,160 INFO scheduler Scheduled Job Complete: frappe.email.queue.flush for hr_management
2021-09-02 22:45:44,943 DEBUG scheduler Queued events for site hr_management
2021-09-02 22:45:46,647 INFO scheduler Scheduled Job Start: frappe.twofactor.delete_all_barcodes_for_users for hr_management
2021-09-02 22:45:47,053 INFO scheduler Scheduled Job Complete: frappe.twofactor.delete_all_barcodes_for_users for hr_management
2021-09-02 22:45:47,155 INFO scheduler Scheduled Job Start: frappe.website.doctype.web_page.web_page.check_publish_status for hr_management
2021-09-02 22:45:47,641 INFO scheduler Scheduled Job Complete: frappe.website.doctype.web_page.web_page.check_publish_status for hr_management
2021-09-02 22:45:47,762 INFO scheduler Scheduled Job Start: frappe.oauth.delete_oauth2_data for hr_management
2021-09-02 22:45:48,156 INFO scheduler Scheduled Job Complete: frappe.oauth.delete_oauth2_data for hr_management
2021-09-02 22:46:45,394 DEBUG scheduler Queued events for site hr_management
2021-09-02 22:47:45,765 DEBUG scheduler Queued events for site hr_management
2021-09-02 22:48:46,228 DEBUG scheduler Queued events for site hr_management
2021-09-02 22:48:48,656 INFO scheduler Scheduled Job Start: frappe.monitor.flush for hr_management
2021-09-02 22:48:49,015 INFO scheduler Scheduled Job Complete: frappe.monitor.flush for hr_management
2021-09-02 22:48:49,106 INFO scheduler Scheduled Job Start: frappe.utils.global_search.sync_global_search for hr_management
2021-09-02 22:48:49,370 INFO scheduler Scheduled Job Complete: frappe.utils.global_search.sync_global_search for hr_management
2021-09-02 22:48:49,461 INFO scheduler Scheduled Job Start: frappe.integrations.doctype.razorpay_settings.razorpay_settings.capture_payment for hr_management
2021-09-02 22:48:49,882 INFO scheduler Scheduled Job Complete: frappe.integrations.doctype.razorpay_settings.razorpay_settings.capture_payment for hr_management
2021-09-02 22:48:49,970 INFO scheduler Scheduled Job Start: frappe.email.doctype.email_account.email_account.notify_unreplied for hr_management
2021-09-02 22:48:50,301 INFO scheduler Scheduled Job Complete: frappe.email.doctype.email_account.email_account.notify_unreplied for hr_management
2021-09-02 22:48:50,387 INFO scheduler Scheduled Job Start: frappe.email.doctype.email_account.email_account.pull for hr_management
2021-09-02 22:48:50,721 INFO scheduler Scheduled Job Complete: frappe.email.doctype.email_account.email_account.pull for hr_management
2021-09-02 22:48:50,821 INFO scheduler Scheduled Job Start: frappe.email.queue.flush for hr_management
2021-09-02 22:48:51,106 INFO scheduler Scheduled Job Complete: frappe.email.queue.flush for hr_management
2021-09-02 22:49:46,676 DEBUG scheduler Queued events for site hr_management
2021-09-02 22:50:47,112 DEBUG scheduler Queued events for site hr_management
2021-09-02 22:51:47,497 DEBUG scheduler Queued events for site hr_management
2021-09-02 22:52:47,974 DEBUG scheduler Queued events for site hr_management
2021-09-02 22:52:50,390 INFO scheduler Scheduled Job Start: frappe.monitor.flush for hr_management
2021-09-02 22:52:50,654 INFO scheduler Scheduled Job Complete: frappe.monitor.flush for hr_management
2021-09-02 22:52:50,755 INFO scheduler Scheduled Job Start: frappe.utils.global_search.sync_global_search for hr_management
2021-09-02 22:52:51,003 INFO scheduler Scheduled Job Complete: frappe.utils.global_search.sync_global_search for hr_management
2021-09-02 22:52:51,095 INFO scheduler Scheduled Job Start: frappe.integrations.doctype.razorpay_settings.razorpay_settings.capture_payment for hr_management
2021-09-02 22:52:51,515 INFO scheduler Scheduled Job Complete: frappe.integrations.doctype.razorpay_settings.razorpay_settings.capture_payment for hr_management
2021-09-02 22:52:51,605 INFO scheduler Scheduled Job Start: frappe.email.doctype.email_account.email_account.notify_unreplied for hr_management
2021-09-02 22:52:51,937 INFO scheduler Scheduled Job Complete: frappe.email.doctype.email_account.email_account.notify_unreplied for hr_management
2021-09-02 22:52:52,035 INFO scheduler Scheduled Job Start: frappe.email.doctype.email_account.email_account.pull for hr_management
2021-09-02 22:52:52,384 INFO scheduler Scheduled Job Complete: frappe.email.doctype.email_account.email_account.pull for hr_management
2021-09-02 22:52:52,472 INFO scheduler Scheduled Job Start: frappe.email.queue.flush for hr_management
2021-09-02 22:52:52,750 INFO scheduler Scheduled Job Complete: frappe.email.queue.flush for hr_management
2021-09-02 22:53:48,414 DEBUG scheduler Queued events for site hr_management
2021-09-02 22:54:48,783 DEBUG scheduler Queued events for site hr_management
2021-09-02 22:55:49,156 DEBUG scheduler Queued events for site hr_management
2021-09-02 22:56:49,645 DEBUG scheduler Queued events for site hr_management
2021-09-02 22:56:51,981 INFO scheduler Scheduled Job Start: frappe.monitor.flush for hr_management
2021-09-02 22:56:52,264 INFO scheduler Scheduled Job Complete: frappe.monitor.flush for hr_management
2021-09-02 22:56:52,356 INFO scheduler Scheduled Job Start: frappe.utils.global_search.sync_global_search for hr_management
2021-09-02 22:56:52,614 INFO scheduler Scheduled Job Complete: frappe.utils.global_search.sync_global_search for hr_management
2021-09-02 22:56:52,700 INFO scheduler Scheduled Job Start: frappe.integrations.doctype.razorpay_settings.razorpay_settings.capture_payment for hr_management
2021-09-02 22:56:53,103 INFO scheduler Scheduled Job Complete: frappe.integrations.doctype.razorpay_settings.razorpay_settings.capture_payment for hr_management
2021-09-02 22:56:53,218 INFO scheduler Scheduled Job Start: frappe.email.doctype.email_account.email_account.notify_unreplied for hr_management
2021-09-02 22:56:53,515 INFO scheduler Scheduled Job Complete: frappe.email.doctype.email_account.email_account.notify_unreplied for hr_management
2021-09-02 22:56:53,607 INFO scheduler Scheduled Job Start: frappe.email.doctype.email_account.email_account.pull for hr_management
2021-09-02 22:56:53,967 INFO scheduler Scheduled Job Complete: frappe.email.doctype.email_account.email_account.pull for hr_management
2021-09-02 22:56:54,058 INFO scheduler Scheduled Job Start: frappe.email.queue.flush for hr_management
2021-09-02 22:56:54,346 INFO scheduler Scheduled Job Complete: frappe.email.queue.flush for hr_management
2021-09-02 22:57:50,076 DEBUG scheduler Queued events for site hr_management
2021-09-02 22:58:50,467 DEBUG scheduler Queued events for site hr_management
2021-09-02 22:59:50,869 DEBUG scheduler Queued events for site hr_management
2021-09-02 23:00:51,586 DEBUG scheduler Queued events for site hr_management
2021-09-02 23:00:59,510 INFO scheduler Scheduled Job Start: frappe.email.doctype.newsletter.newsletter.send_scheduled_email for hr_management
2021-09-02 23:00:59,947 INFO scheduler Scheduled Job Complete: frappe.email.doctype.newsletter.newsletter.send_scheduled_email for hr_management
2021-09-02 23:01:00,039 INFO scheduler Scheduled Job Start: frappe.integrations.doctype.google_calendar.google_calendar.sync for hr_management
2021-09-02 23:01:00,615 INFO scheduler Scheduled Job Complete: frappe.integrations.doctype.google_calendar.google_calendar.sync for hr_management
2021-09-02 23:01:00,731 INFO scheduler Scheduled Job Start: frappe.desk.form.document_follow.send_hourly_updates for hr_management
2021-09-02 23:01:01,111 INFO scheduler Scheduled Job Complete: frappe.desk.form.document_follow.send_hourly_updates for hr_management
2021-09-02 23:01:01,218 INFO scheduler Scheduled Job Start: frappe.deferred_insert.save_to_db for hr_management
2021-09-02 23:01:01,572 INFO scheduler Scheduled Job Complete: frappe.deferred_insert.save_to_db for hr_management
2021-09-02 23:01:01,674 INFO scheduler Scheduled Job Start: frappe.desk.page.backups.backups.delete_downloadable_backups for hr_management
2021-09-02 23:01:02,067 INFO scheduler Scheduled Job Complete: frappe.desk.page.backups.backups.delete_downloadable_backups for hr_management
2021-09-02 23:01:02,194 INFO scheduler Scheduled Job Start: frappe.utils.error.collect_error_snapshots for hr_management
2021-09-02 23:01:02,551 INFO scheduler Scheduled Job Complete: frappe.utils.error.collect_error_snapshots for hr_management
2021-09-02 23:01:02,665 INFO scheduler Scheduled Job Start: frappe.model.utils.user_settings.sync_user_settings for hr_management
2021-09-02 23:01:03,046 INFO scheduler Scheduled Job Complete: frappe.model.utils.user_settings.sync_user_settings for hr_management
2021-09-02 23:01:03,150 INFO scheduler Scheduled Job Start: frappe.model.utils.link_count.update_link_count for hr_management
2021-09-02 23:01:03,551 INFO scheduler Scheduled Job Complete: frappe.model.utils.link_count.update_link_count for hr_management
2021-09-02 23:01:03,640 INFO scheduler Scheduled Job Start: frappe.monitor.flush for hr_management
2021-09-02 23:01:03,885 INFO scheduler Scheduled Job Complete: frappe.monitor.flush for hr_management
2021-09-02 23:01:04,002 INFO scheduler Scheduled Job Start: frappe.utils.global_search.sync_global_search for hr_management
2021-09-02 23:01:04,307 INFO scheduler Scheduled Job Complete: frappe.utils.global_search.sync_global_search for hr_management
2021-09-02 23:01:04,398 INFO scheduler Scheduled Job Start: frappe.integrations.doctype.razorpay_settings.razorpay_settings.capture_payment for hr_management
2021-09-02 23:01:04,807 INFO scheduler Scheduled Job Complete: frappe.integrations.doctype.razorpay_settings.razorpay_settings.capture_payment for hr_management
2021-09-02 23:01:04,906 INFO scheduler Scheduled Job Start: frappe.email.doctype.email_account.email_account.notify_unreplied for hr_management
2021-09-02 23:01:05,243 INFO scheduler Scheduled Job Complete: frappe.email.doctype.email_account.email_account.notify_unreplied for hr_management
2021-09-02 23:01:05,346 INFO scheduler Scheduled Job Start: frappe.email.doctype.email_account.email_account.pull for hr_management
2021-09-02 23:01:05,673 INFO scheduler Scheduled Job Complete: frappe.email.doctype.email_account.email_account.pull for hr_management
2021-09-02 23:01:05,770 INFO scheduler Scheduled Job Start: frappe.email.queue.flush for hr_management
2021-09-02 23:01:06,038 INFO scheduler Scheduled Job Complete: frappe.email.queue.flush for hr_management
2021-09-02 23:01:06,133 INFO scheduler Scheduled Job Start: frappe.twofactor.delete_all_barcodes_for_users for hr_management
2021-09-02 23:01:06,569 INFO scheduler Scheduled Job Complete: frappe.twofactor.delete_all_barcodes_for_users for hr_management
2021-09-02 23:01:06,678 INFO scheduler Scheduled Job Start: frappe.website.doctype.web_page.web_page.check_publish_status for hr_management
2021-09-02 23:01:07,133 INFO scheduler Scheduled Job Complete: frappe.website.doctype.web_page.web_page.check_publish_status for hr_management
2021-09-02 23:01:07,245 INFO scheduler Scheduled Job Start: frappe.oauth.delete_oauth2_data for hr_management
2021-09-02 23:01:07,634 INFO scheduler Scheduled Job Complete: frappe.oauth.delete_oauth2_data for hr_management
2021-09-02 23:01:52,032 DEBUG scheduler Queued events for site hr_management
2021-09-02 23:02:52,411 DEBUG scheduler Queued events for site hr_management
2021-09-02 23:03:52,779 DEBUG scheduler Queued events for site hr_management
2021-09-02 23:04:53,262 DEBUG scheduler Queued events for site hr_management
2021-09-02 23:04:55,566 INFO scheduler Scheduled Job Start: frappe.monitor.flush for hr_management
2021-09-02 23:04:55,824 INFO scheduler Scheduled Job Complete: frappe.monitor.flush for hr_management
2021-09-02 23:04:55,913 INFO scheduler Scheduled Job Start: frappe.utils.global_search.sync_global_search for hr_management
2021-09-02 23:04:56,164 INFO scheduler Scheduled Job Complete: frappe.utils.global_search.sync_global_search for hr_management
2021-09-02 23:04:56,298 INFO scheduler Scheduled Job Start: frappe.integrations.doctype.razorpay_settings.razorpay_settings.capture_payment for hr_management
2021-09-02 23:04:56,703 INFO scheduler Scheduled Job Complete: frappe.integrations.doctype.razorpay_settings.razorpay_settings.capture_payment for hr_management
2021-09-02 23:04:56,800 INFO scheduler Scheduled Job Start: frappe.email.doctype.email_account.email_account.notify_unreplied for hr_management
2021-09-02 23:04:57,098 INFO scheduler Scheduled Job Complete: frappe.email.doctype.email_account.email_account.notify_unreplied for hr_management
2021-09-02 23:04:57,200 INFO scheduler Scheduled Job Start: frappe.email.doctype.email_account.email_account.pull for hr_management
2021-09-02 23:04:57,535 INFO scheduler Scheduled Job Complete: frappe.email.doctype.email_account.email_account.pull for hr_management
2021-09-02 23:04:57,627 INFO scheduler Scheduled Job Start: frappe.email.queue.flush for hr_management
2021-09-02 23:04:57,881 INFO scheduler Scheduled Job Complete: frappe.email.queue.flush for hr_management
2021-09-02 23:05:53,679 DEBUG scheduler Queued events for site hr_management
2021-09-02 23:06:54,040 DEBUG scheduler Queued events for site hr_management
2021-09-02 23:07:54,489 DEBUG scheduler Queued events for site hr_management
2021-09-02 23:08:55,060 DEBUG scheduler Queued events for site hr_management
2021-09-02 23:08:58,066 INFO scheduler Scheduled Job Start: frappe.monitor.flush for hr_management
2021-09-02 23:08:58,399 INFO scheduler Scheduled Job Complete: frappe.monitor.flush for hr_management
2021-09-02 23:08:58,515 INFO scheduler Scheduled Job Start: frappe.utils.global_search.sync_global_search for hr_management
2021-09-02 23:08:58,862 INFO scheduler Scheduled Job Complete: frappe.utils.global_search.sync_global_search for hr_management
2021-09-02 23:08:58,976 INFO scheduler Scheduled Job Start: frappe.integrations.doctype.razorpay_settings.razorpay_settings.capture_payment for hr_management
2021-09-02 23:08:59,508 INFO scheduler Scheduled Job Complete: frappe.integrations.doctype.razorpay_settings.razorpay_settings.capture_payment for hr_management
2021-09-02 23:08:59,624 INFO scheduler Scheduled Job Start: frappe.email.doctype.email_account.email_account.notify_unreplied for hr_management
2021-09-02 23:09:00,041 INFO scheduler Scheduled Job Complete: frappe.email.doctype.email_account.email_account.notify_unreplied for hr_management
2021-09-02 23:09:00,161 INFO scheduler Scheduled Job Start: frappe.email.doctype.email_account.email_account.pull for hr_management
2021-09-02 23:09:00,636 INFO scheduler Scheduled Job Complete: frappe.email.doctype.email_account.email_account.pull for hr_management
2021-09-02 23:09:00,752 INFO scheduler Scheduled Job Start: frappe.email.queue.flush for hr_management
2021-09-02 23:09:01,131 INFO scheduler Scheduled Job Complete: frappe.email.queue.flush for hr_management
2021-09-02 23:09:55,589 DEBUG scheduler Queued events for site hr_management
2021-09-02 23:10:56,012 DEBUG scheduler Queued events for site hr_management
2021-09-02 23:11:56,487 DEBUG scheduler Queued events for site hr_management
2021-09-02 23:12:57,057 DEBUG scheduler Queued events for site hr_management
2021-09-02 23:13:00,073 INFO scheduler Scheduled Job Start: frappe.monitor.flush for hr_management
2021-09-02 23:13:00,395 INFO scheduler Scheduled Job Complete: frappe.monitor.flush for hr_management
2021-09-02 23:13:00,501 INFO scheduler Scheduled Job Start: frappe.utils.global_search.sync_global_search for hr_management
2021-09-02 23:13:00,839 INFO scheduler Scheduled Job Complete: frappe.utils.global_search.sync_global_search for hr_management
2021-09-02 23:13:00,953 INFO scheduler Scheduled Job Start: frappe.integrations.doctype.razorpay_settings.razorpay_settings.capture_payment for hr_management
2021-09-02 23:13:01,465 INFO scheduler Scheduled Job Complete: frappe.integrations.doctype.razorpay_settings.razorpay_settings.capture_payment for hr_management
2021-09-02 23:13:01,576 INFO scheduler Scheduled Job Start: frappe.email.doctype.email_account.email_account.notify_unreplied for hr_management
2021-09-02 23:13:02,011 INFO scheduler Scheduled Job Complete: frappe.email.doctype.email_account.email_account.notify_unreplied for hr_management
2021-09-02 23:13:02,127 INFO scheduler Scheduled Job Start: frappe.email.doctype.email_account.email_account.pull for hr_management
2021-09-02 23:13:02,580 INFO scheduler Scheduled Job Complete: frappe.email.doctype.email_account.email_account.pull for hr_management
2021-09-02 23:13:02,695 INFO scheduler Scheduled Job Start: frappe.email.queue.flush for hr_management
2021-09-02 23:13:03,055 INFO scheduler Scheduled Job Complete: frappe.email.queue.flush for hr_management
2021-09-02 23:13:57,691 DEBUG scheduler Queued events for site hr_management
2021-09-02 23:14:58,116 DEBUG scheduler Queued events for site hr_management
2021-09-02 23:15:58,585 DEBUG scheduler Queued events for site hr_management
2021-09-02 23:16:00,513 INFO scheduler Scheduled Job Start: frappe.twofactor.delete_all_barcodes_for_users for hr_management
2021-09-02 23:16:01,037 INFO scheduler Scheduled Job Complete: frappe.twofactor.delete_all_barcodes_for_users for hr_management
2021-09-02 23:16:01,148 INFO scheduler Scheduled Job Start: frappe.website.doctype.web_page.web_page.check_publish_status for hr_management
2021-09-02 23:16:01,765 INFO scheduler Scheduled Job Complete: frappe.website.doctype.web_page.web_page.check_publish_status for hr_management
2021-09-02 23:16:01,877 INFO scheduler Scheduled Job Start: frappe.oauth.delete_oauth2_data for hr_management
2021-09-02 23:16:02,432 INFO scheduler Scheduled Job Complete: frappe.oauth.delete_oauth2_data for hr_management
2021-09-02 23:16:59,170 DEBUG scheduler Queued events for site hr_management
2021-09-02 23:17:02,091 INFO scheduler Scheduled Job Start: frappe.monitor.flush for hr_management
2021-09-02 23:17:02,445 INFO scheduler Scheduled Job Complete: frappe.monitor.flush for hr_management
2021-09-02 23:17:02,569 INFO scheduler Scheduled Job Start: frappe.utils.global_search.sync_global_search for hr_management
2021-09-02 23:17:02,898 INFO scheduler Scheduled Job Complete: frappe.utils.global_search.sync_global_search for hr_management
2021-09-02 23:17:02,995 INFO scheduler Scheduled Job Start: frappe.integrations.doctype.razorpay_settings.razorpay_settings.capture_payment for hr_management
2021-09-02 23:17:03,566 INFO scheduler Scheduled Job Complete: frappe.integrations.doctype.razorpay_settings.razorpay_settings.capture_payment for hr_management
2021-09-02 23:17:03,685 INFO scheduler Scheduled Job Start: frappe.email.doctype.email_account.email_account.notify_unreplied for hr_management
2021-09-02 23:17:04,064 INFO scheduler Scheduled Job Complete: frappe.email.doctype.email_account.email_account.notify_unreplied for hr_management
2021-09-02 23:17:04,170 INFO scheduler Scheduled Job Start: frappe.email.doctype.email_account.email_account.pull for hr_management
2021-09-02 23:17:04,591 INFO scheduler Scheduled Job Complete: frappe.email.doctype.email_account.email_account.pull for hr_management
2021-09-02 23:17:04,718 INFO scheduler Scheduled Job Start: frappe.email.queue.flush for hr_management
2021-09-02 23:17:05,104 INFO scheduler Scheduled Job Complete: frappe.email.queue.flush for hr_management
2021-09-02 23:17:59,664 DEBUG scheduler Queued events for site hr_management
2021-09-02 23:19:00,094 DEBUG scheduler Queued events for site hr_management
2021-09-02 23:20:00,682 DEBUG scheduler Queued events for site hr_management
2021-09-02 23:20:03,517 INFO scheduler Scheduled Job Start: frappe.monitor.flush for hr_management
2021-09-02 23:20:03,821 INFO scheduler Scheduled Job Complete: frappe.monitor.flush for hr_management
2021-09-02 23:20:03,933 INFO scheduler Scheduled Job Start: frappe.utils.global_search.sync_global_search for hr_management
2021-09-02 23:20:04,250 INFO scheduler Scheduled Job Complete: frappe.utils.global_search.sync_global_search for hr_management
2021-09-02 23:20:04,355 INFO scheduler Scheduled Job Start: frappe.integrations.doctype.razorpay_settings.razorpay_settings.capture_payment for hr_management
2021-09-02 23:20:04,820 INFO scheduler Scheduled Job Complete: frappe.integrations.doctype.razorpay_settings.razorpay_settings.capture_payment for hr_management
2021-09-02 23:20:04,921 INFO scheduler Scheduled Job Start: frappe.email.doctype.email_account.email_account.notify_unreplied for hr_management
2021-09-02 23:20:05,319 INFO scheduler Scheduled Job Complete: frappe.email.doctype.email_account.email_account.notify_unreplied for hr_management
2021-09-02 23:20:05,417 INFO scheduler Scheduled Job Start: frappe.email.doctype.email_account.email_account.pull for hr_management
2021-09-02 23:20:05,831 INFO scheduler Scheduled Job Complete: frappe.email.doctype.email_account.email_account.pull for hr_management
2021-09-02 23:20:05,937 INFO scheduler Scheduled Job Start: frappe.email.queue.flush for hr_management
2021-09-02 23:20:06,264 INFO scheduler Scheduled Job Complete: frappe.email.queue.flush for hr_management
2021-09-02 23:21:01,179 DEBUG scheduler Queued events for site hr_management
2021-09-02 23:22:01,595 DEBUG scheduler Queued events for site hr_management
2021-09-02 23:23:02,015 DEBUG scheduler Queued events for site hr_management
2021-09-02 23:24:02,468 DEBUG scheduler Queued events for site hr_management
2021-09-02 23:24:04,849 INFO scheduler Scheduled Job Start: frappe.monitor.flush for hr_management
2021-09-02 23:24:05,109 INFO scheduler Scheduled Job Complete: frappe.monitor.flush for hr_management
2021-09-02 23:24:05,214 INFO scheduler Scheduled Job Start: frappe.utils.global_search.sync_global_search for hr_management
2021-09-02 23:24:05,465 INFO scheduler Scheduled Job Complete: frappe.utils.global_search.sync_global_search for hr_management
2021-09-02 23:24:05,551 INFO scheduler Scheduled Job Start: frappe.integrations.doctype.razorpay_settings.razorpay_settings.capture_payment for hr_management
2021-09-02 23:24:05,929 INFO scheduler Scheduled Job Complete: frappe.integrations.doctype.razorpay_settings.razorpay_settings.capture_payment for hr_management
2021-09-02 23:24:06,020 INFO scheduler Scheduled Job Start: frappe.email.doctype.email_account.email_account.notify_unreplied for hr_management
2021-09-02 23:24:06,341 INFO scheduler Scheduled Job Complete: frappe.email.doctype.email_account.email_account.notify_unreplied for hr_management
2021-09-02 23:24:06,438 INFO scheduler Scheduled Job Start: frappe.email.doctype.email_account.email_account.pull for hr_management
2021-09-02 23:24:06,777 INFO scheduler Scheduled Job Complete: frappe.email.doctype.email_account.email_account.pull for hr_management
2021-09-02 23:24:06,874 INFO scheduler Scheduled Job Start: frappe.email.queue.flush for hr_management
2021-09-02 23:24:07,145 INFO scheduler Scheduled Job Complete: frappe.email.queue.flush for hr_management
2021-09-02 23:25:02,869 DEBUG scheduler Queued events for site hr_management
2021-09-02 23:26:03,262 DEBUG scheduler Queued events for site hr_management
2021-09-02 23:27:03,630 DEBUG scheduler Queued events for site hr_management
2021-09-03 08:12:50,057 DEBUG scheduler Queued events for site hr_management
2021-09-03 08:12:54,412 INFO scheduler Scheduled Job Start: frappe.integrations.doctype.google_drive.google_drive.daily_backup for hr_management
2021-09-03 08:12:55,505 INFO scheduler Scheduled Job Complete: frappe.integrations.doctype.google_drive.google_drive.daily_backup for hr_management
2021-09-03 08:12:55,687 INFO scheduler Scheduled Job Start: frappe.integrations.doctype.s3_backup_settings.s3_backup_settings.take_backups_daily for hr_management
2021-09-03 08:12:56,507 INFO scheduler Scheduled Job Complete: frappe.integrations.doctype.s3_backup_settings.s3_backup_settings.take_backups_daily for hr_management
2021-09-03 08:12:56,659 INFO scheduler Scheduled Job Start: frappe.utils.change_log.check_for_update for hr_management
2021-09-03 08:12:59,004 INFO scheduler Scheduled Job Complete: frappe.utils.change_log.check_for_update for hr_management
2021-09-03 08:12:59,176 INFO scheduler Scheduled Job Start: frappe.integrations.doctype.dropbox_settings.dropbox_settings.take_backups_daily for hr_management
2021-09-03 08:13:00,525 INFO scheduler Scheduled Job Complete: frappe.integrations.doctype.dropbox_settings.dropbox_settings.take_backups_daily for hr_management
2021-09-03 08:13:14,058 INFO scheduler Scheduled Job Start: frappe.core.doctype.log_settings.log_settings.run_log_clean_up for hr_management
2021-09-03 08:13:14,621 INFO scheduler Scheduled Job Complete: frappe.core.doctype.log_settings.log_settings.run_log_clean_up for hr_management
2021-09-03 08:13:14,729 INFO scheduler Scheduled Job Start: frappe.core.doctype.prepared_report.prepared_report.delete_expired_prepared_reports for hr_management
2021-09-03 08:13:15,440 INFO scheduler Scheduled Job Complete: frappe.core.doctype.prepared_report.prepared_report.delete_expired_prepared_reports for hr_management
2021-09-03 08:13:15,562 INFO scheduler Scheduled Job Start: frappe.email.doctype.unhandled_email.unhandled_email.remove_old_unhandled_emails for hr_management
2021-09-03 08:13:15,968 INFO scheduler Scheduled Job Complete: frappe.email.doctype.unhandled_email.unhandled_email.remove_old_unhandled_emails for hr_management
2021-09-03 08:13:16,094 INFO scheduler Scheduled Job Start: frappe.automation.doctype.auto_repeat.auto_repeat.set_auto_repeat_as_completed for hr_management
2021-09-03 08:13:16,787 INFO scheduler Scheduled Job Complete: frappe.automation.doctype.auto_repeat.auto_repeat.set_auto_repeat_as_completed for hr_management
2021-09-03 08:13:16,909 INFO scheduler Scheduled Job Start: frappe.automation.doctype.auto_repeat.auto_repeat.make_auto_repeat_entry for hr_management
2021-09-03 08:13:17,504 INFO scheduler Scheduled Job Complete: frappe.automation.doctype.auto_repeat.auto_repeat.make_auto_repeat_entry for hr_management
2021-09-03 08:13:17,596 INFO scheduler Scheduled Job Start: frappe.integrations.doctype.google_contacts.google_contacts.sync for hr_management
2021-09-03 08:13:18,296 INFO scheduler Scheduled Job Complete: frappe.integrations.doctype.google_contacts.google_contacts.sync for hr_management
2021-09-03 08:13:18,399 INFO scheduler Scheduled Job Start: frappe.social.doctype.energy_point_settings.energy_point_settings.allocate_review_points for hr_management
2021-09-03 08:13:18,793 INFO scheduler Scheduled Job Complete: frappe.social.doctype.energy_point_settings.energy_point_settings.allocate_review_points for hr_management
2021-09-03 08:13:18,904 INFO scheduler Scheduled Job Start: frappe.desk.form.document_follow.send_daily_updates for hr_management
2021-09-03 08:13:19,323 INFO scheduler Scheduled Job Complete: frappe.desk.form.document_follow.send_daily_updates for hr_management
2021-09-03 08:13:19,428 INFO scheduler Scheduled Job Start: frappe.website.doctype.personal_data_deletion_request.personal_data_deletion_request.remove_unverified_record for hr_management
2021-09-03 08:13:19,835 INFO scheduler Scheduled Job Complete: frappe.website.doctype.personal_data_deletion_request.personal_data_deletion_request.remove_unverified_record for hr_management
2021-09-03 08:13:19,944 INFO scheduler Scheduled Job Start: frappe.email.doctype.auto_email_report.auto_email_report.send_daily for hr_management
2021-09-03 08:13:20,676 INFO scheduler Scheduled Job Complete: frappe.email.doctype.auto_email_report.auto_email_report.send_daily for hr_management
2021-09-03 08:13:20,766 INFO scheduler Scheduled Job Start: frappe.utils.scheduler.restrict_scheduler_events_if_dormant for hr_management
2021-09-03 08:13:21,146 INFO scheduler Scheduled Job Failed: frappe.utils.scheduler.restrict_scheduler_events_if_dormant for hr_management
2021-09-03 08:13:21,240 INFO scheduler Scheduled Job Start: frappe.email.doctype.notification.notification.trigger_daily_alerts for hr_management
2021-09-03 08:13:21,642 INFO scheduler Scheduled Job Complete: frappe.email.doctype.notification.notification.trigger_daily_alerts for hr_management
2021-09-03 08:13:21,735 INFO scheduler Scheduled Job Start: frappe.sessions.clear_expired_sessions for hr_management
2021-09-03 08:13:22,283 INFO scheduler Scheduled Job Complete: frappe.sessions.clear_expired_sessions for hr_management
2021-09-03 08:13:22,377 INFO scheduler Scheduled Job Start: frappe.desk.doctype.event.event.send_event_digest for hr_management
2021-09-03 08:13:22,798 INFO scheduler Scheduled Job Complete: frappe.desk.doctype.event.event.send_event_digest for hr_management
2021-09-03 08:13:22,898 INFO scheduler Scheduled Job Start: frappe.core.doctype.error_log.error_log.set_old_logs_as_seen for hr_management
2021-09-03 08:13:23,321 INFO scheduler Scheduled Job Complete: frappe.core.doctype.error_log.error_log.set_old_logs_as_seen for hr_management
2021-09-03 08:13:23,417 INFO scheduler Scheduled Job Start: frappe.desk.notifications.clear_notifications for hr_management
2021-09-03 08:13:23,833 INFO scheduler Scheduled Job Complete: frappe.desk.notifications.clear_notifications for hr_management
2021-09-03 08:13:23,944 INFO scheduler Scheduled Job Start: frappe.email.queue.set_expiry_for_email_queue for hr_management
2021-09-03 08:13:24,388 INFO scheduler Scheduled Job Complete: frappe.email.queue.set_expiry_for_email_queue for hr_management
2021-09-03 08:13:24,477 INFO scheduler Scheduled Job Start: frappe.email.doctype.newsletter.newsletter.send_scheduled_email for hr_management
2021-09-03 08:13:24,962 INFO scheduler Scheduled Job Complete: frappe.email.doctype.newsletter.newsletter.send_scheduled_email for hr_management
2021-09-03 08:13:25,049 INFO scheduler Scheduled Job Start: frappe.integrations.doctype.google_calendar.google_calendar.sync for hr_management
2021-09-03 08:13:25,629 INFO scheduler Scheduled Job Complete: frappe.integrations.doctype.google_calendar.google_calendar.sync for hr_management
2021-09-03 08:13:25,733 INFO scheduler Scheduled Job Start: frappe.desk.form.document_follow.send_hourly_updates for hr_management
2021-09-03 08:13:26,140 INFO scheduler Scheduled Job Complete: frappe.desk.form.document_follow.send_hourly_updates for hr_management
2021-09-03 08:13:26,241 INFO scheduler Scheduled Job Start: frappe.deferred_insert.save_to_db for hr_management
2021-09-03 08:13:26,612 INFO scheduler Scheduled Job Complete: frappe.deferred_insert.save_to_db for hr_management
2021-09-03 08:13:26,722 INFO scheduler Scheduled Job Start: frappe.desk.page.backups.backups.delete_downloadable_backups for hr_management
2021-09-03 08:13:27,161 INFO scheduler Scheduled Job Complete: frappe.desk.page.backups.backups.delete_downloadable_backups for hr_management
2021-09-03 08:13:27,266 INFO scheduler Scheduled Job Start: frappe.utils.error.collect_error_snapshots for hr_management
2021-09-03 08:13:27,679 INFO scheduler Scheduled Job Complete: frappe.utils.error.collect_error_snapshots for hr_management
2021-09-03 08:13:27,783 INFO scheduler Scheduled Job Start: frappe.model.utils.user_settings.sync_user_settings for hr_management
2021-09-03 08:13:28,217 INFO scheduler Scheduled Job Complete: frappe.model.utils.user_settings.sync_user_settings for hr_management
2021-09-03 08:13:28,300 INFO scheduler Scheduled Job Start: frappe.model.utils.link_count.update_link_count for hr_management
2021-09-03 08:13:28,830 INFO scheduler Scheduled Job Complete: frappe.model.utils.link_count.update_link_count for hr_management
2021-09-03 08:13:28,929 INFO scheduler Scheduled Job Start: frappe.monitor.flush for hr_management
2021-09-03 08:13:29,270 INFO scheduler Scheduled Job Complete: frappe.monitor.flush for hr_management
2021-09-03 08:13:29,363 INFO scheduler Scheduled Job Start: frappe.utils.global_search.sync_global_search for hr_management
2021-09-03 08:13:29,651 INFO scheduler Scheduled Job Complete: frappe.utils.global_search.sync_global_search for hr_management
2021-09-03 08:13:29,732 INFO scheduler Scheduled Job Start: frappe.integrations.doctype.razorpay_settings.razorpay_settings.capture_payment for hr_management
2021-09-03 08:13:30,135 INFO scheduler Scheduled Job Complete: frappe.integrations.doctype.razorpay_settings.razorpay_settings.capture_payment for hr_management
2021-09-03 08:13:30,232 INFO scheduler Scheduled Job Start: frappe.email.doctype.email_account.email_account.notify_unreplied for hr_management
2021-09-03 08:13:30,544 INFO scheduler Scheduled Job Complete: frappe.email.doctype.email_account.email_account.notify_unreplied for hr_management
2021-09-03 08:13:30,648 INFO scheduler Scheduled Job Start: frappe.email.doctype.email_account.email_account.pull for hr_management
2021-09-03 08:13:31,022 INFO scheduler Scheduled Job Complete: frappe.email.doctype.email_account.email_account.pull for hr_management
2021-09-03 08:13:31,113 INFO scheduler Scheduled Job Start: frappe.email.queue.flush for hr_management
2021-09-03 08:13:31,422 INFO scheduler Scheduled Job Complete: frappe.email.queue.flush for hr_management
2021-09-03 08:13:31,520 INFO scheduler Scheduled Job Start: frappe.twofactor.delete_all_barcodes_for_users for hr_management
2021-09-03 08:13:32,013 INFO scheduler Scheduled Job Complete: frappe.twofactor.delete_all_barcodes_for_users for hr_management
2021-09-03 08:13:32,107 INFO scheduler Scheduled Job Start: frappe.website.doctype.web_page.web_page.check_publish_status for hr_management
2021-09-03 08:13:32,706 INFO scheduler Scheduled Job Complete: frappe.website.doctype.web_page.web_page.check_publish_status for hr_management
2021-09-03 08:13:32,791 INFO scheduler Scheduled Job Start: frappe.oauth.delete_oauth2_data for hr_management
2021-09-03 08:13:33,259 INFO scheduler Scheduled Job Complete: frappe.oauth.delete_oauth2_data for hr_management
2021-09-03 08:13:50,511 DEBUG scheduler Queued events for site hr_management
2021-09-03 08:14:50,899 DEBUG scheduler Queued events for site hr_management
2021-09-03 08:15:51,339 DEBUG scheduler Queued events for site hr_management
2021-09-03 08:15:52,813 INFO scheduler Scheduled Job Start: frappe.twofactor.delete_all_barcodes_for_users for hr_management
2021-09-03 08:15:53,233 INFO scheduler Scheduled Job Complete: frappe.twofactor.delete_all_barcodes_for_users for hr_management
2021-09-03 08:15:53,341 INFO scheduler Scheduled Job Start: frappe.website.doctype.web_page.web_page.check_publish_status for hr_management
2021-09-03 08:15:53,809 INFO scheduler Scheduled Job Complete: frappe.website.doctype.web_page.web_page.check_publish_status for hr_management
2021-09-03 08:15:53,904 INFO scheduler Scheduled Job Start: frappe.oauth.delete_oauth2_data for hr_management
2021-09-03 08:15:54,329 INFO scheduler Scheduled Job Complete: frappe.oauth.delete_oauth2_data for hr_management
2021-09-03 08:16:51,821 DEBUG scheduler Queued events for site hr_management
2021-09-03 08:16:54,132 INFO scheduler Scheduled Job Start: frappe.monitor.flush for hr_management
2021-09-03 08:16:54,384 INFO scheduler Scheduled Job Complete: frappe.monitor.flush for hr_management
2021-09-03 08:16:54,477 INFO scheduler Scheduled Job Start: frappe.utils.global_search.sync_global_search for hr_management
2021-09-03 08:16:54,755 INFO scheduler Scheduled Job Complete: frappe.utils.global_search.sync_global_search for hr_management
2021-09-03 08:16:54,874 INFO scheduler Scheduled Job Start: frappe.integrations.doctype.razorpay_settings.razorpay_settings.capture_payment for hr_management
2021-09-03 08:16:55,386 INFO scheduler Scheduled Job Complete: frappe.integrations.doctype.razorpay_settings.razorpay_settings.capture_payment for hr_management
2021-09-03 08:16:55,500 INFO scheduler Scheduled Job Start: frappe.email.doctype.email_account.email_account.notify_unreplied for hr_management
2021-09-03 08:16:55,847 INFO scheduler Scheduled Job Complete: frappe.email.doctype.email_account.email_account.notify_unreplied for hr_management
2021-09-03 08:16:55,971 INFO scheduler Scheduled Job Start: frappe.email.doctype.email_account.email_account.pull for hr_management
2021-09-03 08:16:56,410 INFO scheduler Scheduled Job Complete: frappe.email.doctype.email_account.email_account.pull for hr_management
2021-09-03 08:16:56,507 INFO scheduler Scheduled Job Start: frappe.email.queue.flush for hr_management
2021-09-03 08:16:56,796 INFO scheduler Scheduled Job Complete: frappe.email.queue.flush for hr_management
2021-09-03 08:17:52,251 DEBUG scheduler Queued events for site hr_management
2021-09-03 08:18:52,702 DEBUG scheduler Queued events for site hr_management
2021-09-03 08:19:53,081 DEBUG scheduler Queued events for site hr_management
2021-09-03 08:20:53,512 DEBUG scheduler Queued events for site hr_management
2021-09-03 08:20:55,854 INFO scheduler Scheduled Job Start: frappe.monitor.flush for hr_management
2021-09-03 08:20:56,115 INFO scheduler Scheduled Job Complete: frappe.monitor.flush for hr_management
2021-09-03 08:20:56,209 INFO scheduler Scheduled Job Start: frappe.utils.global_search.sync_global_search for hr_management
2021-09-03 08:20:56,470 INFO scheduler Scheduled Job Complete: frappe.utils.global_search.sync_global_search for hr_management
2021-09-03 08:20:56,564 INFO scheduler Scheduled Job Start: frappe.integrations.doctype.razorpay_settings.razorpay_settings.capture_payment for hr_management
2021-09-03 08:20:56,995 INFO scheduler Scheduled Job Complete: frappe.integrations.doctype.razorpay_settings.razorpay_settings.capture_payment for hr_management
2021-09-03 08:20:57,090 INFO scheduler Scheduled Job Start: frappe.email.doctype.email_account.email_account.notify_unreplied for hr_management
2021-09-03 08:20:57,420 INFO scheduler Scheduled Job Complete: frappe.email.doctype.email_account.email_account.notify_unreplied for hr_management
2021-09-03 08:20:57,515 INFO scheduler Scheduled Job Start: frappe.email.doctype.email_account.email_account.pull for hr_management
2021-09-03 08:20:57,861 INFO scheduler Scheduled Job Complete: frappe.email.doctype.email_account.email_account.pull for hr_management
2021-09-03 08:20:57,963 INFO scheduler Scheduled Job Start: frappe.email.queue.flush for hr_management
2021-09-03 08:20:58,247 INFO scheduler Scheduled Job Complete: frappe.email.queue.flush for hr_management
2021-09-03 08:21:53,967 DEBUG scheduler Queued events for site hr_management
2021-09-03 08:22:54,454 DEBUG scheduler Queued events for site hr_management
2021-09-03 08:23:54,812 DEBUG scheduler Queued events for site hr_management
2021-09-03 08:24:55,293 DEBUG scheduler Queued events for site hr_management
2021-09-03 08:24:57,754 INFO scheduler Scheduled Job Start: frappe.monitor.flush for hr_management
2021-09-03 08:24:58,038 INFO scheduler Scheduled Job Complete: frappe.monitor.flush for hr_management
2021-09-03 08:24:58,133 INFO scheduler Scheduled Job Start: frappe.utils.global_search.sync_global_search for hr_management
2021-09-03 08:24:58,424 INFO scheduler Scheduled Job Complete: frappe.utils.global_search.sync_global_search for hr_management
2021-09-03 08:24:58,507 INFO scheduler Scheduled Job Start: frappe.integrations.doctype.razorpay_settings.razorpay_settings.capture_payment for hr_management
2021-09-03 08:24:58,928 INFO scheduler Scheduled Job Complete: frappe.integrations.doctype.razorpay_settings.razorpay_settings.capture_payment for hr_management
2021-09-03 08:24:59,021 INFO scheduler Scheduled Job Start: frappe.email.doctype.email_account.email_account.notify_unreplied for hr_management
2021-09-03 08:24:59,381 INFO scheduler Scheduled Job Complete: frappe.email.doctype.email_account.email_account.notify_unreplied for hr_management
2021-09-03 08:24:59,504 INFO scheduler Scheduled Job Start: frappe.email.doctype.email_account.email_account.pull for hr_management
2021-09-03 08:25:00,030 INFO scheduler Scheduled Job Complete: frappe.email.doctype.email_account.email_account.pull for hr_management
2021-09-03 08:25:00,156 INFO scheduler Scheduled Job Start: frappe.email.queue.flush for hr_management
2021-09-03 08:25:00,465 INFO scheduler Scheduled Job Complete: frappe.email.queue.flush for hr_management
2021-09-03 08:25:55,768 DEBUG scheduler Queued events for site hr_management
2021-09-03 08:26:56,164 DEBUG scheduler Queued events for site hr_management
2021-09-03 08:27:56,587 DEBUG scheduler Queued events for site hr_management
2021-09-03 08:28:57,212 DEBUG scheduler Queued events for site hr_management
2021-09-03 08:29:00,109 INFO scheduler Scheduled Job Start: frappe.monitor.flush for hr_management
2021-09-03 08:29:00,384 INFO scheduler Scheduled Job Complete: frappe.monitor.flush for hr_management
2021-09-03 08:29:00,498 INFO scheduler Scheduled Job Start: frappe.utils.global_search.sync_global_search for hr_management
2021-09-03 08:29:00,811 INFO scheduler Scheduled Job Complete: frappe.utils.global_search.sync_global_search for hr_management
2021-09-03 08:29:00,927 INFO scheduler Scheduled Job Start: frappe.integrations.doctype.razorpay_settings.razorpay_settings.capture_payment for hr_management
2021-09-03 08:29:01,396 INFO scheduler Scheduled Job Complete: frappe.integrations.doctype.razorpay_settings.razorpay_settings.capture_payment for hr_management
2021-09-03 08:29:01,510 INFO scheduler Scheduled Job Start: frappe.email.doctype.email_account.email_account.notify_unreplied for hr_management
2021-09-03 08:29:01,912 INFO scheduler Scheduled Job Complete: frappe.email.doctype.email_account.email_account.notify_unreplied for hr_management
2021-09-03 08:29:02,000 INFO scheduler Scheduled Job Start: frappe.email.doctype.email_account.email_account.pull for hr_management
2021-09-03 08:29:02,441 INFO scheduler Scheduled Job Complete: frappe.email.doctype.email_account.email_account.pull for hr_management
2021-09-03 08:29:02,564 INFO scheduler Scheduled Job Start: frappe.email.queue.flush for hr_management
2021-09-03 08:29:02,896 INFO scheduler Scheduled Job Complete: frappe.email.queue.flush for hr_management
2021-09-03 08:29:57,631 DEBUG scheduler Queued events for site hr_management
2021-09-03 08:30:58,030 DEBUG scheduler Queued events for site hr_management
2021-09-03 08:30:59,535 INFO scheduler Scheduled Job Start: frappe.twofactor.delete_all_barcodes_for_users for hr_management
2021-09-03 08:30:59,943 INFO scheduler Scheduled Job Complete: frappe.twofactor.delete_all_barcodes_for_users for hr_management
2021-09-03 08:31:00,039 INFO scheduler Scheduled Job Start: frappe.website.doctype.web_page.web_page.check_publish_status for hr_management
2021-09-03 08:31:00,512 INFO scheduler Scheduled Job Complete: frappe.website.doctype.web_page.web_page.check_publish_status for hr_management
2021-09-03 08:31:00,615 INFO scheduler Scheduled Job Start: frappe.oauth.delete_oauth2_data for hr_management
2021-09-03 08:31:01,006 INFO scheduler Scheduled Job Complete: frappe.oauth.delete_oauth2_data for hr_management
2021-09-03 08:31:58,435 DEBUG scheduler Queued events for site hr_management
2021-09-03 08:32:58,924 DEBUG scheduler Queued events for site hr_management
2021-09-03 08:33:01,338 INFO scheduler Scheduled Job Start: frappe.monitor.flush for hr_management
2021-09-03 08:33:01,621 INFO scheduler Scheduled Job Complete: frappe.monitor.flush for hr_management
2021-09-03 08:33:01,716 INFO scheduler Scheduled Job Start: frappe.utils.global_search.sync_global_search for hr_management
2021-09-03 08:33:01,981 INFO scheduler Scheduled Job Complete: frappe.utils.global_search.sync_global_search for hr_management
2021-09-03 08:33:02,069 INFO scheduler Scheduled Job Start: frappe.integrations.doctype.razorpay_settings.razorpay_settings.capture_payment for hr_management
2021-09-03 08:33:02,445 INFO scheduler Scheduled Job Complete: frappe.integrations.doctype.razorpay_settings.razorpay_settings.capture_payment for hr_management
2021-09-03 08:33:02,547 INFO scheduler Scheduled Job Start: frappe.email.doctype.email_account.email_account.notify_unreplied for hr_management
2021-09-03 08:33:02,918 INFO scheduler Scheduled Job Complete: frappe.email.doctype.email_account.email_account.notify_unreplied for hr_management
2021-09-03 08:33:03,008 INFO scheduler Scheduled Job Start: frappe.email.doctype.email_account.email_account.pull for hr_management
2021-09-03 08:33:03,336 INFO scheduler Scheduled Job Complete: frappe.email.doctype.email_account.email_account.pull for hr_management
2021-09-03 08:33:03,448 INFO scheduler Scheduled Job Start: frappe.email.queue.flush for hr_management
2021-09-03 08:33:03,711 INFO scheduler Scheduled Job Complete: frappe.email.queue.flush for hr_management
2021-09-03 08:33:59,346 DEBUG scheduler Queued events for site hr_management
2021-09-03 08:34:59,837 DEBUG scheduler Queued events for site hr_management
2021-09-03 08:36:00,433 DEBUG scheduler Queued events for site hr_management
2021-09-03 08:36:03,625 INFO scheduler Scheduled Job Start: frappe.monitor.flush for hr_management
2021-09-03 08:36:03,988 INFO scheduler Scheduled Job Complete: frappe.monitor.flush for hr_management
2021-09-03 08:36:04,104 INFO scheduler Scheduled Job Start: frappe.utils.global_search.sync_global_search for hr_management
2021-09-03 08:36:04,464 INFO scheduler Scheduled Job Complete: frappe.utils.global_search.sync_global_search for hr_management
2021-09-03 08:36:04,580 INFO scheduler Scheduled Job Start: frappe.integrations.doctype.razorpay_settings.razorpay_settings.capture_payment for hr_management
2021-09-03 08:36:05,161 INFO scheduler Scheduled Job Complete: frappe.integrations.doctype.razorpay_settings.razorpay_settings.capture_payment for hr_management
2021-09-03 08:36:05,273 INFO scheduler Scheduled Job Start: frappe.email.doctype.email_account.email_account.notify_unreplied for hr_management
2021-09-03 08:36:05,739 INFO scheduler Scheduled Job Complete: frappe.email.doctype.email_account.email_account.notify_unreplied for hr_management
2021-09-03 08:36:05,859 INFO scheduler Scheduled Job Start: frappe.email.doctype.email_account.email_account.pull for hr_management
2021-09-03 08:36:06,341 INFO scheduler Scheduled Job Complete: frappe.email.doctype.email_account.email_account.pull for hr_management
2021-09-03 08:36:06,456 INFO scheduler Scheduled Job Start: frappe.email.queue.flush for hr_management
2021-09-03 08:36:06,839 INFO scheduler Scheduled Job Complete: frappe.email.queue.flush for hr_management
2021-09-03 08:37:00,968 DEBUG scheduler Queued events for site hr_management
2021-09-03 08:38:01,671 DEBUG scheduler Queued events for site hr_management
2021-09-03 08:39:02,162 DEBUG scheduler Queued events for site hr_management
2021-09-03 08:40:02,765 DEBUG scheduler Queued events for site hr_management
2021-09-03 08:40:06,439 INFO scheduler Scheduled Job Start: frappe.monitor.flush for hr_management
2021-09-03 08:40:06,821 INFO scheduler Scheduled Job Complete: frappe.monitor.flush for hr_management
2021-09-03 08:40:06,943 INFO scheduler Scheduled Job Start: frappe.utils.global_search.sync_global_search for hr_management
2021-09-03 08:40:07,311 INFO scheduler Scheduled Job Complete: frappe.utils.global_search.sync_global_search for hr_management
2021-09-03 08:40:07,426 INFO scheduler Scheduled Job Start: frappe.integrations.doctype.razorpay_settings.razorpay_settings.capture_payment for hr_management
2021-09-03 08:40:08,000 INFO scheduler Scheduled Job Complete: frappe.integrations.doctype.razorpay_settings.razorpay_settings.capture_payment for hr_management
2021-09-03 08:40:08,116 INFO scheduler Scheduled Job Start: frappe.email.doctype.email_account.email_account.notify_unreplied for hr_management
2021-09-03 08:40:08,584 INFO scheduler Scheduled Job Complete: frappe.email.doctype.email_account.email_account.notify_unreplied for hr_management
2021-09-03 08:40:08,700 INFO scheduler Scheduled Job Start: frappe.email.doctype.email_account.email_account.pull for hr_management
2021-09-03 08:40:09,185 INFO scheduler Scheduled Job Complete: frappe.email.doctype.email_account.email_account.pull for hr_management
2021-09-03 08:40:09,305 INFO scheduler Scheduled Job Start: frappe.email.queue.flush for hr_management
2021-09-03 08:40:09,689 INFO scheduler Scheduled Job Complete: frappe.email.queue.flush for hr_management
2021-09-03 08:41:03,269 DEBUG scheduler Queued events for site hr_management
2021-09-03 08:42:03,747 DEBUG scheduler Queued events for site hr_management
2021-09-03 08:43:04,238 DEBUG scheduler Queued events for site hr_management
2021-09-03 08:44:04,859 DEBUG scheduler Queued events for site hr_management
2021-09-03 08:44:08,005 INFO scheduler Scheduled Job Start: frappe.monitor.flush for hr_management
2021-09-03 08:44:08,368 INFO scheduler Scheduled Job Complete: frappe.monitor.flush for hr_management
2021-09-03 08:44:08,485 INFO scheduler Scheduled Job Start: frappe.utils.global_search.sync_global_search for hr_management
2021-09-03 08:44:08,852 INFO scheduler Scheduled Job Complete: frappe.utils.global_search.sync_global_search for hr_management
2021-09-03 08:44:08,970 INFO scheduler Scheduled Job Start: frappe.integrations.doctype.razorpay_settings.razorpay_settings.capture_payment for hr_management
2021-09-03 08:44:09,540 INFO scheduler Scheduled Job Complete: frappe.integrations.doctype.razorpay_settings.razorpay_settings.capture_payment for hr_management
2021-09-03 08:44:09,658 INFO scheduler Scheduled Job Start: frappe.email.doctype.email_account.email_account.notify_unreplied for hr_management
2021-09-03 08:44:10,122 INFO scheduler Scheduled Job Complete: frappe.email.doctype.email_account.email_account.notify_unreplied for hr_management
2021-09-03 08:44:10,237 INFO scheduler Scheduled Job Start: frappe.email.doctype.email_account.email_account.pull for hr_management
2021-09-03 08:44:10,706 INFO scheduler Scheduled Job Complete: frappe.email.doctype.email_account.email_account.pull for hr_management
2021-09-03 08:44:10,815 INFO scheduler Scheduled Job Start: frappe.email.queue.flush for hr_management
2021-09-03 08:44:11,219 INFO scheduler Scheduled Job Complete: frappe.email.queue.flush for hr_management
2021-09-03 08:45:05,436 DEBUG scheduler Queued events for site hr_management
2021-09-03 08:45:07,768 INFO scheduler Scheduled Job Start: frappe.twofactor.delete_all_barcodes_for_users for hr_management
2021-09-03 08:45:08,360 INFO scheduler Scheduled Job Complete: frappe.twofactor.delete_all_barcodes_for_users for hr_management
2021-09-03 08:45:08,494 INFO scheduler Scheduled Job Start: frappe.website.doctype.web_page.web_page.check_publish_status for hr_management
2021-09-03 08:45:09,154 INFO scheduler Scheduled Job Complete: frappe.website.doctype.web_page.web_page.check_publish_status for hr_management
2021-09-03 08:45:09,277 INFO scheduler Scheduled Job Start: frappe.oauth.delete_oauth2_data for hr_management
2021-09-03 08:45:09,864 INFO scheduler Scheduled Job Complete: frappe.oauth.delete_oauth2_data for hr_management
2021-09-03 08:46:05,909 DEBUG scheduler Queued events for site hr_management
2021-09-03 08:47:06,278 DEBUG scheduler Queued events for site hr_management
2021-09-03 08:48:06,746 DEBUG scheduler Queued events for site hr_management
2021-09-03 08:48:09,124 INFO scheduler Scheduled Job Start: frappe.monitor.flush for hr_management
2021-09-03 08:48:09,363 INFO scheduler Scheduled Job Complete: frappe.monitor.flush for hr_management
2021-09-03 08:48:09,473 INFO scheduler Scheduled Job Start: frappe.utils.global_search.sync_global_search for hr_management
2021-09-03 08:48:09,724 INFO scheduler Scheduled Job Complete: frappe.utils.global_search.sync_global_search for hr_management
2021-09-03 08:48:09,810 INFO scheduler Scheduled Job Start: frappe.integrations.doctype.razorpay_settings.razorpay_settings.capture_payment for hr_management
2021-09-03 08:48:10,235 INFO scheduler Scheduled Job Complete: frappe.integrations.doctype.razorpay_settings.razorpay_settings.capture_payment for hr_management
2021-09-03 08:48:10,336 INFO scheduler Scheduled Job Start: frappe.email.doctype.email_account.email_account.notify_unreplied for hr_management
2021-09-03 08:48:10,689 INFO scheduler Scheduled Job Complete: frappe.email.doctype.email_account.email_account.notify_unreplied for hr_management
2021-09-03 08:48:10,791 INFO scheduler Scheduled Job Start: frappe.email.doctype.email_account.email_account.pull for hr_management
2021-09-03 08:48:11,170 INFO scheduler Scheduled Job Complete: frappe.email.doctype.email_account.email_account.pull for hr_management
2021-09-03 08:48:11,275 INFO scheduler Scheduled Job Start: frappe.email.queue.flush for hr_management
2021-09-03 08:48:11,577 INFO scheduler Scheduled Job Complete: frappe.email.queue.flush for hr_management
2021-09-03 08:49:07,161 DEBUG scheduler Queued events for site hr_management
2021-09-03 08:50:07,810 DEBUG scheduler Queued events for site hr_management
2021-09-03 08:51:08,179 DEBUG scheduler Queued events for site hr_management
2021-09-03 08:52:08,644 DEBUG scheduler Queued events for site hr_management
2021-09-03 08:52:11,347 INFO scheduler Scheduled Job Start: frappe.monitor.flush for hr_management
2021-09-03 08:52:11,677 INFO scheduler Scheduled Job Complete: frappe.monitor.flush for hr_management
2021-09-03 08:52:11,800 INFO scheduler Scheduled Job Start: frappe.utils.global_search.sync_global_search for hr_management
2021-09-03 08:52:12,182 INFO scheduler Scheduled Job Complete: frappe.utils.global_search.sync_global_search for hr_management
2021-09-03 08:52:12,303 INFO scheduler Scheduled Job Start: frappe.integrations.doctype.razorpay_settings.razorpay_settings.capture_payment for hr_management
2021-09-03 08:52:12,719 INFO scheduler Scheduled Job Complete: frappe.integrations.doctype.razorpay_settings.razorpay_settings.capture_payment for hr_management
2021-09-03 08:52:12,818 INFO scheduler Scheduled Job Start: frappe.email.doctype.email_account.email_account.notify_unreplied for hr_management
2021-09-03 08:52:13,157 INFO scheduler Scheduled Job Complete: frappe.email.doctype.email_account.email_account.notify_unreplied for hr_management
2021-09-03 08:52:13,262 INFO scheduler Scheduled Job Start: frappe.email.doctype.email_account.email_account.pull for hr_management
2021-09-03 08:52:13,621 INFO scheduler Scheduled Job Complete: frappe.email.doctype.email_account.email_account.pull for hr_management
2021-09-03 08:52:13,712 INFO scheduler Scheduled Job Start: frappe.email.queue.flush for hr_management
2021-09-03 08:52:14,036 INFO scheduler Scheduled Job Complete: frappe.email.queue.flush for hr_management
2021-09-03 08:53:09,094 DEBUG scheduler Queued events for site hr_management
2021-09-03 08:54:09,468 DEBUG scheduler Queued events for site hr_management
2021-09-03 08:55:09,899 DEBUG scheduler Queued events for site hr_management
2021-09-03 08:56:10,343 DEBUG scheduler Queued events for site hr_management
2021-09-03 08:56:12,984 INFO scheduler Scheduled Job Start: frappe.monitor.flush for hr_management
2021-09-03 08:56:13,268 INFO scheduler Scheduled Job Complete: frappe.monitor.flush for hr_management
2021-09-03 08:56:13,381 INFO scheduler Scheduled Job Start: frappe.utils.global_search.sync_global_search for hr_management
2021-09-03 08:56:13,668 INFO scheduler Scheduled Job Complete: frappe.utils.global_search.sync_global_search for hr_management
2021-09-03 08:56:13,777 INFO scheduler Scheduled Job Start: frappe.integrations.doctype.razorpay_settings.razorpay_settings.capture_payment for hr_management
2021-09-03 08:56:14,230 INFO scheduler Scheduled Job Complete: frappe.integrations.doctype.razorpay_settings.razorpay_settings.capture_payment for hr_management
2021-09-03 08:56:14,341 INFO scheduler Scheduled Job Start: frappe.email.doctype.email_account.email_account.notify_unreplied for hr_management
2021-09-03 08:56:14,713 INFO scheduler Scheduled Job Complete: frappe.email.doctype.email_account.email_account.notify_unreplied for hr_management
2021-09-03 08:56:14,819 INFO scheduler Scheduled Job Start: frappe.email.doctype.email_account.email_account.pull for hr_management
2021-09-03 08:56:15,179 INFO scheduler Scheduled Job Complete: frappe.email.doctype.email_account.email_account.pull for hr_management
2021-09-03 08:56:15,273 INFO scheduler Scheduled Job Start: frappe.email.queue.flush for hr_management
2021-09-03 08:56:15,593 INFO scheduler Scheduled Job Complete: frappe.email.queue.flush for hr_management
2021-09-03 08:57:10,770 DEBUG scheduler Queued events for site hr_management
2021-09-03 08:58:11,153 DEBUG scheduler Queued events for site hr_management
2021-09-03 08:59:11,507 DEBUG scheduler Queued events for site hr_management
2021-09-03 09:00:12,127 DEBUG scheduler Queued events for site hr_management
2021-09-03 09:00:20,177 INFO scheduler Scheduled Job Start: frappe.email.doctype.newsletter.newsletter.send_scheduled_email for hr_management
2021-09-03 09:00:20,604 INFO scheduler Scheduled Job Complete: frappe.email.doctype.newsletter.newsletter.send_scheduled_email for hr_management
2021-09-03 09:00:20,699 INFO scheduler Scheduled Job Start: frappe.integrations.doctype.google_calendar.google_calendar.sync for hr_management
2021-09-03 09:00:21,235 INFO scheduler Scheduled Job Complete: frappe.integrations.doctype.google_calendar.google_calendar.sync for hr_management
2021-09-03 09:00:21,343 INFO scheduler Scheduled Job Start: frappe.desk.form.document_follow.send_hourly_updates for hr_management
2021-09-03 09:00:21,701 INFO scheduler Scheduled Job Complete: frappe.desk.form.document_follow.send_hourly_updates for hr_management
2021-09-03 09:00:21,797 INFO scheduler Scheduled Job Start: frappe.deferred_insert.save_to_db for hr_management
2021-09-03 09:00:22,180 INFO scheduler Scheduled Job Complete: frappe.deferred_insert.save_to_db for hr_management
2021-09-03 09:00:22,288 INFO scheduler Scheduled Job Start: frappe.desk.page.backups.backups.delete_downloadable_backups for hr_management
2021-09-03 09:00:22,707 INFO scheduler Scheduled Job Complete: frappe.desk.page.backups.backups.delete_downloadable_backups for hr_management
2021-09-03 09:00:22,819 INFO scheduler Scheduled Job Start: frappe.utils.error.collect_error_snapshots for hr_management
2021-09-03 09:00:23,196 INFO scheduler Scheduled Job Complete: frappe.utils.error.collect_error_snapshots for hr_management
2021-09-03 09:00:23,293 INFO scheduler Scheduled Job Start: frappe.model.utils.user_settings.sync_user_settings for hr_management
2021-09-03 09:00:23,700 INFO scheduler Scheduled Job Complete: frappe.model.utils.user_settings.sync_user_settings for hr_management
2021-09-03 09:00:23,803 INFO scheduler Scheduled Job Start: frappe.model.utils.link_count.update_link_count for hr_management
2021-09-03 09:00:24,166 INFO scheduler Scheduled Job Complete: frappe.model.utils.link_count.update_link_count for hr_management
2021-09-03 09:00:24,272 INFO scheduler Scheduled Job Start: frappe.monitor.flush for hr_management
2021-09-03 09:00:24,520 INFO scheduler Scheduled Job Complete: frappe.monitor.flush for hr_management
2021-09-03 09:00:24,617 INFO scheduler Scheduled Job Start: frappe.utils.global_search.sync_global_search for hr_management
2021-09-03 09:00:24,878 INFO scheduler Scheduled Job Complete: frappe.utils.global_search.sync_global_search for hr_management
2021-09-03 09:00:24,970 INFO scheduler Scheduled Job Start: frappe.integrations.doctype.razorpay_settings.razorpay_settings.capture_payment for hr_management
2021-09-03 09:00:25,371 INFO scheduler Scheduled Job Complete: frappe.integrations.doctype.razorpay_settings.razorpay_settings.capture_payment for hr_management
2021-09-03 09:00:25,473 INFO scheduler Scheduled Job Start: frappe.email.doctype.email_account.email_account.notify_unreplied for hr_management
2021-09-03 09:00:25,808 INFO scheduler Scheduled Job Complete: frappe.email.doctype.email_account.email_account.notify_unreplied for hr_management
2021-09-03 09:00:25,901 INFO scheduler Scheduled Job Start: frappe.email.doctype.email_account.email_account.pull for hr_management
2021-09-03 09:00:26,235 INFO scheduler Scheduled Job Complete: frappe.email.doctype.email_account.email_account.pull for hr_management
2021-09-03 09:00:26,339 INFO scheduler Scheduled Job Start: frappe.email.queue.flush for hr_management
2021-09-03 09:00:26,593 INFO scheduler Scheduled Job Complete: frappe.email.queue.flush for hr_management
2021-09-03 09:00:26,684 INFO scheduler Scheduled Job Start: frappe.twofactor.delete_all_barcodes_for_users for hr_management
2021-09-03 09:00:27,079 INFO scheduler Scheduled Job Complete: frappe.twofactor.delete_all_barcodes_for_users for hr_management
2021-09-03 09:00:27,176 INFO scheduler Scheduled Job Start: frappe.website.doctype.web_page.web_page.check_publish_status for hr_management
2021-09-03 09:00:27,596 INFO scheduler Scheduled Job Complete: frappe.website.doctype.web_page.web_page.check_publish_status for hr_management
2021-09-03 09:00:27,690 INFO scheduler Scheduled Job Start: frappe.oauth.delete_oauth2_data for hr_management
2021-09-03 09:00:28,070 INFO scheduler Scheduled Job Complete: frappe.oauth.delete_oauth2_data for hr_management
2021-09-03 09:01:12,535 DEBUG scheduler Queued events for site hr_management
2021-09-03 09:02:12,935 DEBUG scheduler Queued events for site hr_management
2021-09-03 09:03:13,295 DEBUG scheduler Queued events for site hr_management
2021-09-03 09:04:13,763 DEBUG scheduler Queued events for site hr_management
2021-09-03 09:04:16,534 INFO scheduler Scheduled Job Start: frappe.monitor.flush for hr_management
2021-09-03 09:04:16,793 INFO scheduler Scheduled Job Complete: frappe.monitor.flush for hr_management
2021-09-03 09:04:16,885 INFO scheduler Scheduled Job Start: frappe.utils.global_search.sync_global_search for hr_management
2021-09-03 09:04:17,137 INFO scheduler Scheduled Job Complete: frappe.utils.global_search.sync_global_search for hr_management
2021-09-03 09:04:17,223 INFO scheduler Scheduled Job Start: frappe.integrations.doctype.razorpay_settings.razorpay_settings.capture_payment for hr_management
2021-09-03 09:04:17,591 INFO scheduler Scheduled Job Complete: frappe.integrations.doctype.razorpay_settings.razorpay_settings.capture_payment for hr_management
2021-09-03 09:04:17,679 INFO scheduler Scheduled Job Start: frappe.email.doctype.email_account.email_account.notify_unreplied for hr_management
2021-09-03 09:04:17,998 INFO scheduler Scheduled Job Complete: frappe.email.doctype.email_account.email_account.notify_unreplied for hr_management
2021-09-03 09:04:18,094 INFO scheduler Scheduled Job Start: frappe.email.doctype.email_account.email_account.pull for hr_management
2021-09-03 09:04:18,451 INFO scheduler Scheduled Job Complete: frappe.email.doctype.email_account.email_account.pull for hr_management
2021-09-03 09:04:18,556 INFO scheduler Scheduled Job Start: frappe.email.queue.flush for hr_management
2021-09-03 09:04:18,832 INFO scheduler Scheduled Job Complete: frappe.email.queue.flush for hr_management
2021-09-03 09:09:25,249 DEBUG scheduler Queued events for site hr_management
2021-09-03 09:09:28,197 INFO scheduler Scheduled Job Start: frappe.monitor.flush for hr_management
2021-09-03 09:09:28,583 INFO scheduler Scheduled Job Complete: frappe.monitor.flush for hr_management
2021-09-03 09:09:28,666 INFO scheduler Scheduled Job Start: frappe.utils.global_search.sync_global_search for hr_management
2021-09-03 09:09:28,921 INFO scheduler Scheduled Job Complete: frappe.utils.global_search.sync_global_search for hr_management
2021-09-03 09:09:29,008 INFO scheduler Scheduled Job Start: frappe.integrations.doctype.razorpay_settings.razorpay_settings.capture_payment for hr_management
2021-09-03 09:09:29,493 INFO scheduler Scheduled Job Complete: frappe.integrations.doctype.razorpay_settings.razorpay_settings.capture_payment for hr_management
2021-09-03 09:09:29,594 INFO scheduler Scheduled Job Start: frappe.email.doctype.email_account.email_account.notify_unreplied for hr_management
2021-09-03 09:09:30,021 INFO scheduler Scheduled Job Complete: frappe.email.doctype.email_account.email_account.notify_unreplied for hr_management
2021-09-03 09:09:30,121 INFO scheduler Scheduled Job Start: frappe.email.doctype.email_account.email_account.pull for hr_management
2021-09-03 09:09:30,485 INFO scheduler Scheduled Job Complete: frappe.email.doctype.email_account.email_account.pull for hr_management
2021-09-03 09:09:30,588 INFO scheduler Scheduled Job Start: frappe.email.queue.flush for hr_management
2021-09-03 09:09:30,844 INFO scheduler Scheduled Job Complete: frappe.email.queue.flush for hr_management
2021-09-03 09:10:25,662 DEBUG scheduler Queued events for site hr_management
2021-09-03 09:11:25,993 DEBUG scheduler Queued events for site hr_management
2021-09-03 09:12:26,375 DEBUG scheduler Queued events for site hr_management
2021-09-03 09:12:28,803 INFO scheduler Scheduled Job Start: frappe.monitor.flush for hr_management
2021-09-03 09:12:29,098 INFO scheduler Scheduled Job Complete: frappe.monitor.flush for hr_management
2021-09-03 09:12:29,188 INFO scheduler Scheduled Job Start: frappe.utils.global_search.sync_global_search for hr_management
2021-09-03 09:12:29,436 INFO scheduler Scheduled Job Complete: frappe.utils.global_search.sync_global_search for hr_management
2021-09-03 09:12:29,545 INFO scheduler Scheduled Job Start: frappe.integrations.doctype.razorpay_settings.razorpay_settings.capture_payment for hr_management
2021-09-03 09:12:29,925 INFO scheduler Scheduled Job Complete: frappe.integrations.doctype.razorpay_settings.razorpay_settings.capture_payment for hr_management
2021-09-03 09:12:30,021 INFO scheduler Scheduled Job Start: frappe.email.doctype.email_account.email_account.notify_unreplied for hr_management
2021-09-03 09:12:30,371 INFO scheduler Scheduled Job Complete: frappe.email.doctype.email_account.email_account.notify_unreplied for hr_management
2021-09-03 09:12:30,451 INFO scheduler Scheduled Job Start: frappe.email.doctype.email_account.email_account.pull for hr_management
2021-09-03 09:12:30,770 INFO scheduler Scheduled Job Complete: frappe.email.doctype.email_account.email_account.pull for hr_management
2021-09-03 09:12:30,858 INFO scheduler Scheduled Job Start: frappe.email.queue.flush for hr_management
2021-09-03 09:12:31,136 INFO scheduler Scheduled Job Complete: frappe.email.queue.flush for hr_management
2021-09-03 09:13:26,778 DEBUG scheduler Queued events for site hr_management
2021-09-03 09:14:27,126 DEBUG scheduler Queued events for site hr_management
2021-09-03 09:15:50,450 DEBUG scheduler Queued events for site hr_management
2021-09-03 09:15:52,106 INFO scheduler Scheduled Job Start: frappe.twofactor.delete_all_barcodes_for_users for hr_management
2021-09-03 09:15:52,914 INFO scheduler Scheduled Job Complete: frappe.twofactor.delete_all_barcodes_for_users for hr_management
2021-09-03 09:15:53,022 INFO scheduler Scheduled Job Start: frappe.website.doctype.web_page.web_page.check_publish_status for hr_management
2021-09-03 09:15:53,568 INFO scheduler Scheduled Job Complete: frappe.website.doctype.web_page.web_page.check_publish_status for hr_management
2021-09-03 09:15:53,666 INFO scheduler Scheduled Job Start: frappe.oauth.delete_oauth2_data for hr_management
2021-09-03 09:15:54,154 INFO scheduler Scheduled Job Complete: frappe.oauth.delete_oauth2_data for hr_management
2021-09-03 09:16:50,879 DEBUG scheduler Queued events for site hr_management
2021-09-03 09:16:53,326 INFO scheduler Scheduled Job Start: frappe.monitor.flush for hr_management
2021-09-03 09:16:53,563 INFO scheduler Scheduled Job Complete: frappe.monitor.flush for hr_management
2021-09-03 09:16:53,657 INFO scheduler Scheduled Job Start: frappe.utils.global_search.sync_global_search for hr_management
2021-09-03 09:16:53,898 INFO scheduler Scheduled Job Complete: frappe.utils.global_search.sync_global_search for hr_management
2021-09-03 09:16:53,973 INFO scheduler Scheduled Job Start: frappe.integrations.doctype.razorpay_settings.razorpay_settings.capture_payment for hr_management
2021-09-03 09:16:54,441 INFO scheduler Scheduled Job Complete: frappe.integrations.doctype.razorpay_settings.razorpay_settings.capture_payment for hr_management
2021-09-03 09:16:54,536 INFO scheduler Scheduled Job Start: frappe.email.doctype.email_account.email_account.notify_unreplied for hr_management
2021-09-03 09:16:54,913 INFO scheduler Scheduled Job Complete: frappe.email.doctype.email_account.email_account.notify_unreplied for hr_management
2021-09-03 09:16:55,018 INFO scheduler Scheduled Job Start: frappe.email.doctype.email_account.email_account.pull for hr_management
2021-09-03 09:16:55,412 INFO scheduler Scheduled Job Complete: frappe.email.doctype.email_account.email_account.pull for hr_management
2021-09-03 09:16:55,501 INFO scheduler Scheduled Job Start: frappe.email.queue.flush for hr_management
2021-09-03 09:16:55,750 INFO scheduler Scheduled Job Complete: frappe.email.queue.flush for hr_management
2021-09-03 09:17:51,267 DEBUG scheduler Queued events for site hr_management
2021-09-03 09:18:51,599 DEBUG scheduler Queued events for site hr_management
2021-09-03 09:19:52,021 DEBUG scheduler Queued events for site hr_management
2021-09-03 09:20:52,468 DEBUG scheduler Queued events for site hr_management
2021-09-03 09:20:55,045 INFO scheduler Scheduled Job Start: frappe.monitor.flush for hr_management
2021-09-03 09:20:55,284 INFO scheduler Scheduled Job Complete: frappe.monitor.flush for hr_management
2021-09-03 09:20:55,370 INFO scheduler Scheduled Job Start: frappe.utils.global_search.sync_global_search for hr_management
2021-09-03 09:20:55,609 INFO scheduler Scheduled Job Complete: frappe.utils.global_search.sync_global_search for hr_management
2021-09-03 09:20:55,703 INFO scheduler Scheduled Job Start: frappe.integrations.doctype.razorpay_settings.razorpay_settings.capture_payment for hr_management
2021-09-03 09:20:56,079 INFO scheduler Scheduled Job Complete: frappe.integrations.doctype.razorpay_settings.razorpay_settings.capture_payment for hr_management
2021-09-03 09:20:56,166 INFO scheduler Scheduled Job Start: frappe.email.doctype.email_account.email_account.notify_unreplied for hr_management
2021-09-03 09:20:56,493 INFO scheduler Scheduled Job Complete: frappe.email.doctype.email_account.email_account.notify_unreplied for hr_management
2021-09-03 09:20:56,585 INFO scheduler Scheduled Job Start: frappe.email.doctype.email_account.email_account.pull for hr_management
2021-09-03 09:20:56,907 INFO scheduler Scheduled Job Complete: frappe.email.doctype.email_account.email_account.pull for hr_management
2021-09-03 09:20:56,989 INFO scheduler Scheduled Job Start: frappe.email.queue.flush for hr_management
2021-09-03 09:20:57,262 INFO scheduler Scheduled Job Complete: frappe.email.queue.flush for hr_management
2021-09-03 09:21:52,860 DEBUG scheduler Queued events for site hr_management
2021-09-03 09:22:53,211 DEBUG scheduler Queued events for site hr_management
2021-09-03 09:23:53,571 DEBUG scheduler Queued events for site hr_management
2021-09-03 09:24:53,966 DEBUG scheduler Queued events for site hr_management
2021-09-03 09:24:56,361 INFO scheduler Scheduled Job Start: frappe.monitor.flush for hr_management
2021-09-03 09:24:56,649 INFO scheduler Scheduled Job Complete: frappe.monitor.flush for hr_management
2021-09-03 09:24:56,748 INFO scheduler Scheduled Job Start: frappe.utils.global_search.sync_global_search for hr_management
2021-09-03 09:24:57,045 INFO scheduler Scheduled Job Complete: frappe.utils.global_search.sync_global_search for hr_management
2021-09-03 09:24:57,135 INFO scheduler Scheduled Job Start: frappe.integrations.doctype.razorpay_settings.razorpay_settings.capture_payment for hr_management
2021-09-03 09:24:57,584 INFO scheduler Scheduled Job Complete: frappe.integrations.doctype.razorpay_settings.razorpay_settings.capture_payment for hr_management
2021-09-03 09:24:57,677 INFO scheduler Scheduled Job Start: frappe.email.doctype.email_account.email_account.notify_unreplied for hr_management
2021-09-03 09:24:58,027 INFO scheduler Scheduled Job Complete: frappe.email.doctype.email_account.email_account.notify_unreplied for hr_management
2021-09-03 09:24:58,125 INFO scheduler Scheduled Job Start: frappe.email.doctype.email_account.email_account.pull for hr_management
2021-09-03 09:24:58,490 INFO scheduler Scheduled Job Complete: frappe.email.doctype.email_account.email_account.pull for hr_management
2021-09-03 09:24:58,577 INFO scheduler Scheduled Job Start: frappe.email.queue.flush for hr_management
2021-09-03 09:24:58,909 INFO scheduler Scheduled Job Complete: frappe.email.queue.flush for hr_management
2021-09-03 09:25:54,367 DEBUG scheduler Queued events for site hr_management
2021-09-03 09:26:54,711 DEBUG scheduler Queued events for site hr_management
2021-09-03 09:27:55,046 DEBUG scheduler Queued events for site hr_management
2021-09-03 09:28:55,486 DEBUG scheduler Queued events for site hr_management
2021-09-03 09:28:57,726 INFO scheduler Scheduled Job Start: frappe.monitor.flush for hr_management
2021-09-03 09:28:57,967 INFO scheduler Scheduled Job Complete: frappe.monitor.flush for hr_management
2021-09-03 09:28:58,067 INFO scheduler Scheduled Job Start: frappe.utils.global_search.sync_global_search for hr_management
2021-09-03 09:28:58,338 INFO scheduler Scheduled Job Complete: frappe.utils.global_search.sync_global_search for hr_management
2021-09-03 09:28:58,444 INFO scheduler Scheduled Job Start: frappe.integrations.doctype.razorpay_settings.razorpay_settings.capture_payment for hr_management
2021-09-03 09:28:58,810 INFO scheduler Scheduled Job Complete: frappe.integrations.doctype.razorpay_settings.razorpay_settings.capture_payment for hr_management
2021-09-03 09:28:58,894 INFO scheduler Scheduled Job Start: frappe.email.doctype.email_account.email_account.notify_unreplied for hr_management
2021-09-03 09:28:59,191 INFO scheduler Scheduled Job Complete: frappe.email.doctype.email_account.email_account.notify_unreplied for hr_management
2021-09-03 09:28:59,278 INFO scheduler Scheduled Job Start: frappe.email.doctype.email_account.email_account.pull for hr_management
2021-09-03 09:28:59,604 INFO scheduler Scheduled Job Complete: frappe.email.doctype.email_account.email_account.pull for hr_management
2021-09-03 09:28:59,716 INFO scheduler Scheduled Job Start: frappe.email.queue.flush for hr_management
2021-09-03 09:28:59,982 INFO scheduler Scheduled Job Complete: frappe.email.queue.flush for hr_management
2021-09-03 09:29:55,866 DEBUG scheduler Queued events for site hr_management
2021-09-03 09:30:56,239 DEBUG scheduler Queued events for site hr_management
2021-09-03 09:30:57,849 INFO scheduler Scheduled Job Start: frappe.twofactor.delete_all_barcodes_for_users for hr_management
2021-09-03 09:30:58,253 INFO scheduler Scheduled Job Complete: frappe.twofactor.delete_all_barcodes_for_users for hr_management
2021-09-03 09:30:58,341 INFO scheduler Scheduled Job Start: frappe.website.doctype.web_page.web_page.check_publish_status for hr_management
2021-09-03 09:30:58,761 INFO scheduler Scheduled Job Complete: frappe.website.doctype.web_page.web_page.check_publish_status for hr_management
2021-09-03 09:30:58,866 INFO scheduler Scheduled Job Start: frappe.oauth.delete_oauth2_data for hr_management
2021-09-03 09:30:59,261 INFO scheduler Scheduled Job Complete: frappe.oauth.delete_oauth2_data for hr_management
2021-09-03 09:31:56,644 DEBUG scheduler Queued events for site hr_management
2021-09-03 09:32:57,059 DEBUG scheduler Queued events for site hr_management
2021-09-03 09:32:59,537 INFO scheduler Scheduled Job Start: frappe.monitor.flush for hr_management
2021-09-03 09:32:59,801 INFO scheduler Scheduled Job Complete: frappe.monitor.flush for hr_management
2021-09-03 09:32:59,905 INFO scheduler Scheduled Job Start: frappe.utils.global_search.sync_global_search for hr_management
2021-09-03 09:33:00,171 INFO scheduler Scheduled Job Complete: frappe.utils.global_search.sync_global_search for hr_management
2021-09-03 09:33:00,267 INFO scheduler Scheduled Job Start: frappe.integrations.doctype.razorpay_settings.razorpay_settings.capture_payment for hr_management
2021-09-03 09:33:00,654 INFO scheduler Scheduled Job Complete: frappe.integrations.doctype.razorpay_settings.razorpay_settings.capture_payment for hr_management
2021-09-03 09:33:00,757 INFO scheduler Scheduled Job Start: frappe.email.doctype.email_account.email_account.notify_unreplied for hr_management
2021-09-03 09:33:01,101 INFO scheduler Scheduled Job Complete: frappe.email.doctype.email_account.email_account.notify_unreplied for hr_management
2021-09-03 09:33:01,196 INFO scheduler Scheduled Job Start: frappe.email.doctype.email_account.email_account.pull for hr_management
2021-09-03 09:33:01,521 INFO scheduler Scheduled Job Complete: frappe.email.doctype.email_account.email_account.pull for hr_management
2021-09-03 09:33:01,627 INFO scheduler Scheduled Job Start: frappe.email.queue.flush for hr_management
2021-09-03 09:33:01,894 INFO scheduler Scheduled Job Complete: frappe.email.queue.flush for hr_management
2021-09-03 09:33:57,585 DEBUG scheduler Queued events for site hr_management
2021-09-03 09:34:57,933 DEBUG scheduler Queued events for site hr_management
2021-09-03 09:35:58,291 DEBUG scheduler Queued events for site hr_management
2021-09-03 09:36:58,717 DEBUG scheduler Queued events for site hr_management
2021-09-03 09:37:01,509 INFO scheduler Scheduled Job Start: frappe.monitor.flush for hr_management
2021-09-03 09:37:01,794 INFO scheduler Scheduled Job Complete: frappe.monitor.flush for hr_management
2021-09-03 09:37:01,904 INFO scheduler Scheduled Job Start: frappe.utils.global_search.sync_global_search for hr_management
2021-09-03 09:37:02,190 INFO scheduler Scheduled Job Complete: frappe.utils.global_search.sync_global_search for hr_management
2021-09-03 09:37:02,290 INFO scheduler Scheduled Job Start: frappe.integrations.doctype.razorpay_settings.razorpay_settings.capture_payment for hr_management
2021-09-03 09:37:02,800 INFO scheduler Scheduled Job Complete: frappe.integrations.doctype.razorpay_settings.razorpay_settings.capture_payment for hr_management
2021-09-03 09:37:02,894 INFO scheduler Scheduled Job Start: frappe.email.doctype.email_account.email_account.notify_unreplied for hr_management
2021-09-03 09:37:59,127 DEBUG scheduler Queued events for site hr_management
