2021-09-02 18:57:11,759 DEBUG scheduler Queued events for site hr_management
2021-09-02 18:58:12,140 DEBUG scheduler Queued events for site hr_management
2021-09-02 18:59:12,489 DEBUG scheduler Queued events for site hr_management
2021-09-02 19:00:13,186 DEBUG scheduler Queued events for site hr_management
2021-09-02 19:00:20,844 INFO scheduler Scheduled Job Start: frappe.email.doctype.newsletter.newsletter.send_scheduled_email for hr_management
2021-09-02 19:00:21,276 INFO scheduler Scheduled Job Complete: frappe.email.doctype.newsletter.newsletter.send_scheduled_email for hr_management
2021-09-02 19:00:21,375 INFO scheduler Scheduled Job Start: frappe.integrations.doctype.google_calendar.google_calendar.sync for hr_management
2021-09-02 19:00:21,903 INFO scheduler Scheduled Job Complete: frappe.integrations.doctype.google_calendar.google_calendar.sync for hr_management
2021-09-02 19:00:21,998 INFO scheduler Scheduled Job Start: frappe.desk.form.document_follow.send_hourly_updates for hr_management
2021-09-02 19:00:22,366 INFO scheduler Scheduled Job Complete: frappe.desk.form.document_follow.send_hourly_updates for hr_management
2021-09-02 19:00:22,479 INFO scheduler Scheduled Job Start: frappe.deferred_insert.save_to_db for hr_management
2021-09-02 19:00:22,846 INFO scheduler Scheduled Job Complete: frappe.deferred_insert.save_to_db for hr_management
2021-09-02 19:00:22,948 INFO scheduler Scheduled Job Start: frappe.desk.page.backups.backups.delete_downloadable_backups for hr_management
2021-09-02 19:00:23,336 INFO scheduler Scheduled Job Complete: frappe.desk.page.backups.backups.delete_downloadable_backups for hr_management
2021-09-02 19:00:23,433 INFO scheduler Scheduled Job Start: frappe.utils.error.collect_error_snapshots for hr_management
2021-09-02 19:00:23,799 INFO scheduler Scheduled Job Complete: frappe.utils.error.collect_error_snapshots for hr_management
2021-09-02 19:00:23,894 INFO scheduler Scheduled Job Start: frappe.model.utils.user_settings.sync_user_settings for hr_management
2021-09-02 19:00:24,241 INFO scheduler Scheduled Job Complete: frappe.model.utils.user_settings.sync_user_settings for hr_management
2021-09-02 19:00:24,341 INFO scheduler Scheduled Job Start: frappe.model.utils.link_count.update_link_count for hr_management
2021-09-02 19:00:24,699 INFO scheduler Scheduled Job Complete: frappe.model.utils.link_count.update_link_count for hr_management
2021-09-02 19:00:24,796 INFO scheduler Scheduled Job Start: frappe.monitor.flush for hr_management
2021-09-02 19:00:25,036 INFO scheduler Scheduled Job Complete: frappe.monitor.flush for hr_management
2021-09-02 19:00:25,122 INFO scheduler Scheduled Job Start: frappe.utils.global_search.sync_global_search for hr_management
2021-09-02 19:00:25,370 INFO scheduler Scheduled Job Complete: frappe.utils.global_search.sync_global_search for hr_management
2021-09-02 19:00:25,480 INFO scheduler Scheduled Job Start: frappe.integrations.doctype.razorpay_settings.razorpay_settings.capture_payment for hr_management
2021-09-02 19:00:25,863 INFO scheduler Scheduled Job Complete: frappe.integrations.doctype.razorpay_settings.razorpay_settings.capture_payment for hr_management
2021-09-02 19:00:25,958 INFO scheduler Scheduled Job Start: frappe.email.doctype.email_account.email_account.notify_unreplied for hr_management
2021-09-02 19:00:26,281 INFO scheduler Scheduled Job Complete: frappe.email.doctype.email_account.email_account.notify_unreplied for hr_management
2021-09-02 19:00:26,372 INFO scheduler Scheduled Job Start: frappe.email.doctype.email_account.email_account.pull for hr_management
2021-09-02 19:00:26,685 INFO scheduler Scheduled Job Complete: frappe.email.doctype.email_account.email_account.pull for hr_management
2021-09-02 19:00:26,789 INFO scheduler Scheduled Job Start: frappe.email.queue.flush for hr_management
2021-09-02 19:00:27,059 INFO scheduler Scheduled Job Complete: frappe.email.queue.flush for hr_management
2021-09-02 19:00:27,155 INFO scheduler Scheduled Job Start: frappe.twofactor.delete_all_barcodes_for_users for hr_management
2021-09-02 19:00:27,533 INFO scheduler Scheduled Job Complete: frappe.twofactor.delete_all_barcodes_for_users for hr_management
2021-09-02 19:00:27,639 INFO scheduler Scheduled Job Start: frappe.website.doctype.web_page.web_page.check_publish_status for hr_management
2021-09-02 19:00:28,075 INFO scheduler Scheduled Job Complete: frappe.website.doctype.web_page.web_page.check_publish_status for hr_management
2021-09-02 19:00:28,187 INFO scheduler Scheduled Job Start: frappe.oauth.delete_oauth2_data for hr_management
2021-09-02 19:00:28,568 INFO scheduler Scheduled Job Complete: frappe.oauth.delete_oauth2_data for hr_management
2021-09-02 19:01:13,586 DEBUG scheduler Queued events for site hr_management
2021-09-02 19:02:13,941 DEBUG scheduler Queued events for site hr_management
2021-09-02 19:03:14,300 DEBUG scheduler Queued events for site hr_management
2021-09-02 19:04:14,754 DEBUG scheduler Queued events for site hr_management
2021-09-02 19:04:16,964 INFO scheduler Scheduled Job Start: frappe.monitor.flush for hr_management
2021-09-02 19:04:17,206 INFO scheduler Scheduled Job Complete: frappe.monitor.flush for hr_management
2021-09-02 19:04:17,303 INFO scheduler Scheduled Job Start: frappe.utils.global_search.sync_global_search for hr_management
2021-09-02 19:04:17,546 INFO scheduler Scheduled Job Complete: frappe.utils.global_search.sync_global_search for hr_management
2021-09-02 19:04:17,635 INFO scheduler Scheduled Job Start: frappe.integrations.doctype.razorpay_settings.razorpay_settings.capture_payment for hr_management
2021-09-02 19:04:18,029 INFO scheduler Scheduled Job Complete: frappe.integrations.doctype.razorpay_settings.razorpay_settings.capture_payment for hr_management
2021-09-02 19:04:18,138 INFO scheduler Scheduled Job Start: frappe.email.doctype.email_account.email_account.notify_unreplied for hr_management
2021-09-02 19:04:18,447 INFO scheduler Scheduled Job Complete: frappe.email.doctype.email_account.email_account.notify_unreplied for hr_management
2021-09-02 19:04:18,532 INFO scheduler Scheduled Job Start: frappe.email.doctype.email_account.email_account.pull for hr_management
2021-09-02 19:04:18,855 INFO scheduler Scheduled Job Complete: frappe.email.doctype.email_account.email_account.pull for hr_management
2021-09-02 19:04:18,942 INFO scheduler Scheduled Job Start: frappe.email.queue.flush for hr_management
2021-09-02 19:04:19,192 INFO scheduler Scheduled Job Complete: frappe.email.queue.flush for hr_management
2021-09-02 19:05:15,165 DEBUG scheduler Queued events for site hr_management
2021-09-02 19:06:15,547 DEBUG scheduler Queued events for site hr_management
2021-09-02 19:07:15,916 DEBUG scheduler Queued events for site hr_management
2021-09-02 19:08:16,390 DEBUG scheduler Queued events for site hr_management
2021-09-02 19:08:18,676 INFO scheduler Scheduled Job Start: frappe.monitor.flush for hr_management
2021-09-02 19:08:18,917 INFO scheduler Scheduled Job Complete: frappe.monitor.flush for hr_management
2021-09-02 19:08:19,008 INFO scheduler Scheduled Job Start: frappe.utils.global_search.sync_global_search for hr_management
2021-09-02 19:08:19,270 INFO scheduler Scheduled Job Complete: frappe.utils.global_search.sync_global_search for hr_management
2021-09-02 19:08:19,351 INFO scheduler Scheduled Job Start: frappe.integrations.doctype.razorpay_settings.razorpay_settings.capture_payment for hr_management
2021-09-02 19:08:19,731 INFO scheduler Scheduled Job Complete: frappe.integrations.doctype.razorpay_settings.razorpay_settings.capture_payment for hr_management
2021-09-02 19:08:19,825 INFO scheduler Scheduled Job Start: frappe.email.doctype.email_account.email_account.notify_unreplied for hr_management
2021-09-02 19:08:20,136 INFO scheduler Scheduled Job Complete: frappe.email.doctype.email_account.email_account.notify_unreplied for hr_management
2021-09-02 19:08:20,246 INFO scheduler Scheduled Job Start: frappe.email.doctype.email_account.email_account.pull for hr_management
2021-09-02 19:08:20,563 INFO scheduler Scheduled Job Complete: frappe.email.doctype.email_account.email_account.pull for hr_management
2021-09-02 19:08:20,649 INFO scheduler Scheduled Job Start: frappe.email.queue.flush for hr_management
2021-09-02 19:08:20,905 INFO scheduler Scheduled Job Complete: frappe.email.queue.flush for hr_management
2021-09-02 19:09:16,818 DEBUG scheduler Queued events for site hr_management
2021-09-02 19:10:17,202 DEBUG scheduler Queued events for site hr_management
2021-09-02 19:11:17,573 DEBUG scheduler Queued events for site hr_management
2021-09-02 19:12:18,005 DEBUG scheduler Queued events for site hr_management
2021-09-02 19:12:20,261 INFO scheduler Scheduled Job Start: frappe.monitor.flush for hr_management
2021-09-02 19:12:20,508 INFO scheduler Scheduled Job Complete: frappe.monitor.flush for hr_management
2021-09-02 19:12:20,601 INFO scheduler Scheduled Job Start: frappe.utils.global_search.sync_global_search for hr_management
2021-09-02 19:12:20,846 INFO scheduler Scheduled Job Complete: frappe.utils.global_search.sync_global_search for hr_management
2021-09-02 19:12:20,945 INFO scheduler Scheduled Job Start: frappe.integrations.doctype.razorpay_settings.razorpay_settings.capture_payment for hr_management
2021-09-02 19:12:21,327 INFO scheduler Scheduled Job Complete: frappe.integrations.doctype.razorpay_settings.razorpay_settings.capture_payment for hr_management
2021-09-02 19:12:21,437 INFO scheduler Scheduled Job Start: frappe.email.doctype.email_account.email_account.notify_unreplied for hr_management
2021-09-02 19:12:21,748 INFO scheduler Scheduled Job Complete: frappe.email.doctype.email_account.email_account.notify_unreplied for hr_management
2021-09-02 19:12:21,849 INFO scheduler Scheduled Job Start: frappe.email.doctype.email_account.email_account.pull for hr_management
2021-09-02 19:12:22,189 INFO scheduler Scheduled Job Complete: frappe.email.doctype.email_account.email_account.pull for hr_management
2021-09-02 19:12:22,287 INFO scheduler Scheduled Job Start: frappe.email.queue.flush for hr_management
2021-09-02 19:12:22,559 INFO scheduler Scheduled Job Complete: frappe.email.queue.flush for hr_management
2021-09-02 19:13:18,426 DEBUG scheduler Queued events for site hr_management
2021-09-02 19:14:18,772 DEBUG scheduler Queued events for site hr_management
2021-09-02 19:15:19,145 DEBUG scheduler Queued events for site hr_management
2021-09-02 19:15:20,632 INFO scheduler Scheduled Job Start: frappe.twofactor.delete_all_barcodes_for_users for hr_management
2021-09-02 19:15:20,998 INFO scheduler Scheduled Job Complete: frappe.twofactor.delete_all_barcodes_for_users for hr_management
2021-09-02 19:15:21,089 INFO scheduler Scheduled Job Start: frappe.website.doctype.web_page.web_page.check_publish_status for hr_management
2021-09-02 19:15:21,539 INFO scheduler Scheduled Job Complete: frappe.website.doctype.web_page.web_page.check_publish_status for hr_management
2021-09-02 19:15:21,640 INFO scheduler Scheduled Job Start: frappe.oauth.delete_oauth2_data for hr_management
2021-09-02 19:15:22,039 INFO scheduler Scheduled Job Complete: frappe.oauth.delete_oauth2_data for hr_management
2021-09-02 19:16:19,591 DEBUG scheduler Queued events for site hr_management
2021-09-02 19:16:21,829 INFO scheduler Scheduled Job Start: frappe.monitor.flush for hr_management
2021-09-02 19:16:22,083 INFO scheduler Scheduled Job Complete: frappe.monitor.flush for hr_management
2021-09-02 19:16:22,187 INFO scheduler Scheduled Job Start: frappe.utils.global_search.sync_global_search for hr_management
2021-09-02 19:16:22,420 INFO scheduler Scheduled Job Complete: frappe.utils.global_search.sync_global_search for hr_management
2021-09-02 19:16:22,519 INFO scheduler Scheduled Job Start: frappe.integrations.doctype.razorpay_settings.razorpay_settings.capture_payment for hr_management
2021-09-02 19:16:22,888 INFO scheduler Scheduled Job Complete: frappe.integrations.doctype.razorpay_settings.razorpay_settings.capture_payment for hr_management
2021-09-02 19:16:22,976 INFO scheduler Scheduled Job Start: frappe.email.doctype.email_account.email_account.notify_unreplied for hr_management
2021-09-02 19:16:23,297 INFO scheduler Scheduled Job Complete: frappe.email.doctype.email_account.email_account.notify_unreplied for hr_management
2021-09-02 19:16:23,391 INFO scheduler Scheduled Job Start: frappe.email.doctype.email_account.email_account.pull for hr_management
2021-09-02 19:16:23,720 INFO scheduler Scheduled Job Complete: frappe.email.doctype.email_account.email_account.pull for hr_management
2021-09-02 19:16:23,809 INFO scheduler Scheduled Job Start: frappe.email.queue.flush for hr_management
2021-09-02 19:16:24,069 INFO scheduler Scheduled Job Complete: frappe.email.queue.flush for hr_management
2021-09-02 19:17:20,029 DEBUG scheduler Queued events for site hr_management
2021-09-02 19:18:20,419 DEBUG scheduler Queued events for site hr_management
2021-09-02 19:19:20,819 DEBUG scheduler Queued events for site hr_management
2021-09-02 19:20:21,265 DEBUG scheduler Queued events for site hr_management
2021-09-02 19:20:23,498 INFO scheduler Scheduled Job Start: frappe.monitor.flush for hr_management
2021-09-02 19:20:23,742 INFO scheduler Scheduled Job Complete: frappe.monitor.flush for hr_management
2021-09-02 19:20:23,829 INFO scheduler Scheduled Job Start: frappe.utils.global_search.sync_global_search for hr_management
2021-09-02 19:20:24,062 INFO scheduler Scheduled Job Complete: frappe.utils.global_search.sync_global_search for hr_management
2021-09-02 19:20:24,153 INFO scheduler Scheduled Job Start: frappe.integrations.doctype.razorpay_settings.razorpay_settings.capture_payment for hr_management
2021-09-02 19:20:24,560 INFO scheduler Scheduled Job Complete: frappe.integrations.doctype.razorpay_settings.razorpay_settings.capture_payment for hr_management
2021-09-02 19:20:24,662 INFO scheduler Scheduled Job Start: frappe.email.doctype.email_account.email_account.notify_unreplied for hr_management
2021-09-02 19:20:24,973 INFO scheduler Scheduled Job Complete: frappe.email.doctype.email_account.email_account.notify_unreplied for hr_management
2021-09-02 19:20:25,057 INFO scheduler Scheduled Job Start: frappe.email.doctype.email_account.email_account.pull for hr_management
2021-09-02 19:20:25,383 INFO scheduler Scheduled Job Complete: frappe.email.doctype.email_account.email_account.pull for hr_management
2021-09-02 19:20:25,470 INFO scheduler Scheduled Job Start: frappe.email.queue.flush for hr_management
2021-09-02 19:20:25,734 INFO scheduler Scheduled Job Complete: frappe.email.queue.flush for hr_management
2021-09-02 19:21:21,688 DEBUG scheduler Queued events for site hr_management
2021-09-02 19:22:22,070 DEBUG scheduler Queued events for site hr_management
2021-09-02 19:23:22,429 DEBUG scheduler Queued events for site hr_management
2021-09-02 19:24:22,870 DEBUG scheduler Queued events for site hr_management
2021-09-02 19:24:25,241 INFO scheduler Scheduled Job Start: frappe.monitor.flush for hr_management
2021-09-02 19:24:25,481 INFO scheduler Scheduled Job Complete: frappe.monitor.flush for hr_management
2021-09-02 19:24:25,577 INFO scheduler Scheduled Job Start: frappe.utils.global_search.sync_global_search for hr_management
2021-09-02 19:24:25,816 INFO scheduler Scheduled Job Complete: frappe.utils.global_search.sync_global_search for hr_management
2021-09-02 19:24:25,901 INFO scheduler Scheduled Job Start: frappe.integrations.doctype.razorpay_settings.razorpay_settings.capture_payment for hr_management
2021-09-02 19:24:26,282 INFO scheduler Scheduled Job Complete: frappe.integrations.doctype.razorpay_settings.razorpay_settings.capture_payment for hr_management
2021-09-02 19:24:26,378 INFO scheduler Scheduled Job Start: frappe.email.doctype.email_account.email_account.notify_unreplied for hr_management
2021-09-02 19:24:26,706 INFO scheduler Scheduled Job Complete: frappe.email.doctype.email_account.email_account.notify_unreplied for hr_management
2021-09-02 19:24:26,797 INFO scheduler Scheduled Job Start: frappe.email.doctype.email_account.email_account.pull for hr_management
2021-09-02 19:24:27,122 INFO scheduler Scheduled Job Complete: frappe.email.doctype.email_account.email_account.pull for hr_management
2021-09-02 19:24:27,235 INFO scheduler Scheduled Job Start: frappe.email.queue.flush for hr_management
2021-09-02 19:24:27,507 INFO scheduler Scheduled Job Complete: frappe.email.queue.flush for hr_management
2021-09-02 19:25:23,292 DEBUG scheduler Queued events for site hr_management
2021-09-02 19:26:23,689 DEBUG scheduler Queued events for site hr_management
2021-09-02 19:27:24,031 DEBUG scheduler Queued events for site hr_management
2021-09-02 19:28:24,455 DEBUG scheduler Queued events for site hr_management
2021-09-02 19:28:26,760 INFO scheduler Scheduled Job Start: frappe.monitor.flush for hr_management
2021-09-02 19:28:27,001 INFO scheduler Scheduled Job Complete: frappe.monitor.flush for hr_management
2021-09-02 19:28:27,089 INFO scheduler Scheduled Job Start: frappe.utils.global_search.sync_global_search for hr_management
2021-09-02 19:28:27,354 INFO scheduler Scheduled Job Complete: frappe.utils.global_search.sync_global_search for hr_management
2021-09-02 19:28:27,458 INFO scheduler Scheduled Job Start: frappe.integrations.doctype.razorpay_settings.razorpay_settings.capture_payment for hr_management
2021-09-02 19:28:27,851 INFO scheduler Scheduled Job Complete: frappe.integrations.doctype.razorpay_settings.razorpay_settings.capture_payment for hr_management
2021-09-02 19:28:27,938 INFO scheduler Scheduled Job Start: frappe.email.doctype.email_account.email_account.notify_unreplied for hr_management
2021-09-02 19:28:28,254 INFO scheduler Scheduled Job Complete: frappe.email.doctype.email_account.email_account.notify_unreplied for hr_management
2021-09-02 19:28:28,337 INFO scheduler Scheduled Job Start: frappe.email.doctype.email_account.email_account.pull for hr_management
2021-09-02 19:28:28,657 INFO scheduler Scheduled Job Complete: frappe.email.doctype.email_account.email_account.pull for hr_management
2021-09-02 19:28:28,744 INFO scheduler Scheduled Job Start: frappe.email.queue.flush for hr_management
2021-09-02 19:28:29,015 INFO scheduler Scheduled Job Complete: frappe.email.queue.flush for hr_management
2021-09-02 19:29:24,878 DEBUG scheduler Queued events for site hr_management
2021-09-02 19:30:25,265 DEBUG scheduler Queued events for site hr_management
2021-09-02 19:30:26,728 INFO scheduler Scheduled Job Start: frappe.twofactor.delete_all_barcodes_for_users for hr_management
2021-09-02 19:30:27,092 INFO scheduler Scheduled Job Complete: frappe.twofactor.delete_all_barcodes_for_users for hr_management
2021-09-02 19:30:27,222 INFO scheduler Scheduled Job Start: frappe.website.doctype.web_page.web_page.check_publish_status for hr_management
2021-09-02 19:30:27,625 INFO scheduler Scheduled Job Complete: frappe.website.doctype.web_page.web_page.check_publish_status for hr_management
2021-09-02 19:30:27,731 INFO scheduler Scheduled Job Start: frappe.oauth.delete_oauth2_data for hr_management
2021-09-02 19:30:28,104 INFO scheduler Scheduled Job Complete: frappe.oauth.delete_oauth2_data for hr_management
2021-09-02 19:31:25,708 DEBUG scheduler Queued events for site hr_management
2021-09-02 19:32:26,121 DEBUG scheduler Queued events for site hr_management
2021-09-02 19:32:28,379 INFO scheduler Scheduled Job Start: frappe.monitor.flush for hr_management
2021-09-02 19:32:28,630 INFO scheduler Scheduled Job Complete: frappe.monitor.flush for hr_management
2021-09-02 19:32:28,734 INFO scheduler Scheduled Job Start: frappe.utils.global_search.sync_global_search for hr_management
2021-09-02 19:32:28,985 INFO scheduler Scheduled Job Complete: frappe.utils.global_search.sync_global_search for hr_management
2021-09-02 19:32:29,077 INFO scheduler Scheduled Job Start: frappe.integrations.doctype.razorpay_settings.razorpay_settings.capture_payment for hr_management
2021-09-02 19:32:29,533 INFO scheduler Scheduled Job Complete: frappe.integrations.doctype.razorpay_settings.razorpay_settings.capture_payment for hr_management
2021-09-02 19:32:29,625 INFO scheduler Scheduled Job Start: frappe.email.doctype.email_account.email_account.notify_unreplied for hr_management
2021-09-02 19:32:29,918 INFO scheduler Scheduled Job Complete: frappe.email.doctype.email_account.email_account.notify_unreplied for hr_management
2021-09-02 19:32:30,010 INFO scheduler Scheduled Job Start: frappe.email.doctype.email_account.email_account.pull for hr_management
2021-09-02 19:32:30,372 INFO scheduler Scheduled Job Complete: frappe.email.doctype.email_account.email_account.pull for hr_management
2021-09-02 19:32:30,470 INFO scheduler Scheduled Job Start: frappe.email.queue.flush for hr_management
2021-09-02 19:32:30,742 INFO scheduler Scheduled Job Complete: frappe.email.queue.flush for hr_management
2021-09-02 19:33:26,511 DEBUG scheduler Queued events for site hr_management
2021-09-02 19:34:26,870 DEBUG scheduler Queued events for site hr_management
2021-09-02 19:35:27,247 DEBUG scheduler Queued events for site hr_management
2021-09-02 19:36:27,727 DEBUG scheduler Queued events for site hr_management
2021-09-02 19:36:29,997 INFO scheduler Scheduled Job Start: frappe.monitor.flush for hr_management
2021-09-02 19:36:30,247 INFO scheduler Scheduled Job Complete: frappe.monitor.flush for hr_management
2021-09-02 19:36:30,346 INFO scheduler Scheduled Job Start: frappe.utils.global_search.sync_global_search for hr_management
2021-09-02 19:36:30,601 INFO scheduler Scheduled Job Complete: frappe.utils.global_search.sync_global_search for hr_management
2021-09-02 19:36:30,695 INFO scheduler Scheduled Job Start: frappe.integrations.doctype.razorpay_settings.razorpay_settings.capture_payment for hr_management
2021-09-02 19:36:31,062 INFO scheduler Scheduled Job Complete: frappe.integrations.doctype.razorpay_settings.razorpay_settings.capture_payment for hr_management
2021-09-02 19:36:31,152 INFO scheduler Scheduled Job Start: frappe.email.doctype.email_account.email_account.notify_unreplied for hr_management
2021-09-02 19:36:31,476 INFO scheduler Scheduled Job Complete: frappe.email.doctype.email_account.email_account.notify_unreplied for hr_management
2021-09-02 19:36:31,569 INFO scheduler Scheduled Job Start: frappe.email.doctype.email_account.email_account.pull for hr_management
2021-09-02 19:36:31,883 INFO scheduler Scheduled Job Complete: frappe.email.doctype.email_account.email_account.pull for hr_management
2021-09-02 19:36:31,998 INFO scheduler Scheduled Job Start: frappe.email.queue.flush for hr_management
2021-09-02 19:36:32,265 INFO scheduler Scheduled Job Complete: frappe.email.queue.flush for hr_management
2021-09-02 19:37:28,148 DEBUG scheduler Queued events for site hr_management
2021-09-02 19:38:28,531 DEBUG scheduler Queued events for site hr_management
2021-09-02 19:39:28,900 DEBUG scheduler Queued events for site hr_management
2021-09-02 19:40:29,346 DEBUG scheduler Queued events for site hr_management
2021-09-02 19:40:31,621 INFO scheduler Scheduled Job Start: frappe.monitor.flush for hr_management
2021-09-02 19:40:31,853 INFO scheduler Scheduled Job Complete: frappe.monitor.flush for hr_management
2021-09-02 19:40:31,940 INFO scheduler Scheduled Job Start: frappe.utils.global_search.sync_global_search for hr_management
2021-09-02 19:40:32,202 INFO scheduler Scheduled Job Complete: frappe.utils.global_search.sync_global_search for hr_management
2021-09-02 19:40:32,288 INFO scheduler Scheduled Job Start: frappe.integrations.doctype.razorpay_settings.razorpay_settings.capture_payment for hr_management
2021-09-02 19:40:32,656 INFO scheduler Scheduled Job Complete: frappe.integrations.doctype.razorpay_settings.razorpay_settings.capture_payment for hr_management
2021-09-02 19:40:32,755 INFO scheduler Scheduled Job Start: frappe.email.doctype.email_account.email_account.notify_unreplied for hr_management
2021-09-02 19:40:33,082 INFO scheduler Scheduled Job Complete: frappe.email.doctype.email_account.email_account.notify_unreplied for hr_management
2021-09-02 19:40:33,186 INFO scheduler Scheduled Job Start: frappe.email.doctype.email_account.email_account.pull for hr_management
2021-09-02 19:40:33,501 INFO scheduler Scheduled Job Complete: frappe.email.doctype.email_account.email_account.pull for hr_management
2021-09-02 19:40:33,595 INFO scheduler Scheduled Job Start: frappe.email.queue.flush for hr_management
2021-09-02 19:40:33,860 INFO scheduler Scheduled Job Complete: frappe.email.queue.flush for hr_management
2021-09-02 19:41:29,769 DEBUG scheduler Queued events for site hr_management
2021-09-02 19:42:30,132 DEBUG scheduler Queued events for site hr_management
2021-09-02 19:43:30,481 DEBUG scheduler Queued events for site hr_management
2021-09-02 19:44:30,920 DEBUG scheduler Queued events for site hr_management
2021-09-02 19:44:33,199 INFO scheduler Scheduled Job Start: frappe.monitor.flush for hr_management
2021-09-02 19:44:33,447 INFO scheduler Scheduled Job Complete: frappe.monitor.flush for hr_management
2021-09-02 19:44:33,540 INFO scheduler Scheduled Job Start: frappe.utils.global_search.sync_global_search for hr_management
2021-09-02 19:44:33,793 INFO scheduler Scheduled Job Complete: frappe.utils.global_search.sync_global_search for hr_management
2021-09-02 19:44:33,883 INFO scheduler Scheduled Job Start: frappe.integrations.doctype.razorpay_settings.razorpay_settings.capture_payment for hr_management
2021-09-02 19:44:34,288 INFO scheduler Scheduled Job Complete: frappe.integrations.doctype.razorpay_settings.razorpay_settings.capture_payment for hr_management
2021-09-02 19:44:34,370 INFO scheduler Scheduled Job Start: frappe.email.doctype.email_account.email_account.notify_unreplied for hr_management
2021-09-02 19:44:34,687 INFO scheduler Scheduled Job Complete: frappe.email.doctype.email_account.email_account.notify_unreplied for hr_management
2021-09-02 19:44:34,780 INFO scheduler Scheduled Job Start: frappe.email.doctype.email_account.email_account.pull for hr_management
2021-09-02 19:44:35,123 INFO scheduler Scheduled Job Complete: frappe.email.doctype.email_account.email_account.pull for hr_management
2021-09-02 19:44:35,226 INFO scheduler Scheduled Job Start: frappe.email.queue.flush for hr_management
2021-09-02 19:44:35,495 INFO scheduler Scheduled Job Complete: frappe.email.queue.flush for hr_management
2021-09-02 19:45:31,358 DEBUG scheduler Queued events for site hr_management
2021-09-02 19:45:32,841 INFO scheduler Scheduled Job Start: frappe.twofactor.delete_all_barcodes_for_users for hr_management
2021-09-02 19:45:33,227 INFO scheduler Scheduled Job Complete: frappe.twofactor.delete_all_barcodes_for_users for hr_management
2021-09-02 19:45:33,319 INFO scheduler Scheduled Job Start: frappe.website.doctype.web_page.web_page.check_publish_status for hr_management
2021-09-02 19:45:33,761 INFO scheduler Scheduled Job Complete: frappe.website.doctype.web_page.web_page.check_publish_status for hr_management
2021-09-02 19:45:33,862 INFO scheduler Scheduled Job Start: frappe.oauth.delete_oauth2_data for hr_management
2021-09-02 19:45:34,280 INFO scheduler Scheduled Job Complete: frappe.oauth.delete_oauth2_data for hr_management
2021-09-02 19:46:31,784 DEBUG scheduler Queued events for site hr_management
2021-09-02 19:47:32,152 DEBUG scheduler Queued events for site hr_management
2021-09-02 19:48:32,592 DEBUG scheduler Queued events for site hr_management
2021-09-02 19:48:34,853 INFO scheduler Scheduled Job Start: frappe.monitor.flush for hr_management
2021-09-02 19:48:35,092 INFO scheduler Scheduled Job Complete: frappe.monitor.flush for hr_management
2021-09-02 19:48:35,191 INFO scheduler Scheduled Job Start: frappe.utils.global_search.sync_global_search for hr_management
2021-09-02 19:48:35,442 INFO scheduler Scheduled Job Complete: frappe.utils.global_search.sync_global_search for hr_management
2021-09-02 19:48:35,528 INFO scheduler Scheduled Job Start: frappe.integrations.doctype.razorpay_settings.razorpay_settings.capture_payment for hr_management
2021-09-02 19:48:35,912 INFO scheduler Scheduled Job Complete: frappe.integrations.doctype.razorpay_settings.razorpay_settings.capture_payment for hr_management
2021-09-02 19:48:36,007 INFO scheduler Scheduled Job Start: frappe.email.doctype.email_account.email_account.notify_unreplied for hr_management
2021-09-02 19:48:36,344 INFO scheduler Scheduled Job Complete: frappe.email.doctype.email_account.email_account.notify_unreplied for hr_management
2021-09-02 19:48:36,447 INFO scheduler Scheduled Job Start: frappe.email.doctype.email_account.email_account.pull for hr_management
2021-09-02 19:48:36,782 INFO scheduler Scheduled Job Complete: frappe.email.doctype.email_account.email_account.pull for hr_management
2021-09-02 19:48:36,876 INFO scheduler Scheduled Job Start: frappe.email.queue.flush for hr_management
2021-09-02 19:48:37,146 INFO scheduler Scheduled Job Complete: frappe.email.queue.flush for hr_management
2021-09-02 19:49:33,006 DEBUG scheduler Queued events for site hr_management
2021-09-02 19:50:33,367 DEBUG scheduler Queued events for site hr_management
2021-09-02 19:51:33,753 DEBUG scheduler Queued events for site hr_management
2021-09-02 19:52:34,204 DEBUG scheduler Queued events for site hr_management
2021-09-02 19:52:36,486 INFO scheduler Scheduled Job Start: frappe.monitor.flush for hr_management
2021-09-02 19:52:36,739 INFO scheduler Scheduled Job Complete: frappe.monitor.flush for hr_management
2021-09-02 19:52:36,845 INFO scheduler Scheduled Job Start: frappe.utils.global_search.sync_global_search for hr_management
2021-09-02 19:52:37,104 INFO scheduler Scheduled Job Complete: frappe.utils.global_search.sync_global_search for hr_management
2021-09-02 19:52:37,201 INFO scheduler Scheduled Job Start: frappe.integrations.doctype.razorpay_settings.razorpay_settings.capture_payment for hr_management
2021-09-02 19:52:37,586 INFO scheduler Scheduled Job Complete: frappe.integrations.doctype.razorpay_settings.razorpay_settings.capture_payment for hr_management
2021-09-02 19:52:37,678 INFO scheduler Scheduled Job Start: frappe.email.doctype.email_account.email_account.notify_unreplied for hr_management
2021-09-02 19:52:37,980 INFO scheduler Scheduled Job Complete: frappe.email.doctype.email_account.email_account.notify_unreplied for hr_management
2021-09-02 19:52:38,080 INFO scheduler Scheduled Job Start: frappe.email.doctype.email_account.email_account.pull for hr_management
2021-09-02 19:52:38,424 INFO scheduler Scheduled Job Complete: frappe.email.doctype.email_account.email_account.pull for hr_management
2021-09-02 19:52:38,516 INFO scheduler Scheduled Job Start: frappe.email.queue.flush for hr_management
2021-09-02 19:52:38,825 INFO scheduler Scheduled Job Complete: frappe.email.queue.flush for hr_management
2021-09-02 19:53:34,637 DEBUG scheduler Queued events for site hr_management
2021-09-02 19:54:35,015 DEBUG scheduler Queued events for site hr_management
2021-09-02 19:55:35,404 DEBUG scheduler Queued events for site hr_management
2021-09-02 19:56:35,853 DEBUG scheduler Queued events for site hr_management
2021-09-02 19:56:38,136 INFO scheduler Scheduled Job Start: frappe.monitor.flush for hr_management
2021-09-02 19:56:38,406 INFO scheduler Scheduled Job Complete: frappe.monitor.flush for hr_management
2021-09-02 19:56:38,510 INFO scheduler Scheduled Job Start: frappe.utils.global_search.sync_global_search for hr_management
2021-09-02 19:56:38,752 INFO scheduler Scheduled Job Complete: frappe.utils.global_search.sync_global_search for hr_management
2021-09-02 19:56:38,853 INFO scheduler Scheduled Job Start: frappe.integrations.doctype.razorpay_settings.razorpay_settings.capture_payment for hr_management
2021-09-02 19:56:39,241 INFO scheduler Scheduled Job Complete: frappe.integrations.doctype.razorpay_settings.razorpay_settings.capture_payment for hr_management
2021-09-02 19:56:39,345 INFO scheduler Scheduled Job Start: frappe.email.doctype.email_account.email_account.notify_unreplied for hr_management
2021-09-02 19:56:39,676 INFO scheduler Scheduled Job Complete: frappe.email.doctype.email_account.email_account.notify_unreplied for hr_management
2021-09-02 19:56:39,776 INFO scheduler Scheduled Job Start: frappe.email.doctype.email_account.email_account.pull for hr_management
2021-09-02 19:56:40,109 INFO scheduler Scheduled Job Complete: frappe.email.doctype.email_account.email_account.pull for hr_management
2021-09-02 19:56:40,201 INFO scheduler Scheduled Job Start: frappe.email.queue.flush for hr_management
2021-09-02 19:56:40,478 INFO scheduler Scheduled Job Complete: frappe.email.queue.flush for hr_management
2021-09-02 19:57:36,288 DEBUG scheduler Queued events for site hr_management
2021-09-02 19:58:36,654 DEBUG scheduler Queued events for site hr_management
2021-09-02 19:59:37,013 DEBUG scheduler Queued events for site hr_management
2021-09-02 20:00:37,683 DEBUG scheduler Queued events for site hr_management
2021-09-02 20:00:45,641 INFO scheduler Scheduled Job Start: frappe.email.doctype.newsletter.newsletter.send_scheduled_email for hr_management
2021-09-02 20:00:46,155 INFO scheduler Scheduled Job Complete: frappe.email.doctype.newsletter.newsletter.send_scheduled_email for hr_management
2021-09-02 20:00:46,280 INFO scheduler Scheduled Job Start: frappe.integrations.doctype.google_calendar.google_calendar.sync for hr_management
2021-09-02 20:00:46,880 INFO scheduler Scheduled Job Complete: frappe.integrations.doctype.google_calendar.google_calendar.sync for hr_management
2021-09-02 20:00:46,980 INFO scheduler Scheduled Job Start: frappe.desk.form.document_follow.send_hourly_updates for hr_management
2021-09-02 20:00:47,365 INFO scheduler Scheduled Job Complete: frappe.desk.form.document_follow.send_hourly_updates for hr_management
2021-09-02 20:00:47,493 INFO scheduler Scheduled Job Start: frappe.deferred_insert.save_to_db for hr_management
2021-09-02 20:00:47,905 INFO scheduler Scheduled Job Complete: frappe.deferred_insert.save_to_db for hr_management
2021-09-02 20:00:48,008 INFO scheduler Scheduled Job Start: frappe.desk.page.backups.backups.delete_downloadable_backups for hr_management
2021-09-02 20:00:48,441 INFO scheduler Scheduled Job Complete: frappe.desk.page.backups.backups.delete_downloadable_backups for hr_management
2021-09-02 20:00:48,553 INFO scheduler Scheduled Job Start: frappe.utils.error.collect_error_snapshots for hr_management
2021-09-02 20:00:48,947 INFO scheduler Scheduled Job Complete: frappe.utils.error.collect_error_snapshots for hr_management
2021-09-02 20:00:49,062 INFO scheduler Scheduled Job Start: frappe.model.utils.user_settings.sync_user_settings for hr_management
2021-09-02 20:00:49,525 INFO scheduler Scheduled Job Complete: frappe.model.utils.user_settings.sync_user_settings for hr_management
2021-09-02 20:00:49,637 INFO scheduler Scheduled Job Start: frappe.model.utils.link_count.update_link_count for hr_management
2021-09-02 20:00:50,012 INFO scheduler Scheduled Job Complete: frappe.model.utils.link_count.update_link_count for hr_management
2021-09-02 20:00:50,110 INFO scheduler Scheduled Job Start: frappe.monitor.flush for hr_management
2021-09-02 20:00:50,391 INFO scheduler Scheduled Job Complete: frappe.monitor.flush for hr_management
2021-09-02 20:00:50,484 INFO scheduler Scheduled Job Start: frappe.utils.global_search.sync_global_search for hr_management
2021-09-02 20:00:50,780 INFO scheduler Scheduled Job Complete: frappe.utils.global_search.sync_global_search for hr_management
2021-09-02 20:00:50,881 INFO scheduler Scheduled Job Start: frappe.integrations.doctype.razorpay_settings.razorpay_settings.capture_payment for hr_management
2021-09-02 20:00:51,304 INFO scheduler Scheduled Job Complete: frappe.integrations.doctype.razorpay_settings.razorpay_settings.capture_payment for hr_management
2021-09-02 20:00:51,400 INFO scheduler Scheduled Job Start: frappe.email.doctype.email_account.email_account.notify_unreplied for hr_management
2021-09-02 20:00:51,709 INFO scheduler Scheduled Job Complete: frappe.email.doctype.email_account.email_account.notify_unreplied for hr_management
2021-09-02 20:00:51,805 INFO scheduler Scheduled Job Start: frappe.email.doctype.email_account.email_account.pull for hr_management
2021-09-02 20:00:52,165 INFO scheduler Scheduled Job Complete: frappe.email.doctype.email_account.email_account.pull for hr_management
2021-09-02 20:00:52,267 INFO scheduler Scheduled Job Start: frappe.email.queue.flush for hr_management
2021-09-02 20:00:52,546 INFO scheduler Scheduled Job Complete: frappe.email.queue.flush for hr_management
2021-09-02 20:00:52,648 INFO scheduler Scheduled Job Start: frappe.twofactor.delete_all_barcodes_for_users for hr_management
2021-09-02 20:00:53,041 INFO scheduler Scheduled Job Complete: frappe.twofactor.delete_all_barcodes_for_users for hr_management
2021-09-02 20:00:53,140 INFO scheduler Scheduled Job Start: frappe.website.doctype.web_page.web_page.check_publish_status for hr_management
2021-09-02 20:00:53,566 INFO scheduler Scheduled Job Complete: frappe.website.doctype.web_page.web_page.check_publish_status for hr_management
2021-09-02 20:00:53,661 INFO scheduler Scheduled Job Start: frappe.oauth.delete_oauth2_data for hr_management
2021-09-02 20:00:54,114 INFO scheduler Scheduled Job Complete: frappe.oauth.delete_oauth2_data for hr_management
2021-09-02 20:01:38,112 DEBUG scheduler Queued events for site hr_management
2021-09-02 20:02:38,473 DEBUG scheduler Queued events for site hr_management
2021-09-02 20:03:38,832 DEBUG scheduler Queued events for site hr_management
2021-09-02 20:04:39,246 DEBUG scheduler Queued events for site hr_management
2021-09-02 20:04:41,521 INFO scheduler Scheduled Job Start: frappe.monitor.flush for hr_management
2021-09-02 20:04:41,766 INFO scheduler Scheduled Job Complete: frappe.monitor.flush for hr_management
2021-09-02 20:04:41,858 INFO scheduler Scheduled Job Start: frappe.utils.global_search.sync_global_search for hr_management
2021-09-02 20:04:42,103 INFO scheduler Scheduled Job Complete: frappe.utils.global_search.sync_global_search for hr_management
2021-09-02 20:04:42,197 INFO scheduler Scheduled Job Start: frappe.integrations.doctype.razorpay_settings.razorpay_settings.capture_payment for hr_management
2021-09-02 20:04:42,575 INFO scheduler Scheduled Job Complete: frappe.integrations.doctype.razorpay_settings.razorpay_settings.capture_payment for hr_management
2021-09-02 20:04:42,678 INFO scheduler Scheduled Job Start: frappe.email.doctype.email_account.email_account.notify_unreplied for hr_management
2021-09-02 20:04:42,984 INFO scheduler Scheduled Job Complete: frappe.email.doctype.email_account.email_account.notify_unreplied for hr_management
2021-09-02 20:04:43,068 INFO scheduler Scheduled Job Start: frappe.email.doctype.email_account.email_account.pull for hr_management
2021-09-02 20:04:43,402 INFO scheduler Scheduled Job Complete: frappe.email.doctype.email_account.email_account.pull for hr_management
2021-09-02 20:04:43,494 INFO scheduler Scheduled Job Start: frappe.email.queue.flush for hr_management
2021-09-02 20:04:43,782 INFO scheduler Scheduled Job Complete: frappe.email.queue.flush for hr_management
2021-09-02 20:05:39,666 DEBUG scheduler Queued events for site hr_management
2021-09-02 20:06:40,029 DEBUG scheduler Queued events for site hr_management
2021-09-02 20:07:40,397 DEBUG scheduler Queued events for site hr_management
2021-09-02 20:08:40,856 DEBUG scheduler Queued events for site hr_management
2021-09-02 20:08:43,124 INFO scheduler Scheduled Job Start: frappe.monitor.flush for hr_management
2021-09-02 20:08:43,397 INFO scheduler Scheduled Job Complete: frappe.monitor.flush for hr_management
2021-09-02 20:08:43,499 INFO scheduler Scheduled Job Start: frappe.utils.global_search.sync_global_search for hr_management
2021-09-02 20:08:43,752 INFO scheduler Scheduled Job Complete: frappe.utils.global_search.sync_global_search for hr_management
2021-09-02 20:08:43,852 INFO scheduler Scheduled Job Start: frappe.integrations.doctype.razorpay_settings.razorpay_settings.capture_payment for hr_management
2021-09-02 20:08:44,240 INFO scheduler Scheduled Job Complete: frappe.integrations.doctype.razorpay_settings.razorpay_settings.capture_payment for hr_management
2021-09-02 20:08:44,338 INFO scheduler Scheduled Job Start: frappe.email.doctype.email_account.email_account.notify_unreplied for hr_management
2021-09-02 20:08:44,650 INFO scheduler Scheduled Job Complete: frappe.email.doctype.email_account.email_account.notify_unreplied for hr_management
2021-09-02 20:08:44,738 INFO scheduler Scheduled Job Start: frappe.email.doctype.email_account.email_account.pull for hr_management
2021-09-02 20:08:45,069 INFO scheduler Scheduled Job Complete: frappe.email.doctype.email_account.email_account.pull for hr_management
2021-09-02 20:08:45,176 INFO scheduler Scheduled Job Start: frappe.email.queue.flush for hr_management
2021-09-02 20:08:45,458 INFO scheduler Scheduled Job Complete: frappe.email.queue.flush for hr_management
2021-09-02 20:09:41,285 DEBUG scheduler Queued events for site hr_management
2021-09-02 20:10:41,693 DEBUG scheduler Queued events for site hr_management
2021-09-02 20:11:42,065 DEBUG scheduler Queued events for site hr_management
2021-09-02 20:12:42,563 DEBUG scheduler Queued events for site hr_management
2021-09-02 20:12:44,912 INFO scheduler Scheduled Job Start: frappe.monitor.flush for hr_management
2021-09-02 20:12:45,151 INFO scheduler Scheduled Job Complete: frappe.monitor.flush for hr_management
2021-09-02 20:12:45,267 INFO scheduler Scheduled Job Start: frappe.utils.global_search.sync_global_search for hr_management
2021-09-02 20:12:45,507 INFO scheduler Scheduled Job Complete: frappe.utils.global_search.sync_global_search for hr_management
2021-09-02 20:12:45,602 INFO scheduler Scheduled Job Start: frappe.integrations.doctype.razorpay_settings.razorpay_settings.capture_payment for hr_management
2021-09-02 20:12:45,964 INFO scheduler Scheduled Job Complete: frappe.integrations.doctype.razorpay_settings.razorpay_settings.capture_payment for hr_management
2021-09-02 20:12:46,066 INFO scheduler Scheduled Job Start: frappe.email.doctype.email_account.email_account.notify_unreplied for hr_management
2021-09-02 20:12:46,374 INFO scheduler Scheduled Job Complete: frappe.email.doctype.email_account.email_account.notify_unreplied for hr_management
2021-09-02 20:12:46,477 INFO scheduler Scheduled Job Start: frappe.email.doctype.email_account.email_account.pull for hr_management
2021-09-02 20:12:46,801 INFO scheduler Scheduled Job Complete: frappe.email.doctype.email_account.email_account.pull for hr_management
2021-09-02 20:12:46,894 INFO scheduler Scheduled Job Start: frappe.email.queue.flush for hr_management
2021-09-02 20:12:47,152 INFO scheduler Scheduled Job Complete: frappe.email.queue.flush for hr_management
2021-09-02 20:13:42,973 DEBUG scheduler Queued events for site hr_management
2021-09-02 20:14:43,331 DEBUG scheduler Queued events for site hr_management
2021-09-02 20:15:43,688 DEBUG scheduler Queued events for site hr_management
2021-09-02 20:15:45,222 INFO scheduler Scheduled Job Start: frappe.twofactor.delete_all_barcodes_for_users for hr_management
2021-09-02 20:15:45,621 INFO scheduler Scheduled Job Complete: frappe.twofactor.delete_all_barcodes_for_users for hr_management
2021-09-02 20:15:45,710 INFO scheduler Scheduled Job Start: frappe.website.doctype.web_page.web_page.check_publish_status for hr_management
2021-09-02 20:15:46,135 INFO scheduler Scheduled Job Complete: frappe.website.doctype.web_page.web_page.check_publish_status for hr_management
2021-09-02 20:15:46,239 INFO scheduler Scheduled Job Start: frappe.oauth.delete_oauth2_data for hr_management
2021-09-02 20:15:46,606 INFO scheduler Scheduled Job Complete: frappe.oauth.delete_oauth2_data for hr_management
2021-09-02 20:16:44,178 DEBUG scheduler Queued events for site hr_management
2021-09-02 20:16:46,443 INFO scheduler Scheduled Job Start: frappe.monitor.flush for hr_management
2021-09-02 20:16:46,678 INFO scheduler Scheduled Job Complete: frappe.monitor.flush for hr_management
2021-09-02 20:16:46,775 INFO scheduler Scheduled Job Start: frappe.utils.global_search.sync_global_search for hr_management
2021-09-02 20:16:47,006 INFO scheduler Scheduled Job Complete: frappe.utils.global_search.sync_global_search for hr_management
2021-09-02 20:16:47,095 INFO scheduler Scheduled Job Start: frappe.integrations.doctype.razorpay_settings.razorpay_settings.capture_payment for hr_management
2021-09-02 20:16:47,473 INFO scheduler Scheduled Job Complete: frappe.integrations.doctype.razorpay_settings.razorpay_settings.capture_payment for hr_management
2021-09-02 20:16:47,562 INFO scheduler Scheduled Job Start: frappe.email.doctype.email_account.email_account.notify_unreplied for hr_management
2021-09-02 20:16:47,878 INFO scheduler Scheduled Job Complete: frappe.email.doctype.email_account.email_account.notify_unreplied for hr_management
2021-09-02 20:16:47,984 INFO scheduler Scheduled Job Start: frappe.email.doctype.email_account.email_account.pull for hr_management
2021-09-02 20:16:48,330 INFO scheduler Scheduled Job Complete: frappe.email.doctype.email_account.email_account.pull for hr_management
2021-09-02 20:16:48,423 INFO scheduler Scheduled Job Start: frappe.email.queue.flush for hr_management
2021-09-02 20:16:48,677 INFO scheduler Scheduled Job Complete: frappe.email.queue.flush for hr_management
2021-09-02 20:17:44,583 DEBUG scheduler Queued events for site hr_management
2021-09-02 20:18:44,939 DEBUG scheduler Queued events for site hr_management
2021-09-02 20:19:45,296 DEBUG scheduler Queued events for site hr_management
2021-09-02 20:20:45,729 DEBUG scheduler Queued events for site hr_management
2021-09-02 20:20:47,931 INFO scheduler Scheduled Job Start: frappe.monitor.flush for hr_management
2021-09-02 20:20:48,215 INFO scheduler Scheduled Job Complete: frappe.monitor.flush for hr_management
2021-09-02 20:20:48,305 INFO scheduler Scheduled Job Start: frappe.utils.global_search.sync_global_search for hr_management
2021-09-02 20:20:48,565 INFO scheduler Scheduled Job Complete: frappe.utils.global_search.sync_global_search for hr_management
2021-09-02 20:20:48,652 INFO scheduler Scheduled Job Start: frappe.integrations.doctype.razorpay_settings.razorpay_settings.capture_payment for hr_management
2021-09-02 20:20:49,008 INFO scheduler Scheduled Job Complete: frappe.integrations.doctype.razorpay_settings.razorpay_settings.capture_payment for hr_management
2021-09-02 20:20:49,108 INFO scheduler Scheduled Job Start: frappe.email.doctype.email_account.email_account.notify_unreplied for hr_management
2021-09-02 20:20:49,406 INFO scheduler Scheduled Job Complete: frappe.email.doctype.email_account.email_account.notify_unreplied for hr_management
2021-09-02 20:20:49,494 INFO scheduler Scheduled Job Start: frappe.email.doctype.email_account.email_account.pull for hr_management
2021-09-02 20:20:49,803 INFO scheduler Scheduled Job Complete: frappe.email.doctype.email_account.email_account.pull for hr_management
2021-09-02 20:20:49,899 INFO scheduler Scheduled Job Start: frappe.email.queue.flush for hr_management
2021-09-02 20:20:50,164 INFO scheduler Scheduled Job Complete: frappe.email.queue.flush for hr_management
2021-09-02 20:21:46,133 DEBUG scheduler Queued events for site hr_management
2021-09-02 20:22:46,499 DEBUG scheduler Queued events for site hr_management
2021-09-02 20:23:46,856 DEBUG scheduler Queued events for site hr_management
2021-09-02 20:24:47,300 DEBUG scheduler Queued events for site hr_management
2021-09-02 20:24:49,591 INFO scheduler Scheduled Job Start: frappe.monitor.flush for hr_management
2021-09-02 20:24:49,831 INFO scheduler Scheduled Job Complete: frappe.monitor.flush for hr_management
2021-09-02 20:24:49,917 INFO scheduler Scheduled Job Start: frappe.utils.global_search.sync_global_search for hr_management
2021-09-02 20:24:50,169 INFO scheduler Scheduled Job Complete: frappe.utils.global_search.sync_global_search for hr_management
2021-09-02 20:24:50,255 INFO scheduler Scheduled Job Start: frappe.integrations.doctype.razorpay_settings.razorpay_settings.capture_payment for hr_management
2021-09-02 20:24:50,642 INFO scheduler Scheduled Job Complete: frappe.integrations.doctype.razorpay_settings.razorpay_settings.capture_payment for hr_management
2021-09-02 20:24:50,732 INFO scheduler Scheduled Job Start: frappe.email.doctype.email_account.email_account.notify_unreplied for hr_management
2021-09-02 20:24:51,033 INFO scheduler Scheduled Job Complete: frappe.email.doctype.email_account.email_account.notify_unreplied for hr_management
2021-09-02 20:24:51,138 INFO scheduler Scheduled Job Start: frappe.email.doctype.email_account.email_account.pull for hr_management
2021-09-02 20:24:51,467 INFO scheduler Scheduled Job Complete: frappe.email.doctype.email_account.email_account.pull for hr_management
2021-09-02 20:24:51,571 INFO scheduler Scheduled Job Start: frappe.email.queue.flush for hr_management
2021-09-02 20:24:51,822 INFO scheduler Scheduled Job Complete: frappe.email.queue.flush for hr_management
2021-09-02 20:25:47,738 DEBUG scheduler Queued events for site hr_management
2021-09-02 20:26:48,094 DEBUG scheduler Queued events for site hr_management
2021-09-02 20:27:48,437 DEBUG scheduler Queued events for site hr_management
2021-09-02 20:28:48,847 DEBUG scheduler Queued events for site hr_management
2021-09-02 20:28:51,138 INFO scheduler Scheduled Job Start: frappe.monitor.flush for hr_management
2021-09-02 20:28:51,400 INFO scheduler Scheduled Job Complete: frappe.monitor.flush for hr_management
2021-09-02 20:28:51,498 INFO scheduler Scheduled Job Start: frappe.utils.global_search.sync_global_search for hr_management
2021-09-02 20:28:51,735 INFO scheduler Scheduled Job Complete: frappe.utils.global_search.sync_global_search for hr_management
2021-09-02 20:28:51,823 INFO scheduler Scheduled Job Start: frappe.integrations.doctype.razorpay_settings.razorpay_settings.capture_payment for hr_management
2021-09-02 20:28:52,209 INFO scheduler Scheduled Job Complete: frappe.integrations.doctype.razorpay_settings.razorpay_settings.capture_payment for hr_management
2021-09-02 20:28:52,311 INFO scheduler Scheduled Job Start: frappe.email.doctype.email_account.email_account.notify_unreplied for hr_management
2021-09-02 20:28:52,627 INFO scheduler Scheduled Job Complete: frappe.email.doctype.email_account.email_account.notify_unreplied for hr_management
2021-09-02 20:28:52,725 INFO scheduler Scheduled Job Start: frappe.email.doctype.email_account.email_account.pull for hr_management
2021-09-02 20:28:53,063 INFO scheduler Scheduled Job Complete: frappe.email.doctype.email_account.email_account.pull for hr_management
2021-09-02 20:28:53,163 INFO scheduler Scheduled Job Start: frappe.email.queue.flush for hr_management
2021-09-02 20:28:53,416 INFO scheduler Scheduled Job Complete: frappe.email.queue.flush for hr_management
2021-09-02 20:29:49,275 DEBUG scheduler Queued events for site hr_management
2021-09-02 20:30:49,651 DEBUG scheduler Queued events for site hr_management
2021-09-02 20:30:51,217 INFO scheduler Scheduled Job Start: frappe.twofactor.delete_all_barcodes_for_users for hr_management
2021-09-02 20:30:51,609 INFO scheduler Scheduled Job Complete: frappe.twofactor.delete_all_barcodes_for_users for hr_management
2021-09-02 20:30:51,704 INFO scheduler Scheduled Job Start: frappe.website.doctype.web_page.web_page.check_publish_status for hr_management
2021-09-02 20:30:52,131 INFO scheduler Scheduled Job Complete: frappe.website.doctype.web_page.web_page.check_publish_status for hr_management
2021-09-02 20:30:52,237 INFO scheduler Scheduled Job Start: frappe.oauth.delete_oauth2_data for hr_management
2021-09-02 20:30:52,630 INFO scheduler Scheduled Job Complete: frappe.oauth.delete_oauth2_data for hr_management
2021-09-02 20:31:50,082 DEBUG scheduler Queued events for site hr_management
2021-09-02 20:32:50,498 DEBUG scheduler Queued events for site hr_management
2021-09-02 20:32:52,847 INFO scheduler Scheduled Job Start: frappe.monitor.flush for hr_management
2021-09-02 20:32:53,089 INFO scheduler Scheduled Job Complete: frappe.monitor.flush for hr_management
2021-09-02 20:32:53,187 INFO scheduler Scheduled Job Start: frappe.utils.global_search.sync_global_search for hr_management
2021-09-02 20:32:53,420 INFO scheduler Scheduled Job Complete: frappe.utils.global_search.sync_global_search for hr_management
2021-09-02 20:32:53,515 INFO scheduler Scheduled Job Start: frappe.integrations.doctype.razorpay_settings.razorpay_settings.capture_payment for hr_management
2021-09-02 20:32:53,897 INFO scheduler Scheduled Job Complete: frappe.integrations.doctype.razorpay_settings.razorpay_settings.capture_payment for hr_management
2021-09-02 20:32:53,997 INFO scheduler Scheduled Job Start: frappe.email.doctype.email_account.email_account.notify_unreplied for hr_management
2021-09-02 20:32:54,306 INFO scheduler Scheduled Job Complete: frappe.email.doctype.email_account.email_account.notify_unreplied for hr_management
2021-09-02 20:32:54,400 INFO scheduler Scheduled Job Start: frappe.email.doctype.email_account.email_account.pull for hr_management
2021-09-02 20:32:54,735 INFO scheduler Scheduled Job Complete: frappe.email.doctype.email_account.email_account.pull for hr_management
2021-09-02 20:32:54,822 INFO scheduler Scheduled Job Start: frappe.email.queue.flush for hr_management
2021-09-02 20:32:55,069 INFO scheduler Scheduled Job Complete: frappe.email.queue.flush for hr_management
2021-09-02 20:33:50,938 DEBUG scheduler Queued events for site hr_management
2021-09-02 20:34:51,314 DEBUG scheduler Queued events for site hr_management
2021-09-02 20:35:51,667 DEBUG scheduler Queued events for site hr_management
2021-09-02 20:36:52,087 DEBUG scheduler Queued events for site hr_management
2021-09-02 20:36:54,332 INFO scheduler Scheduled Job Start: frappe.monitor.flush for hr_management
2021-09-02 20:36:54,575 INFO scheduler Scheduled Job Complete: frappe.monitor.flush for hr_management
2021-09-02 20:36:54,667 INFO scheduler Scheduled Job Start: frappe.utils.global_search.sync_global_search for hr_management
2021-09-02 20:36:54,925 INFO scheduler Scheduled Job Complete: frappe.utils.global_search.sync_global_search for hr_management
2021-09-02 20:36:55,015 INFO scheduler Scheduled Job Start: frappe.integrations.doctype.razorpay_settings.razorpay_settings.capture_payment for hr_management
2021-09-02 20:36:55,413 INFO scheduler Scheduled Job Complete: frappe.integrations.doctype.razorpay_settings.razorpay_settings.capture_payment for hr_management
2021-09-02 20:36:55,497 INFO scheduler Scheduled Job Start: frappe.email.doctype.email_account.email_account.notify_unreplied for hr_management
2021-09-02 20:36:55,812 INFO scheduler Scheduled Job Complete: frappe.email.doctype.email_account.email_account.notify_unreplied for hr_management
2021-09-02 20:36:55,901 INFO scheduler Scheduled Job Start: frappe.email.doctype.email_account.email_account.pull for hr_management
2021-09-02 20:36:56,248 INFO scheduler Scheduled Job Complete: frappe.email.doctype.email_account.email_account.pull for hr_management
2021-09-02 20:36:56,339 INFO scheduler Scheduled Job Start: frappe.email.queue.flush for hr_management
2021-09-02 20:36:56,595 INFO scheduler Scheduled Job Complete: frappe.email.queue.flush for hr_management
2021-09-02 20:37:52,509 DEBUG scheduler Queued events for site hr_management
2021-09-02 20:38:52,874 DEBUG scheduler Queued events for site hr_management
2021-09-02 20:39:53,276 DEBUG scheduler Queued events for site hr_management
2021-09-02 20:40:53,721 DEBUG scheduler Queued events for site hr_management
2021-09-02 20:40:55,986 INFO scheduler Scheduled Job Start: frappe.monitor.flush for hr_management
2021-09-02 20:40:56,234 INFO scheduler Scheduled Job Complete: frappe.monitor.flush for hr_management
2021-09-02 20:40:56,345 INFO scheduler Scheduled Job Start: frappe.utils.global_search.sync_global_search for hr_management
2021-09-02 20:40:56,586 INFO scheduler Scheduled Job Complete: frappe.utils.global_search.sync_global_search for hr_management
2021-09-02 20:40:56,679 INFO scheduler Scheduled Job Start: frappe.integrations.doctype.razorpay_settings.razorpay_settings.capture_payment for hr_management
2021-09-02 20:40:57,059 INFO scheduler Scheduled Job Complete: frappe.integrations.doctype.razorpay_settings.razorpay_settings.capture_payment for hr_management
2021-09-02 20:40:57,168 INFO scheduler Scheduled Job Start: frappe.email.doctype.email_account.email_account.notify_unreplied for hr_management
2021-09-02 20:40:57,499 INFO scheduler Scheduled Job Complete: frappe.email.doctype.email_account.email_account.notify_unreplied for hr_management
2021-09-02 20:40:57,599 INFO scheduler Scheduled Job Start: frappe.email.doctype.email_account.email_account.pull for hr_management
2021-09-02 20:40:57,939 INFO scheduler Scheduled Job Complete: frappe.email.doctype.email_account.email_account.pull for hr_management
2021-09-02 20:40:58,033 INFO scheduler Scheduled Job Start: frappe.email.queue.flush for hr_management
2021-09-02 20:40:58,314 INFO scheduler Scheduled Job Complete: frappe.email.queue.flush for hr_management
2021-09-02 20:41:54,164 DEBUG scheduler Queued events for site hr_management
2021-09-02 20:42:54,530 DEBUG scheduler Queued events for site hr_management
2021-09-02 20:43:54,908 DEBUG scheduler Queued events for site hr_management
2021-09-02 20:44:55,325 DEBUG scheduler Queued events for site hr_management
2021-09-02 20:44:57,583 INFO scheduler Scheduled Job Start: frappe.monitor.flush for hr_management
2021-09-02 20:44:57,848 INFO scheduler Scheduled Job Complete: frappe.monitor.flush for hr_management
2021-09-02 20:44:57,945 INFO scheduler Scheduled Job Start: frappe.utils.global_search.sync_global_search for hr_management
2021-09-02 20:44:58,194 INFO scheduler Scheduled Job Complete: frappe.utils.global_search.sync_global_search for hr_management
2021-09-02 20:44:58,295 INFO scheduler Scheduled Job Start: frappe.integrations.doctype.razorpay_settings.razorpay_settings.capture_payment for hr_management
2021-09-02 20:44:58,673 INFO scheduler Scheduled Job Complete: frappe.integrations.doctype.razorpay_settings.razorpay_settings.capture_payment for hr_management
2021-09-02 20:44:58,764 INFO scheduler Scheduled Job Start: frappe.email.doctype.email_account.email_account.notify_unreplied for hr_management
2021-09-02 20:44:59,064 INFO scheduler Scheduled Job Complete: frappe.email.doctype.email_account.email_account.notify_unreplied for hr_management
2021-09-02 20:44:59,156 INFO scheduler Scheduled Job Start: frappe.email.doctype.email_account.email_account.pull for hr_management
2021-09-02 20:44:59,487 INFO scheduler Scheduled Job Complete: frappe.email.doctype.email_account.email_account.pull for hr_management
2021-09-02 20:44:59,574 INFO scheduler Scheduled Job Start: frappe.email.queue.flush for hr_management
2021-09-02 20:44:59,857 INFO scheduler Scheduled Job Complete: frappe.email.queue.flush for hr_management
2021-09-02 20:45:55,731 DEBUG scheduler Queued events for site hr_management
2021-09-02 20:45:57,239 INFO scheduler Scheduled Job Start: frappe.twofactor.delete_all_barcodes_for_users for hr_management
2021-09-02 20:45:57,613 INFO scheduler Scheduled Job Complete: frappe.twofactor.delete_all_barcodes_for_users for hr_management
2021-09-02 20:45:57,723 INFO scheduler Scheduled Job Start: frappe.website.doctype.web_page.web_page.check_publish_status for hr_management
2021-09-02 20:45:58,173 INFO scheduler Scheduled Job Complete: frappe.website.doctype.web_page.web_page.check_publish_status for hr_management
2021-09-02 20:45:58,264 INFO scheduler Scheduled Job Start: frappe.oauth.delete_oauth2_data for hr_management
2021-09-02 20:45:58,651 INFO scheduler Scheduled Job Complete: frappe.oauth.delete_oauth2_data for hr_management
2021-09-02 20:46:56,161 DEBUG scheduler Queued events for site hr_management
2021-09-02 20:47:56,497 DEBUG scheduler Queued events for site hr_management
2021-09-02 20:48:56,990 DEBUG scheduler Queued events for site hr_management
2021-09-02 20:48:59,255 INFO scheduler Scheduled Job Start: frappe.monitor.flush for hr_management
2021-09-02 20:48:59,503 INFO scheduler Scheduled Job Complete: frappe.monitor.flush for hr_management
2021-09-02 20:48:59,595 INFO scheduler Scheduled Job Start: frappe.utils.global_search.sync_global_search for hr_management
2021-09-02 20:48:59,847 INFO scheduler Scheduled Job Complete: frappe.utils.global_search.sync_global_search for hr_management
2021-09-02 20:48:59,954 INFO scheduler Scheduled Job Start: frappe.integrations.doctype.razorpay_settings.razorpay_settings.capture_payment for hr_management
2021-09-02 20:49:00,329 INFO scheduler Scheduled Job Complete: frappe.integrations.doctype.razorpay_settings.razorpay_settings.capture_payment for hr_management
2021-09-02 20:49:00,422 INFO scheduler Scheduled Job Start: frappe.email.doctype.email_account.email_account.notify_unreplied for hr_management
2021-09-02 20:49:00,730 INFO scheduler Scheduled Job Complete: frappe.email.doctype.email_account.email_account.notify_unreplied for hr_management
2021-09-02 20:49:00,824 INFO scheduler Scheduled Job Start: frappe.email.doctype.email_account.email_account.pull for hr_management
2021-09-02 20:49:01,134 INFO scheduler Scheduled Job Complete: frappe.email.doctype.email_account.email_account.pull for hr_management
2021-09-02 20:49:01,228 INFO scheduler Scheduled Job Start: frappe.email.queue.flush for hr_management
2021-09-02 20:49:01,498 INFO scheduler Scheduled Job Complete: frappe.email.queue.flush for hr_management
2021-09-02 20:49:57,419 DEBUG scheduler Queued events for site hr_management
2021-09-02 20:50:57,813 DEBUG scheduler Queued events for site hr_management
2021-09-02 20:51:58,163 DEBUG scheduler Queued events for site hr_management
2021-09-02 20:52:58,583 DEBUG scheduler Queued events for site hr_management
2021-09-02 20:53:00,875 INFO scheduler Scheduled Job Start: frappe.monitor.flush for hr_management
2021-09-02 20:53:01,114 INFO scheduler Scheduled Job Complete: frappe.monitor.flush for hr_management
2021-09-02 20:53:01,211 INFO scheduler Scheduled Job Start: frappe.utils.global_search.sync_global_search for hr_management
2021-09-02 20:53:01,480 INFO scheduler Scheduled Job Complete: frappe.utils.global_search.sync_global_search for hr_management
2021-09-02 20:53:01,572 INFO scheduler Scheduled Job Start: frappe.integrations.doctype.razorpay_settings.razorpay_settings.capture_payment for hr_management
2021-09-02 20:53:01,960 INFO scheduler Scheduled Job Complete: frappe.integrations.doctype.razorpay_settings.razorpay_settings.capture_payment for hr_management
2021-09-02 20:53:02,046 INFO scheduler Scheduled Job Start: frappe.email.doctype.email_account.email_account.notify_unreplied for hr_management
2021-09-02 20:53:02,348 INFO scheduler Scheduled Job Complete: frappe.email.doctype.email_account.email_account.notify_unreplied for hr_management
2021-09-02 20:53:02,446 INFO scheduler Scheduled Job Start: frappe.email.doctype.email_account.email_account.pull for hr_management
2021-09-02 20:53:02,798 INFO scheduler Scheduled Job Complete: frappe.email.doctype.email_account.email_account.pull for hr_management
2021-09-02 20:53:02,899 INFO scheduler Scheduled Job Start: frappe.email.queue.flush for hr_management
2021-09-02 20:53:03,188 INFO scheduler Scheduled Job Complete: frappe.email.queue.flush for hr_management
2021-09-02 20:53:58,991 DEBUG scheduler Queued events for site hr_management
2021-09-02 20:54:59,387 DEBUG scheduler Queued events for site hr_management
2021-09-02 20:55:59,783 DEBUG scheduler Queued events for site hr_management
2021-09-02 20:57:00,240 DEBUG scheduler Queued events for site hr_management
2021-09-02 20:57:02,553 INFO scheduler Scheduled Job Start: frappe.monitor.flush for hr_management
2021-09-02 20:57:02,799 INFO scheduler Scheduled Job Complete: frappe.monitor.flush for hr_management
2021-09-02 20:57:02,884 INFO scheduler Scheduled Job Start: frappe.utils.global_search.sync_global_search for hr_management
2021-09-02 20:57:03,127 INFO scheduler Scheduled Job Complete: frappe.utils.global_search.sync_global_search for hr_management
2021-09-02 20:57:03,251 INFO scheduler Scheduled Job Start: frappe.integrations.doctype.razorpay_settings.razorpay_settings.capture_payment for hr_management
2021-09-02 20:57:03,622 INFO scheduler Scheduled Job Complete: frappe.integrations.doctype.razorpay_settings.razorpay_settings.capture_payment for hr_management
2021-09-02 20:57:03,722 INFO scheduler Scheduled Job Start: frappe.email.doctype.email_account.email_account.notify_unreplied for hr_management
2021-09-02 20:57:04,014 INFO scheduler Scheduled Job Complete: frappe.email.doctype.email_account.email_account.notify_unreplied for hr_management
2021-09-02 20:57:04,115 INFO scheduler Scheduled Job Start: frappe.email.doctype.email_account.email_account.pull for hr_management
2021-09-02 20:57:04,473 INFO scheduler Scheduled Job Complete: frappe.email.doctype.email_account.email_account.pull for hr_management
2021-09-02 20:57:04,566 INFO scheduler Scheduled Job Start: frappe.email.queue.flush for hr_management
2021-09-02 20:57:04,826 INFO scheduler Scheduled Job Complete: frappe.email.queue.flush for hr_management
2021-09-02 20:58:00,673 DEBUG scheduler Queued events for site hr_management
2021-09-02 20:59:01,027 DEBUG scheduler Queued events for site hr_management
2021-09-02 21:00:01,725 DEBUG scheduler Queued events for site hr_management
2021-09-02 21:00:09,506 INFO scheduler Scheduled Job Start: frappe.email.doctype.newsletter.newsletter.send_scheduled_email for hr_management
2021-09-02 21:00:09,966 INFO scheduler Scheduled Job Complete: frappe.email.doctype.newsletter.newsletter.send_scheduled_email for hr_management
2021-09-02 21:00:10,062 INFO scheduler Scheduled Job Start: frappe.integrations.doctype.google_calendar.google_calendar.sync for hr_management
2021-09-02 21:00:10,628 INFO scheduler Scheduled Job Complete: frappe.integrations.doctype.google_calendar.google_calendar.sync for hr_management
2021-09-02 21:00:10,737 INFO scheduler Scheduled Job Start: frappe.desk.form.document_follow.send_hourly_updates for hr_management
2021-09-02 21:00:11,082 INFO scheduler Scheduled Job Complete: frappe.desk.form.document_follow.send_hourly_updates for hr_management
2021-09-02 21:00:11,181 INFO scheduler Scheduled Job Start: frappe.deferred_insert.save_to_db for hr_management
2021-09-02 21:00:11,532 INFO scheduler Scheduled Job Complete: frappe.deferred_insert.save_to_db for hr_management
2021-09-02 21:00:11,622 INFO scheduler Scheduled Job Start: frappe.desk.page.backups.backups.delete_downloadable_backups for hr_management
2021-09-02 21:00:12,011 INFO scheduler Scheduled Job Complete: frappe.desk.page.backups.backups.delete_downloadable_backups for hr_management
2021-09-02 21:00:12,106 INFO scheduler Scheduled Job Start: frappe.utils.error.collect_error_snapshots for hr_management
2021-09-02 21:00:12,493 INFO scheduler Scheduled Job Complete: frappe.utils.error.collect_error_snapshots for hr_management
2021-09-02 21:00:12,599 INFO scheduler Scheduled Job Start: frappe.model.utils.user_settings.sync_user_settings for hr_management
2021-09-02 21:00:12,967 INFO scheduler Scheduled Job Complete: frappe.model.utils.user_settings.sync_user_settings for hr_management
2021-09-02 21:00:13,069 INFO scheduler Scheduled Job Start: frappe.model.utils.link_count.update_link_count for hr_management
2021-09-02 21:00:13,424 INFO scheduler Scheduled Job Complete: frappe.model.utils.link_count.update_link_count for hr_management
2021-09-02 21:00:13,527 INFO scheduler Scheduled Job Start: frappe.monitor.flush for hr_management
2021-09-02 21:00:13,770 INFO scheduler Scheduled Job Complete: frappe.monitor.flush for hr_management
2021-09-02 21:00:13,858 INFO scheduler Scheduled Job Start: frappe.utils.global_search.sync_global_search for hr_management
2021-09-02 21:00:14,105 INFO scheduler Scheduled Job Complete: frappe.utils.global_search.sync_global_search for hr_management
2021-09-02 21:00:14,208 INFO scheduler Scheduled Job Start: frappe.integrations.doctype.razorpay_settings.razorpay_settings.capture_payment for hr_management
2021-09-02 21:00:14,573 INFO scheduler Scheduled Job Complete: frappe.integrations.doctype.razorpay_settings.razorpay_settings.capture_payment for hr_management
2021-09-02 21:00:14,671 INFO scheduler Scheduled Job Start: frappe.email.doctype.email_account.email_account.notify_unreplied for hr_management
2021-09-02 21:00:14,971 INFO scheduler Scheduled Job Complete: frappe.email.doctype.email_account.email_account.notify_unreplied for hr_management
2021-09-02 21:00:15,073 INFO scheduler Scheduled Job Start: frappe.email.doctype.email_account.email_account.pull for hr_management
2021-09-02 21:00:15,400 INFO scheduler Scheduled Job Complete: frappe.email.doctype.email_account.email_account.pull for hr_management
2021-09-02 21:00:15,494 INFO scheduler Scheduled Job Start: frappe.email.queue.flush for hr_management
2021-09-02 21:00:15,758 INFO scheduler Scheduled Job Complete: frappe.email.queue.flush for hr_management
2021-09-02 21:00:15,846 INFO scheduler Scheduled Job Start: frappe.twofactor.delete_all_barcodes_for_users for hr_management
2021-09-02 21:00:16,259 INFO scheduler Scheduled Job Complete: frappe.twofactor.delete_all_barcodes_for_users for hr_management
2021-09-02 21:00:16,358 INFO scheduler Scheduled Job Start: frappe.website.doctype.web_page.web_page.check_publish_status for hr_management
2021-09-02 21:00:16,794 INFO scheduler Scheduled Job Complete: frappe.website.doctype.web_page.web_page.check_publish_status for hr_management
2021-09-02 21:00:16,908 INFO scheduler Scheduled Job Start: frappe.oauth.delete_oauth2_data for hr_management
2021-09-02 21:00:17,300 INFO scheduler Scheduled Job Complete: frappe.oauth.delete_oauth2_data for hr_management
2021-09-02 21:01:02,145 DEBUG scheduler Queued events for site hr_management
2021-09-02 21:02:02,525 DEBUG scheduler Queued events for site hr_management
2021-09-02 21:03:02,876 DEBUG scheduler Queued events for site hr_management
2021-09-02 21:04:03,303 DEBUG scheduler Queued events for site hr_management
2021-09-02 21:04:05,533 INFO scheduler Scheduled Job Start: frappe.monitor.flush for hr_management
2021-09-02 21:04:05,780 INFO scheduler Scheduled Job Complete: frappe.monitor.flush for hr_management
2021-09-02 21:04:05,861 INFO scheduler Scheduled Job Start: frappe.utils.global_search.sync_global_search for hr_management
2021-09-02 21:04:06,100 INFO scheduler Scheduled Job Complete: frappe.utils.global_search.sync_global_search for hr_management
2021-09-02 21:04:06,208 INFO scheduler Scheduled Job Start: frappe.integrations.doctype.razorpay_settings.razorpay_settings.capture_payment for hr_management
2021-09-02 21:04:06,567 INFO scheduler Scheduled Job Complete: frappe.integrations.doctype.razorpay_settings.razorpay_settings.capture_payment for hr_management
2021-09-02 21:04:06,650 INFO scheduler Scheduled Job Start: frappe.email.doctype.email_account.email_account.notify_unreplied for hr_management
2021-09-02 21:04:06,955 INFO scheduler Scheduled Job Complete: frappe.email.doctype.email_account.email_account.notify_unreplied for hr_management
2021-09-02 21:04:07,051 INFO scheduler Scheduled Job Start: frappe.email.doctype.email_account.email_account.pull for hr_management
2021-09-02 21:04:07,387 INFO scheduler Scheduled Job Complete: frappe.email.doctype.email_account.email_account.pull for hr_management
2021-09-02 21:04:07,479 INFO scheduler Scheduled Job Start: frappe.email.queue.flush for hr_management
2021-09-02 21:04:07,758 INFO scheduler Scheduled Job Complete: frappe.email.queue.flush for hr_management
2021-09-02 21:05:03,729 DEBUG scheduler Queued events for site hr_management
2021-09-02 21:06:04,057 DEBUG scheduler Queued events for site hr_management
2021-09-02 21:07:04,458 DEBUG scheduler Queued events for site hr_management
2021-09-02 21:08:04,889 DEBUG scheduler Queued events for site hr_management
2021-09-02 21:08:07,143 INFO scheduler Scheduled Job Start: frappe.monitor.flush for hr_management
2021-09-02 21:08:07,403 INFO scheduler Scheduled Job Complete: frappe.monitor.flush for hr_management
2021-09-02 21:08:07,501 INFO scheduler Scheduled Job Start: frappe.utils.global_search.sync_global_search for hr_management
2021-09-02 21:08:07,770 INFO scheduler Scheduled Job Complete: frappe.utils.global_search.sync_global_search for hr_management
2021-09-02 21:08:07,856 INFO scheduler Scheduled Job Start: frappe.integrations.doctype.razorpay_settings.razorpay_settings.capture_payment for hr_management
2021-09-02 21:08:08,242 INFO scheduler Scheduled Job Complete: frappe.integrations.doctype.razorpay_settings.razorpay_settings.capture_payment for hr_management
2021-09-02 21:08:08,339 INFO scheduler Scheduled Job Start: frappe.email.doctype.email_account.email_account.notify_unreplied for hr_management
2021-09-02 21:08:08,655 INFO scheduler Scheduled Job Complete: frappe.email.doctype.email_account.email_account.notify_unreplied for hr_management
2021-09-02 21:08:08,751 INFO scheduler Scheduled Job Start: frappe.email.doctype.email_account.email_account.pull for hr_management
2021-09-02 21:08:09,070 INFO scheduler Scheduled Job Complete: frappe.email.doctype.email_account.email_account.pull for hr_management
2021-09-02 21:08:09,162 INFO scheduler Scheduled Job Start: frappe.email.queue.flush for hr_management
2021-09-02 21:08:09,436 INFO scheduler Scheduled Job Complete: frappe.email.queue.flush for hr_management
2021-09-02 21:09:05,332 DEBUG scheduler Queued events for site hr_management
2021-09-02 21:10:05,700 DEBUG scheduler Queued events for site hr_management
2021-09-02 21:11:06,077 DEBUG scheduler Queued events for site hr_management
2021-09-02 21:12:06,547 DEBUG scheduler Queued events for site hr_management
2021-09-02 21:12:08,832 INFO scheduler Scheduled Job Start: frappe.monitor.flush for hr_management
2021-09-02 21:12:09,074 INFO scheduler Scheduled Job Complete: frappe.monitor.flush for hr_management
2021-09-02 21:12:09,169 INFO scheduler Scheduled Job Start: frappe.utils.global_search.sync_global_search for hr_management
2021-09-02 21:12:09,425 INFO scheduler Scheduled Job Complete: frappe.utils.global_search.sync_global_search for hr_management
2021-09-02 21:12:09,518 INFO scheduler Scheduled Job Start: frappe.integrations.doctype.razorpay_settings.razorpay_settings.capture_payment for hr_management
2021-09-02 21:12:09,895 INFO scheduler Scheduled Job Complete: frappe.integrations.doctype.razorpay_settings.razorpay_settings.capture_payment for hr_management
2021-09-02 21:12:09,991 INFO scheduler Scheduled Job Start: frappe.email.doctype.email_account.email_account.notify_unreplied for hr_management
2021-09-02 21:12:10,327 INFO scheduler Scheduled Job Complete: frappe.email.doctype.email_account.email_account.notify_unreplied for hr_management
2021-09-02 21:12:10,422 INFO scheduler Scheduled Job Start: frappe.email.doctype.email_account.email_account.pull for hr_management
2021-09-02 21:12:10,759 INFO scheduler Scheduled Job Complete: frappe.email.doctype.email_account.email_account.pull for hr_management
2021-09-02 21:12:10,859 INFO scheduler Scheduled Job Start: frappe.email.queue.flush for hr_management
2021-09-02 21:12:11,115 INFO scheduler Scheduled Job Complete: frappe.email.queue.flush for hr_management
2021-09-02 21:13:06,977 DEBUG scheduler Queued events for site hr_management
2021-09-02 21:14:07,359 DEBUG scheduler Queued events for site hr_management
2021-09-02 21:15:07,745 DEBUG scheduler Queued events for site hr_management
2021-09-02 21:15:09,242 INFO scheduler Scheduled Job Start: frappe.twofactor.delete_all_barcodes_for_users for hr_management
2021-09-02 21:15:09,611 INFO scheduler Scheduled Job Complete: frappe.twofactor.delete_all_barcodes_for_users for hr_management
2021-09-02 21:15:09,716 INFO scheduler Scheduled Job Start: frappe.website.doctype.web_page.web_page.check_publish_status for hr_management
2021-09-02 21:15:10,152 INFO scheduler Scheduled Job Complete: frappe.website.doctype.web_page.web_page.check_publish_status for hr_management
2021-09-02 21:15:10,257 INFO scheduler Scheduled Job Start: frappe.oauth.delete_oauth2_data for hr_management
2021-09-02 21:15:10,621 INFO scheduler Scheduled Job Complete: frappe.oauth.delete_oauth2_data for hr_management
2021-09-02 21:16:08,263 DEBUG scheduler Queued events for site hr_management
2021-09-02 21:16:10,509 INFO scheduler Scheduled Job Start: frappe.monitor.flush for hr_management
2021-09-02 21:16:10,750 INFO scheduler Scheduled Job Complete: frappe.monitor.flush for hr_management
2021-09-02 21:16:10,840 INFO scheduler Scheduled Job Start: frappe.utils.global_search.sync_global_search for hr_management
2021-09-02 21:16:11,080 INFO scheduler Scheduled Job Complete: frappe.utils.global_search.sync_global_search for hr_management
2021-09-02 21:16:11,174 INFO scheduler Scheduled Job Start: frappe.integrations.doctype.razorpay_settings.razorpay_settings.capture_payment for hr_management
2021-09-02 21:16:11,545 INFO scheduler Scheduled Job Complete: frappe.integrations.doctype.razorpay_settings.razorpay_settings.capture_payment for hr_management
2021-09-02 21:16:11,648 INFO scheduler Scheduled Job Start: frappe.email.doctype.email_account.email_account.notify_unreplied for hr_management
2021-09-02 21:16:11,965 INFO scheduler Scheduled Job Complete: frappe.email.doctype.email_account.email_account.notify_unreplied for hr_management
2021-09-02 21:16:12,074 INFO scheduler Scheduled Job Start: frappe.email.doctype.email_account.email_account.pull for hr_management
2021-09-02 21:16:12,432 INFO scheduler Scheduled Job Complete: frappe.email.doctype.email_account.email_account.pull for hr_management
2021-09-02 21:16:12,526 INFO scheduler Scheduled Job Start: frappe.email.queue.flush for hr_management
2021-09-02 21:16:12,817 INFO scheduler Scheduled Job Complete: frappe.email.queue.flush for hr_management
2021-09-02 21:17:08,668 DEBUG scheduler Queued events for site hr_management
2021-09-02 21:18:08,979 DEBUG scheduler Queued events for site hr_management
2021-09-02 21:19:09,354 DEBUG scheduler Queued events for site hr_management
2021-09-02 21:20:09,755 DEBUG scheduler Queued events for site hr_management
2021-09-02 21:20:12,079 INFO scheduler Scheduled Job Start: frappe.monitor.flush for hr_management
2021-09-02 21:20:12,339 INFO scheduler Scheduled Job Complete: frappe.monitor.flush for hr_management
2021-09-02 21:20:12,431 INFO scheduler Scheduled Job Start: frappe.utils.global_search.sync_global_search for hr_management
2021-09-02 21:20:12,681 INFO scheduler Scheduled Job Complete: frappe.utils.global_search.sync_global_search for hr_management
2021-09-02 21:20:12,776 INFO scheduler Scheduled Job Start: frappe.integrations.doctype.razorpay_settings.razorpay_settings.capture_payment for hr_management
2021-09-02 21:20:13,160 INFO scheduler Scheduled Job Complete: frappe.integrations.doctype.razorpay_settings.razorpay_settings.capture_payment for hr_management
2021-09-02 21:20:13,249 INFO scheduler Scheduled Job Start: frappe.email.doctype.email_account.email_account.notify_unreplied for hr_management
2021-09-02 21:20:13,542 INFO scheduler Scheduled Job Complete: frappe.email.doctype.email_account.email_account.notify_unreplied for hr_management
2021-09-02 21:20:13,627 INFO scheduler Scheduled Job Start: frappe.email.doctype.email_account.email_account.pull for hr_management
2021-09-02 21:20:13,982 INFO scheduler Scheduled Job Complete: frappe.email.doctype.email_account.email_account.pull for hr_management
2021-09-02 21:20:14,076 INFO scheduler Scheduled Job Start: frappe.email.queue.flush for hr_management
2021-09-02 21:20:14,346 INFO scheduler Scheduled Job Complete: frappe.email.queue.flush for hr_management
2021-09-02 21:21:10,161 DEBUG scheduler Queued events for site hr_management
2021-09-02 21:22:10,518 DEBUG scheduler Queued events for site hr_management
2021-09-02 21:23:10,851 DEBUG scheduler Queued events for site hr_management
2021-09-02 21:24:11,334 DEBUG scheduler Queued events for site hr_management
2021-09-02 21:24:13,548 INFO scheduler Scheduled Job Start: frappe.monitor.flush for hr_management
2021-09-02 21:24:13,777 INFO scheduler Scheduled Job Complete: frappe.monitor.flush for hr_management
2021-09-02 21:24:13,868 INFO scheduler Scheduled Job Start: frappe.utils.global_search.sync_global_search for hr_management
2021-09-02 21:24:14,111 INFO scheduler Scheduled Job Complete: frappe.utils.global_search.sync_global_search for hr_management
2021-09-02 21:24:14,215 INFO scheduler Scheduled Job Start: frappe.integrations.doctype.razorpay_settings.razorpay_settings.capture_payment for hr_management
2021-09-02 21:24:14,597 INFO scheduler Scheduled Job Complete: frappe.integrations.doctype.razorpay_settings.razorpay_settings.capture_payment for hr_management
2021-09-02 21:24:14,682 INFO scheduler Scheduled Job Start: frappe.email.doctype.email_account.email_account.notify_unreplied for hr_management
2021-09-02 21:24:15,008 INFO scheduler Scheduled Job Complete: frappe.email.doctype.email_account.email_account.notify_unreplied for hr_management
2021-09-02 21:24:15,106 INFO scheduler Scheduled Job Start: frappe.email.doctype.email_account.email_account.pull for hr_management
2021-09-02 21:24:15,436 INFO scheduler Scheduled Job Complete: frappe.email.doctype.email_account.email_account.pull for hr_management
2021-09-02 21:24:15,524 INFO scheduler Scheduled Job Start: frappe.email.queue.flush for hr_management
2021-09-02 21:24:15,789 INFO scheduler Scheduled Job Complete: frappe.email.queue.flush for hr_management
2021-09-02 21:25:11,773 DEBUG scheduler Queued events for site hr_management
2021-09-02 21:26:12,131 DEBUG scheduler Queued events for site hr_management
2021-09-02 21:27:12,497 DEBUG scheduler Queued events for site hr_management
2021-09-02 21:28:12,975 DEBUG scheduler Queued events for site hr_management
2021-09-02 21:28:15,235 INFO scheduler Scheduled Job Start: frappe.monitor.flush for hr_management
2021-09-02 21:28:15,479 INFO scheduler Scheduled Job Complete: frappe.monitor.flush for hr_management
2021-09-02 21:28:15,580 INFO scheduler Scheduled Job Start: frappe.utils.global_search.sync_global_search for hr_management
2021-09-02 21:28:15,824 INFO scheduler Scheduled Job Complete: frappe.utils.global_search.sync_global_search for hr_management
2021-09-02 21:28:15,913 INFO scheduler Scheduled Job Start: frappe.integrations.doctype.razorpay_settings.razorpay_settings.capture_payment for hr_management
2021-09-02 21:28:16,313 INFO scheduler Scheduled Job Complete: frappe.integrations.doctype.razorpay_settings.razorpay_settings.capture_payment for hr_management
2021-09-02 21:28:16,404 INFO scheduler Scheduled Job Start: frappe.email.doctype.email_account.email_account.notify_unreplied for hr_management
2021-09-02 21:28:16,730 INFO scheduler Scheduled Job Complete: frappe.email.doctype.email_account.email_account.notify_unreplied for hr_management
2021-09-02 21:28:16,818 INFO scheduler Scheduled Job Start: frappe.email.doctype.email_account.email_account.pull for hr_management
2021-09-02 21:28:17,134 INFO scheduler Scheduled Job Complete: frappe.email.doctype.email_account.email_account.pull for hr_management
2021-09-02 21:28:17,229 INFO scheduler Scheduled Job Start: frappe.email.queue.flush for hr_management
2021-09-02 21:28:17,491 INFO scheduler Scheduled Job Complete: frappe.email.queue.flush for hr_management
2021-09-02 21:29:13,408 DEBUG scheduler Queued events for site hr_management
2021-09-02 21:30:13,843 DEBUG scheduler Queued events for site hr_management
2021-09-02 21:30:15,331 INFO scheduler Scheduled Job Start: frappe.twofactor.delete_all_barcodes_for_users for hr_management
2021-09-02 21:30:15,717 INFO scheduler Scheduled Job Complete: frappe.twofactor.delete_all_barcodes_for_users for hr_management
2021-09-02 21:30:15,821 INFO scheduler Scheduled Job Start: frappe.website.doctype.web_page.web_page.check_publish_status for hr_management
2021-09-02 21:30:16,251 INFO scheduler Scheduled Job Complete: frappe.website.doctype.web_page.web_page.check_publish_status for hr_management
2021-09-02 21:30:16,345 INFO scheduler Scheduled Job Start: frappe.oauth.delete_oauth2_data for hr_management
2021-09-02 21:30:16,740 INFO scheduler Scheduled Job Complete: frappe.oauth.delete_oauth2_data for hr_management
2021-09-02 21:31:14,276 DEBUG scheduler Queued events for site hr_management
2021-09-02 21:32:14,710 DEBUG scheduler Queued events for site hr_management
2021-09-02 21:32:17,010 INFO scheduler Scheduled Job Start: frappe.monitor.flush for hr_management
2021-09-02 21:32:17,277 INFO scheduler Scheduled Job Complete: frappe.monitor.flush for hr_management
2021-09-02 21:32:17,369 INFO scheduler Scheduled Job Start: frappe.utils.global_search.sync_global_search for hr_management
2021-09-02 21:32:17,621 INFO scheduler Scheduled Job Complete: frappe.utils.global_search.sync_global_search for hr_management
2021-09-02 21:32:17,723 INFO scheduler Scheduled Job Start: frappe.integrations.doctype.razorpay_settings.razorpay_settings.capture_payment for hr_management
2021-09-02 21:32:18,098 INFO scheduler Scheduled Job Complete: frappe.integrations.doctype.razorpay_settings.razorpay_settings.capture_payment for hr_management
2021-09-02 21:32:18,192 INFO scheduler Scheduled Job Start: frappe.email.doctype.email_account.email_account.notify_unreplied for hr_management
2021-09-02 21:32:18,513 INFO scheduler Scheduled Job Complete: frappe.email.doctype.email_account.email_account.notify_unreplied for hr_management
2021-09-02 21:32:18,600 INFO scheduler Scheduled Job Start: frappe.email.doctype.email_account.email_account.pull for hr_management
2021-09-02 21:32:18,921 INFO scheduler Scheduled Job Complete: frappe.email.doctype.email_account.email_account.pull for hr_management
2021-09-02 21:32:19,019 INFO scheduler Scheduled Job Start: frappe.email.queue.flush for hr_management
2021-09-02 21:32:19,293 INFO scheduler Scheduled Job Complete: frappe.email.queue.flush for hr_management
2021-09-02 21:33:15,134 DEBUG scheduler Queued events for site hr_management
2021-09-02 21:34:15,491 DEBUG scheduler Queued events for site hr_management
2021-09-02 21:35:15,856 DEBUG scheduler Queued events for site hr_management
2021-09-02 21:36:16,293 DEBUG scheduler Queued events for site hr_management
2021-09-02 21:36:18,600 INFO scheduler Scheduled Job Start: frappe.monitor.flush for hr_management
2021-09-02 21:36:18,853 INFO scheduler Scheduled Job Complete: frappe.monitor.flush for hr_management
2021-09-02 21:36:18,948 INFO scheduler Scheduled Job Start: frappe.utils.global_search.sync_global_search for hr_management
2021-09-02 21:36:19,203 INFO scheduler Scheduled Job Complete: frappe.utils.global_search.sync_global_search for hr_management
2021-09-02 21:36:19,301 INFO scheduler Scheduled Job Start: frappe.integrations.doctype.razorpay_settings.razorpay_settings.capture_payment for hr_management
2021-09-02 21:36:19,669 INFO scheduler Scheduled Job Complete: frappe.integrations.doctype.razorpay_settings.razorpay_settings.capture_payment for hr_management
2021-09-02 21:36:19,770 INFO scheduler Scheduled Job Start: frappe.email.doctype.email_account.email_account.notify_unreplied for hr_management
2021-09-02 21:36:20,078 INFO scheduler Scheduled Job Complete: frappe.email.doctype.email_account.email_account.notify_unreplied for hr_management
2021-09-02 21:36:20,175 INFO scheduler Scheduled Job Start: frappe.email.doctype.email_account.email_account.pull for hr_management
2021-09-02 21:36:20,515 INFO scheduler Scheduled Job Complete: frappe.email.doctype.email_account.email_account.pull for hr_management
2021-09-02 21:36:20,614 INFO scheduler Scheduled Job Start: frappe.email.queue.flush for hr_management
2021-09-02 21:36:20,882 INFO scheduler Scheduled Job Complete: frappe.email.queue.flush for hr_management
2021-09-02 21:37:16,707 DEBUG scheduler Queued events for site hr_management
2021-09-02 21:38:17,081 DEBUG scheduler Queued events for site hr_management
2021-09-02 21:39:17,467 DEBUG scheduler Queued events for site hr_management
2021-09-02 21:40:17,910 DEBUG scheduler Queued events for site hr_management
2021-09-02 21:40:20,194 INFO scheduler Scheduled Job Start: frappe.monitor.flush for hr_management
2021-09-02 21:40:20,438 INFO scheduler Scheduled Job Complete: frappe.monitor.flush for hr_management
2021-09-02 21:40:20,539 INFO scheduler Scheduled Job Start: frappe.utils.global_search.sync_global_search for hr_management
2021-09-02 21:40:20,809 INFO scheduler Scheduled Job Complete: frappe.utils.global_search.sync_global_search for hr_management
2021-09-02 21:40:20,908 INFO scheduler Scheduled Job Start: frappe.integrations.doctype.razorpay_settings.razorpay_settings.capture_payment for hr_management
2021-09-02 21:40:21,275 INFO scheduler Scheduled Job Complete: frappe.integrations.doctype.razorpay_settings.razorpay_settings.capture_payment for hr_management
2021-09-02 21:40:21,378 INFO scheduler Scheduled Job Start: frappe.email.doctype.email_account.email_account.notify_unreplied for hr_management
2021-09-02 21:40:21,694 INFO scheduler Scheduled Job Complete: frappe.email.doctype.email_account.email_account.notify_unreplied for hr_management
2021-09-02 21:40:21,781 INFO scheduler Scheduled Job Start: frappe.email.doctype.email_account.email_account.pull for hr_management
2021-09-02 21:40:22,103 INFO scheduler Scheduled Job Complete: frappe.email.doctype.email_account.email_account.pull for hr_management
2021-09-02 21:40:22,196 INFO scheduler Scheduled Job Start: frappe.email.queue.flush for hr_management
2021-09-02 21:40:22,462 INFO scheduler Scheduled Job Complete: frappe.email.queue.flush for hr_management
2021-09-02 21:41:18,334 DEBUG scheduler Queued events for site hr_management
2021-09-02 21:42:18,708 DEBUG scheduler Queued events for site hr_management
2021-09-02 21:43:19,082 DEBUG scheduler Queued events for site hr_management
2021-09-02 21:44:19,491 DEBUG scheduler Queued events for site hr_management
2021-09-02 21:44:21,762 INFO scheduler Scheduled Job Start: frappe.monitor.flush for hr_management
2021-09-02 21:44:22,008 INFO scheduler Scheduled Job Complete: frappe.monitor.flush for hr_management
2021-09-02 21:44:22,095 INFO scheduler Scheduled Job Start: frappe.utils.global_search.sync_global_search for hr_management
2021-09-02 21:44:22,358 INFO scheduler Scheduled Job Complete: frappe.utils.global_search.sync_global_search for hr_management
2021-09-02 21:44:22,456 INFO scheduler Scheduled Job Start: frappe.integrations.doctype.razorpay_settings.razorpay_settings.capture_payment for hr_management
2021-09-02 21:44:22,817 INFO scheduler Scheduled Job Complete: frappe.integrations.doctype.razorpay_settings.razorpay_settings.capture_payment for hr_management
2021-09-02 21:44:22,912 INFO scheduler Scheduled Job Start: frappe.email.doctype.email_account.email_account.notify_unreplied for hr_management
2021-09-02 21:44:23,223 INFO scheduler Scheduled Job Complete: frappe.email.doctype.email_account.email_account.notify_unreplied for hr_management
2021-09-02 21:44:23,310 INFO scheduler Scheduled Job Start: frappe.email.doctype.email_account.email_account.pull for hr_management
2021-09-02 21:44:23,643 INFO scheduler Scheduled Job Complete: frappe.email.doctype.email_account.email_account.pull for hr_management
2021-09-02 21:44:23,735 INFO scheduler Scheduled Job Start: frappe.email.queue.flush for hr_management
2021-09-02 21:44:23,985 INFO scheduler Scheduled Job Complete: frappe.email.queue.flush for hr_management
2021-09-02 21:45:19,961 DEBUG scheduler Queued events for site hr_management
2021-09-02 21:45:21,429 INFO scheduler Scheduled Job Start: frappe.twofactor.delete_all_barcodes_for_users for hr_management
2021-09-02 21:45:21,823 INFO scheduler Scheduled Job Complete: frappe.twofactor.delete_all_barcodes_for_users for hr_management
2021-09-02 21:45:21,935 INFO scheduler Scheduled Job Start: frappe.website.doctype.web_page.web_page.check_publish_status for hr_management
2021-09-02 21:45:22,402 INFO scheduler Scheduled Job Complete: frappe.website.doctype.web_page.web_page.check_publish_status for hr_management
2021-09-02 21:45:22,505 INFO scheduler Scheduled Job Start: frappe.oauth.delete_oauth2_data for hr_management
2021-09-02 21:45:22,894 INFO scheduler Scheduled Job Complete: frappe.oauth.delete_oauth2_data for hr_management
2021-09-02 21:46:20,396 DEBUG scheduler Queued events for site hr_management
2021-09-02 21:47:20,762 DEBUG scheduler Queued events for site hr_management
2021-09-02 21:48:21,195 DEBUG scheduler Queued events for site hr_management
2021-09-02 21:48:23,494 INFO scheduler Scheduled Job Start: frappe.monitor.flush for hr_management
2021-09-02 21:48:23,756 INFO scheduler Scheduled Job Complete: frappe.monitor.flush for hr_management
2021-09-02 21:48:23,841 INFO scheduler Scheduled Job Start: frappe.utils.global_search.sync_global_search for hr_management
2021-09-02 21:48:24,096 INFO scheduler Scheduled Job Complete: frappe.utils.global_search.sync_global_search for hr_management
2021-09-02 21:48:24,194 INFO scheduler Scheduled Job Start: frappe.integrations.doctype.razorpay_settings.razorpay_settings.capture_payment for hr_management
2021-09-02 21:48:24,572 INFO scheduler Scheduled Job Complete: frappe.integrations.doctype.razorpay_settings.razorpay_settings.capture_payment for hr_management
2021-09-02 21:48:24,670 INFO scheduler Scheduled Job Start: frappe.email.doctype.email_account.email_account.notify_unreplied for hr_management
2021-09-02 21:48:24,970 INFO scheduler Scheduled Job Complete: frappe.email.doctype.email_account.email_account.notify_unreplied for hr_management
2021-09-02 21:48:25,062 INFO scheduler Scheduled Job Start: frappe.email.doctype.email_account.email_account.pull for hr_management
2021-09-02 21:48:25,380 INFO scheduler Scheduled Job Complete: frappe.email.doctype.email_account.email_account.pull for hr_management
2021-09-02 21:48:25,471 INFO scheduler Scheduled Job Start: frappe.email.queue.flush for hr_management
2021-09-02 21:48:25,742 INFO scheduler Scheduled Job Complete: frappe.email.queue.flush for hr_management
2021-09-02 21:49:21,610 DEBUG scheduler Queued events for site hr_management
2021-09-02 21:50:22,015 DEBUG scheduler Queued events for site hr_management
2021-09-02 21:51:22,376 DEBUG scheduler Queued events for site hr_management
2021-09-02 21:52:22,807 DEBUG scheduler Queued events for site hr_management
2021-09-02 21:52:25,090 INFO scheduler Scheduled Job Start: frappe.monitor.flush for hr_management
2021-09-02 21:52:25,374 INFO scheduler Scheduled Job Complete: frappe.monitor.flush for hr_management
2021-09-02 21:52:25,467 INFO scheduler Scheduled Job Start: frappe.utils.global_search.sync_global_search for hr_management
2021-09-02 21:52:25,727 INFO scheduler Scheduled Job Complete: frappe.utils.global_search.sync_global_search for hr_management
2021-09-02 21:52:25,834 INFO scheduler Scheduled Job Start: frappe.integrations.doctype.razorpay_settings.razorpay_settings.capture_payment for hr_management
2021-09-02 21:52:26,232 INFO scheduler Scheduled Job Complete: frappe.integrations.doctype.razorpay_settings.razorpay_settings.capture_payment for hr_management
2021-09-02 21:52:26,334 INFO scheduler Scheduled Job Start: frappe.email.doctype.email_account.email_account.notify_unreplied for hr_management
2021-09-02 21:52:26,633 INFO scheduler Scheduled Job Complete: frappe.email.doctype.email_account.email_account.notify_unreplied for hr_management
2021-09-02 21:52:26,741 INFO scheduler Scheduled Job Start: frappe.email.doctype.email_account.email_account.pull for hr_management
2021-09-02 21:52:27,061 INFO scheduler Scheduled Job Complete: frappe.email.doctype.email_account.email_account.pull for hr_management
2021-09-02 21:52:27,157 INFO scheduler Scheduled Job Start: frappe.email.queue.flush for hr_management
2021-09-02 21:52:27,424 INFO scheduler Scheduled Job Complete: frappe.email.queue.flush for hr_management
2021-09-02 21:53:23,225 DEBUG scheduler Queued events for site hr_management
2021-09-02 21:54:23,577 DEBUG scheduler Queued events for site hr_management
2021-09-02 21:55:23,952 DEBUG scheduler Queued events for site hr_management
2021-09-02 21:56:24,441 DEBUG scheduler Queued events for site hr_management
2021-09-02 21:56:26,698 INFO scheduler Scheduled Job Start: frappe.monitor.flush for hr_management
2021-09-02 21:56:26,951 INFO scheduler Scheduled Job Complete: frappe.monitor.flush for hr_management
2021-09-02 21:56:27,037 INFO scheduler Scheduled Job Start: frappe.utils.global_search.sync_global_search for hr_management
2021-09-02 21:56:27,292 INFO scheduler Scheduled Job Complete: frappe.utils.global_search.sync_global_search for hr_management
2021-09-02 21:56:27,387 INFO scheduler Scheduled Job Start: frappe.integrations.doctype.razorpay_settings.razorpay_settings.capture_payment for hr_management
2021-09-02 21:56:27,766 INFO scheduler Scheduled Job Complete: frappe.integrations.doctype.razorpay_settings.razorpay_settings.capture_payment for hr_management
2021-09-02 21:56:27,847 INFO scheduler Scheduled Job Start: frappe.email.doctype.email_account.email_account.notify_unreplied for hr_management
2021-09-02 21:56:28,143 INFO scheduler Scheduled Job Complete: frappe.email.doctype.email_account.email_account.notify_unreplied for hr_management
2021-09-02 21:56:28,252 INFO scheduler Scheduled Job Start: frappe.email.doctype.email_account.email_account.pull for hr_management
2021-09-02 21:56:28,572 INFO scheduler Scheduled Job Complete: frappe.email.doctype.email_account.email_account.pull for hr_management
2021-09-02 21:56:28,657 INFO scheduler Scheduled Job Start: frappe.email.queue.flush for hr_management
2021-09-02 21:56:28,920 INFO scheduler Scheduled Job Complete: frappe.email.queue.flush for hr_management
2021-09-02 21:57:24,857 DEBUG scheduler Queued events for site hr_management
2021-09-02 21:58:25,224 DEBUG scheduler Queued events for site hr_management
2021-09-02 21:59:25,591 DEBUG scheduler Queued events for site hr_management
2021-09-02 22:00:26,243 DEBUG scheduler Queued events for site hr_management
2021-09-02 22:00:33,922 INFO scheduler Scheduled Job Start: frappe.email.doctype.newsletter.newsletter.send_scheduled_email for hr_management
2021-09-02 22:00:34,343 INFO scheduler Scheduled Job Complete: frappe.email.doctype.newsletter.newsletter.send_scheduled_email for hr_management
2021-09-02 22:00:34,439 INFO scheduler Scheduled Job Start: frappe.integrations.doctype.google_calendar.google_calendar.sync for hr_management
2021-09-02 22:00:34,970 INFO scheduler Scheduled Job Complete: frappe.integrations.doctype.google_calendar.google_calendar.sync for hr_management
2021-09-02 22:00:35,066 INFO scheduler Scheduled Job Start: frappe.desk.form.document_follow.send_hourly_updates for hr_management
2021-09-02 22:00:35,493 INFO scheduler Scheduled Job Complete: frappe.desk.form.document_follow.send_hourly_updates for hr_management
2021-09-02 22:00:35,612 INFO scheduler Scheduled Job Start: frappe.deferred_insert.save_to_db for hr_management
2021-09-02 22:00:35,974 INFO scheduler Scheduled Job Complete: frappe.deferred_insert.save_to_db for hr_management
2021-09-02 22:00:36,082 INFO scheduler Scheduled Job Start: frappe.desk.page.backups.backups.delete_downloadable_backups for hr_management
