2021-09-02 09:44:30,093 INFO scheduler Scheduled Job Start: frappe.email.queue.flush for hr_management
2021-09-02 09:44:30,375 INFO scheduler Scheduled Job Complete: frappe.email.queue.flush for hr_management
2021-09-02 09:45:28,359 INFO scheduler Scheduled Job Start: frappe.twofactor.delete_all_barcodes_for_users for hr_management
2021-09-02 09:45:28,761 INFO scheduler Scheduled Job Complete: frappe.twofactor.delete_all_barcodes_for_users for hr_management
2021-09-02 09:45:28,869 INFO scheduler Scheduled Job Start: frappe.website.doctype.web_page.web_page.check_publish_status for hr_management
2021-09-02 09:45:29,322 INFO scheduler Scheduled Job Complete: frappe.website.doctype.web_page.web_page.check_publish_status for hr_management
2021-09-02 09:45:29,431 INFO scheduler Scheduled Job Start: frappe.oauth.delete_oauth2_data for hr_management
2021-09-02 09:45:29,840 INFO scheduler Scheduled Job Complete: frappe.oauth.delete_oauth2_data for hr_management
