2021-09-02 15:53:57,251 DEBUG scheduler Queued events for site hr_management
2021-09-02 15:54:57,617 DEBUG scheduler Queued events for site hr_management
2021-09-02 15:55:57,999 DEBUG scheduler Queued events for site hr_management
2021-09-02 15:56:58,426 DEBUG scheduler Queued events for site hr_management
2021-09-02 15:57:00,718 INFO scheduler Scheduled Job Start: frappe.monitor.flush for hr_management
2021-09-02 15:57:00,985 INFO scheduler Scheduled Job Complete: frappe.monitor.flush for hr_management
2021-09-02 15:57:01,084 INFO scheduler Scheduled Job Start: frappe.utils.global_search.sync_global_search for hr_management
2021-09-02 15:57:01,334 INFO scheduler Scheduled Job Complete: frappe.utils.global_search.sync_global_search for hr_management
2021-09-02 15:57:01,429 INFO scheduler Scheduled Job Start: frappe.integrations.doctype.razorpay_settings.razorpay_settings.capture_payment for hr_management
2021-09-02 15:57:01,812 INFO scheduler Scheduled Job Complete: frappe.integrations.doctype.razorpay_settings.razorpay_settings.capture_payment for hr_management
2021-09-02 15:57:01,908 INFO scheduler Scheduled Job Start: frappe.email.doctype.email_account.email_account.notify_unreplied for hr_management
2021-09-02 15:57:02,218 INFO scheduler Scheduled Job Complete: frappe.email.doctype.email_account.email_account.notify_unreplied for hr_management
2021-09-02 15:57:02,303 INFO scheduler Scheduled Job Start: frappe.email.doctype.email_account.email_account.pull for hr_management
2021-09-02 15:57:02,631 INFO scheduler Scheduled Job Complete: frappe.email.doctype.email_account.email_account.pull for hr_management
2021-09-02 15:57:02,724 INFO scheduler Scheduled Job Start: frappe.email.queue.flush for hr_management
2021-09-02 15:57:02,987 INFO scheduler Scheduled Job Complete: frappe.email.queue.flush for hr_management
2021-09-02 15:57:58,846 DEBUG scheduler Queued events for site hr_management
2021-09-02 15:58:59,233 DEBUG scheduler Queued events for site hr_management
2021-09-02 15:59:59,636 DEBUG scheduler Queued events for site hr_management
2021-09-02 16:01:00,341 DEBUG scheduler Queued events for site hr_management
2021-09-02 16:01:08,073 INFO scheduler Scheduled Job Start: frappe.email.doctype.newsletter.newsletter.send_scheduled_email for hr_management
2021-09-02 16:01:08,520 INFO scheduler Scheduled Job Complete: frappe.email.doctype.newsletter.newsletter.send_scheduled_email for hr_management
2021-09-02 16:01:08,620 INFO scheduler Scheduled Job Start: frappe.integrations.doctype.google_calendar.google_calendar.sync for hr_management
2021-09-02 16:01:09,164 INFO scheduler Scheduled Job Complete: frappe.integrations.doctype.google_calendar.google_calendar.sync for hr_management
2021-09-02 16:01:09,285 INFO scheduler Scheduled Job Start: frappe.desk.form.document_follow.send_hourly_updates for hr_management
2021-09-02 16:01:09,656 INFO scheduler Scheduled Job Complete: frappe.desk.form.document_follow.send_hourly_updates for hr_management
2021-09-02 16:01:09,755 INFO scheduler Scheduled Job Start: frappe.deferred_insert.save_to_db for hr_management
2021-09-02 16:01:10,121 INFO scheduler Scheduled Job Complete: frappe.deferred_insert.save_to_db for hr_management
2021-09-02 16:01:10,218 INFO scheduler Scheduled Job Start: frappe.desk.page.backups.backups.delete_downloadable_backups for hr_management
2021-09-02 16:01:10,613 INFO scheduler Scheduled Job Complete: frappe.desk.page.backups.backups.delete_downloadable_backups for hr_management
2021-09-02 16:01:10,724 INFO scheduler Scheduled Job Start: frappe.utils.error.collect_error_snapshots for hr_management
2021-09-02 16:01:11,096 INFO scheduler Scheduled Job Complete: frappe.utils.error.collect_error_snapshots for hr_management
2021-09-02 16:01:11,200 INFO scheduler Scheduled Job Start: frappe.model.utils.user_settings.sync_user_settings for hr_management
2021-09-02 16:01:11,562 INFO scheduler Scheduled Job Complete: frappe.model.utils.user_settings.sync_user_settings for hr_management
2021-09-02 16:01:11,659 INFO scheduler Scheduled Job Start: frappe.model.utils.link_count.update_link_count for hr_management
2021-09-02 16:01:12,014 INFO scheduler Scheduled Job Complete: frappe.model.utils.link_count.update_link_count for hr_management
2021-09-02 16:01:12,121 INFO scheduler Scheduled Job Start: frappe.monitor.flush for hr_management
2021-09-02 16:01:12,382 INFO scheduler Scheduled Job Complete: frappe.monitor.flush for hr_management
2021-09-02 16:01:12,469 INFO scheduler Scheduled Job Start: frappe.utils.global_search.sync_global_search for hr_management
2021-09-02 16:01:12,751 INFO scheduler Scheduled Job Complete: frappe.utils.global_search.sync_global_search for hr_management
2021-09-02 16:01:12,845 INFO scheduler Scheduled Job Start: frappe.integrations.doctype.razorpay_settings.razorpay_settings.capture_payment for hr_management
2021-09-02 16:01:13,223 INFO scheduler Scheduled Job Complete: frappe.integrations.doctype.razorpay_settings.razorpay_settings.capture_payment for hr_management
2021-09-02 16:01:13,317 INFO scheduler Scheduled Job Start: frappe.email.doctype.email_account.email_account.notify_unreplied for hr_management
2021-09-02 16:01:13,647 INFO scheduler Scheduled Job Complete: frappe.email.doctype.email_account.email_account.notify_unreplied for hr_management
2021-09-02 16:01:13,762 INFO scheduler Scheduled Job Start: frappe.email.doctype.email_account.email_account.pull for hr_management
2021-09-02 16:01:14,097 INFO scheduler Scheduled Job Complete: frappe.email.doctype.email_account.email_account.pull for hr_management
2021-09-02 16:01:14,204 INFO scheduler Scheduled Job Start: frappe.email.queue.flush for hr_management
2021-09-02 16:01:14,485 INFO scheduler Scheduled Job Complete: frappe.email.queue.flush for hr_management
2021-09-02 16:01:14,576 INFO scheduler Scheduled Job Start: frappe.twofactor.delete_all_barcodes_for_users for hr_management
2021-09-02 16:01:14,967 INFO scheduler Scheduled Job Complete: frappe.twofactor.delete_all_barcodes_for_users for hr_management
2021-09-02 16:01:15,058 INFO scheduler Scheduled Job Start: frappe.website.doctype.web_page.web_page.check_publish_status for hr_management
2021-09-02 16:01:15,496 INFO scheduler Scheduled Job Complete: frappe.website.doctype.web_page.web_page.check_publish_status for hr_management
2021-09-02 16:01:15,589 INFO scheduler Scheduled Job Start: frappe.oauth.delete_oauth2_data for hr_management
2021-09-02 16:01:15,986 INFO scheduler Scheduled Job Complete: frappe.oauth.delete_oauth2_data for hr_management
2021-09-02 16:02:00,777 DEBUG scheduler Queued events for site hr_management
2021-09-02 16:03:01,157 DEBUG scheduler Queued events for site hr_management
2021-09-02 16:04:01,652 DEBUG scheduler Queued events for site hr_management
2021-09-02 16:04:03,927 INFO scheduler Scheduled Job Start: frappe.monitor.flush for hr_management
2021-09-02 16:04:04,188 INFO scheduler Scheduled Job Complete: frappe.monitor.flush for hr_management
2021-09-02 16:04:04,290 INFO scheduler Scheduled Job Start: frappe.utils.global_search.sync_global_search for hr_management
2021-09-02 16:04:04,547 INFO scheduler Scheduled Job Complete: frappe.utils.global_search.sync_global_search for hr_management
2021-09-02 16:04:04,639 INFO scheduler Scheduled Job Start: frappe.integrations.doctype.razorpay_settings.razorpay_settings.capture_payment for hr_management
2021-09-02 16:04:05,023 INFO scheduler Scheduled Job Complete: frappe.integrations.doctype.razorpay_settings.razorpay_settings.capture_payment for hr_management
2021-09-02 16:04:05,116 INFO scheduler Scheduled Job Start: frappe.email.doctype.email_account.email_account.notify_unreplied for hr_management
2021-09-02 16:04:05,460 INFO scheduler Scheduled Job Complete: frappe.email.doctype.email_account.email_account.notify_unreplied for hr_management
2021-09-02 16:04:05,549 INFO scheduler Scheduled Job Start: frappe.email.doctype.email_account.email_account.pull for hr_management
2021-09-02 16:04:05,869 INFO scheduler Scheduled Job Complete: frappe.email.doctype.email_account.email_account.pull for hr_management
2021-09-02 16:04:05,973 INFO scheduler Scheduled Job Start: frappe.email.queue.flush for hr_management
2021-09-02 16:04:06,265 INFO scheduler Scheduled Job Complete: frappe.email.queue.flush for hr_management
2021-09-02 16:05:02,091 DEBUG scheduler Queued events for site hr_management
2021-09-02 16:06:02,418 DEBUG scheduler Queued events for site hr_management
2021-09-02 16:07:02,755 DEBUG scheduler Queued events for site hr_management
2021-09-02 16:08:03,277 DEBUG scheduler Queued events for site hr_management
2021-09-02 16:08:05,699 INFO scheduler Scheduled Job Start: frappe.monitor.flush for hr_management
2021-09-02 16:08:05,956 INFO scheduler Scheduled Job Complete: frappe.monitor.flush for hr_management
2021-09-02 16:08:06,046 INFO scheduler Scheduled Job Start: frappe.utils.global_search.sync_global_search for hr_management
2021-09-02 16:08:06,313 INFO scheduler Scheduled Job Complete: frappe.utils.global_search.sync_global_search for hr_management
2021-09-02 16:08:06,411 INFO scheduler Scheduled Job Start: frappe.integrations.doctype.razorpay_settings.razorpay_settings.capture_payment for hr_management
2021-09-02 16:08:06,815 INFO scheduler Scheduled Job Complete: frappe.integrations.doctype.razorpay_settings.razorpay_settings.capture_payment for hr_management
2021-09-02 16:08:06,906 INFO scheduler Scheduled Job Start: frappe.email.doctype.email_account.email_account.notify_unreplied for hr_management
2021-09-02 16:08:07,241 INFO scheduler Scheduled Job Complete: frappe.email.doctype.email_account.email_account.notify_unreplied for hr_management
2021-09-02 16:08:07,341 INFO scheduler Scheduled Job Start: frappe.email.doctype.email_account.email_account.pull for hr_management
2021-09-02 16:08:07,684 INFO scheduler Scheduled Job Complete: frappe.email.doctype.email_account.email_account.pull for hr_management
2021-09-02 16:08:07,786 INFO scheduler Scheduled Job Start: frappe.email.queue.flush for hr_management
2021-09-02 16:08:08,061 INFO scheduler Scheduled Job Complete: frappe.email.queue.flush for hr_management
2021-09-02 16:09:03,679 DEBUG scheduler Queued events for site hr_management
2021-09-02 16:10:04,047 DEBUG scheduler Queued events for site hr_management
2021-09-02 16:11:04,440 DEBUG scheduler Queued events for site hr_management
2021-09-02 16:12:04,851 DEBUG scheduler Queued events for site hr_management
2021-09-02 16:12:07,131 INFO scheduler Scheduled Job Start: frappe.monitor.flush for hr_management
2021-09-02 16:12:07,393 INFO scheduler Scheduled Job Complete: frappe.monitor.flush for hr_management
2021-09-02 16:12:07,490 INFO scheduler Scheduled Job Start: frappe.utils.global_search.sync_global_search for hr_management
2021-09-02 16:12:07,759 INFO scheduler Scheduled Job Complete: frappe.utils.global_search.sync_global_search for hr_management
2021-09-02 16:12:07,852 INFO scheduler Scheduled Job Start: frappe.integrations.doctype.razorpay_settings.razorpay_settings.capture_payment for hr_management
2021-09-02 16:12:08,250 INFO scheduler Scheduled Job Complete: frappe.integrations.doctype.razorpay_settings.razorpay_settings.capture_payment for hr_management
2021-09-02 16:12:08,350 INFO scheduler Scheduled Job Start: frappe.email.doctype.email_account.email_account.notify_unreplied for hr_management
2021-09-02 16:12:08,665 INFO scheduler Scheduled Job Complete: frappe.email.doctype.email_account.email_account.notify_unreplied for hr_management
2021-09-02 16:12:08,767 INFO scheduler Scheduled Job Start: frappe.email.doctype.email_account.email_account.pull for hr_management
2021-09-02 16:12:09,111 INFO scheduler Scheduled Job Complete: frappe.email.doctype.email_account.email_account.pull for hr_management
2021-09-02 16:12:09,209 INFO scheduler Scheduled Job Start: frappe.email.queue.flush for hr_management
2021-09-02 16:12:09,497 INFO scheduler Scheduled Job Complete: frappe.email.queue.flush for hr_management
2021-09-02 16:13:05,258 DEBUG scheduler Queued events for site hr_management
2021-09-02 16:14:05,634 DEBUG scheduler Queued events for site hr_management
2021-09-02 16:15:06,094 DEBUG scheduler Queued events for site hr_management
2021-09-02 16:15:07,640 INFO scheduler Scheduled Job Start: frappe.twofactor.delete_all_barcodes_for_users for hr_management
2021-09-02 16:15:08,017 INFO scheduler Scheduled Job Complete: frappe.twofactor.delete_all_barcodes_for_users for hr_management
2021-09-02 16:15:08,121 INFO scheduler Scheduled Job Start: frappe.website.doctype.web_page.web_page.check_publish_status for hr_management
2021-09-02 16:15:08,582 INFO scheduler Scheduled Job Complete: frappe.website.doctype.web_page.web_page.check_publish_status for hr_management
2021-09-02 16:15:08,711 INFO scheduler Scheduled Job Start: frappe.oauth.delete_oauth2_data for hr_management
2021-09-02 16:15:09,125 INFO scheduler Scheduled Job Complete: frappe.oauth.delete_oauth2_data for hr_management
2021-09-02 16:16:06,555 DEBUG scheduler Queued events for site hr_management
2021-09-02 16:16:08,829 INFO scheduler Scheduled Job Start: frappe.monitor.flush for hr_management
2021-09-02 16:16:09,074 INFO scheduler Scheduled Job Complete: frappe.monitor.flush for hr_management
2021-09-02 16:16:09,178 INFO scheduler Scheduled Job Start: frappe.utils.global_search.sync_global_search for hr_management
2021-09-02 16:16:09,430 INFO scheduler Scheduled Job Complete: frappe.utils.global_search.sync_global_search for hr_management
2021-09-02 16:16:09,518 INFO scheduler Scheduled Job Start: frappe.integrations.doctype.razorpay_settings.razorpay_settings.capture_payment for hr_management
2021-09-02 16:16:09,898 INFO scheduler Scheduled Job Complete: frappe.integrations.doctype.razorpay_settings.razorpay_settings.capture_payment for hr_management
2021-09-02 16:16:10,012 INFO scheduler Scheduled Job Start: frappe.email.doctype.email_account.email_account.notify_unreplied for hr_management
2021-09-02 16:16:10,339 INFO scheduler Scheduled Job Complete: frappe.email.doctype.email_account.email_account.notify_unreplied for hr_management
2021-09-02 16:16:10,447 INFO scheduler Scheduled Job Start: frappe.email.doctype.email_account.email_account.pull for hr_management
2021-09-02 16:16:10,804 INFO scheduler Scheduled Job Complete: frappe.email.doctype.email_account.email_account.pull for hr_management
2021-09-02 16:16:10,897 INFO scheduler Scheduled Job Start: frappe.email.queue.flush for hr_management
2021-09-02 16:16:11,148 INFO scheduler Scheduled Job Complete: frappe.email.queue.flush for hr_management
2021-09-02 16:17:06,967 DEBUG scheduler Queued events for site hr_management
2021-09-02 16:18:07,329 DEBUG scheduler Queued events for site hr_management
2021-09-02 16:19:07,687 DEBUG scheduler Queued events for site hr_management
2021-09-02 16:20:08,152 DEBUG scheduler Queued events for site hr_management
2021-09-02 16:20:10,478 INFO scheduler Scheduled Job Start: frappe.monitor.flush for hr_management
2021-09-02 16:20:10,730 INFO scheduler Scheduled Job Complete: frappe.monitor.flush for hr_management
2021-09-02 16:20:10,822 INFO scheduler Scheduled Job Start: frappe.utils.global_search.sync_global_search for hr_management
2021-09-02 16:20:11,072 INFO scheduler Scheduled Job Complete: frappe.utils.global_search.sync_global_search for hr_management
2021-09-02 16:20:11,176 INFO scheduler Scheduled Job Start: frappe.integrations.doctype.razorpay_settings.razorpay_settings.capture_payment for hr_management
2021-09-02 16:20:11,572 INFO scheduler Scheduled Job Complete: frappe.integrations.doctype.razorpay_settings.razorpay_settings.capture_payment for hr_management
2021-09-02 16:20:11,666 INFO scheduler Scheduled Job Start: frappe.email.doctype.email_account.email_account.notify_unreplied for hr_management
2021-09-02 16:20:11,974 INFO scheduler Scheduled Job Complete: frappe.email.doctype.email_account.email_account.notify_unreplied for hr_management
2021-09-02 16:20:12,065 INFO scheduler Scheduled Job Start: frappe.email.doctype.email_account.email_account.pull for hr_management
2021-09-02 16:20:12,413 INFO scheduler Scheduled Job Complete: frappe.email.doctype.email_account.email_account.pull for hr_management
2021-09-02 16:20:12,498 INFO scheduler Scheduled Job Start: frappe.email.queue.flush for hr_management
2021-09-02 16:20:12,762 INFO scheduler Scheduled Job Complete: frappe.email.queue.flush for hr_management
2021-09-02 16:21:08,580 DEBUG scheduler Queued events for site hr_management
2021-09-02 16:22:08,898 DEBUG scheduler Queued events for site hr_management
2021-09-02 16:23:09,281 DEBUG scheduler Queued events for site hr_management
2021-09-02 16:24:09,689 DEBUG scheduler Queued events for site hr_management
2021-09-02 16:24:12,010 INFO scheduler Scheduled Job Start: frappe.monitor.flush for hr_management
2021-09-02 16:24:12,279 INFO scheduler Scheduled Job Complete: frappe.monitor.flush for hr_management
2021-09-02 16:24:12,391 INFO scheduler Scheduled Job Start: frappe.utils.global_search.sync_global_search for hr_management
2021-09-02 16:24:12,624 INFO scheduler Scheduled Job Complete: frappe.utils.global_search.sync_global_search for hr_management
2021-09-02 16:24:12,720 INFO scheduler Scheduled Job Start: frappe.integrations.doctype.razorpay_settings.razorpay_settings.capture_payment for hr_management
2021-09-02 16:24:13,124 INFO scheduler Scheduled Job Complete: frappe.integrations.doctype.razorpay_settings.razorpay_settings.capture_payment for hr_management
2021-09-02 16:24:13,219 INFO scheduler Scheduled Job Start: frappe.email.doctype.email_account.email_account.notify_unreplied for hr_management
2021-09-02 16:24:13,519 INFO scheduler Scheduled Job Complete: frappe.email.doctype.email_account.email_account.notify_unreplied for hr_management
2021-09-02 16:24:13,610 INFO scheduler Scheduled Job Start: frappe.email.doctype.email_account.email_account.pull for hr_management
2021-09-02 16:24:13,945 INFO scheduler Scheduled Job Complete: frappe.email.doctype.email_account.email_account.pull for hr_management
2021-09-02 16:24:14,036 INFO scheduler Scheduled Job Start: frappe.email.queue.flush for hr_management
2021-09-02 16:24:14,328 INFO scheduler Scheduled Job Complete: frappe.email.queue.flush for hr_management
2021-09-02 16:25:10,096 DEBUG scheduler Queued events for site hr_management
2021-09-02 16:26:10,460 DEBUG scheduler Queued events for site hr_management
2021-09-02 16:27:10,841 DEBUG scheduler Queued events for site hr_management
2021-09-02 16:28:11,306 DEBUG scheduler Queued events for site hr_management
2021-09-02 16:28:13,736 INFO scheduler Scheduled Job Start: frappe.monitor.flush for hr_management
2021-09-02 16:28:13,984 INFO scheduler Scheduled Job Complete: frappe.monitor.flush for hr_management
2021-09-02 16:28:14,089 INFO scheduler Scheduled Job Start: frappe.utils.global_search.sync_global_search for hr_management
2021-09-02 16:28:14,332 INFO scheduler Scheduled Job Complete: frappe.utils.global_search.sync_global_search for hr_management
2021-09-02 16:28:14,431 INFO scheduler Scheduled Job Start: frappe.integrations.doctype.razorpay_settings.razorpay_settings.capture_payment for hr_management
2021-09-02 16:28:14,812 INFO scheduler Scheduled Job Complete: frappe.integrations.doctype.razorpay_settings.razorpay_settings.capture_payment for hr_management
2021-09-02 16:28:14,907 INFO scheduler Scheduled Job Start: frappe.email.doctype.email_account.email_account.notify_unreplied for hr_management
2021-09-02 16:28:15,218 INFO scheduler Scheduled Job Complete: frappe.email.doctype.email_account.email_account.notify_unreplied for hr_management
2021-09-02 16:28:15,309 INFO scheduler Scheduled Job Start: frappe.email.doctype.email_account.email_account.pull for hr_management
2021-09-02 16:28:15,668 INFO scheduler Scheduled Job Complete: frappe.email.doctype.email_account.email_account.pull for hr_management
2021-09-02 16:28:15,759 INFO scheduler Scheduled Job Start: frappe.email.queue.flush for hr_management
2021-09-02 16:28:16,022 INFO scheduler Scheduled Job Complete: frappe.email.queue.flush for hr_management
2021-09-02 16:29:11,722 DEBUG scheduler Queued events for site hr_management
2021-09-02 16:30:12,098 DEBUG scheduler Queued events for site hr_management
2021-09-02 16:30:13,620 INFO scheduler Scheduled Job Start: frappe.twofactor.delete_all_barcodes_for_users for hr_management
2021-09-02 16:30:14,020 INFO scheduler Scheduled Job Complete: frappe.twofactor.delete_all_barcodes_for_users for hr_management
2021-09-02 16:30:14,133 INFO scheduler Scheduled Job Start: frappe.website.doctype.web_page.web_page.check_publish_status for hr_management
2021-09-02 16:30:14,576 INFO scheduler Scheduled Job Complete: frappe.website.doctype.web_page.web_page.check_publish_status for hr_management
2021-09-02 16:30:14,675 INFO scheduler Scheduled Job Start: frappe.oauth.delete_oauth2_data for hr_management
2021-09-02 16:30:15,069 INFO scheduler Scheduled Job Complete: frappe.oauth.delete_oauth2_data for hr_management
2021-09-02 16:31:12,531 DEBUG scheduler Queued events for site hr_management
2021-09-02 16:32:12,988 DEBUG scheduler Queued events for site hr_management
2021-09-02 16:32:15,250 INFO scheduler Scheduled Job Start: frappe.monitor.flush for hr_management
2021-09-02 16:32:15,502 INFO scheduler Scheduled Job Complete: frappe.monitor.flush for hr_management
2021-09-02 16:32:15,610 INFO scheduler Scheduled Job Start: frappe.utils.global_search.sync_global_search for hr_management
2021-09-02 16:32:15,846 INFO scheduler Scheduled Job Complete: frappe.utils.global_search.sync_global_search for hr_management
2021-09-02 16:32:15,931 INFO scheduler Scheduled Job Start: frappe.integrations.doctype.razorpay_settings.razorpay_settings.capture_payment for hr_management
2021-09-02 16:32:16,311 INFO scheduler Scheduled Job Complete: frappe.integrations.doctype.razorpay_settings.razorpay_settings.capture_payment for hr_management
2021-09-02 16:32:16,403 INFO scheduler Scheduled Job Start: frappe.email.doctype.email_account.email_account.notify_unreplied for hr_management
2021-09-02 16:32:16,703 INFO scheduler Scheduled Job Complete: frappe.email.doctype.email_account.email_account.notify_unreplied for hr_management
2021-09-02 16:32:16,806 INFO scheduler Scheduled Job Start: frappe.email.doctype.email_account.email_account.pull for hr_management
2021-09-02 16:32:17,131 INFO scheduler Scheduled Job Complete: frappe.email.doctype.email_account.email_account.pull for hr_management
2021-09-02 16:32:17,226 INFO scheduler Scheduled Job Start: frappe.email.queue.flush for hr_management
2021-09-02 16:32:17,484 INFO scheduler Scheduled Job Complete: frappe.email.queue.flush for hr_management
2021-09-02 16:33:13,406 DEBUG scheduler Queued events for site hr_management
2021-09-02 16:34:13,779 DEBUG scheduler Queued events for site hr_management
2021-09-02 16:35:14,133 DEBUG scheduler Queued events for site hr_management
2021-09-02 16:36:14,646 DEBUG scheduler Queued events for site hr_management
2021-09-02 16:36:16,939 INFO scheduler Scheduled Job Start: frappe.monitor.flush for hr_management
2021-09-02 16:36:17,187 INFO scheduler Scheduled Job Complete: frappe.monitor.flush for hr_management
2021-09-02 16:36:17,273 INFO scheduler Scheduled Job Start: frappe.utils.global_search.sync_global_search for hr_management
2021-09-02 16:36:17,522 INFO scheduler Scheduled Job Complete: frappe.utils.global_search.sync_global_search for hr_management
2021-09-02 16:36:17,622 INFO scheduler Scheduled Job Start: frappe.integrations.doctype.razorpay_settings.razorpay_settings.capture_payment for hr_management
2021-09-02 16:36:17,993 INFO scheduler Scheduled Job Complete: frappe.integrations.doctype.razorpay_settings.razorpay_settings.capture_payment for hr_management
2021-09-02 16:36:18,107 INFO scheduler Scheduled Job Start: frappe.email.doctype.email_account.email_account.notify_unreplied for hr_management
2021-09-02 16:36:18,417 INFO scheduler Scheduled Job Complete: frappe.email.doctype.email_account.email_account.notify_unreplied for hr_management
2021-09-02 16:36:18,516 INFO scheduler Scheduled Job Start: frappe.email.doctype.email_account.email_account.pull for hr_management
2021-09-02 16:36:18,851 INFO scheduler Scheduled Job Complete: frappe.email.doctype.email_account.email_account.pull for hr_management
2021-09-02 16:36:18,947 INFO scheduler Scheduled Job Start: frappe.email.queue.flush for hr_management
2021-09-02 16:36:19,223 INFO scheduler Scheduled Job Complete: frappe.email.queue.flush for hr_management
2021-09-02 16:37:15,072 DEBUG scheduler Queued events for site hr_management
2021-09-02 16:38:15,442 DEBUG scheduler Queued events for site hr_management
2021-09-02 16:39:15,833 DEBUG scheduler Queued events for site hr_management
2021-09-02 16:40:16,289 DEBUG scheduler Queued events for site hr_management
2021-09-02 16:40:18,657 INFO scheduler Scheduled Job Start: frappe.monitor.flush for hr_management
2021-09-02 16:40:18,904 INFO scheduler Scheduled Job Complete: frappe.monitor.flush for hr_management
2021-09-02 16:40:18,993 INFO scheduler Scheduled Job Start: frappe.utils.global_search.sync_global_search for hr_management
2021-09-02 16:40:19,251 INFO scheduler Scheduled Job Complete: frappe.utils.global_search.sync_global_search for hr_management
2021-09-02 16:40:19,340 INFO scheduler Scheduled Job Start: frappe.integrations.doctype.razorpay_settings.razorpay_settings.capture_payment for hr_management
2021-09-02 16:40:19,752 INFO scheduler Scheduled Job Complete: frappe.integrations.doctype.razorpay_settings.razorpay_settings.capture_payment for hr_management
2021-09-02 16:40:19,849 INFO scheduler Scheduled Job Start: frappe.email.doctype.email_account.email_account.notify_unreplied for hr_management
2021-09-02 16:40:20,171 INFO scheduler Scheduled Job Complete: frappe.email.doctype.email_account.email_account.notify_unreplied for hr_management
2021-09-02 16:40:20,261 INFO scheduler Scheduled Job Start: frappe.email.doctype.email_account.email_account.pull for hr_management
2021-09-02 16:40:20,587 INFO scheduler Scheduled Job Complete: frappe.email.doctype.email_account.email_account.pull for hr_management
2021-09-02 16:40:20,678 INFO scheduler Scheduled Job Start: frappe.email.queue.flush for hr_management
2021-09-02 16:40:20,976 INFO scheduler Scheduled Job Complete: frappe.email.queue.flush for hr_management
2021-09-02 16:41:16,715 DEBUG scheduler Queued events for site hr_management
2021-09-02 16:42:17,082 DEBUG scheduler Queued events for site hr_management
2021-09-02 16:43:17,464 DEBUG scheduler Queued events for site hr_management
2021-09-02 16:44:17,902 DEBUG scheduler Queued events for site hr_management
2021-09-02 16:44:20,372 INFO scheduler Scheduled Job Start: frappe.monitor.flush for hr_management
2021-09-02 16:44:20,622 INFO scheduler Scheduled Job Complete: frappe.monitor.flush for hr_management
2021-09-02 16:44:20,712 INFO scheduler Scheduled Job Start: frappe.utils.global_search.sync_global_search for hr_management
2021-09-02 16:44:20,972 INFO scheduler Scheduled Job Complete: frappe.utils.global_search.sync_global_search for hr_management
2021-09-02 16:44:21,072 INFO scheduler Scheduled Job Start: frappe.integrations.doctype.razorpay_settings.razorpay_settings.capture_payment for hr_management
2021-09-02 16:44:21,462 INFO scheduler Scheduled Job Complete: frappe.integrations.doctype.razorpay_settings.razorpay_settings.capture_payment for hr_management
2021-09-02 16:44:21,561 INFO scheduler Scheduled Job Start: frappe.email.doctype.email_account.email_account.notify_unreplied for hr_management
2021-09-02 16:44:21,873 INFO scheduler Scheduled Job Complete: frappe.email.doctype.email_account.email_account.notify_unreplied for hr_management
2021-09-02 16:44:21,971 INFO scheduler Scheduled Job Start: frappe.email.doctype.email_account.email_account.pull for hr_management
2021-09-02 16:44:22,342 INFO scheduler Scheduled Job Complete: frappe.email.doctype.email_account.email_account.pull for hr_management
2021-09-02 16:44:22,431 INFO scheduler Scheduled Job Start: frappe.email.queue.flush for hr_management
2021-09-02 16:44:22,712 INFO scheduler Scheduled Job Complete: frappe.email.queue.flush for hr_management
2021-09-02 16:45:18,366 DEBUG scheduler Queued events for site hr_management
2021-09-02 16:45:19,828 INFO scheduler Scheduled Job Start: frappe.twofactor.delete_all_barcodes_for_users for hr_management
2021-09-02 16:45:20,211 INFO scheduler Scheduled Job Complete: frappe.twofactor.delete_all_barcodes_for_users for hr_management
2021-09-02 16:45:20,332 INFO scheduler Scheduled Job Start: frappe.website.doctype.web_page.web_page.check_publish_status for hr_management
2021-09-02 16:45:20,841 INFO scheduler Scheduled Job Complete: frappe.website.doctype.web_page.web_page.check_publish_status for hr_management
2021-09-02 16:45:20,941 INFO scheduler Scheduled Job Start: frappe.oauth.delete_oauth2_data for hr_management
2021-09-02 16:45:21,400 INFO scheduler Scheduled Job Complete: frappe.oauth.delete_oauth2_data for hr_management
2021-09-02 16:46:18,780 DEBUG scheduler Queued events for site hr_management
2021-09-02 16:47:19,179 DEBUG scheduler Queued events for site hr_management
2021-09-02 16:48:19,587 DEBUG scheduler Queued events for site hr_management
2021-09-02 16:48:22,059 INFO scheduler Scheduled Job Start: frappe.monitor.flush for hr_management
2021-09-02 16:48:22,315 INFO scheduler Scheduled Job Complete: frappe.monitor.flush for hr_management
2021-09-02 16:48:22,420 INFO scheduler Scheduled Job Start: frappe.utils.global_search.sync_global_search for hr_management
2021-09-02 16:48:22,665 INFO scheduler Scheduled Job Complete: frappe.utils.global_search.sync_global_search for hr_management
2021-09-02 16:48:22,789 INFO scheduler Scheduled Job Start: frappe.integrations.doctype.razorpay_settings.razorpay_settings.capture_payment for hr_management
2021-09-02 16:48:23,166 INFO scheduler Scheduled Job Complete: frappe.integrations.doctype.razorpay_settings.razorpay_settings.capture_payment for hr_management
2021-09-02 16:48:23,251 INFO scheduler Scheduled Job Start: frappe.email.doctype.email_account.email_account.notify_unreplied for hr_management
2021-09-02 16:48:23,583 INFO scheduler Scheduled Job Complete: frappe.email.doctype.email_account.email_account.notify_unreplied for hr_management
2021-09-02 16:48:23,678 INFO scheduler Scheduled Job Start: frappe.email.doctype.email_account.email_account.pull for hr_management
2021-09-02 16:48:23,996 INFO scheduler Scheduled Job Complete: frappe.email.doctype.email_account.email_account.pull for hr_management
2021-09-02 16:48:24,088 INFO scheduler Scheduled Job Start: frappe.email.queue.flush for hr_management
2021-09-02 16:48:24,378 INFO scheduler Scheduled Job Complete: frappe.email.queue.flush for hr_management
2021-09-02 16:49:20,010 DEBUG scheduler Queued events for site hr_management
2021-09-02 16:50:20,395 DEBUG scheduler Queued events for site hr_management
2021-09-02 16:51:20,801 DEBUG scheduler Queued events for site hr_management
2021-09-02 16:52:21,220 DEBUG scheduler Queued events for site hr_management
2021-09-02 16:52:23,434 INFO scheduler Scheduled Job Start: frappe.monitor.flush for hr_management
2021-09-02 16:52:23,685 INFO scheduler Scheduled Job Complete: frappe.monitor.flush for hr_management
2021-09-02 16:52:23,778 INFO scheduler Scheduled Job Start: frappe.utils.global_search.sync_global_search for hr_management
2021-09-02 16:52:24,017 INFO scheduler Scheduled Job Complete: frappe.utils.global_search.sync_global_search for hr_management
2021-09-02 16:52:24,112 INFO scheduler Scheduled Job Start: frappe.integrations.doctype.razorpay_settings.razorpay_settings.capture_payment for hr_management
2021-09-02 16:52:24,495 INFO scheduler Scheduled Job Complete: frappe.integrations.doctype.razorpay_settings.razorpay_settings.capture_payment for hr_management
2021-09-02 16:52:24,589 INFO scheduler Scheduled Job Start: frappe.email.doctype.email_account.email_account.notify_unreplied for hr_management
2021-09-02 16:52:24,898 INFO scheduler Scheduled Job Complete: frappe.email.doctype.email_account.email_account.notify_unreplied for hr_management
2021-09-02 16:52:24,985 INFO scheduler Scheduled Job Start: frappe.email.doctype.email_account.email_account.pull for hr_management
2021-09-02 16:52:25,333 INFO scheduler Scheduled Job Complete: frappe.email.doctype.email_account.email_account.pull for hr_management
2021-09-02 16:52:25,421 INFO scheduler Scheduled Job Start: frappe.email.queue.flush for hr_management
2021-09-02 16:52:25,686 INFO scheduler Scheduled Job Complete: frappe.email.queue.flush for hr_management
2021-09-02 16:53:21,646 DEBUG scheduler Queued events for site hr_management
2021-09-02 16:54:22,034 DEBUG scheduler Queued events for site hr_management
2021-09-02 16:55:22,412 DEBUG scheduler Queued events for site hr_management
2021-09-02 16:56:22,864 DEBUG scheduler Queued events for site hr_management
2021-09-02 16:56:25,119 INFO scheduler Scheduled Job Start: frappe.monitor.flush for hr_management
2021-09-02 16:56:25,372 INFO scheduler Scheduled Job Complete: frappe.monitor.flush for hr_management
2021-09-02 16:56:25,472 INFO scheduler Scheduled Job Start: frappe.utils.global_search.sync_global_search for hr_management
2021-09-02 16:56:25,709 INFO scheduler Scheduled Job Complete: frappe.utils.global_search.sync_global_search for hr_management
2021-09-02 16:56:25,798 INFO scheduler Scheduled Job Start: frappe.integrations.doctype.razorpay_settings.razorpay_settings.capture_payment for hr_management
2021-09-02 16:56:26,199 INFO scheduler Scheduled Job Complete: frappe.integrations.doctype.razorpay_settings.razorpay_settings.capture_payment for hr_management
2021-09-02 16:56:26,298 INFO scheduler Scheduled Job Start: frappe.email.doctype.email_account.email_account.notify_unreplied for hr_management
2021-09-02 16:56:26,633 INFO scheduler Scheduled Job Complete: frappe.email.doctype.email_account.email_account.notify_unreplied for hr_management
2021-09-02 16:56:26,727 INFO scheduler Scheduled Job Start: frappe.email.doctype.email_account.email_account.pull for hr_management
2021-09-02 16:56:27,060 INFO scheduler Scheduled Job Complete: frappe.email.doctype.email_account.email_account.pull for hr_management
2021-09-02 16:56:27,159 INFO scheduler Scheduled Job Start: frappe.email.queue.flush for hr_management
2021-09-02 16:56:27,449 INFO scheduler Scheduled Job Complete: frappe.email.queue.flush for hr_management
2021-09-02 16:57:23,284 DEBUG scheduler Queued events for site hr_management
2021-09-02 16:58:23,668 DEBUG scheduler Queued events for site hr_management
2021-09-02 16:59:24,023 DEBUG scheduler Queued events for site hr_management
2021-09-02 17:00:24,709 DEBUG scheduler Queued events for site hr_management
2021-09-02 17:00:32,242 INFO scheduler Scheduled Job Start: frappe.email.doctype.newsletter.newsletter.send_scheduled_email for hr_management
2021-09-02 17:00:32,671 INFO scheduler Scheduled Job Complete: frappe.email.doctype.newsletter.newsletter.send_scheduled_email for hr_management
2021-09-02 17:00:32,762 INFO scheduler Scheduled Job Start: frappe.integrations.doctype.google_calendar.google_calendar.sync for hr_management
2021-09-02 17:00:33,373 INFO scheduler Scheduled Job Complete: frappe.integrations.doctype.google_calendar.google_calendar.sync for hr_management
2021-09-02 17:00:33,471 INFO scheduler Scheduled Job Start: frappe.desk.form.document_follow.send_hourly_updates for hr_management
2021-09-02 17:00:33,836 INFO scheduler Scheduled Job Complete: frappe.desk.form.document_follow.send_hourly_updates for hr_management
2021-09-02 17:00:33,939 INFO scheduler Scheduled Job Start: frappe.deferred_insert.save_to_db for hr_management
2021-09-02 17:00:34,336 INFO scheduler Scheduled Job Complete: frappe.deferred_insert.save_to_db for hr_management
2021-09-02 17:00:34,425 INFO scheduler Scheduled Job Start: frappe.desk.page.backups.backups.delete_downloadable_backups for hr_management
2021-09-02 17:00:34,792 INFO scheduler Scheduled Job Complete: frappe.desk.page.backups.backups.delete_downloadable_backups for hr_management
2021-09-02 17:00:34,888 INFO scheduler Scheduled Job Start: frappe.utils.error.collect_error_snapshots for hr_management
2021-09-02 17:00:35,245 INFO scheduler Scheduled Job Complete: frappe.utils.error.collect_error_snapshots for hr_management
2021-09-02 17:00:35,334 INFO scheduler Scheduled Job Start: frappe.model.utils.user_settings.sync_user_settings for hr_management
2021-09-02 17:00:35,694 INFO scheduler Scheduled Job Complete: frappe.model.utils.user_settings.sync_user_settings for hr_management
2021-09-02 17:00:35,787 INFO scheduler Scheduled Job Start: frappe.model.utils.link_count.update_link_count for hr_management
2021-09-02 17:00:36,183 INFO scheduler Scheduled Job Complete: frappe.model.utils.link_count.update_link_count for hr_management
2021-09-02 17:00:36,288 INFO scheduler Scheduled Job Start: frappe.monitor.flush for hr_management
2021-09-02 17:00:36,532 INFO scheduler Scheduled Job Complete: frappe.monitor.flush for hr_management
2021-09-02 17:00:36,630 INFO scheduler Scheduled Job Start: frappe.utils.global_search.sync_global_search for hr_management
2021-09-02 17:00:36,902 INFO scheduler Scheduled Job Complete: frappe.utils.global_search.sync_global_search for hr_management
2021-09-02 17:00:36,990 INFO scheduler Scheduled Job Start: frappe.integrations.doctype.razorpay_settings.razorpay_settings.capture_payment for hr_management
2021-09-02 17:00:37,384 INFO scheduler Scheduled Job Complete: frappe.integrations.doctype.razorpay_settings.razorpay_settings.capture_payment for hr_management
2021-09-02 17:00:37,475 INFO scheduler Scheduled Job Start: frappe.email.doctype.email_account.email_account.notify_unreplied for hr_management
2021-09-02 17:00:37,782 INFO scheduler Scheduled Job Complete: frappe.email.doctype.email_account.email_account.notify_unreplied for hr_management
2021-09-02 17:00:37,884 INFO scheduler Scheduled Job Start: frappe.email.doctype.email_account.email_account.pull for hr_management
2021-09-02 17:00:38,216 INFO scheduler Scheduled Job Complete: frappe.email.doctype.email_account.email_account.pull for hr_management
2021-09-02 17:00:38,317 INFO scheduler Scheduled Job Start: frappe.email.queue.flush for hr_management
2021-09-02 17:00:38,588 INFO scheduler Scheduled Job Complete: frappe.email.queue.flush for hr_management
2021-09-02 17:00:38,698 INFO scheduler Scheduled Job Start: frappe.twofactor.delete_all_barcodes_for_users for hr_management
2021-09-02 17:00:39,111 INFO scheduler Scheduled Job Complete: frappe.twofactor.delete_all_barcodes_for_users for hr_management
2021-09-02 17:00:39,214 INFO scheduler Scheduled Job Start: frappe.website.doctype.web_page.web_page.check_publish_status for hr_management
2021-09-02 17:00:39,674 INFO scheduler Scheduled Job Complete: frappe.website.doctype.web_page.web_page.check_publish_status for hr_management
2021-09-02 17:00:39,789 INFO scheduler Scheduled Job Start: frappe.oauth.delete_oauth2_data for hr_management
2021-09-02 17:00:40,194 INFO scheduler Scheduled Job Complete: frappe.oauth.delete_oauth2_data for hr_management
2021-09-02 17:01:25,127 DEBUG scheduler Queued events for site hr_management
2021-09-02 17:02:25,525 DEBUG scheduler Queued events for site hr_management
2021-09-02 17:03:25,895 DEBUG scheduler Queued events for site hr_management
2021-09-02 17:04:26,315 DEBUG scheduler Queued events for site hr_management
2021-09-02 17:04:28,538 INFO scheduler Scheduled Job Start: frappe.monitor.flush for hr_management
2021-09-02 17:04:28,786 INFO scheduler Scheduled Job Complete: frappe.monitor.flush for hr_management
2021-09-02 17:04:28,906 INFO scheduler Scheduled Job Start: frappe.utils.global_search.sync_global_search for hr_management
2021-09-02 17:04:29,148 INFO scheduler Scheduled Job Complete: frappe.utils.global_search.sync_global_search for hr_management
2021-09-02 17:04:29,242 INFO scheduler Scheduled Job Start: frappe.integrations.doctype.razorpay_settings.razorpay_settings.capture_payment for hr_management
2021-09-02 17:04:29,598 INFO scheduler Scheduled Job Complete: frappe.integrations.doctype.razorpay_settings.razorpay_settings.capture_payment for hr_management
2021-09-02 17:04:29,693 INFO scheduler Scheduled Job Start: frappe.email.doctype.email_account.email_account.notify_unreplied for hr_management
2021-09-02 17:04:30,019 INFO scheduler Scheduled Job Complete: frappe.email.doctype.email_account.email_account.notify_unreplied for hr_management
2021-09-02 17:04:30,109 INFO scheduler Scheduled Job Start: frappe.email.doctype.email_account.email_account.pull for hr_management
2021-09-02 17:04:30,452 INFO scheduler Scheduled Job Complete: frappe.email.doctype.email_account.email_account.pull for hr_management
2021-09-02 17:04:30,539 INFO scheduler Scheduled Job Start: frappe.email.queue.flush for hr_management
2021-09-02 17:04:30,809 INFO scheduler Scheduled Job Complete: frappe.email.queue.flush for hr_management
2021-09-02 17:05:26,721 DEBUG scheduler Queued events for site hr_management
2021-09-02 17:06:27,071 DEBUG scheduler Queued events for site hr_management
2021-09-02 17:07:27,455 DEBUG scheduler Queued events for site hr_management
2021-09-02 17:08:27,889 DEBUG scheduler Queued events for site hr_management
2021-09-02 17:08:30,190 INFO scheduler Scheduled Job Start: frappe.monitor.flush for hr_management
2021-09-02 17:08:30,424 INFO scheduler Scheduled Job Complete: frappe.monitor.flush for hr_management
2021-09-02 17:08:30,519 INFO scheduler Scheduled Job Start: frappe.utils.global_search.sync_global_search for hr_management
2021-09-02 17:08:30,751 INFO scheduler Scheduled Job Complete: frappe.utils.global_search.sync_global_search for hr_management
2021-09-02 17:08:30,844 INFO scheduler Scheduled Job Start: frappe.integrations.doctype.razorpay_settings.razorpay_settings.capture_payment for hr_management
2021-09-02 17:08:31,237 INFO scheduler Scheduled Job Complete: frappe.integrations.doctype.razorpay_settings.razorpay_settings.capture_payment for hr_management
2021-09-02 17:08:31,335 INFO scheduler Scheduled Job Start: frappe.email.doctype.email_account.email_account.notify_unreplied for hr_management
2021-09-02 17:08:31,629 INFO scheduler Scheduled Job Complete: frappe.email.doctype.email_account.email_account.notify_unreplied for hr_management
2021-09-02 17:08:31,733 INFO scheduler Scheduled Job Start: frappe.email.doctype.email_account.email_account.pull for hr_management
2021-09-02 17:08:32,051 INFO scheduler Scheduled Job Complete: frappe.email.doctype.email_account.email_account.pull for hr_management
2021-09-02 17:08:32,135 INFO scheduler Scheduled Job Start: frappe.email.queue.flush for hr_management
2021-09-02 17:08:32,412 INFO scheduler Scheduled Job Complete: frappe.email.queue.flush for hr_management
2021-09-02 17:09:28,321 DEBUG scheduler Queued events for site hr_management
2021-09-02 17:10:28,682 DEBUG scheduler Queued events for site hr_management
2021-09-02 17:11:29,010 DEBUG scheduler Queued events for site hr_management
2021-09-02 17:12:29,451 DEBUG scheduler Queued events for site hr_management
2021-09-02 17:12:31,685 INFO scheduler Scheduled Job Start: frappe.monitor.flush for hr_management
2021-09-02 17:12:31,918 INFO scheduler Scheduled Job Complete: frappe.monitor.flush for hr_management
2021-09-02 17:12:32,028 INFO scheduler Scheduled Job Start: frappe.utils.global_search.sync_global_search for hr_management
2021-09-02 17:12:32,298 INFO scheduler Scheduled Job Complete: frappe.utils.global_search.sync_global_search for hr_management
2021-09-02 17:12:32,413 INFO scheduler Scheduled Job Start: frappe.integrations.doctype.razorpay_settings.razorpay_settings.capture_payment for hr_management
2021-09-02 17:12:32,785 INFO scheduler Scheduled Job Complete: frappe.integrations.doctype.razorpay_settings.razorpay_settings.capture_payment for hr_management
2021-09-02 17:12:32,874 INFO scheduler Scheduled Job Start: frappe.email.doctype.email_account.email_account.notify_unreplied for hr_management
2021-09-02 17:12:33,190 INFO scheduler Scheduled Job Complete: frappe.email.doctype.email_account.email_account.notify_unreplied for hr_management
2021-09-02 17:12:33,276 INFO scheduler Scheduled Job Start: frappe.email.doctype.email_account.email_account.pull for hr_management
2021-09-02 17:12:33,610 INFO scheduler Scheduled Job Complete: frappe.email.doctype.email_account.email_account.pull for hr_management
2021-09-02 17:12:33,693 INFO scheduler Scheduled Job Start: frappe.email.queue.flush for hr_management
2021-09-02 17:12:33,951 INFO scheduler Scheduled Job Complete: frappe.email.queue.flush for hr_management
2021-09-02 17:13:29,894 DEBUG scheduler Queued events for site hr_management
2021-09-02 17:14:30,254 DEBUG scheduler Queued events for site hr_management
2021-09-02 17:15:30,679 DEBUG scheduler Queued events for site hr_management
2021-09-02 17:15:32,165 INFO scheduler Scheduled Job Start: frappe.twofactor.delete_all_barcodes_for_users for hr_management
2021-09-02 17:15:32,571 INFO scheduler Scheduled Job Complete: frappe.twofactor.delete_all_barcodes_for_users for hr_management
2021-09-02 17:15:32,666 INFO scheduler Scheduled Job Start: frappe.website.doctype.web_page.web_page.check_publish_status for hr_management
2021-09-02 17:15:33,125 INFO scheduler Scheduled Job Complete: frappe.website.doctype.web_page.web_page.check_publish_status for hr_management
2021-09-02 17:15:33,244 INFO scheduler Scheduled Job Start: frappe.oauth.delete_oauth2_data for hr_management
2021-09-02 17:15:33,629 INFO scheduler Scheduled Job Complete: frappe.oauth.delete_oauth2_data for hr_management
2021-09-02 17:16:31,144 DEBUG scheduler Queued events for site hr_management
2021-09-02 17:16:33,379 INFO scheduler Scheduled Job Start: frappe.monitor.flush for hr_management
2021-09-02 17:16:33,617 INFO scheduler Scheduled Job Complete: frappe.monitor.flush for hr_management
2021-09-02 17:16:33,723 INFO scheduler Scheduled Job Start: frappe.utils.global_search.sync_global_search for hr_management
2021-09-02 17:16:33,966 INFO scheduler Scheduled Job Complete: frappe.utils.global_search.sync_global_search for hr_management
2021-09-02 17:16:34,076 INFO scheduler Scheduled Job Start: frappe.integrations.doctype.razorpay_settings.razorpay_settings.capture_payment for hr_management
2021-09-02 17:16:34,467 INFO scheduler Scheduled Job Complete: frappe.integrations.doctype.razorpay_settings.razorpay_settings.capture_payment for hr_management
2021-09-02 17:16:34,575 INFO scheduler Scheduled Job Start: frappe.email.doctype.email_account.email_account.notify_unreplied for hr_management
2021-09-02 17:16:34,902 INFO scheduler Scheduled Job Complete: frappe.email.doctype.email_account.email_account.notify_unreplied for hr_management
2021-09-02 17:16:35,003 INFO scheduler Scheduled Job Start: frappe.email.doctype.email_account.email_account.pull for hr_management
2021-09-02 17:16:35,350 INFO scheduler Scheduled Job Complete: frappe.email.doctype.email_account.email_account.pull for hr_management
2021-09-02 17:16:35,437 INFO scheduler Scheduled Job Start: frappe.email.queue.flush for hr_management
2021-09-02 17:16:35,694 INFO scheduler Scheduled Job Complete: frappe.email.queue.flush for hr_management
2021-09-02 17:17:31,556 DEBUG scheduler Queued events for site hr_management
2021-09-02 17:18:31,917 DEBUG scheduler Queued events for site hr_management
2021-09-02 17:19:32,284 DEBUG scheduler Queued events for site hr_management
2021-09-02 17:20:32,705 DEBUG scheduler Queued events for site hr_management
2021-09-02 17:20:34,900 INFO scheduler Scheduled Job Start: frappe.monitor.flush for hr_management
2021-09-02 17:20:35,152 INFO scheduler Scheduled Job Complete: frappe.monitor.flush for hr_management
2021-09-02 17:20:35,240 INFO scheduler Scheduled Job Start: frappe.utils.global_search.sync_global_search for hr_management
2021-09-02 17:20:35,472 INFO scheduler Scheduled Job Complete: frappe.utils.global_search.sync_global_search for hr_management
2021-09-02 17:20:35,560 INFO scheduler Scheduled Job Start: frappe.integrations.doctype.razorpay_settings.razorpay_settings.capture_payment for hr_management
2021-09-02 17:20:35,931 INFO scheduler Scheduled Job Complete: frappe.integrations.doctype.razorpay_settings.razorpay_settings.capture_payment for hr_management
2021-09-02 17:20:36,020 INFO scheduler Scheduled Job Start: frappe.email.doctype.email_account.email_account.notify_unreplied for hr_management
2021-09-02 17:20:36,368 INFO scheduler Scheduled Job Complete: frappe.email.doctype.email_account.email_account.notify_unreplied for hr_management
2021-09-02 17:20:36,472 INFO scheduler Scheduled Job Start: frappe.email.doctype.email_account.email_account.pull for hr_management
2021-09-02 17:20:36,792 INFO scheduler Scheduled Job Complete: frappe.email.doctype.email_account.email_account.pull for hr_management
2021-09-02 17:20:36,891 INFO scheduler Scheduled Job Start: frappe.email.queue.flush for hr_management
2021-09-02 17:20:37,171 INFO scheduler Scheduled Job Complete: frappe.email.queue.flush for hr_management
2021-09-02 17:21:33,128 DEBUG scheduler Queued events for site hr_management
2021-09-02 17:22:33,497 DEBUG scheduler Queued events for site hr_management
2021-09-02 17:23:33,869 DEBUG scheduler Queued events for site hr_management
2021-09-02 17:24:34,303 DEBUG scheduler Queued events for site hr_management
2021-09-02 17:24:36,583 INFO scheduler Scheduled Job Start: frappe.monitor.flush for hr_management
2021-09-02 17:24:36,825 INFO scheduler Scheduled Job Complete: frappe.monitor.flush for hr_management
2021-09-02 17:24:36,916 INFO scheduler Scheduled Job Start: frappe.utils.global_search.sync_global_search for hr_management
2021-09-02 17:24:37,188 INFO scheduler Scheduled Job Complete: frappe.utils.global_search.sync_global_search for hr_management
2021-09-02 17:24:37,285 INFO scheduler Scheduled Job Start: frappe.integrations.doctype.razorpay_settings.razorpay_settings.capture_payment for hr_management
2021-09-02 17:24:37,681 INFO scheduler Scheduled Job Complete: frappe.integrations.doctype.razorpay_settings.razorpay_settings.capture_payment for hr_management
2021-09-02 17:24:37,770 INFO scheduler Scheduled Job Start: frappe.email.doctype.email_account.email_account.notify_unreplied for hr_management
2021-09-02 17:24:38,083 INFO scheduler Scheduled Job Complete: frappe.email.doctype.email_account.email_account.notify_unreplied for hr_management
2021-09-02 17:24:38,198 INFO scheduler Scheduled Job Start: frappe.email.doctype.email_account.email_account.pull for hr_management
2021-09-02 17:24:38,525 INFO scheduler Scheduled Job Complete: frappe.email.doctype.email_account.email_account.pull for hr_management
2021-09-02 17:24:38,622 INFO scheduler Scheduled Job Start: frappe.email.queue.flush for hr_management
2021-09-02 17:24:38,886 INFO scheduler Scheduled Job Complete: frappe.email.queue.flush for hr_management
2021-09-02 17:25:34,715 DEBUG scheduler Queued events for site hr_management
2021-09-02 17:26:35,085 DEBUG scheduler Queued events for site hr_management
2021-09-02 17:27:35,426 DEBUG scheduler Queued events for site hr_management
2021-09-02 17:28:35,911 DEBUG scheduler Queued events for site hr_management
2021-09-02 17:28:38,204 INFO scheduler Scheduled Job Start: frappe.monitor.flush for hr_management
2021-09-02 17:28:38,445 INFO scheduler Scheduled Job Complete: frappe.monitor.flush for hr_management
2021-09-02 17:28:38,537 INFO scheduler Scheduled Job Start: frappe.utils.global_search.sync_global_search for hr_management
2021-09-02 17:28:38,792 INFO scheduler Scheduled Job Complete: frappe.utils.global_search.sync_global_search for hr_management
2021-09-02 17:28:38,880 INFO scheduler Scheduled Job Start: frappe.integrations.doctype.razorpay_settings.razorpay_settings.capture_payment for hr_management
2021-09-02 17:28:39,256 INFO scheduler Scheduled Job Complete: frappe.integrations.doctype.razorpay_settings.razorpay_settings.capture_payment for hr_management
2021-09-02 17:28:39,362 INFO scheduler Scheduled Job Start: frappe.email.doctype.email_account.email_account.notify_unreplied for hr_management
2021-09-02 17:28:39,692 INFO scheduler Scheduled Job Complete: frappe.email.doctype.email_account.email_account.notify_unreplied for hr_management
2021-09-02 17:28:39,793 INFO scheduler Scheduled Job Start: frappe.email.doctype.email_account.email_account.pull for hr_management
2021-09-02 17:28:40,117 INFO scheduler Scheduled Job Complete: frappe.email.doctype.email_account.email_account.pull for hr_management
2021-09-02 17:28:40,218 INFO scheduler Scheduled Job Start: frappe.email.queue.flush for hr_management
2021-09-02 17:28:40,494 INFO scheduler Scheduled Job Complete: frappe.email.queue.flush for hr_management
2021-09-02 17:29:36,330 DEBUG scheduler Queued events for site hr_management
2021-09-02 17:30:36,712 DEBUG scheduler Queued events for site hr_management
2021-09-02 17:30:38,216 INFO scheduler Scheduled Job Start: frappe.twofactor.delete_all_barcodes_for_users for hr_management
2021-09-02 17:30:38,592 INFO scheduler Scheduled Job Complete: frappe.twofactor.delete_all_barcodes_for_users for hr_management
2021-09-02 17:30:38,684 INFO scheduler Scheduled Job Start: frappe.website.doctype.web_page.web_page.check_publish_status for hr_management
2021-09-02 17:30:39,099 INFO scheduler Scheduled Job Complete: frappe.website.doctype.web_page.web_page.check_publish_status for hr_management
2021-09-02 17:30:39,205 INFO scheduler Scheduled Job Start: frappe.oauth.delete_oauth2_data for hr_management
2021-09-02 17:30:39,599 INFO scheduler Scheduled Job Complete: frappe.oauth.delete_oauth2_data for hr_management
2021-09-02 17:31:37,123 DEBUG scheduler Queued events for site hr_management
2021-09-02 17:32:37,577 DEBUG scheduler Queued events for site hr_management
2021-09-02 17:32:39,869 INFO scheduler Scheduled Job Start: frappe.monitor.flush for hr_management
2021-09-02 17:32:40,118 INFO scheduler Scheduled Job Complete: frappe.monitor.flush for hr_management
2021-09-02 17:32:40,218 INFO scheduler Scheduled Job Start: frappe.utils.global_search.sync_global_search for hr_management
2021-09-02 17:32:40,464 INFO scheduler Scheduled Job Complete: frappe.utils.global_search.sync_global_search for hr_management
2021-09-02 17:32:40,559 INFO scheduler Scheduled Job Start: frappe.integrations.doctype.razorpay_settings.razorpay_settings.capture_payment for hr_management
2021-09-02 17:32:40,949 INFO scheduler Scheduled Job Complete: frappe.integrations.doctype.razorpay_settings.razorpay_settings.capture_payment for hr_management
2021-09-02 17:32:41,030 INFO scheduler Scheduled Job Start: frappe.email.doctype.email_account.email_account.notify_unreplied for hr_management
2021-09-02 17:32:41,341 INFO scheduler Scheduled Job Complete: frappe.email.doctype.email_account.email_account.notify_unreplied for hr_management
2021-09-02 17:32:41,440 INFO scheduler Scheduled Job Start: frappe.email.doctype.email_account.email_account.pull for hr_management
2021-09-02 17:32:41,781 INFO scheduler Scheduled Job Complete: frappe.email.doctype.email_account.email_account.pull for hr_management
2021-09-02 17:32:41,863 INFO scheduler Scheduled Job Start: frappe.email.queue.flush for hr_management
2021-09-02 17:32:42,127 INFO scheduler Scheduled Job Complete: frappe.email.queue.flush for hr_management
2021-09-02 17:33:37,983 DEBUG scheduler Queued events for site hr_management
2021-09-02 17:34:38,354 DEBUG scheduler Queued events for site hr_management
2021-09-02 17:35:38,761 DEBUG scheduler Queued events for site hr_management
2021-09-02 17:36:39,180 DEBUG scheduler Queued events for site hr_management
2021-09-02 17:36:41,454 INFO scheduler Scheduled Job Start: frappe.monitor.flush for hr_management
2021-09-02 17:36:41,710 INFO scheduler Scheduled Job Complete: frappe.monitor.flush for hr_management
2021-09-02 17:36:41,808 INFO scheduler Scheduled Job Start: frappe.utils.global_search.sync_global_search for hr_management
2021-09-02 17:36:42,039 INFO scheduler Scheduled Job Complete: frappe.utils.global_search.sync_global_search for hr_management
2021-09-02 17:36:42,131 INFO scheduler Scheduled Job Start: frappe.integrations.doctype.razorpay_settings.razorpay_settings.capture_payment for hr_management
2021-09-02 17:36:42,530 INFO scheduler Scheduled Job Complete: frappe.integrations.doctype.razorpay_settings.razorpay_settings.capture_payment for hr_management
2021-09-02 17:36:42,614 INFO scheduler Scheduled Job Start: frappe.email.doctype.email_account.email_account.notify_unreplied for hr_management
2021-09-02 17:36:42,925 INFO scheduler Scheduled Job Complete: frappe.email.doctype.email_account.email_account.notify_unreplied for hr_management
2021-09-02 17:36:43,024 INFO scheduler Scheduled Job Start: frappe.email.doctype.email_account.email_account.pull for hr_management
2021-09-02 17:36:43,352 INFO scheduler Scheduled Job Complete: frappe.email.doctype.email_account.email_account.pull for hr_management
2021-09-02 17:36:43,449 INFO scheduler Scheduled Job Start: frappe.email.queue.flush for hr_management
2021-09-02 17:36:43,723 INFO scheduler Scheduled Job Complete: frappe.email.queue.flush for hr_management
2021-09-02 17:37:39,606 DEBUG scheduler Queued events for site hr_management
2021-09-02 17:38:39,991 DEBUG scheduler Queued events for site hr_management
2021-09-02 17:39:40,362 DEBUG scheduler Queued events for site hr_management
2021-09-02 17:40:40,859 DEBUG scheduler Queued events for site hr_management
2021-09-02 17:40:43,207 INFO scheduler Scheduled Job Start: frappe.monitor.flush for hr_management
2021-09-02 17:40:43,457 INFO scheduler Scheduled Job Complete: frappe.monitor.flush for hr_management
2021-09-02 17:40:43,555 INFO scheduler Scheduled Job Start: frappe.utils.global_search.sync_global_search for hr_management
2021-09-02 17:40:43,802 INFO scheduler Scheduled Job Complete: frappe.utils.global_search.sync_global_search for hr_management
2021-09-02 17:40:43,896 INFO scheduler Scheduled Job Start: frappe.integrations.doctype.razorpay_settings.razorpay_settings.capture_payment for hr_management
2021-09-02 17:40:44,276 INFO scheduler Scheduled Job Complete: frappe.integrations.doctype.razorpay_settings.razorpay_settings.capture_payment for hr_management
2021-09-02 17:40:44,366 INFO scheduler Scheduled Job Start: frappe.email.doctype.email_account.email_account.notify_unreplied for hr_management
2021-09-02 17:40:44,717 INFO scheduler Scheduled Job Complete: frappe.email.doctype.email_account.email_account.notify_unreplied for hr_management
2021-09-02 17:40:44,815 INFO scheduler Scheduled Job Start: frappe.email.doctype.email_account.email_account.pull for hr_management
2021-09-02 17:40:45,183 INFO scheduler Scheduled Job Complete: frappe.email.doctype.email_account.email_account.pull for hr_management
2021-09-02 17:40:45,269 INFO scheduler Scheduled Job Start: frappe.email.queue.flush for hr_management
2021-09-02 17:40:45,534 INFO scheduler Scheduled Job Complete: frappe.email.queue.flush for hr_management
2021-09-02 17:41:41,272 DEBUG scheduler Queued events for site hr_management
2021-09-02 17:42:41,631 DEBUG scheduler Queued events for site hr_management
2021-09-02 17:43:41,981 DEBUG scheduler Queued events for site hr_management
2021-09-02 17:44:42,388 DEBUG scheduler Queued events for site hr_management
2021-09-02 17:44:44,665 INFO scheduler Scheduled Job Start: frappe.monitor.flush for hr_management
2021-09-02 17:44:44,905 INFO scheduler Scheduled Job Complete: frappe.monitor.flush for hr_management
2021-09-02 17:44:45,001 INFO scheduler Scheduled Job Start: frappe.utils.global_search.sync_global_search for hr_management
2021-09-02 17:44:45,268 INFO scheduler Scheduled Job Complete: frappe.utils.global_search.sync_global_search for hr_management
2021-09-02 17:44:45,367 INFO scheduler Scheduled Job Start: frappe.integrations.doctype.razorpay_settings.razorpay_settings.capture_payment for hr_management
2021-09-02 17:44:45,749 INFO scheduler Scheduled Job Complete: frappe.integrations.doctype.razorpay_settings.razorpay_settings.capture_payment for hr_management
2021-09-02 17:44:45,839 INFO scheduler Scheduled Job Start: frappe.email.doctype.email_account.email_account.notify_unreplied for hr_management
2021-09-02 17:44:46,144 INFO scheduler Scheduled Job Complete: frappe.email.doctype.email_account.email_account.notify_unreplied for hr_management
2021-09-02 17:44:46,240 INFO scheduler Scheduled Job Start: frappe.email.doctype.email_account.email_account.pull for hr_management
2021-09-02 17:44:46,567 INFO scheduler Scheduled Job Complete: frappe.email.doctype.email_account.email_account.pull for hr_management
2021-09-02 17:44:46,659 INFO scheduler Scheduled Job Start: frappe.email.queue.flush for hr_management
2021-09-02 17:44:46,929 INFO scheduler Scheduled Job Complete: frappe.email.queue.flush for hr_management
2021-09-02 17:45:42,804 DEBUG scheduler Queued events for site hr_management
2021-09-02 17:45:44,293 INFO scheduler Scheduled Job Start: frappe.twofactor.delete_all_barcodes_for_users for hr_management
2021-09-02 17:45:44,655 INFO scheduler Scheduled Job Complete: frappe.twofactor.delete_all_barcodes_for_users for hr_management
2021-09-02 17:45:44,755 INFO scheduler Scheduled Job Start: frappe.website.doctype.web_page.web_page.check_publish_status for hr_management
2021-09-02 17:45:45,194 INFO scheduler Scheduled Job Complete: frappe.website.doctype.web_page.web_page.check_publish_status for hr_management
2021-09-02 17:45:45,291 INFO scheduler Scheduled Job Start: frappe.oauth.delete_oauth2_data for hr_management
2021-09-02 17:45:45,692 INFO scheduler Scheduled Job Complete: frappe.oauth.delete_oauth2_data for hr_management
2021-09-02 17:46:43,233 DEBUG scheduler Queued events for site hr_management
2021-09-02 17:47:43,608 DEBUG scheduler Queued events for site hr_management
2021-09-02 17:48:44,033 DEBUG scheduler Queued events for site hr_management
2021-09-02 17:48:46,246 INFO scheduler Scheduled Job Start: frappe.monitor.flush for hr_management
2021-09-02 17:48:46,490 INFO scheduler Scheduled Job Complete: frappe.monitor.flush for hr_management
2021-09-02 17:48:46,585 INFO scheduler Scheduled Job Start: frappe.utils.global_search.sync_global_search for hr_management
2021-09-02 17:48:46,832 INFO scheduler Scheduled Job Complete: frappe.utils.global_search.sync_global_search for hr_management
2021-09-02 17:48:46,934 INFO scheduler Scheduled Job Start: frappe.integrations.doctype.razorpay_settings.razorpay_settings.capture_payment for hr_management
2021-09-02 17:48:47,315 INFO scheduler Scheduled Job Complete: frappe.integrations.doctype.razorpay_settings.razorpay_settings.capture_payment for hr_management
2021-09-02 17:48:47,411 INFO scheduler Scheduled Job Start: frappe.email.doctype.email_account.email_account.notify_unreplied for hr_management
2021-09-02 17:48:47,724 INFO scheduler Scheduled Job Complete: frappe.email.doctype.email_account.email_account.notify_unreplied for hr_management
2021-09-02 17:48:47,812 INFO scheduler Scheduled Job Start: frappe.email.doctype.email_account.email_account.pull for hr_management
2021-09-02 17:48:48,143 INFO scheduler Scheduled Job Complete: frappe.email.doctype.email_account.email_account.pull for hr_management
2021-09-02 17:48:48,248 INFO scheduler Scheduled Job Start: frappe.email.queue.flush for hr_management
2021-09-02 17:48:48,506 INFO scheduler Scheduled Job Complete: frappe.email.queue.flush for hr_management
2021-09-02 17:49:44,472 DEBUG scheduler Queued events for site hr_management
2021-09-02 17:50:44,853 DEBUG scheduler Queued events for site hr_management
2021-09-02 17:51:45,234 DEBUG scheduler Queued events for site hr_management
2021-09-02 17:52:45,651 DEBUG scheduler Queued events for site hr_management
2021-09-02 17:52:47,916 INFO scheduler Scheduled Job Start: frappe.monitor.flush for hr_management
2021-09-02 17:52:48,188 INFO scheduler Scheduled Job Complete: frappe.monitor.flush for hr_management
2021-09-02 17:52:48,279 INFO scheduler Scheduled Job Start: frappe.utils.global_search.sync_global_search for hr_management
2021-09-02 17:52:48,526 INFO scheduler Scheduled Job Complete: frappe.utils.global_search.sync_global_search for hr_management
2021-09-02 17:52:48,614 INFO scheduler Scheduled Job Start: frappe.integrations.doctype.razorpay_settings.razorpay_settings.capture_payment for hr_management
2021-09-02 17:52:48,977 INFO scheduler Scheduled Job Complete: frappe.integrations.doctype.razorpay_settings.razorpay_settings.capture_payment for hr_management
2021-09-02 17:52:49,075 INFO scheduler Scheduled Job Start: frappe.email.doctype.email_account.email_account.notify_unreplied for hr_management
2021-09-02 17:52:49,410 INFO scheduler Scheduled Job Complete: frappe.email.doctype.email_account.email_account.notify_unreplied for hr_management
2021-09-02 17:52:49,497 INFO scheduler Scheduled Job Start: frappe.email.doctype.email_account.email_account.pull for hr_management
2021-09-02 17:52:49,816 INFO scheduler Scheduled Job Complete: frappe.email.doctype.email_account.email_account.pull for hr_management
2021-09-02 17:52:49,910 INFO scheduler Scheduled Job Start: frappe.email.queue.flush for hr_management
2021-09-02 17:52:50,197 INFO scheduler Scheduled Job Complete: frappe.email.queue.flush for hr_management
2021-09-02 17:53:46,084 DEBUG scheduler Queued events for site hr_management
2021-09-02 17:54:46,443 DEBUG scheduler Queued events for site hr_management
2021-09-02 17:55:46,808 DEBUG scheduler Queued events for site hr_management
2021-09-02 17:56:47,257 DEBUG scheduler Queued events for site hr_management
2021-09-02 17:56:49,549 INFO scheduler Scheduled Job Start: frappe.monitor.flush for hr_management
2021-09-02 17:56:49,813 INFO scheduler Scheduled Job Complete: frappe.monitor.flush for hr_management
2021-09-02 17:56:49,919 INFO scheduler Scheduled Job Start: frappe.utils.global_search.sync_global_search for hr_management
2021-09-02 17:56:50,162 INFO scheduler Scheduled Job Complete: frappe.utils.global_search.sync_global_search for hr_management
2021-09-02 17:56:50,254 INFO scheduler Scheduled Job Start: frappe.integrations.doctype.razorpay_settings.razorpay_settings.capture_payment for hr_management
2021-09-02 17:56:50,620 INFO scheduler Scheduled Job Complete: frappe.integrations.doctype.razorpay_settings.razorpay_settings.capture_payment for hr_management
2021-09-02 17:56:50,710 INFO scheduler Scheduled Job Start: frappe.email.doctype.email_account.email_account.notify_unreplied for hr_management
2021-09-02 17:56:51,031 INFO scheduler Scheduled Job Complete: frappe.email.doctype.email_account.email_account.notify_unreplied for hr_management
2021-09-02 17:56:51,119 INFO scheduler Scheduled Job Start: frappe.email.doctype.email_account.email_account.pull for hr_management
2021-09-02 17:56:51,452 INFO scheduler Scheduled Job Complete: frappe.email.doctype.email_account.email_account.pull for hr_management
2021-09-02 17:56:51,548 INFO scheduler Scheduled Job Start: frappe.email.queue.flush for hr_management
2021-09-02 17:56:51,798 INFO scheduler Scheduled Job Complete: frappe.email.queue.flush for hr_management
2021-09-02 17:57:47,665 DEBUG scheduler Queued events for site hr_management
2021-09-02 17:58:48,010 DEBUG scheduler Queued events for site hr_management
2021-09-02 17:59:48,379 DEBUG scheduler Queued events for site hr_management
2021-09-02 18:00:49,038 DEBUG scheduler Queued events for site hr_management
2021-09-02 18:00:56,570 INFO scheduler Scheduled Job Start: frappe.email.doctype.newsletter.newsletter.send_scheduled_email for hr_management
2021-09-02 18:00:57,002 INFO scheduler Scheduled Job Complete: frappe.email.doctype.newsletter.newsletter.send_scheduled_email for hr_management
2021-09-02 18:00:57,104 INFO scheduler Scheduled Job Start: frappe.integrations.doctype.google_calendar.google_calendar.sync for hr_management
2021-09-02 18:00:57,650 INFO scheduler Scheduled Job Complete: frappe.integrations.doctype.google_calendar.google_calendar.sync for hr_management
2021-09-02 18:00:57,782 INFO scheduler Scheduled Job Start: frappe.desk.form.document_follow.send_hourly_updates for hr_management
2021-09-02 18:00:58,153 INFO scheduler Scheduled Job Complete: frappe.desk.form.document_follow.send_hourly_updates for hr_management
2021-09-02 18:00:58,247 INFO scheduler Scheduled Job Start: frappe.deferred_insert.save_to_db for hr_management
2021-09-02 18:00:58,594 INFO scheduler Scheduled Job Complete: frappe.deferred_insert.save_to_db for hr_management
2021-09-02 18:00:58,679 INFO scheduler Scheduled Job Start: frappe.desk.page.backups.backups.delete_downloadable_backups for hr_management
2021-09-02 18:00:59,064 INFO scheduler Scheduled Job Complete: frappe.desk.page.backups.backups.delete_downloadable_backups for hr_management
2021-09-02 18:00:59,162 INFO scheduler Scheduled Job Start: frappe.utils.error.collect_error_snapshots for hr_management
2021-09-02 18:00:59,525 INFO scheduler Scheduled Job Complete: frappe.utils.error.collect_error_snapshots for hr_management
2021-09-02 18:00:59,618 INFO scheduler Scheduled Job Start: frappe.model.utils.user_settings.sync_user_settings for hr_management
2021-09-02 18:00:59,960 INFO scheduler Scheduled Job Complete: frappe.model.utils.user_settings.sync_user_settings for hr_management
2021-09-02 18:01:00,055 INFO scheduler Scheduled Job Start: frappe.model.utils.link_count.update_link_count for hr_management
2021-09-02 18:01:00,402 INFO scheduler Scheduled Job Complete: frappe.model.utils.link_count.update_link_count for hr_management
2021-09-02 18:01:00,498 INFO scheduler Scheduled Job Start: frappe.monitor.flush for hr_management
2021-09-02 18:01:00,743 INFO scheduler Scheduled Job Complete: frappe.monitor.flush for hr_management
2021-09-02 18:01:00,837 INFO scheduler Scheduled Job Start: frappe.utils.global_search.sync_global_search for hr_management
2021-09-02 18:01:01,084 INFO scheduler Scheduled Job Complete: frappe.utils.global_search.sync_global_search for hr_management
2021-09-02 18:01:01,186 INFO scheduler Scheduled Job Start: frappe.integrations.doctype.razorpay_settings.razorpay_settings.capture_payment for hr_management
2021-09-02 18:01:01,544 INFO scheduler Scheduled Job Complete: frappe.integrations.doctype.razorpay_settings.razorpay_settings.capture_payment for hr_management
2021-09-02 18:01:01,646 INFO scheduler Scheduled Job Start: frappe.email.doctype.email_account.email_account.notify_unreplied for hr_management
2021-09-02 18:01:01,955 INFO scheduler Scheduled Job Complete: frappe.email.doctype.email_account.email_account.notify_unreplied for hr_management
2021-09-02 18:01:02,042 INFO scheduler Scheduled Job Start: frappe.email.doctype.email_account.email_account.pull for hr_management
2021-09-02 18:01:02,392 INFO scheduler Scheduled Job Complete: frappe.email.doctype.email_account.email_account.pull for hr_management
2021-09-02 18:01:02,490 INFO scheduler Scheduled Job Start: frappe.email.queue.flush for hr_management
2021-09-02 18:01:02,758 INFO scheduler Scheduled Job Complete: frappe.email.queue.flush for hr_management
2021-09-02 18:01:02,865 INFO scheduler Scheduled Job Start: frappe.twofactor.delete_all_barcodes_for_users for hr_management
2021-09-02 18:01:03,249 INFO scheduler Scheduled Job Complete: frappe.twofactor.delete_all_barcodes_for_users for hr_management
2021-09-02 18:01:03,341 INFO scheduler Scheduled Job Start: frappe.website.doctype.web_page.web_page.check_publish_status for hr_management
2021-09-02 18:01:03,761 INFO scheduler Scheduled Job Complete: frappe.website.doctype.web_page.web_page.check_publish_status for hr_management
2021-09-02 18:01:03,867 INFO scheduler Scheduled Job Start: frappe.oauth.delete_oauth2_data for hr_management
2021-09-02 18:01:04,308 INFO scheduler Scheduled Job Complete: frappe.oauth.delete_oauth2_data for hr_management
2021-09-02 18:01:49,454 DEBUG scheduler Queued events for site hr_management
2021-09-02 18:02:49,805 DEBUG scheduler Queued events for site hr_management
2021-09-02 18:03:50,183 DEBUG scheduler Queued events for site hr_management
2021-09-02 18:04:50,595 DEBUG scheduler Queued events for site hr_management
2021-09-02 18:04:52,863 INFO scheduler Scheduled Job Start: frappe.monitor.flush for hr_management
2021-09-02 18:04:53,107 INFO scheduler Scheduled Job Complete: frappe.monitor.flush for hr_management
2021-09-02 18:04:53,196 INFO scheduler Scheduled Job Start: frappe.utils.global_search.sync_global_search for hr_management
2021-09-02 18:04:53,455 INFO scheduler Scheduled Job Complete: frappe.utils.global_search.sync_global_search for hr_management
2021-09-02 18:04:53,555 INFO scheduler Scheduled Job Start: frappe.integrations.doctype.razorpay_settings.razorpay_settings.capture_payment for hr_management
2021-09-02 18:04:53,934 INFO scheduler Scheduled Job Complete: frappe.integrations.doctype.razorpay_settings.razorpay_settings.capture_payment for hr_management
2021-09-02 18:04:54,042 INFO scheduler Scheduled Job Start: frappe.email.doctype.email_account.email_account.notify_unreplied for hr_management
2021-09-02 18:04:54,382 INFO scheduler Scheduled Job Complete: frappe.email.doctype.email_account.email_account.notify_unreplied for hr_management
2021-09-02 18:04:54,468 INFO scheduler Scheduled Job Start: frappe.email.doctype.email_account.email_account.pull for hr_management
2021-09-02 18:04:54,805 INFO scheduler Scheduled Job Complete: frappe.email.doctype.email_account.email_account.pull for hr_management
2021-09-02 18:04:54,892 INFO scheduler Scheduled Job Start: frappe.email.queue.flush for hr_management
2021-09-02 18:04:55,141 INFO scheduler Scheduled Job Complete: frappe.email.queue.flush for hr_management
2021-09-02 18:05:51,014 DEBUG scheduler Queued events for site hr_management
2021-09-02 18:06:51,406 DEBUG scheduler Queued events for site hr_management
2021-09-02 18:07:51,763 DEBUG scheduler Queued events for site hr_management
2021-09-02 18:08:52,267 DEBUG scheduler Queued events for site hr_management
2021-09-02 18:08:54,537 INFO scheduler Scheduled Job Start: frappe.monitor.flush for hr_management
2021-09-02 18:08:54,776 INFO scheduler Scheduled Job Complete: frappe.monitor.flush for hr_management
2021-09-02 18:08:54,861 INFO scheduler Scheduled Job Start: frappe.utils.global_search.sync_global_search for hr_management
2021-09-02 18:08:55,101 INFO scheduler Scheduled Job Complete: frappe.utils.global_search.sync_global_search for hr_management
2021-09-02 18:08:55,197 INFO scheduler Scheduled Job Start: frappe.integrations.doctype.razorpay_settings.razorpay_settings.capture_payment for hr_management
2021-09-02 18:08:55,588 INFO scheduler Scheduled Job Complete: frappe.integrations.doctype.razorpay_settings.razorpay_settings.capture_payment for hr_management
2021-09-02 18:08:55,675 INFO scheduler Scheduled Job Start: frappe.email.doctype.email_account.email_account.notify_unreplied for hr_management
2021-09-02 18:08:55,986 INFO scheduler Scheduled Job Complete: frappe.email.doctype.email_account.email_account.notify_unreplied for hr_management
2021-09-02 18:08:56,081 INFO scheduler Scheduled Job Start: frappe.email.doctype.email_account.email_account.pull for hr_management
2021-09-02 18:08:56,404 INFO scheduler Scheduled Job Complete: frappe.email.doctype.email_account.email_account.pull for hr_management
2021-09-02 18:08:56,491 INFO scheduler Scheduled Job Start: frappe.email.queue.flush for hr_management
2021-09-02 18:08:56,752 INFO scheduler Scheduled Job Complete: frappe.email.queue.flush for hr_management
2021-09-02 18:09:52,675 DEBUG scheduler Queued events for site hr_management
2021-09-02 18:10:53,008 DEBUG scheduler Queued events for site hr_management
2021-09-02 18:11:53,383 DEBUG scheduler Queued events for site hr_management
2021-09-02 18:12:53,861 DEBUG scheduler Queued events for site hr_management
2021-09-02 18:12:56,192 INFO scheduler Scheduled Job Start: frappe.monitor.flush for hr_management
2021-09-02 18:12:56,431 INFO scheduler Scheduled Job Complete: frappe.monitor.flush for hr_management
2021-09-02 18:12:56,527 INFO scheduler Scheduled Job Start: frappe.utils.global_search.sync_global_search for hr_management
2021-09-02 18:12:56,793 INFO scheduler Scheduled Job Complete: frappe.utils.global_search.sync_global_search for hr_management
2021-09-02 18:12:56,878 INFO scheduler Scheduled Job Start: frappe.integrations.doctype.razorpay_settings.razorpay_settings.capture_payment for hr_management
2021-09-02 18:12:57,275 INFO scheduler Scheduled Job Complete: frappe.integrations.doctype.razorpay_settings.razorpay_settings.capture_payment for hr_management
2021-09-02 18:12:57,368 INFO scheduler Scheduled Job Start: frappe.email.doctype.email_account.email_account.notify_unreplied for hr_management
2021-09-02 18:12:57,673 INFO scheduler Scheduled Job Complete: frappe.email.doctype.email_account.email_account.notify_unreplied for hr_management
2021-09-02 18:12:57,763 INFO scheduler Scheduled Job Start: frappe.email.doctype.email_account.email_account.pull for hr_management
2021-09-02 18:12:58,109 INFO scheduler Scheduled Job Complete: frappe.email.doctype.email_account.email_account.pull for hr_management
2021-09-02 18:12:58,208 INFO scheduler Scheduled Job Start: frappe.email.queue.flush for hr_management
2021-09-02 18:12:58,469 INFO scheduler Scheduled Job Complete: frappe.email.queue.flush for hr_management
2021-09-02 18:13:54,307 DEBUG scheduler Queued events for site hr_management
2021-09-02 18:14:54,664 DEBUG scheduler Queued events for site hr_management
2021-09-02 18:15:55,063 DEBUG scheduler Queued events for site hr_management
2021-09-02 18:15:56,598 INFO scheduler Scheduled Job Start: frappe.twofactor.delete_all_barcodes_for_users for hr_management
2021-09-02 18:15:56,981 INFO scheduler Scheduled Job Complete: frappe.twofactor.delete_all_barcodes_for_users for hr_management
2021-09-02 18:15:57,082 INFO scheduler Scheduled Job Start: frappe.website.doctype.web_page.web_page.check_publish_status for hr_management
2021-09-02 18:15:57,528 INFO scheduler Scheduled Job Complete: frappe.website.doctype.web_page.web_page.check_publish_status for hr_management
2021-09-02 18:15:57,631 INFO scheduler Scheduled Job Start: frappe.oauth.delete_oauth2_data for hr_management
2021-09-02 18:15:58,012 INFO scheduler Scheduled Job Complete: frappe.oauth.delete_oauth2_data for hr_management
2021-09-02 18:16:55,542 DEBUG scheduler Queued events for site hr_management
2021-09-02 18:16:57,951 INFO scheduler Scheduled Job Start: frappe.monitor.flush for hr_management
2021-09-02 18:16:58,223 INFO scheduler Scheduled Job Complete: frappe.monitor.flush for hr_management
2021-09-02 18:16:58,328 INFO scheduler Scheduled Job Start: frappe.utils.global_search.sync_global_search for hr_management
2021-09-02 18:16:58,575 INFO scheduler Scheduled Job Complete: frappe.utils.global_search.sync_global_search for hr_management
2021-09-02 18:16:58,658 INFO scheduler Scheduled Job Start: frappe.integrations.doctype.razorpay_settings.razorpay_settings.capture_payment for hr_management
2021-09-02 18:16:59,023 INFO scheduler Scheduled Job Complete: frappe.integrations.doctype.razorpay_settings.razorpay_settings.capture_payment for hr_management
2021-09-02 18:16:59,131 INFO scheduler Scheduled Job Start: frappe.email.doctype.email_account.email_account.notify_unreplied for hr_management
2021-09-02 18:16:59,436 INFO scheduler Scheduled Job Complete: frappe.email.doctype.email_account.email_account.notify_unreplied for hr_management
2021-09-02 18:16:59,526 INFO scheduler Scheduled Job Start: frappe.email.doctype.email_account.email_account.pull for hr_management
2021-09-02 18:16:59,860 INFO scheduler Scheduled Job Complete: frappe.email.doctype.email_account.email_account.pull for hr_management
2021-09-02 18:16:59,954 INFO scheduler Scheduled Job Start: frappe.email.queue.flush for hr_management
2021-09-02 18:17:00,252 INFO scheduler Scheduled Job Complete: frappe.email.queue.flush for hr_management
2021-09-02 18:17:55,975 DEBUG scheduler Queued events for site hr_management
2021-09-02 18:18:56,356 DEBUG scheduler Queued events for site hr_management
2021-09-02 18:19:56,726 DEBUG scheduler Queued events for site hr_management
2021-09-02 18:20:57,155 DEBUG scheduler Queued events for site hr_management
2021-09-02 18:20:59,440 INFO scheduler Scheduled Job Start: frappe.monitor.flush for hr_management
2021-09-02 18:20:59,689 INFO scheduler Scheduled Job Complete: frappe.monitor.flush for hr_management
2021-09-02 18:20:59,776 INFO scheduler Scheduled Job Start: frappe.utils.global_search.sync_global_search for hr_management
2021-09-02 18:21:00,014 INFO scheduler Scheduled Job Complete: frappe.utils.global_search.sync_global_search for hr_management
2021-09-02 18:21:00,101 INFO scheduler Scheduled Job Start: frappe.integrations.doctype.razorpay_settings.razorpay_settings.capture_payment for hr_management
2021-09-02 18:21:00,483 INFO scheduler Scheduled Job Complete: frappe.integrations.doctype.razorpay_settings.razorpay_settings.capture_payment for hr_management
2021-09-02 18:21:00,574 INFO scheduler Scheduled Job Start: frappe.email.doctype.email_account.email_account.notify_unreplied for hr_management
2021-09-02 18:21:00,863 INFO scheduler Scheduled Job Complete: frappe.email.doctype.email_account.email_account.notify_unreplied for hr_management
2021-09-02 18:21:00,957 INFO scheduler Scheduled Job Start: frappe.email.doctype.email_account.email_account.pull for hr_management
2021-09-02 18:21:01,292 INFO scheduler Scheduled Job Complete: frappe.email.doctype.email_account.email_account.pull for hr_management
2021-09-02 18:21:01,381 INFO scheduler Scheduled Job Start: frappe.email.queue.flush for hr_management
2021-09-02 18:21:01,646 INFO scheduler Scheduled Job Complete: frappe.email.queue.flush for hr_management
2021-09-02 18:21:57,576 DEBUG scheduler Queued events for site hr_management
2021-09-02 18:22:57,912 DEBUG scheduler Queued events for site hr_management
2021-09-02 18:23:58,284 DEBUG scheduler Queued events for site hr_management
2021-09-02 18:24:58,700 DEBUG scheduler Queued events for site hr_management
2021-09-02 18:25:01,054 INFO scheduler Scheduled Job Start: frappe.monitor.flush for hr_management
2021-09-02 18:25:01,317 INFO scheduler Scheduled Job Complete: frappe.monitor.flush for hr_management
2021-09-02 18:25:01,410 INFO scheduler Scheduled Job Start: frappe.utils.global_search.sync_global_search for hr_management
2021-09-02 18:25:01,651 INFO scheduler Scheduled Job Complete: frappe.utils.global_search.sync_global_search for hr_management
2021-09-02 18:25:01,737 INFO scheduler Scheduled Job Start: frappe.integrations.doctype.razorpay_settings.razorpay_settings.capture_payment for hr_management
2021-09-02 18:25:02,125 INFO scheduler Scheduled Job Complete: frappe.integrations.doctype.razorpay_settings.razorpay_settings.capture_payment for hr_management
2021-09-02 18:25:02,220 INFO scheduler Scheduled Job Start: frappe.email.doctype.email_account.email_account.notify_unreplied for hr_management
2021-09-02 18:25:02,535 INFO scheduler Scheduled Job Complete: frappe.email.doctype.email_account.email_account.notify_unreplied for hr_management
2021-09-02 18:25:02,642 INFO scheduler Scheduled Job Start: frappe.email.doctype.email_account.email_account.pull for hr_management
2021-09-02 18:25:02,971 INFO scheduler Scheduled Job Complete: frappe.email.doctype.email_account.email_account.pull for hr_management
2021-09-02 18:25:03,065 INFO scheduler Scheduled Job Start: frappe.email.queue.flush for hr_management
2021-09-02 18:25:03,351 INFO scheduler Scheduled Job Complete: frappe.email.queue.flush for hr_management
2021-09-02 18:25:59,114 DEBUG scheduler Queued events for site hr_management
2021-09-02 18:26:59,484 DEBUG scheduler Queued events for site hr_management
2021-09-02 18:27:59,865 DEBUG scheduler Queued events for site hr_management
2021-09-02 18:29:00,293 DEBUG scheduler Queued events for site hr_management
2021-09-02 18:29:02,512 INFO scheduler Scheduled Job Start: frappe.monitor.flush for hr_management
2021-09-02 18:29:02,757 INFO scheduler Scheduled Job Complete: frappe.monitor.flush for hr_management
2021-09-02 18:29:02,854 INFO scheduler Scheduled Job Start: frappe.utils.global_search.sync_global_search for hr_management
2021-09-02 18:29:03,091 INFO scheduler Scheduled Job Complete: frappe.utils.global_search.sync_global_search for hr_management
2021-09-02 18:29:03,200 INFO scheduler Scheduled Job Start: frappe.integrations.doctype.razorpay_settings.razorpay_settings.capture_payment for hr_management
2021-09-02 18:29:03,588 INFO scheduler Scheduled Job Complete: frappe.integrations.doctype.razorpay_settings.razorpay_settings.capture_payment for hr_management
2021-09-02 18:29:03,681 INFO scheduler Scheduled Job Start: frappe.email.doctype.email_account.email_account.notify_unreplied for hr_management
2021-09-02 18:29:03,986 INFO scheduler Scheduled Job Complete: frappe.email.doctype.email_account.email_account.notify_unreplied for hr_management
2021-09-02 18:29:04,095 INFO scheduler Scheduled Job Start: frappe.email.doctype.email_account.email_account.pull for hr_management
2021-09-02 18:29:04,428 INFO scheduler Scheduled Job Complete: frappe.email.doctype.email_account.email_account.pull for hr_management
2021-09-02 18:29:04,524 INFO scheduler Scheduled Job Start: frappe.email.queue.flush for hr_management
2021-09-02 18:29:04,790 INFO scheduler Scheduled Job Complete: frappe.email.queue.flush for hr_management
2021-09-02 18:30:00,719 DEBUG scheduler Queued events for site hr_management
2021-09-02 18:30:02,177 INFO scheduler Scheduled Job Start: frappe.twofactor.delete_all_barcodes_for_users for hr_management
2021-09-02 18:30:02,577 INFO scheduler Scheduled Job Complete: frappe.twofactor.delete_all_barcodes_for_users for hr_management
2021-09-02 18:30:02,674 INFO scheduler Scheduled Job Start: frappe.website.doctype.web_page.web_page.check_publish_status for hr_management
2021-09-02 18:30:03,096 INFO scheduler Scheduled Job Complete: frappe.website.doctype.web_page.web_page.check_publish_status for hr_management
2021-09-02 18:30:03,215 INFO scheduler Scheduled Job Start: frappe.oauth.delete_oauth2_data for hr_management
2021-09-02 18:30:03,626 INFO scheduler Scheduled Job Complete: frappe.oauth.delete_oauth2_data for hr_management
2021-09-02 18:31:01,139 DEBUG scheduler Queued events for site hr_management
2021-09-02 18:32:01,579 DEBUG scheduler Queued events for site hr_management
2021-09-02 18:32:03,880 INFO scheduler Scheduled Job Start: frappe.monitor.flush for hr_management
2021-09-02 18:32:04,127 INFO scheduler Scheduled Job Complete: frappe.monitor.flush for hr_management
2021-09-02 18:32:04,237 INFO scheduler Scheduled Job Start: frappe.utils.global_search.sync_global_search for hr_management
2021-09-02 18:32:04,501 INFO scheduler Scheduled Job Complete: frappe.utils.global_search.sync_global_search for hr_management
2021-09-02 18:32:04,595 INFO scheduler Scheduled Job Start: frappe.integrations.doctype.razorpay_settings.razorpay_settings.capture_payment for hr_management
2021-09-02 18:32:04,980 INFO scheduler Scheduled Job Complete: frappe.integrations.doctype.razorpay_settings.razorpay_settings.capture_payment for hr_management
2021-09-02 18:32:05,095 INFO scheduler Scheduled Job Start: frappe.email.doctype.email_account.email_account.notify_unreplied for hr_management
2021-09-02 18:32:05,407 INFO scheduler Scheduled Job Complete: frappe.email.doctype.email_account.email_account.notify_unreplied for hr_management
2021-09-02 18:32:05,509 INFO scheduler Scheduled Job Start: frappe.email.doctype.email_account.email_account.pull for hr_management
2021-09-02 18:32:05,831 INFO scheduler Scheduled Job Complete: frappe.email.doctype.email_account.email_account.pull for hr_management
2021-09-02 18:32:05,933 INFO scheduler Scheduled Job Start: frappe.email.queue.flush for hr_management
2021-09-02 18:32:06,195 INFO scheduler Scheduled Job Complete: frappe.email.queue.flush for hr_management
2021-09-02 18:33:01,983 DEBUG scheduler Queued events for site hr_management
2021-09-02 18:34:02,348 DEBUG scheduler Queued events for site hr_management
2021-09-02 18:35:02,723 DEBUG scheduler Queued events for site hr_management
2021-09-02 18:36:03,149 DEBUG scheduler Queued events for site hr_management
2021-09-02 18:36:05,487 INFO scheduler Scheduled Job Start: frappe.monitor.flush for hr_management
2021-09-02 18:36:05,741 INFO scheduler Scheduled Job Complete: frappe.monitor.flush for hr_management
2021-09-02 18:36:05,827 INFO scheduler Scheduled Job Start: frappe.utils.global_search.sync_global_search for hr_management
2021-09-02 18:36:06,081 INFO scheduler Scheduled Job Complete: frappe.utils.global_search.sync_global_search for hr_management
2021-09-02 18:36:06,192 INFO scheduler Scheduled Job Start: frappe.integrations.doctype.razorpay_settings.razorpay_settings.capture_payment for hr_management
2021-09-02 18:36:06,576 INFO scheduler Scheduled Job Complete: frappe.integrations.doctype.razorpay_settings.razorpay_settings.capture_payment for hr_management
2021-09-02 18:36:06,660 INFO scheduler Scheduled Job Start: frappe.email.doctype.email_account.email_account.notify_unreplied for hr_management
2021-09-02 18:36:06,978 INFO scheduler Scheduled Job Complete: frappe.email.doctype.email_account.email_account.notify_unreplied for hr_management
2021-09-02 18:36:07,072 INFO scheduler Scheduled Job Start: frappe.email.doctype.email_account.email_account.pull for hr_management
2021-09-02 18:36:07,395 INFO scheduler Scheduled Job Complete: frappe.email.doctype.email_account.email_account.pull for hr_management
2021-09-02 18:36:07,492 INFO scheduler Scheduled Job Start: frappe.email.queue.flush for hr_management
2021-09-02 18:36:07,758 INFO scheduler Scheduled Job Complete: frappe.email.queue.flush for hr_management
2021-09-02 18:37:03,572 DEBUG scheduler Queued events for site hr_management
2021-09-02 18:38:03,955 DEBUG scheduler Queued events for site hr_management
2021-09-02 18:39:04,331 DEBUG scheduler Queued events for site hr_management
2021-09-02 18:40:04,777 DEBUG scheduler Queued events for site hr_management
2021-09-02 18:40:07,050 INFO scheduler Scheduled Job Start: frappe.monitor.flush for hr_management
2021-09-02 18:40:07,305 INFO scheduler Scheduled Job Complete: frappe.monitor.flush for hr_management
2021-09-02 18:40:07,389 INFO scheduler Scheduled Job Start: frappe.utils.global_search.sync_global_search for hr_management
2021-09-02 18:40:07,634 INFO scheduler Scheduled Job Complete: frappe.utils.global_search.sync_global_search for hr_management
2021-09-02 18:40:07,720 INFO scheduler Scheduled Job Start: frappe.integrations.doctype.razorpay_settings.razorpay_settings.capture_payment for hr_management
2021-09-02 18:40:08,114 INFO scheduler Scheduled Job Complete: frappe.integrations.doctype.razorpay_settings.razorpay_settings.capture_payment for hr_management
2021-09-02 18:40:08,222 INFO scheduler Scheduled Job Start: frappe.email.doctype.email_account.email_account.notify_unreplied for hr_management
2021-09-02 18:40:08,515 INFO scheduler Scheduled Job Complete: frappe.email.doctype.email_account.email_account.notify_unreplied for hr_management
2021-09-02 18:40:08,616 INFO scheduler Scheduled Job Start: frappe.email.doctype.email_account.email_account.pull for hr_management
2021-09-02 18:40:08,940 INFO scheduler Scheduled Job Complete: frappe.email.doctype.email_account.email_account.pull for hr_management
2021-09-02 18:40:09,033 INFO scheduler Scheduled Job Start: frappe.email.queue.flush for hr_management
2021-09-02 18:40:09,303 INFO scheduler Scheduled Job Complete: frappe.email.queue.flush for hr_management
2021-09-02 18:41:05,208 DEBUG scheduler Queued events for site hr_management
2021-09-02 18:42:05,571 DEBUG scheduler Queued events for site hr_management
2021-09-02 18:43:05,941 DEBUG scheduler Queued events for site hr_management
2021-09-02 18:44:06,432 DEBUG scheduler Queued events for site hr_management
2021-09-02 18:44:08,682 INFO scheduler Scheduled Job Start: frappe.monitor.flush for hr_management
2021-09-02 18:44:08,927 INFO scheduler Scheduled Job Complete: frappe.monitor.flush for hr_management
2021-09-02 18:44:09,015 INFO scheduler Scheduled Job Start: frappe.utils.global_search.sync_global_search for hr_management
2021-09-02 18:44:09,284 INFO scheduler Scheduled Job Complete: frappe.utils.global_search.sync_global_search for hr_management
2021-09-02 18:44:09,371 INFO scheduler Scheduled Job Start: frappe.integrations.doctype.razorpay_settings.razorpay_settings.capture_payment for hr_management
2021-09-02 18:44:09,734 INFO scheduler Scheduled Job Complete: frappe.integrations.doctype.razorpay_settings.razorpay_settings.capture_payment for hr_management
2021-09-02 18:44:09,831 INFO scheduler Scheduled Job Start: frappe.email.doctype.email_account.email_account.notify_unreplied for hr_management
2021-09-02 18:44:10,145 INFO scheduler Scheduled Job Complete: frappe.email.doctype.email_account.email_account.notify_unreplied for hr_management
2021-09-02 18:44:10,233 INFO scheduler Scheduled Job Start: frappe.email.doctype.email_account.email_account.pull for hr_management
2021-09-02 18:44:10,545 INFO scheduler Scheduled Job Complete: frappe.email.doctype.email_account.email_account.pull for hr_management
2021-09-02 18:44:10,637 INFO scheduler Scheduled Job Start: frappe.email.queue.flush for hr_management
2021-09-02 18:44:10,890 INFO scheduler Scheduled Job Complete: frappe.email.queue.flush for hr_management
2021-09-02 18:45:06,895 DEBUG scheduler Queued events for site hr_management
2021-09-02 18:45:08,397 INFO scheduler Scheduled Job Start: frappe.twofactor.delete_all_barcodes_for_users for hr_management
2021-09-02 18:45:08,809 INFO scheduler Scheduled Job Complete: frappe.twofactor.delete_all_barcodes_for_users for hr_management
2021-09-02 18:45:08,913 INFO scheduler Scheduled Job Start: frappe.website.doctype.web_page.web_page.check_publish_status for hr_management
2021-09-02 18:45:09,323 INFO scheduler Scheduled Job Complete: frappe.website.doctype.web_page.web_page.check_publish_status for hr_management
2021-09-02 18:45:09,424 INFO scheduler Scheduled Job Start: frappe.oauth.delete_oauth2_data for hr_management
2021-09-02 18:45:09,825 INFO scheduler Scheduled Job Complete: frappe.oauth.delete_oauth2_data for hr_management
2021-09-02 18:46:07,299 DEBUG scheduler Queued events for site hr_management
2021-09-02 18:47:07,674 DEBUG scheduler Queued events for site hr_management
2021-09-02 18:48:08,127 DEBUG scheduler Queued events for site hr_management
2021-09-02 18:48:10,380 INFO scheduler Scheduled Job Start: frappe.monitor.flush for hr_management
2021-09-02 18:48:10,628 INFO scheduler Scheduled Job Complete: frappe.monitor.flush for hr_management
2021-09-02 18:48:10,727 INFO scheduler Scheduled Job Start: frappe.utils.global_search.sync_global_search for hr_management
2021-09-02 18:48:10,979 INFO scheduler Scheduled Job Complete: frappe.utils.global_search.sync_global_search for hr_management
2021-09-02 18:48:11,075 INFO scheduler Scheduled Job Start: frappe.integrations.doctype.razorpay_settings.razorpay_settings.capture_payment for hr_management
2021-09-02 18:48:11,442 INFO scheduler Scheduled Job Complete: frappe.integrations.doctype.razorpay_settings.razorpay_settings.capture_payment for hr_management
2021-09-02 18:48:11,529 INFO scheduler Scheduled Job Start: frappe.email.doctype.email_account.email_account.notify_unreplied for hr_management
2021-09-02 18:48:11,839 INFO scheduler Scheduled Job Complete: frappe.email.doctype.email_account.email_account.notify_unreplied for hr_management
2021-09-02 18:48:11,948 INFO scheduler Scheduled Job Start: frappe.email.doctype.email_account.email_account.pull for hr_management
2021-09-02 18:48:12,280 INFO scheduler Scheduled Job Complete: frappe.email.doctype.email_account.email_account.pull for hr_management
2021-09-02 18:48:12,374 INFO scheduler Scheduled Job Start: frappe.email.queue.flush for hr_management
2021-09-02 18:48:12,622 INFO scheduler Scheduled Job Complete: frappe.email.queue.flush for hr_management
2021-09-02 18:49:08,524 DEBUG scheduler Queued events for site hr_management
2021-09-02 18:50:08,912 DEBUG scheduler Queued events for site hr_management
2021-09-02 18:51:09,275 DEBUG scheduler Queued events for site hr_management
2021-09-02 18:52:09,724 DEBUG scheduler Queued events for site hr_management
2021-09-02 18:52:11,961 INFO scheduler Scheduled Job Start: frappe.monitor.flush for hr_management
2021-09-02 18:52:12,234 INFO scheduler Scheduled Job Complete: frappe.monitor.flush for hr_management
2021-09-02 18:52:12,329 INFO scheduler Scheduled Job Start: frappe.utils.global_search.sync_global_search for hr_management
2021-09-02 18:52:12,592 INFO scheduler Scheduled Job Complete: frappe.utils.global_search.sync_global_search for hr_management
2021-09-02 18:52:12,681 INFO scheduler Scheduled Job Start: frappe.integrations.doctype.razorpay_settings.razorpay_settings.capture_payment for hr_management
2021-09-02 18:52:13,042 INFO scheduler Scheduled Job Complete: frappe.integrations.doctype.razorpay_settings.razorpay_settings.capture_payment for hr_management
2021-09-02 18:52:13,154 INFO scheduler Scheduled Job Start: frappe.email.doctype.email_account.email_account.notify_unreplied for hr_management
2021-09-02 18:52:13,487 INFO scheduler Scheduled Job Complete: frappe.email.doctype.email_account.email_account.notify_unreplied for hr_management
2021-09-02 18:52:13,581 INFO scheduler Scheduled Job Start: frappe.email.doctype.email_account.email_account.pull for hr_management
2021-09-02 18:52:13,914 INFO scheduler Scheduled Job Complete: frappe.email.doctype.email_account.email_account.pull for hr_management
2021-09-02 18:52:14,002 INFO scheduler Scheduled Job Start: frappe.email.queue.flush for hr_management
2021-09-02 18:52:14,262 INFO scheduler Scheduled Job Complete: frappe.email.queue.flush for hr_management
2021-09-02 18:53:10,148 DEBUG scheduler Queued events for site hr_management
2021-09-02 18:54:10,514 DEBUG scheduler Queued events for site hr_management
2021-09-02 18:55:10,884 DEBUG scheduler Queued events for site hr_management
2021-09-02 18:56:11,354 DEBUG scheduler Queued events for site hr_management
2021-09-02 18:56:13,595 INFO scheduler Scheduled Job Start: frappe.monitor.flush for hr_management
2021-09-02 18:56:13,845 INFO scheduler Scheduled Job Complete: frappe.monitor.flush for hr_management
2021-09-02 18:56:13,937 INFO scheduler Scheduled Job Start: frappe.utils.global_search.sync_global_search for hr_management
2021-09-02 18:56:14,190 INFO scheduler Scheduled Job Complete: frappe.utils.global_search.sync_global_search for hr_management
2021-09-02 18:56:14,271 INFO scheduler Scheduled Job Start: frappe.integrations.doctype.razorpay_settings.razorpay_settings.capture_payment for hr_management
2021-09-02 18:56:14,657 INFO scheduler Scheduled Job Complete: frappe.integrations.doctype.razorpay_settings.razorpay_settings.capture_payment for hr_management
2021-09-02 18:56:14,757 INFO scheduler Scheduled Job Start: frappe.email.doctype.email_account.email_account.notify_unreplied for hr_management
2021-09-02 18:56:15,068 INFO scheduler Scheduled Job Complete: frappe.email.doctype.email_account.email_account.notify_unreplied for hr_management
2021-09-02 18:56:15,164 INFO scheduler Scheduled Job Start: frappe.email.doctype.email_account.email_account.pull for hr_management
2021-09-02 18:56:15,475 INFO scheduler Scheduled Job Complete: frappe.email.doctype.email_account.email_account.pull for hr_management
