{
 "background_workers": 1,
 "developer_mode": true,
 "file_watcher_port": 6789,
 "frappe_user": "logdy",
 "gunicorn_workers": 9,
 "rebase_on_pull": false,
 "redis_cache": "redis://localhost:13002",
 "redis_queue": "redis://localhost:11002",
 "redis_socketio": "redis://localhost:12002",
 "restart_supervisor_on_update": false,
 "restart_systemd_on_update": false,
 "serve_default_site": true,
 "shallow_clone": true,
 "socketio_port": 9002,
 "use_redis_auth": false,
 "webserver_port": 8002
}