2021-09-03 11:16:48,870 INFO scheduler Scheduled Job Start: frappe.utils.global_search.sync_global_search for dev1
2021-09-03 11:16:49,123 INFO scheduler Scheduled Job Complete: frappe.utils.global_search.sync_global_search for dev1
2021-09-03 11:16:49,219 INFO scheduler Scheduled Job Start: frappe.integrations.doctype.razorpay_settings.razorpay_settings.capture_payment for dev1
2021-09-03 11:16:49,624 INFO scheduler Scheduled Job Complete: frappe.integrations.doctype.razorpay_settings.razorpay_settings.capture_payment for dev1
2021-09-03 11:16:49,715 INFO scheduler Scheduled Job Start: frappe.email.doctype.email_account.email_account.notify_unreplied for dev1
2021-09-03 11:16:50,031 INFO scheduler Scheduled Job Complete: frappe.email.doctype.email_account.email_account.notify_unreplied for dev1
2021-09-03 11:16:50,139 INFO scheduler Scheduled Job Start: frappe.email.doctype.email_account.email_account.pull for dev1
2021-09-03 11:16:50,490 INFO scheduler Scheduled Job Complete: frappe.email.doctype.email_account.email_account.pull for dev1
2021-09-03 11:16:50,585 INFO scheduler Scheduled Job Start: frappe.email.queue.flush for dev1
2021-09-03 11:16:50,848 INFO scheduler Scheduled Job Complete: frappe.email.queue.flush for dev1
