2021-09-02 23:25:02,717 DEBUG scheduler Queued events for site dev1
2021-09-02 23:26:03,105 DEBUG scheduler Queued events for site dev1
2021-09-02 23:27:03,498 DEBUG scheduler Queued events for site dev1
2021-09-03 08:12:46,217 INFO scheduler Scheduled Job Start: frappe.integrations.doctype.google_drive.google_drive.daily_backup for dev1
2021-09-03 08:12:46,314 INFO scheduler Scheduled Job Start: frappe.core.doctype.log_settings.log_settings.run_log_clean_up for dev1
2021-09-03 08:12:47,464 DEBUG scheduler Queued events for site dev1
2021-09-03 08:12:47,709 INFO scheduler Scheduled Job Complete: frappe.core.doctype.log_settings.log_settings.run_log_clean_up for dev1
2021-09-03 08:12:48,056 INFO scheduler Scheduled Job Start: frappe.core.doctype.prepared_report.prepared_report.delete_expired_prepared_reports for dev1
2021-09-03 08:12:48,154 INFO scheduler Scheduled Job Complete: frappe.integrations.doctype.google_drive.google_drive.daily_backup for dev1
2021-09-03 08:12:48,419 INFO scheduler Scheduled Job Start: frappe.integrations.doctype.s3_backup_settings.s3_backup_settings.take_backups_daily for dev1
2021-09-03 08:12:49,314 INFO scheduler Scheduled Job Complete: frappe.core.doctype.prepared_report.prepared_report.delete_expired_prepared_reports for dev1
2021-09-03 08:12:49,535 INFO scheduler Scheduled Job Start: frappe.email.doctype.unhandled_email.unhandled_email.remove_old_unhandled_emails for dev1
2021-09-03 08:12:49,640 INFO scheduler Scheduled Job Complete: frappe.integrations.doctype.s3_backup_settings.s3_backup_settings.take_backups_daily for dev1
2021-09-03 08:12:49,883 INFO scheduler Scheduled Job Start: frappe.utils.change_log.check_for_update for dev1
2021-09-03 08:12:50,353 INFO scheduler Scheduled Job Complete: frappe.email.doctype.unhandled_email.unhandled_email.remove_old_unhandled_emails for dev1
2021-09-03 08:12:50,511 INFO scheduler Scheduled Job Start: frappe.automation.doctype.auto_repeat.auto_repeat.set_auto_repeat_as_completed for dev1
2021-09-03 08:12:51,417 INFO scheduler Scheduled Job Complete: frappe.automation.doctype.auto_repeat.auto_repeat.set_auto_repeat_as_completed for dev1
2021-09-03 08:12:51,586 INFO scheduler Scheduled Job Start: frappe.automation.doctype.auto_repeat.auto_repeat.make_auto_repeat_entry for dev1
2021-09-03 08:12:52,468 INFO scheduler Scheduled Job Complete: frappe.automation.doctype.auto_repeat.auto_repeat.make_auto_repeat_entry for dev1
2021-09-03 08:12:52,638 INFO scheduler Scheduled Job Start: frappe.integrations.doctype.google_contacts.google_contacts.sync for dev1
2021-09-03 08:12:52,853 INFO scheduler Scheduled Job Complete: frappe.utils.change_log.check_for_update for dev1
2021-09-03 08:12:53,058 INFO scheduler Scheduled Job Start: frappe.integrations.doctype.dropbox_settings.dropbox_settings.take_backups_daily for dev1
2021-09-03 08:12:53,864 INFO scheduler Scheduled Job Complete: frappe.integrations.doctype.google_contacts.google_contacts.sync for dev1
2021-09-03 08:12:54,082 INFO scheduler Scheduled Job Start: frappe.social.doctype.energy_point_settings.energy_point_settings.allocate_review_points for dev1
2021-09-03 08:12:54,194 INFO scheduler Scheduled Job Complete: frappe.integrations.doctype.dropbox_settings.dropbox_settings.take_backups_daily for dev1
2021-09-03 08:12:54,906 INFO scheduler Scheduled Job Complete: frappe.social.doctype.energy_point_settings.energy_point_settings.allocate_review_points for dev1
2021-09-03 08:12:55,075 INFO scheduler Scheduled Job Start: frappe.desk.form.document_follow.send_daily_updates for dev1
2021-09-03 08:12:55,888 INFO scheduler Scheduled Job Complete: frappe.desk.form.document_follow.send_daily_updates for dev1
2021-09-03 08:12:56,042 INFO scheduler Scheduled Job Start: frappe.website.doctype.personal_data_deletion_request.personal_data_deletion_request.remove_unverified_record for dev1
2021-09-03 08:12:56,740 INFO scheduler Scheduled Job Complete: frappe.website.doctype.personal_data_deletion_request.personal_data_deletion_request.remove_unverified_record for dev1
2021-09-03 08:12:56,882 INFO scheduler Scheduled Job Start: frappe.email.doctype.auto_email_report.auto_email_report.send_daily for dev1
2021-09-03 08:12:57,994 INFO scheduler Scheduled Job Complete: frappe.email.doctype.auto_email_report.auto_email_report.send_daily for dev1
2021-09-03 08:12:58,155 INFO scheduler Scheduled Job Start: frappe.utils.scheduler.restrict_scheduler_events_if_dormant for dev1
2021-09-03 08:12:58,859 INFO scheduler Scheduled Job Failed: frappe.utils.scheduler.restrict_scheduler_events_if_dormant for dev1
2021-09-03 08:12:59,043 INFO scheduler Scheduled Job Start: frappe.email.doctype.notification.notification.trigger_daily_alerts for dev1
2021-09-03 08:13:00,077 INFO scheduler Scheduled Job Complete: frappe.email.doctype.notification.notification.trigger_daily_alerts for dev1
2021-09-03 08:13:00,303 INFO scheduler Scheduled Job Start: frappe.sessions.clear_expired_sessions for dev1
2021-09-03 08:13:01,069 INFO scheduler Scheduled Job Complete: frappe.sessions.clear_expired_sessions for dev1
2021-09-03 08:13:01,205 INFO scheduler Scheduled Job Start: frappe.desk.doctype.event.event.send_event_digest for dev1
2021-09-03 08:13:01,951 INFO scheduler Scheduled Job Complete: frappe.desk.doctype.event.event.send_event_digest for dev1
2021-09-03 08:13:02,086 INFO scheduler Scheduled Job Start: frappe.core.doctype.error_log.error_log.set_old_logs_as_seen for dev1
2021-09-03 08:13:02,750 INFO scheduler Scheduled Job Complete: frappe.core.doctype.error_log.error_log.set_old_logs_as_seen for dev1
2021-09-03 08:13:02,864 INFO scheduler Scheduled Job Start: frappe.desk.notifications.clear_notifications for dev1
2021-09-03 08:13:03,463 INFO scheduler Scheduled Job Complete: frappe.desk.notifications.clear_notifications for dev1
2021-09-03 08:13:03,579 INFO scheduler Scheduled Job Start: frappe.email.queue.set_expiry_for_email_queue for dev1
2021-09-03 08:13:04,230 INFO scheduler Scheduled Job Complete: frappe.email.queue.set_expiry_for_email_queue for dev1
2021-09-03 08:13:04,428 INFO scheduler Scheduled Job Start: frappe.email.doctype.newsletter.newsletter.send_scheduled_email for dev1
2021-09-03 08:13:05,268 INFO scheduler Scheduled Job Complete: frappe.email.doctype.newsletter.newsletter.send_scheduled_email for dev1
2021-09-03 08:13:05,411 INFO scheduler Scheduled Job Start: frappe.integrations.doctype.google_calendar.google_calendar.sync for dev1
2021-09-03 08:13:06,348 INFO scheduler Scheduled Job Complete: frappe.integrations.doctype.google_calendar.google_calendar.sync for dev1
2021-09-03 08:13:06,473 INFO scheduler Scheduled Job Start: frappe.desk.form.document_follow.send_hourly_updates for dev1
2021-09-03 08:13:07,020 INFO scheduler Scheduled Job Complete: frappe.desk.form.document_follow.send_hourly_updates for dev1
2021-09-03 08:13:07,115 INFO scheduler Scheduled Job Start: frappe.deferred_insert.save_to_db for dev1
2021-09-03 08:13:07,516 INFO scheduler Scheduled Job Complete: frappe.deferred_insert.save_to_db for dev1
2021-09-03 08:13:07,615 INFO scheduler Scheduled Job Start: frappe.desk.page.backups.backups.delete_downloadable_backups for dev1
2021-09-03 08:13:08,036 INFO scheduler Scheduled Job Complete: frappe.desk.page.backups.backups.delete_downloadable_backups for dev1
2021-09-03 08:13:08,141 INFO scheduler Scheduled Job Start: frappe.utils.error.collect_error_snapshots for dev1
2021-09-03 08:13:08,524 INFO scheduler Scheduled Job Complete: frappe.utils.error.collect_error_snapshots for dev1
2021-09-03 08:13:08,608 INFO scheduler Scheduled Job Start: frappe.model.utils.user_settings.sync_user_settings for dev1
2021-09-03 08:13:08,983 INFO scheduler Scheduled Job Complete: frappe.model.utils.user_settings.sync_user_settings for dev1
2021-09-03 08:13:09,070 INFO scheduler Scheduled Job Start: frappe.model.utils.link_count.update_link_count for dev1
2021-09-03 08:13:09,557 INFO scheduler Scheduled Job Complete: frappe.model.utils.link_count.update_link_count for dev1
2021-09-03 08:13:09,679 INFO scheduler Scheduled Job Start: frappe.monitor.flush for dev1
2021-09-03 08:13:09,951 INFO scheduler Scheduled Job Complete: frappe.monitor.flush for dev1
2021-09-03 08:13:10,046 INFO scheduler Scheduled Job Start: frappe.utils.global_search.sync_global_search for dev1
2021-09-03 08:13:10,300 INFO scheduler Scheduled Job Complete: frappe.utils.global_search.sync_global_search for dev1
2021-09-03 08:13:10,389 INFO scheduler Scheduled Job Start: frappe.integrations.doctype.razorpay_settings.razorpay_settings.capture_payment for dev1
2021-09-03 08:13:10,808 INFO scheduler Scheduled Job Complete: frappe.integrations.doctype.razorpay_settings.razorpay_settings.capture_payment for dev1
2021-09-03 08:13:10,919 INFO scheduler Scheduled Job Start: frappe.email.doctype.email_account.email_account.notify_unreplied for dev1
2021-09-03 08:13:11,309 INFO scheduler Scheduled Job Complete: frappe.email.doctype.email_account.email_account.notify_unreplied for dev1
2021-09-03 08:13:11,406 INFO scheduler Scheduled Job Start: frappe.email.doctype.email_account.email_account.pull for dev1
2021-09-03 08:13:11,818 INFO scheduler Scheduled Job Complete: frappe.email.doctype.email_account.email_account.pull for dev1
2021-09-03 08:13:11,918 INFO scheduler Scheduled Job Start: frappe.email.queue.flush for dev1
2021-09-03 08:13:12,195 INFO scheduler Scheduled Job Complete: frappe.email.queue.flush for dev1
2021-09-03 08:13:12,276 INFO scheduler Scheduled Job Start: frappe.twofactor.delete_all_barcodes_for_users for dev1
2021-09-03 08:13:12,674 INFO scheduler Scheduled Job Complete: frappe.twofactor.delete_all_barcodes_for_users for dev1
2021-09-03 08:13:12,794 INFO scheduler Scheduled Job Start: frappe.website.doctype.web_page.web_page.check_publish_status for dev1
2021-09-03 08:13:13,325 INFO scheduler Scheduled Job Complete: frappe.website.doctype.web_page.web_page.check_publish_status for dev1
2021-09-03 08:13:13,428 INFO scheduler Scheduled Job Start: frappe.oauth.delete_oauth2_data for dev1
2021-09-03 08:13:13,909 INFO scheduler Scheduled Job Complete: frappe.oauth.delete_oauth2_data for dev1
2021-09-03 08:13:50,354 DEBUG scheduler Queued events for site dev1
2021-09-03 08:14:50,745 DEBUG scheduler Queued events for site dev1
2021-09-03 08:15:51,163 DEBUG scheduler Queued events for site dev1
2021-09-03 08:15:51,236 INFO scheduler Scheduled Job Start: frappe.twofactor.delete_all_barcodes_for_users for dev1
2021-09-03 08:15:51,690 INFO scheduler Scheduled Job Complete: frappe.twofactor.delete_all_barcodes_for_users for dev1
2021-09-03 08:15:51,796 INFO scheduler Scheduled Job Start: frappe.website.doctype.web_page.web_page.check_publish_status for dev1
2021-09-03 08:15:52,241 INFO scheduler Scheduled Job Complete: frappe.website.doctype.web_page.web_page.check_publish_status for dev1
2021-09-03 08:15:52,333 INFO scheduler Scheduled Job Start: frappe.oauth.delete_oauth2_data for dev1
2021-09-03 08:15:52,699 INFO scheduler Scheduled Job Complete: frappe.oauth.delete_oauth2_data for dev1
2021-09-03 08:16:51,614 DEBUG scheduler Queued events for site dev1
2021-09-03 08:16:51,652 INFO scheduler Scheduled Job Start: frappe.monitor.flush for dev1
2021-09-03 08:16:51,950 INFO scheduler Scheduled Job Complete: frappe.monitor.flush for dev1
2021-09-03 08:16:52,037 INFO scheduler Scheduled Job Start: frappe.utils.global_search.sync_global_search for dev1
2021-09-03 08:16:52,296 INFO scheduler Scheduled Job Complete: frappe.utils.global_search.sync_global_search for dev1
2021-09-03 08:16:52,385 INFO scheduler Scheduled Job Start: frappe.integrations.doctype.razorpay_settings.razorpay_settings.capture_payment for dev1
2021-09-03 08:16:52,771 INFO scheduler Scheduled Job Complete: frappe.integrations.doctype.razorpay_settings.razorpay_settings.capture_payment for dev1
2021-09-03 08:16:52,860 INFO scheduler Scheduled Job Start: frappe.email.doctype.email_account.email_account.notify_unreplied for dev1
2021-09-03 08:16:53,217 INFO scheduler Scheduled Job Complete: frappe.email.doctype.email_account.email_account.notify_unreplied for dev1
2021-09-03 08:16:53,324 INFO scheduler Scheduled Job Start: frappe.email.doctype.email_account.email_account.pull for dev1
2021-09-03 08:16:53,669 INFO scheduler Scheduled Job Complete: frappe.email.doctype.email_account.email_account.pull for dev1
2021-09-03 08:16:53,760 INFO scheduler Scheduled Job Start: frappe.email.queue.flush for dev1
2021-09-03 08:16:54,029 INFO scheduler Scheduled Job Complete: frappe.email.queue.flush for dev1
2021-09-03 08:17:52,082 DEBUG scheduler Queued events for site dev1
2021-09-03 08:18:52,531 DEBUG scheduler Queued events for site dev1
2021-09-03 08:19:52,941 DEBUG scheduler Queued events for site dev1
2021-09-03 08:20:53,329 DEBUG scheduler Queued events for site dev1
2021-09-03 08:20:53,368 INFO scheduler Scheduled Job Start: frappe.monitor.flush for dev1
2021-09-03 08:20:53,662 INFO scheduler Scheduled Job Complete: frappe.monitor.flush for dev1
2021-09-03 08:20:53,759 INFO scheduler Scheduled Job Start: frappe.utils.global_search.sync_global_search for dev1
2021-09-03 08:20:54,028 INFO scheduler Scheduled Job Complete: frappe.utils.global_search.sync_global_search for dev1
2021-09-03 08:20:54,120 INFO scheduler Scheduled Job Start: frappe.integrations.doctype.razorpay_settings.razorpay_settings.capture_payment for dev1
2021-09-03 08:20:54,519 INFO scheduler Scheduled Job Complete: frappe.integrations.doctype.razorpay_settings.razorpay_settings.capture_payment for dev1
2021-09-03 08:20:54,610 INFO scheduler Scheduled Job Start: frappe.email.doctype.email_account.email_account.notify_unreplied for dev1
2021-09-03 08:20:54,930 INFO scheduler Scheduled Job Complete: frappe.email.doctype.email_account.email_account.notify_unreplied for dev1
2021-09-03 08:20:55,026 INFO scheduler Scheduled Job Start: frappe.email.doctype.email_account.email_account.pull for dev1
2021-09-03 08:20:55,383 INFO scheduler Scheduled Job Complete: frappe.email.doctype.email_account.email_account.pull for dev1
2021-09-03 08:20:55,472 INFO scheduler Scheduled Job Start: frappe.email.queue.flush for dev1
2021-09-03 08:20:55,749 INFO scheduler Scheduled Job Complete: frappe.email.queue.flush for dev1
2021-09-03 08:21:53,787 DEBUG scheduler Queued events for site dev1
2021-09-03 08:22:54,242 DEBUG scheduler Queued events for site dev1
2021-09-03 08:23:54,674 DEBUG scheduler Queued events for site dev1
2021-09-03 08:24:55,080 DEBUG scheduler Queued events for site dev1
2021-09-03 08:24:55,132 INFO scheduler Scheduled Job Start: frappe.monitor.flush for dev1
2021-09-03 08:24:55,421 INFO scheduler Scheduled Job Complete: frappe.monitor.flush for dev1
2021-09-03 08:24:55,533 INFO scheduler Scheduled Job Start: frappe.utils.global_search.sync_global_search for dev1
2021-09-03 08:24:55,820 INFO scheduler Scheduled Job Complete: frappe.utils.global_search.sync_global_search for dev1
2021-09-03 08:24:55,929 INFO scheduler Scheduled Job Start: frappe.integrations.doctype.razorpay_settings.razorpay_settings.capture_payment for dev1
2021-09-03 08:24:56,347 INFO scheduler Scheduled Job Complete: frappe.integrations.doctype.razorpay_settings.razorpay_settings.capture_payment for dev1
2021-09-03 08:24:56,453 INFO scheduler Scheduled Job Start: frappe.email.doctype.email_account.email_account.notify_unreplied for dev1
2021-09-03 08:24:56,809 INFO scheduler Scheduled Job Complete: frappe.email.doctype.email_account.email_account.notify_unreplied for dev1
2021-09-03 08:24:56,924 INFO scheduler Scheduled Job Start: frappe.email.doctype.email_account.email_account.pull for dev1
2021-09-03 08:24:57,270 INFO scheduler Scheduled Job Complete: frappe.email.doctype.email_account.email_account.pull for dev1
2021-09-03 08:24:57,375 INFO scheduler Scheduled Job Start: frappe.email.queue.flush for dev1
2021-09-03 08:24:57,653 INFO scheduler Scheduled Job Complete: frappe.email.queue.flush for dev1
2021-09-03 08:25:55,587 DEBUG scheduler Queued events for site dev1
2021-09-03 08:26:56,018 DEBUG scheduler Queued events for site dev1
2021-09-03 08:27:56,422 DEBUG scheduler Queued events for site dev1
2021-09-03 08:28:56,938 DEBUG scheduler Queued events for site dev1
2021-09-03 08:28:56,993 INFO scheduler Scheduled Job Start: frappe.monitor.flush for dev1
2021-09-03 08:28:57,364 INFO scheduler Scheduled Job Complete: frappe.monitor.flush for dev1
2021-09-03 08:28:57,478 INFO scheduler Scheduled Job Start: frappe.utils.global_search.sync_global_search for dev1
2021-09-03 08:28:57,861 INFO scheduler Scheduled Job Complete: frappe.utils.global_search.sync_global_search for dev1
2021-09-03 08:28:58,003 INFO scheduler Scheduled Job Start: frappe.integrations.doctype.razorpay_settings.razorpay_settings.capture_payment for dev1
2021-09-03 08:28:58,540 INFO scheduler Scheduled Job Complete: frappe.integrations.doctype.razorpay_settings.razorpay_settings.capture_payment for dev1
2021-09-03 08:28:58,666 INFO scheduler Scheduled Job Start: frappe.email.doctype.email_account.email_account.notify_unreplied for dev1
2021-09-03 08:28:59,079 INFO scheduler Scheduled Job Complete: frappe.email.doctype.email_account.email_account.notify_unreplied for dev1
2021-09-03 08:28:59,195 INFO scheduler Scheduled Job Start: frappe.email.doctype.email_account.email_account.pull for dev1
2021-09-03 08:28:59,585 INFO scheduler Scheduled Job Complete: frappe.email.doctype.email_account.email_account.pull for dev1
2021-09-03 08:28:59,692 INFO scheduler Scheduled Job Start: frappe.email.queue.flush for dev1
2021-09-03 08:28:59,999 INFO scheduler Scheduled Job Complete: frappe.email.queue.flush for dev1
2021-09-03 08:29:57,462 DEBUG scheduler Queued events for site dev1
2021-09-03 08:30:57,884 DEBUG scheduler Queued events for site dev1
2021-09-03 08:30:57,959 INFO scheduler Scheduled Job Start: frappe.twofactor.delete_all_barcodes_for_users for dev1
2021-09-03 08:30:58,343 INFO scheduler Scheduled Job Complete: frappe.twofactor.delete_all_barcodes_for_users for dev1
2021-09-03 08:30:58,454 INFO scheduler Scheduled Job Start: frappe.website.doctype.web_page.web_page.check_publish_status for dev1
2021-09-03 08:30:58,935 INFO scheduler Scheduled Job Complete: frappe.website.doctype.web_page.web_page.check_publish_status for dev1
2021-09-03 08:30:59,031 INFO scheduler Scheduled Job Start: frappe.oauth.delete_oauth2_data for dev1
2021-09-03 08:30:59,432 INFO scheduler Scheduled Job Complete: frappe.oauth.delete_oauth2_data for dev1
2021-09-03 08:31:58,292 DEBUG scheduler Queued events for site dev1
2021-09-03 08:32:58,700 DEBUG scheduler Queued events for site dev1
2021-09-03 08:32:58,740 INFO scheduler Scheduled Job Start: frappe.monitor.flush for dev1
2021-09-03 08:32:59,072 INFO scheduler Scheduled Job Complete: frappe.monitor.flush for dev1
2021-09-03 08:32:59,173 INFO scheduler Scheduled Job Start: frappe.utils.global_search.sync_global_search for dev1
2021-09-03 08:32:59,442 INFO scheduler Scheduled Job Complete: frappe.utils.global_search.sync_global_search for dev1
2021-09-03 08:32:59,546 INFO scheduler Scheduled Job Start: frappe.integrations.doctype.razorpay_settings.razorpay_settings.capture_payment for dev1
2021-09-03 08:32:59,940 INFO scheduler Scheduled Job Complete: frappe.integrations.doctype.razorpay_settings.razorpay_settings.capture_payment for dev1
2021-09-03 08:33:00,048 INFO scheduler Scheduled Job Start: frappe.email.doctype.email_account.email_account.notify_unreplied for dev1
2021-09-03 08:33:00,397 INFO scheduler Scheduled Job Complete: frappe.email.doctype.email_account.email_account.notify_unreplied for dev1
2021-09-03 08:33:00,497 INFO scheduler Scheduled Job Start: frappe.email.doctype.email_account.email_account.pull for dev1
2021-09-03 08:33:00,862 INFO scheduler Scheduled Job Complete: frappe.email.doctype.email_account.email_account.pull for dev1
2021-09-03 08:33:00,968 INFO scheduler Scheduled Job Start: frappe.email.queue.flush for dev1
2021-09-03 08:33:01,232 INFO scheduler Scheduled Job Complete: frappe.email.queue.flush for dev1
2021-09-03 08:33:59,183 DEBUG scheduler Queued events for site dev1
2021-09-03 08:34:59,635 DEBUG scheduler Queued events for site dev1
2021-09-03 08:36:00,178 DEBUG scheduler Queued events for site dev1
2021-09-03 08:36:00,233 INFO scheduler Scheduled Job Start: frappe.monitor.flush for dev1
2021-09-03 08:36:00,629 INFO scheduler Scheduled Job Complete: frappe.monitor.flush for dev1
2021-09-03 08:36:00,745 INFO scheduler Scheduled Job Start: frappe.utils.global_search.sync_global_search for dev1
2021-09-03 08:36:01,113 INFO scheduler Scheduled Job Complete: frappe.utils.global_search.sync_global_search for dev1
2021-09-03 08:36:01,225 INFO scheduler Scheduled Job Start: frappe.integrations.doctype.razorpay_settings.razorpay_settings.capture_payment for dev1
2021-09-03 08:36:01,803 INFO scheduler Scheduled Job Complete: frappe.integrations.doctype.razorpay_settings.razorpay_settings.capture_payment for dev1
2021-09-03 08:36:01,921 INFO scheduler Scheduled Job Start: frappe.email.doctype.email_account.email_account.notify_unreplied for dev1
2021-09-03 08:36:02,389 INFO scheduler Scheduled Job Complete: frappe.email.doctype.email_account.email_account.notify_unreplied for dev1
2021-09-03 08:36:02,507 INFO scheduler Scheduled Job Start: frappe.email.doctype.email_account.email_account.pull for dev1
2021-09-03 08:36:03,000 INFO scheduler Scheduled Job Complete: frappe.email.doctype.email_account.email_account.pull for dev1
2021-09-03 08:36:03,119 INFO scheduler Scheduled Job Start: frappe.email.queue.flush for dev1
2021-09-03 08:36:03,509 INFO scheduler Scheduled Job Complete: frappe.email.queue.flush for dev1
2021-09-03 08:37:00,756 DEBUG scheduler Queued events for site dev1
2021-09-03 08:38:01,482 DEBUG scheduler Queued events for site dev1
2021-09-03 08:39:01,969 DEBUG scheduler Queued events for site dev1
2021-09-03 08:40:02,490 DEBUG scheduler Queued events for site dev1
2021-09-03 08:40:02,546 INFO scheduler Scheduled Job Start: frappe.monitor.flush for dev1
2021-09-03 08:40:03,117 INFO scheduler Scheduled Job Complete: frappe.monitor.flush for dev1
2021-09-03 08:40:03,240 INFO scheduler Scheduled Job Start: frappe.utils.global_search.sync_global_search for dev1
2021-09-03 08:40:03,618 INFO scheduler Scheduled Job Complete: frappe.utils.global_search.sync_global_search for dev1
2021-09-03 08:40:03,736 INFO scheduler Scheduled Job Start: frappe.integrations.doctype.razorpay_settings.razorpay_settings.capture_payment for dev1
2021-09-03 08:40:04,463 INFO scheduler Scheduled Job Complete: frappe.integrations.doctype.razorpay_settings.razorpay_settings.capture_payment for dev1
2021-09-03 08:40:04,581 INFO scheduler Scheduled Job Start: frappe.email.doctype.email_account.email_account.notify_unreplied for dev1
2021-09-03 08:40:05,201 INFO scheduler Scheduled Job Complete: frappe.email.doctype.email_account.email_account.notify_unreplied for dev1
2021-09-03 08:40:05,320 INFO scheduler Scheduled Job Start: frappe.email.doctype.email_account.email_account.pull for dev1
2021-09-03 08:40:05,807 INFO scheduler Scheduled Job Complete: frappe.email.doctype.email_account.email_account.pull for dev1
2021-09-03 08:40:05,928 INFO scheduler Scheduled Job Start: frappe.email.queue.flush for dev1
2021-09-03 08:40:06,324 INFO scheduler Scheduled Job Complete: frappe.email.queue.flush for dev1
2021-09-03 08:41:03,062 DEBUG scheduler Queued events for site dev1
2021-09-03 08:42:03,558 DEBUG scheduler Queued events for site dev1
2021-09-03 08:43:04,048 DEBUG scheduler Queued events for site dev1
2021-09-03 08:44:04,582 DEBUG scheduler Queued events for site dev1
2021-09-03 08:44:04,624 INFO scheduler Scheduled Job Start: frappe.monitor.flush for dev1
2021-09-03 08:44:05,025 INFO scheduler Scheduled Job Complete: frappe.monitor.flush for dev1
2021-09-03 08:44:05,141 INFO scheduler Scheduled Job Start: frappe.utils.global_search.sync_global_search for dev1
2021-09-03 08:44:05,519 INFO scheduler Scheduled Job Complete: frappe.utils.global_search.sync_global_search for dev1
2021-09-03 08:44:05,630 INFO scheduler Scheduled Job Start: frappe.integrations.doctype.razorpay_settings.razorpay_settings.capture_payment for dev1
2021-09-03 08:44:06,206 INFO scheduler Scheduled Job Complete: frappe.integrations.doctype.razorpay_settings.razorpay_settings.capture_payment for dev1
2021-09-03 08:44:06,324 INFO scheduler Scheduled Job Start: frappe.email.doctype.email_account.email_account.notify_unreplied for dev1
2021-09-03 08:44:06,776 INFO scheduler Scheduled Job Complete: frappe.email.doctype.email_account.email_account.notify_unreplied for dev1
2021-09-03 08:44:06,891 INFO scheduler Scheduled Job Start: frappe.email.doctype.email_account.email_account.pull for dev1
2021-09-03 08:44:07,384 INFO scheduler Scheduled Job Complete: frappe.email.doctype.email_account.email_account.pull for dev1
2021-09-03 08:44:07,503 INFO scheduler Scheduled Job Start: frappe.email.queue.flush for dev1
2021-09-03 08:44:07,894 INFO scheduler Scheduled Job Complete: frappe.email.queue.flush for dev1
2021-09-03 08:45:05,183 DEBUG scheduler Queued events for site dev1
2021-09-03 08:45:05,277 INFO scheduler Scheduled Job Start: frappe.twofactor.delete_all_barcodes_for_users for dev1
2021-09-03 08:45:06,053 INFO scheduler Scheduled Job Complete: frappe.twofactor.delete_all_barcodes_for_users for dev1
2021-09-03 08:45:06,180 INFO scheduler Scheduled Job Start: frappe.website.doctype.web_page.web_page.check_publish_status for dev1
2021-09-03 08:45:06,846 INFO scheduler Scheduled Job Complete: frappe.website.doctype.web_page.web_page.check_publish_status for dev1
2021-09-03 08:45:06,968 INFO scheduler Scheduled Job Start: frappe.oauth.delete_oauth2_data for dev1
2021-09-03 08:45:07,639 INFO scheduler Scheduled Job Complete: frappe.oauth.delete_oauth2_data for dev1
2021-09-03 08:46:05,729 DEBUG scheduler Queued events for site dev1
2021-09-03 08:47:06,142 DEBUG scheduler Queued events for site dev1
2021-09-03 08:48:06,563 DEBUG scheduler Queued events for site dev1
2021-09-03 08:48:06,602 INFO scheduler Scheduled Job Start: frappe.monitor.flush for dev1
2021-09-03 08:48:06,895 INFO scheduler Scheduled Job Complete: frappe.monitor.flush for dev1
2021-09-03 08:48:06,982 INFO scheduler Scheduled Job Start: frappe.utils.global_search.sync_global_search for dev1
2021-09-03 08:48:07,239 INFO scheduler Scheduled Job Complete: frappe.utils.global_search.sync_global_search for dev1
2021-09-03 08:48:07,357 INFO scheduler Scheduled Job Start: frappe.integrations.doctype.razorpay_settings.razorpay_settings.capture_payment for dev1
2021-09-03 08:48:07,760 INFO scheduler Scheduled Job Complete: frappe.integrations.doctype.razorpay_settings.razorpay_settings.capture_payment for dev1
2021-09-03 08:48:07,856 INFO scheduler Scheduled Job Start: frappe.email.doctype.email_account.email_account.notify_unreplied for dev1
2021-09-03 08:48:08,191 INFO scheduler Scheduled Job Complete: frappe.email.doctype.email_account.email_account.notify_unreplied for dev1
2021-09-03 08:48:08,286 INFO scheduler Scheduled Job Start: frappe.email.doctype.email_account.email_account.pull for dev1
2021-09-03 08:48:08,667 INFO scheduler Scheduled Job Complete: frappe.email.doctype.email_account.email_account.pull for dev1
2021-09-03 08:48:08,764 INFO scheduler Scheduled Job Start: frappe.email.queue.flush for dev1
2021-09-03 08:48:09,032 INFO scheduler Scheduled Job Complete: frappe.email.queue.flush for dev1
2021-09-03 08:49:07,025 DEBUG scheduler Queued events for site dev1
2021-09-03 08:50:07,636 DEBUG scheduler Queued events for site dev1
2021-09-03 08:51:08,040 DEBUG scheduler Queued events for site dev1
2021-09-03 08:52:08,450 DEBUG scheduler Queued events for site dev1
2021-09-03 08:52:08,517 INFO scheduler Scheduled Job Start: frappe.monitor.flush for dev1
2021-09-03 08:52:08,946 INFO scheduler Scheduled Job Complete: frappe.monitor.flush for dev1
2021-09-03 08:52:09,045 INFO scheduler Scheduled Job Start: frappe.utils.global_search.sync_global_search for dev1
2021-09-03 08:52:09,311 INFO scheduler Scheduled Job Complete: frappe.utils.global_search.sync_global_search for dev1
2021-09-03 08:52:09,404 INFO scheduler Scheduled Job Start: frappe.integrations.doctype.razorpay_settings.razorpay_settings.capture_payment for dev1
2021-09-03 08:52:09,889 INFO scheduler Scheduled Job Complete: frappe.integrations.doctype.razorpay_settings.razorpay_settings.capture_payment for dev1
2021-09-03 08:52:09,994 INFO scheduler Scheduled Job Start: frappe.email.doctype.email_account.email_account.notify_unreplied for dev1
2021-09-03 08:52:10,427 INFO scheduler Scheduled Job Complete: frappe.email.doctype.email_account.email_account.notify_unreplied for dev1
2021-09-03 08:52:10,511 INFO scheduler Scheduled Job Start: frappe.email.doctype.email_account.email_account.pull for dev1
2021-09-03 08:52:10,835 INFO scheduler Scheduled Job Complete: frappe.email.doctype.email_account.email_account.pull for dev1
2021-09-03 08:52:10,938 INFO scheduler Scheduled Job Start: frappe.email.queue.flush for dev1
2021-09-03 08:52:11,248 INFO scheduler Scheduled Job Complete: frappe.email.queue.flush for dev1
2021-09-03 08:53:08,943 DEBUG scheduler Queued events for site dev1
2021-09-03 08:54:09,332 DEBUG scheduler Queued events for site dev1
2021-09-03 08:55:09,733 DEBUG scheduler Queued events for site dev1
2021-09-03 08:56:10,184 DEBUG scheduler Queued events for site dev1
2021-09-03 08:56:10,217 INFO scheduler Scheduled Job Start: frappe.monitor.flush for dev1
2021-09-03 08:56:10,485 INFO scheduler Scheduled Job Complete: frappe.monitor.flush for dev1
2021-09-03 08:56:10,587 INFO scheduler Scheduled Job Start: frappe.utils.global_search.sync_global_search for dev1
2021-09-03 08:56:10,882 INFO scheduler Scheduled Job Complete: frappe.utils.global_search.sync_global_search for dev1
2021-09-03 08:56:10,996 INFO scheduler Scheduled Job Start: frappe.integrations.doctype.razorpay_settings.razorpay_settings.capture_payment for dev1
2021-09-03 08:56:11,489 INFO scheduler Scheduled Job Complete: frappe.integrations.doctype.razorpay_settings.razorpay_settings.capture_payment for dev1
2021-09-03 08:56:11,593 INFO scheduler Scheduled Job Start: frappe.email.doctype.email_account.email_account.notify_unreplied for dev1
2021-09-03 08:56:11,984 INFO scheduler Scheduled Job Complete: frappe.email.doctype.email_account.email_account.notify_unreplied for dev1
2021-09-03 08:56:12,074 INFO scheduler Scheduled Job Start: frappe.email.doctype.email_account.email_account.pull for dev1
2021-09-03 08:56:12,456 INFO scheduler Scheduled Job Complete: frappe.email.doctype.email_account.email_account.pull for dev1
2021-09-03 08:56:12,567 INFO scheduler Scheduled Job Start: frappe.email.queue.flush for dev1
2021-09-03 08:56:12,881 INFO scheduler Scheduled Job Complete: frappe.email.queue.flush for dev1
2021-09-03 08:57:10,605 DEBUG scheduler Queued events for site dev1
2021-09-03 08:58:11,011 DEBUG scheduler Queued events for site dev1
2021-09-03 08:59:11,384 DEBUG scheduler Queued events for site dev1
2021-09-03 09:00:11,782 INFO scheduler Scheduled Job Start: frappe.email.doctype.newsletter.newsletter.send_scheduled_email for dev1
2021-09-03 09:00:11,829 DEBUG scheduler Queued events for site dev1
2021-09-03 09:00:12,322 INFO scheduler Scheduled Job Complete: frappe.email.doctype.newsletter.newsletter.send_scheduled_email for dev1
2021-09-03 09:00:12,429 INFO scheduler Scheduled Job Start: frappe.integrations.doctype.google_calendar.google_calendar.sync for dev1
2021-09-03 09:00:13,021 INFO scheduler Scheduled Job Complete: frappe.integrations.doctype.google_calendar.google_calendar.sync for dev1
2021-09-03 09:00:13,127 INFO scheduler Scheduled Job Start: frappe.desk.form.document_follow.send_hourly_updates for dev1
2021-09-03 09:00:13,529 INFO scheduler Scheduled Job Complete: frappe.desk.form.document_follow.send_hourly_updates for dev1
2021-09-03 09:00:13,627 INFO scheduler Scheduled Job Start: frappe.deferred_insert.save_to_db for dev1
2021-09-03 09:00:14,195 INFO scheduler Scheduled Job Complete: frappe.deferred_insert.save_to_db for dev1
2021-09-03 09:00:14,297 INFO scheduler Scheduled Job Start: frappe.desk.page.backups.backups.delete_downloadable_backups for dev1
2021-09-03 09:00:14,675 INFO scheduler Scheduled Job Complete: frappe.desk.page.backups.backups.delete_downloadable_backups for dev1
2021-09-03 09:00:14,781 INFO scheduler Scheduled Job Start: frappe.utils.error.collect_error_snapshots for dev1
2021-09-03 09:00:15,154 INFO scheduler Scheduled Job Complete: frappe.utils.error.collect_error_snapshots for dev1
2021-09-03 09:00:15,266 INFO scheduler Scheduled Job Start: frappe.model.utils.user_settings.sync_user_settings for dev1
2021-09-03 09:00:15,652 INFO scheduler Scheduled Job Complete: frappe.model.utils.user_settings.sync_user_settings for dev1
2021-09-03 09:00:15,765 INFO scheduler Scheduled Job Start: frappe.model.utils.link_count.update_link_count for dev1
2021-09-03 09:00:16,121 INFO scheduler Scheduled Job Complete: frappe.model.utils.link_count.update_link_count for dev1
2021-09-03 09:00:16,214 INFO scheduler Scheduled Job Start: frappe.monitor.flush for dev1
2021-09-03 09:00:16,453 INFO scheduler Scheduled Job Complete: frappe.monitor.flush for dev1
2021-09-03 09:00:16,541 INFO scheduler Scheduled Job Start: frappe.utils.global_search.sync_global_search for dev1
2021-09-03 09:00:16,786 INFO scheduler Scheduled Job Complete: frappe.utils.global_search.sync_global_search for dev1
2021-09-03 09:00:16,884 INFO scheduler Scheduled Job Start: frappe.integrations.doctype.razorpay_settings.razorpay_settings.capture_payment for dev1
2021-09-03 09:00:17,260 INFO scheduler Scheduled Job Complete: frappe.integrations.doctype.razorpay_settings.razorpay_settings.capture_payment for dev1
2021-09-03 09:00:17,362 INFO scheduler Scheduled Job Start: frappe.email.doctype.email_account.email_account.notify_unreplied for dev1
2021-09-03 09:00:17,686 INFO scheduler Scheduled Job Complete: frappe.email.doctype.email_account.email_account.notify_unreplied for dev1
2021-09-03 09:00:17,775 INFO scheduler Scheduled Job Start: frappe.email.doctype.email_account.email_account.pull for dev1
2021-09-03 09:00:18,126 INFO scheduler Scheduled Job Complete: frappe.email.doctype.email_account.email_account.pull for dev1
2021-09-03 09:00:18,216 INFO scheduler Scheduled Job Start: frappe.email.queue.flush for dev1
2021-09-03 09:00:18,467 INFO scheduler Scheduled Job Complete: frappe.email.queue.flush for dev1
2021-09-03 09:00:18,570 INFO scheduler Scheduled Job Start: frappe.twofactor.delete_all_barcodes_for_users for dev1
2021-09-03 09:00:18,960 INFO scheduler Scheduled Job Complete: frappe.twofactor.delete_all_barcodes_for_users for dev1
2021-09-03 09:00:19,064 INFO scheduler Scheduled Job Start: frappe.website.doctype.web_page.web_page.check_publish_status for dev1
2021-09-03 09:00:19,501 INFO scheduler Scheduled Job Complete: frappe.website.doctype.web_page.web_page.check_publish_status for dev1
2021-09-03 09:00:19,605 INFO scheduler Scheduled Job Start: frappe.oauth.delete_oauth2_data for dev1
2021-09-03 09:00:20,082 INFO scheduler Scheduled Job Complete: frappe.oauth.delete_oauth2_data for dev1
2021-09-03 09:01:12,377 DEBUG scheduler Queued events for site dev1
2021-09-03 09:02:12,760 DEBUG scheduler Queued events for site dev1
2021-09-03 09:03:13,168 DEBUG scheduler Queued events for site dev1
2021-09-03 09:04:13,582 DEBUG scheduler Queued events for site dev1
2021-09-03 09:04:13,634 INFO scheduler Scheduled Job Start: frappe.monitor.flush for dev1
2021-09-03 09:04:13,942 INFO scheduler Scheduled Job Complete: frappe.monitor.flush for dev1
2021-09-03 09:04:14,034 INFO scheduler Scheduled Job Start: frappe.utils.global_search.sync_global_search for dev1
2021-09-03 09:04:14,404 INFO scheduler Scheduled Job Complete: frappe.utils.global_search.sync_global_search for dev1
2021-09-03 09:04:14,533 INFO scheduler Scheduled Job Start: frappe.integrations.doctype.razorpay_settings.razorpay_settings.capture_payment for dev1
2021-09-03 09:04:15,125 INFO scheduler Scheduled Job Complete: frappe.integrations.doctype.razorpay_settings.razorpay_settings.capture_payment for dev1
2021-09-03 09:04:15,223 INFO scheduler Scheduled Job Start: frappe.email.doctype.email_account.email_account.notify_unreplied for dev1
2021-09-03 09:04:15,603 INFO scheduler Scheduled Job Complete: frappe.email.doctype.email_account.email_account.notify_unreplied for dev1
2021-09-03 09:04:15,697 INFO scheduler Scheduled Job Start: frappe.email.doctype.email_account.email_account.pull for dev1
2021-09-03 09:04:16,085 INFO scheduler Scheduled Job Complete: frappe.email.doctype.email_account.email_account.pull for dev1
2021-09-03 09:04:16,182 INFO scheduler Scheduled Job Start: frappe.email.queue.flush for dev1
2021-09-03 09:04:16,431 INFO scheduler Scheduled Job Complete: frappe.email.queue.flush for dev1
2021-09-03 09:09:24,826 DEBUG scheduler Queued events for site dev1
2021-09-03 09:09:24,854 INFO scheduler Scheduled Job Start: frappe.monitor.flush for dev1
2021-09-03 09:09:25,535 INFO scheduler Scheduled Job Complete: frappe.monitor.flush for dev1
2021-09-03 09:09:25,632 INFO scheduler Scheduled Job Start: frappe.utils.global_search.sync_global_search for dev1
2021-09-03 09:09:25,927 INFO scheduler Scheduled Job Complete: frappe.utils.global_search.sync_global_search for dev1
2021-09-03 09:09:26,028 INFO scheduler Scheduled Job Start: frappe.integrations.doctype.razorpay_settings.razorpay_settings.capture_payment for dev1
2021-09-03 09:09:26,567 INFO scheduler Scheduled Job Complete: frappe.integrations.doctype.razorpay_settings.razorpay_settings.capture_payment for dev1
2021-09-03 09:09:26,664 INFO scheduler Scheduled Job Start: frappe.email.doctype.email_account.email_account.notify_unreplied for dev1
2021-09-03 09:09:27,147 INFO scheduler Scheduled Job Complete: frappe.email.doctype.email_account.email_account.notify_unreplied for dev1
2021-09-03 09:09:27,238 INFO scheduler Scheduled Job Start: frappe.email.doctype.email_account.email_account.pull for dev1
2021-09-03 09:09:27,707 INFO scheduler Scheduled Job Complete: frappe.email.doctype.email_account.email_account.pull for dev1
2021-09-03 09:09:27,814 INFO scheduler Scheduled Job Start: frappe.email.queue.flush for dev1
2021-09-03 09:09:28,098 INFO scheduler Scheduled Job Complete: frappe.email.queue.flush for dev1
2021-09-03 09:10:25,500 DEBUG scheduler Queued events for site dev1
2021-09-03 09:11:25,869 DEBUG scheduler Queued events for site dev1
2021-09-03 09:12:26,222 DEBUG scheduler Queued events for site dev1
2021-09-03 09:12:26,259 INFO scheduler Scheduled Job Start: frappe.monitor.flush for dev1
2021-09-03 09:12:26,532 INFO scheduler Scheduled Job Complete: frappe.monitor.flush for dev1
2021-09-03 09:12:26,611 INFO scheduler Scheduled Job Start: frappe.utils.global_search.sync_global_search for dev1
2021-09-03 09:12:26,917 INFO scheduler Scheduled Job Complete: frappe.utils.global_search.sync_global_search for dev1
2021-09-03 09:12:27,023 INFO scheduler Scheduled Job Start: frappe.integrations.doctype.razorpay_settings.razorpay_settings.capture_payment for dev1
2021-09-03 09:12:27,407 INFO scheduler Scheduled Job Complete: frappe.integrations.doctype.razorpay_settings.razorpay_settings.capture_payment for dev1
2021-09-03 09:12:27,488 INFO scheduler Scheduled Job Start: frappe.email.doctype.email_account.email_account.notify_unreplied for dev1
2021-09-03 09:12:27,799 INFO scheduler Scheduled Job Complete: frappe.email.doctype.email_account.email_account.notify_unreplied for dev1
2021-09-03 09:12:27,893 INFO scheduler Scheduled Job Start: frappe.email.doctype.email_account.email_account.pull for dev1
2021-09-03 09:12:28,291 INFO scheduler Scheduled Job Complete: frappe.email.doctype.email_account.email_account.pull for dev1
2021-09-03 09:12:28,393 INFO scheduler Scheduled Job Start: frappe.email.queue.flush for dev1
2021-09-03 09:12:28,690 INFO scheduler Scheduled Job Complete: frappe.email.queue.flush for dev1
2021-09-03 09:13:26,605 DEBUG scheduler Queued events for site dev1
2021-09-03 09:14:26,998 DEBUG scheduler Queued events for site dev1
2021-09-03 09:15:49,973 DEBUG scheduler Queued events for site dev1
2021-09-03 09:15:50,076 INFO scheduler Scheduled Job Start: frappe.twofactor.delete_all_barcodes_for_users for dev1
2021-09-03 09:15:50,714 INFO scheduler Scheduled Job Complete: frappe.twofactor.delete_all_barcodes_for_users for dev1
2021-09-03 09:15:50,830 INFO scheduler Scheduled Job Start: frappe.website.doctype.web_page.web_page.check_publish_status for dev1
2021-09-03 09:15:51,406 INFO scheduler Scheduled Job Complete: frappe.website.doctype.web_page.web_page.check_publish_status for dev1
2021-09-03 09:15:51,508 INFO scheduler Scheduled Job Start: frappe.oauth.delete_oauth2_data for dev1
2021-09-03 09:15:52,004 INFO scheduler Scheduled Job Complete: frappe.oauth.delete_oauth2_data for dev1
2021-09-03 09:16:50,707 DEBUG scheduler Queued events for site dev1
2021-09-03 09:16:50,743 INFO scheduler Scheduled Job Start: frappe.monitor.flush for dev1
2021-09-03 09:16:51,016 INFO scheduler Scheduled Job Complete: frappe.monitor.flush for dev1
2021-09-03 09:16:51,112 INFO scheduler Scheduled Job Start: frappe.utils.global_search.sync_global_search for dev1
2021-09-03 09:16:51,366 INFO scheduler Scheduled Job Complete: frappe.utils.global_search.sync_global_search for dev1
2021-09-03 09:16:51,445 INFO scheduler Scheduled Job Start: frappe.integrations.doctype.razorpay_settings.razorpay_settings.capture_payment for dev1
2021-09-03 09:16:51,913 INFO scheduler Scheduled Job Complete: frappe.integrations.doctype.razorpay_settings.razorpay_settings.capture_payment for dev1
2021-09-03 09:16:51,997 INFO scheduler Scheduled Job Start: frappe.email.doctype.email_account.email_account.notify_unreplied for dev1
2021-09-03 09:16:52,397 INFO scheduler Scheduled Job Complete: frappe.email.doctype.email_account.email_account.notify_unreplied for dev1
2021-09-03 09:16:52,474 INFO scheduler Scheduled Job Start: frappe.email.doctype.email_account.email_account.pull for dev1
2021-09-03 09:16:52,845 INFO scheduler Scheduled Job Complete: frappe.email.doctype.email_account.email_account.pull for dev1
2021-09-03 09:16:52,963 INFO scheduler Scheduled Job Start: frappe.email.queue.flush for dev1
2021-09-03 09:16:53,228 INFO scheduler Scheduled Job Complete: frappe.email.queue.flush for dev1
2021-09-03 09:17:51,111 DEBUG scheduler Queued events for site dev1
2021-09-03 09:18:51,475 DEBUG scheduler Queued events for site dev1
2021-09-03 09:19:51,881 DEBUG scheduler Queued events for site dev1
2021-09-03 09:20:52,262 DEBUG scheduler Queued events for site dev1
2021-09-03 09:20:52,301 INFO scheduler Scheduled Job Start: frappe.monitor.flush for dev1
2021-09-03 09:20:52,741 INFO scheduler Scheduled Job Complete: frappe.monitor.flush for dev1
2021-09-03 09:20:52,850 INFO scheduler Scheduled Job Start: frappe.utils.global_search.sync_global_search for dev1
2021-09-03 09:20:53,094 INFO scheduler Scheduled Job Complete: frappe.utils.global_search.sync_global_search for dev1
2021-09-03 09:20:53,182 INFO scheduler Scheduled Job Start: frappe.integrations.doctype.razorpay_settings.razorpay_settings.capture_payment for dev1
2021-09-03 09:20:53,666 INFO scheduler Scheduled Job Complete: frappe.integrations.doctype.razorpay_settings.razorpay_settings.capture_payment for dev1
2021-09-03 09:20:53,762 INFO scheduler Scheduled Job Start: frappe.email.doctype.email_account.email_account.notify_unreplied for dev1
2021-09-03 09:20:54,172 INFO scheduler Scheduled Job Complete: frappe.email.doctype.email_account.email_account.notify_unreplied for dev1
2021-09-03 09:20:54,273 INFO scheduler Scheduled Job Start: frappe.email.doctype.email_account.email_account.pull for dev1
2021-09-03 09:20:54,604 INFO scheduler Scheduled Job Complete: frappe.email.doctype.email_account.email_account.pull for dev1
2021-09-03 09:20:54,694 INFO scheduler Scheduled Job Start: frappe.email.queue.flush for dev1
2021-09-03 09:20:54,950 INFO scheduler Scheduled Job Complete: frappe.email.queue.flush for dev1
2021-09-03 09:21:52,709 DEBUG scheduler Queued events for site dev1
2021-09-03 09:22:53,073 DEBUG scheduler Queued events for site dev1
2021-09-03 09:23:53,422 DEBUG scheduler Queued events for site dev1
2021-09-03 09:24:53,806 DEBUG scheduler Queued events for site dev1
2021-09-03 09:24:53,842 INFO scheduler Scheduled Job Start: frappe.monitor.flush for dev1
2021-09-03 09:24:54,094 INFO scheduler Scheduled Job Complete: frappe.monitor.flush for dev1
2021-09-03 09:24:54,188 INFO scheduler Scheduled Job Start: frappe.utils.global_search.sync_global_search for dev1
2021-09-03 09:24:54,449 INFO scheduler Scheduled Job Complete: frappe.utils.global_search.sync_global_search for dev1
2021-09-03 09:24:54,535 INFO scheduler Scheduled Job Start: frappe.integrations.doctype.razorpay_settings.razorpay_settings.capture_payment for dev1
2021-09-03 09:24:54,927 INFO scheduler Scheduled Job Complete: frappe.integrations.doctype.razorpay_settings.razorpay_settings.capture_payment for dev1
2021-09-03 09:24:55,011 INFO scheduler Scheduled Job Start: frappe.email.doctype.email_account.email_account.notify_unreplied for dev1
2021-09-03 09:24:55,330 INFO scheduler Scheduled Job Complete: frappe.email.doctype.email_account.email_account.notify_unreplied for dev1
2021-09-03 09:24:55,427 INFO scheduler Scheduled Job Start: frappe.email.doctype.email_account.email_account.pull for dev1
2021-09-03 09:24:55,804 INFO scheduler Scheduled Job Complete: frappe.email.doctype.email_account.email_account.pull for dev1
2021-09-03 09:24:55,904 INFO scheduler Scheduled Job Start: frappe.email.queue.flush for dev1
2021-09-03 09:24:56,272 INFO scheduler Scheduled Job Complete: frappe.email.queue.flush for dev1
2021-09-03 09:25:54,211 DEBUG scheduler Queued events for site dev1
2021-09-03 09:26:54,580 DEBUG scheduler Queued events for site dev1
2021-09-03 09:27:54,925 DEBUG scheduler Queued events for site dev1
2021-09-03 09:28:55,288 DEBUG scheduler Queued events for site dev1
2021-09-03 09:28:55,324 INFO scheduler Scheduled Job Start: frappe.monitor.flush for dev1
2021-09-03 09:28:55,619 INFO scheduler Scheduled Job Complete: frappe.monitor.flush for dev1
2021-09-03 09:28:55,719 INFO scheduler Scheduled Job Start: frappe.utils.global_search.sync_global_search for dev1
2021-09-03 09:28:55,974 INFO scheduler Scheduled Job Complete: frappe.utils.global_search.sync_global_search for dev1
2021-09-03 09:28:56,078 INFO scheduler Scheduled Job Start: frappe.integrations.doctype.razorpay_settings.razorpay_settings.capture_payment for dev1
2021-09-03 09:28:56,460 INFO scheduler Scheduled Job Complete: frappe.integrations.doctype.razorpay_settings.razorpay_settings.capture_payment for dev1
2021-09-03 09:28:56,549 INFO scheduler Scheduled Job Start: frappe.email.doctype.email_account.email_account.notify_unreplied for dev1
2021-09-03 09:28:56,870 INFO scheduler Scheduled Job Complete: frappe.email.doctype.email_account.email_account.notify_unreplied for dev1
2021-09-03 09:28:56,953 INFO scheduler Scheduled Job Start: frappe.email.doctype.email_account.email_account.pull for dev1
2021-09-03 09:28:57,275 INFO scheduler Scheduled Job Complete: frappe.email.doctype.email_account.email_account.pull for dev1
2021-09-03 09:28:57,371 INFO scheduler Scheduled Job Start: frappe.email.queue.flush for dev1
2021-09-03 09:28:57,629 INFO scheduler Scheduled Job Complete: frappe.email.queue.flush for dev1
2021-09-03 09:29:55,722 DEBUG scheduler Queued events for site dev1
2021-09-03 09:30:56,078 DEBUG scheduler Queued events for site dev1
2021-09-03 09:30:56,139 INFO scheduler Scheduled Job Start: frappe.twofactor.delete_all_barcodes_for_users for dev1
2021-09-03 09:30:56,626 INFO scheduler Scheduled Job Complete: frappe.twofactor.delete_all_barcodes_for_users for dev1
2021-09-03 09:30:56,726 INFO scheduler Scheduled Job Start: frappe.website.doctype.web_page.web_page.check_publish_status for dev1
2021-09-03 09:30:57,195 INFO scheduler Scheduled Job Complete: frappe.website.doctype.web_page.web_page.check_publish_status for dev1
2021-09-03 09:30:57,285 INFO scheduler Scheduled Job Start: frappe.oauth.delete_oauth2_data for dev1
2021-09-03 09:30:57,752 INFO scheduler Scheduled Job Complete: frappe.oauth.delete_oauth2_data for dev1
2021-09-03 09:31:56,459 DEBUG scheduler Queued events for site dev1
2021-09-03 09:32:56,892 DEBUG scheduler Queued events for site dev1
2021-09-03 09:32:56,930 INFO scheduler Scheduled Job Start: frappe.monitor.flush for dev1
2021-09-03 09:32:57,232 INFO scheduler Scheduled Job Complete: frappe.monitor.flush for dev1
2021-09-03 09:32:57,333 INFO scheduler Scheduled Job Start: frappe.utils.global_search.sync_global_search for dev1
2021-09-03 09:32:57,630 INFO scheduler Scheduled Job Complete: frappe.utils.global_search.sync_global_search for dev1
2021-09-03 09:32:57,755 INFO scheduler Scheduled Job Start: frappe.integrations.doctype.razorpay_settings.razorpay_settings.capture_payment for dev1
2021-09-03 09:32:58,193 INFO scheduler Scheduled Job Complete: frappe.integrations.doctype.razorpay_settings.razorpay_settings.capture_payment for dev1
2021-09-03 09:32:58,301 INFO scheduler Scheduled Job Start: frappe.email.doctype.email_account.email_account.notify_unreplied for dev1
2021-09-03 09:32:58,623 INFO scheduler Scheduled Job Complete: frappe.email.doctype.email_account.email_account.notify_unreplied for dev1
2021-09-03 09:32:58,716 INFO scheduler Scheduled Job Start: frappe.email.doctype.email_account.email_account.pull for dev1
2021-09-03 09:32:59,055 INFO scheduler Scheduled Job Complete: frappe.email.doctype.email_account.email_account.pull for dev1
2021-09-03 09:32:59,147 INFO scheduler Scheduled Job Start: frappe.email.queue.flush for dev1
2021-09-03 09:32:59,445 INFO scheduler Scheduled Job Complete: frappe.email.queue.flush for dev1
2021-09-03 09:33:57,428 DEBUG scheduler Queued events for site dev1
2021-09-03 09:34:57,798 DEBUG scheduler Queued events for site dev1
2021-09-03 09:35:58,165 DEBUG scheduler Queued events for site dev1
2021-09-03 09:36:58,524 DEBUG scheduler Queued events for site dev1
2021-09-03 09:36:58,564 INFO scheduler Scheduled Job Start: frappe.monitor.flush for dev1
2021-09-03 09:36:58,987 INFO scheduler Scheduled Job Complete: frappe.monitor.flush for dev1
2021-09-03 09:36:59,093 INFO scheduler Scheduled Job Start: frappe.utils.global_search.sync_global_search for dev1
2021-09-03 09:36:59,354 INFO scheduler Scheduled Job Complete: frappe.utils.global_search.sync_global_search for dev1
2021-09-03 09:36:59,455 INFO scheduler Scheduled Job Start: frappe.integrations.doctype.razorpay_settings.razorpay_settings.capture_payment for dev1
2021-09-03 09:36:59,955 INFO scheduler Scheduled Job Complete: frappe.integrations.doctype.razorpay_settings.razorpay_settings.capture_payment for dev1
2021-09-03 09:37:00,064 INFO scheduler Scheduled Job Start: frappe.email.doctype.email_account.email_account.notify_unreplied for dev1
2021-09-03 09:37:00,534 INFO scheduler Scheduled Job Complete: frappe.email.doctype.email_account.email_account.notify_unreplied for dev1
2021-09-03 09:37:00,641 INFO scheduler Scheduled Job Start: frappe.email.doctype.email_account.email_account.pull for dev1
2021-09-03 09:37:01,023 INFO scheduler Scheduled Job Complete: frappe.email.doctype.email_account.email_account.pull for dev1
2021-09-03 09:37:01,122 INFO scheduler Scheduled Job Start: frappe.email.queue.flush for dev1
2021-09-03 09:37:01,410 INFO scheduler Scheduled Job Complete: frappe.email.queue.flush for dev1
2021-09-03 09:37:58,965 DEBUG scheduler Queued events for site dev1
2021-09-03 09:38:59,332 DEBUG scheduler Queued events for site dev1
2021-09-03 09:39:59,699 DEBUG scheduler Queued events for site dev1
2021-09-03 09:41:00,081 DEBUG scheduler Queued events for site dev1
2021-09-03 09:41:00,116 INFO scheduler Scheduled Job Start: frappe.monitor.flush for dev1
2021-09-03 09:41:00,415 INFO scheduler Scheduled Job Complete: frappe.monitor.flush for dev1
2021-09-03 09:41:00,510 INFO scheduler Scheduled Job Start: frappe.utils.global_search.sync_global_search for dev1
2021-09-03 09:41:00,793 INFO scheduler Scheduled Job Complete: frappe.utils.global_search.sync_global_search for dev1
2021-09-03 09:41:00,884 INFO scheduler Scheduled Job Start: frappe.integrations.doctype.razorpay_settings.razorpay_settings.capture_payment for dev1
2021-09-03 09:41:01,346 INFO scheduler Scheduled Job Complete: frappe.integrations.doctype.razorpay_settings.razorpay_settings.capture_payment for dev1
2021-09-03 09:41:01,427 INFO scheduler Scheduled Job Start: frappe.email.doctype.email_account.email_account.notify_unreplied for dev1
2021-09-03 09:41:01,758 INFO scheduler Scheduled Job Complete: frappe.email.doctype.email_account.email_account.notify_unreplied for dev1
2021-09-03 09:41:01,858 INFO scheduler Scheduled Job Start: frappe.email.doctype.email_account.email_account.pull for dev1
2021-09-03 09:41:02,247 INFO scheduler Scheduled Job Complete: frappe.email.doctype.email_account.email_account.pull for dev1
2021-09-03 09:41:02,335 INFO scheduler Scheduled Job Start: frappe.email.queue.flush for dev1
2021-09-03 09:41:02,612 INFO scheduler Scheduled Job Complete: frappe.email.queue.flush for dev1
2021-09-03 09:42:00,498 DEBUG scheduler Queued events for site dev1
2021-09-03 09:43:00,892 DEBUG scheduler Queued events for site dev1
2021-09-03 09:44:01,301 DEBUG scheduler Queued events for site dev1
2021-09-03 09:44:01,343 INFO scheduler Scheduled Job Start: frappe.monitor.flush for dev1
2021-09-03 09:44:01,628 INFO scheduler Scheduled Job Complete: frappe.monitor.flush for dev1
2021-09-03 09:44:01,746 INFO scheduler Scheduled Job Start: frappe.utils.global_search.sync_global_search for dev1
2021-09-03 09:44:02,073 INFO scheduler Scheduled Job Complete: frappe.utils.global_search.sync_global_search for dev1
2021-09-03 09:44:02,175 INFO scheduler Scheduled Job Start: frappe.integrations.doctype.razorpay_settings.razorpay_settings.capture_payment for dev1
2021-09-03 09:44:02,606 INFO scheduler Scheduled Job Complete: frappe.integrations.doctype.razorpay_settings.razorpay_settings.capture_payment for dev1
2021-09-03 09:44:02,699 INFO scheduler Scheduled Job Start: frappe.email.doctype.email_account.email_account.notify_unreplied for dev1
2021-09-03 09:44:03,116 INFO scheduler Scheduled Job Complete: frappe.email.doctype.email_account.email_account.notify_unreplied for dev1
2021-09-03 09:44:03,211 INFO scheduler Scheduled Job Start: frappe.email.doctype.email_account.email_account.pull for dev1
2021-09-03 09:44:03,627 INFO scheduler Scheduled Job Complete: frappe.email.doctype.email_account.email_account.pull for dev1
2021-09-03 09:44:03,731 INFO scheduler Scheduled Job Start: frappe.email.queue.flush for dev1
2021-09-03 09:44:04,031 INFO scheduler Scheduled Job Complete: frappe.email.queue.flush for dev1
2021-09-03 09:45:01,749 DEBUG scheduler Queued events for site dev1
2021-09-03 09:45:01,810 INFO scheduler Scheduled Job Start: frappe.twofactor.delete_all_barcodes_for_users for dev1
2021-09-03 09:45:02,252 INFO scheduler Scheduled Job Complete: frappe.twofactor.delete_all_barcodes_for_users for dev1
2021-09-03 09:45:02,358 INFO scheduler Scheduled Job Start: frappe.website.doctype.web_page.web_page.check_publish_status for dev1
2021-09-03 09:45:02,817 INFO scheduler Scheduled Job Complete: frappe.website.doctype.web_page.web_page.check_publish_status for dev1
2021-09-03 09:45:02,914 INFO scheduler Scheduled Job Start: frappe.oauth.delete_oauth2_data for dev1
2021-09-03 09:45:03,320 INFO scheduler Scheduled Job Complete: frappe.oauth.delete_oauth2_data for dev1
2021-09-03 09:46:02,124 DEBUG scheduler Queued events for site dev1
2021-09-03 09:47:02,519 DEBUG scheduler Queued events for site dev1
2021-09-03 09:48:02,935 DEBUG scheduler Queued events for site dev1
2021-09-03 09:48:02,980 INFO scheduler Scheduled Job Start: frappe.monitor.flush for dev1
2021-09-03 09:48:03,256 INFO scheduler Scheduled Job Complete: frappe.monitor.flush for dev1
2021-09-03 09:48:03,349 INFO scheduler Scheduled Job Start: frappe.utils.global_search.sync_global_search for dev1
2021-09-03 09:48:03,608 INFO scheduler Scheduled Job Complete: frappe.utils.global_search.sync_global_search for dev1
2021-09-03 09:48:03,722 INFO scheduler Scheduled Job Start: frappe.integrations.doctype.razorpay_settings.razorpay_settings.capture_payment for dev1
2021-09-03 09:48:04,180 INFO scheduler Scheduled Job Complete: frappe.integrations.doctype.razorpay_settings.razorpay_settings.capture_payment for dev1
2021-09-03 09:48:04,282 INFO scheduler Scheduled Job Start: frappe.email.doctype.email_account.email_account.notify_unreplied for dev1
2021-09-03 09:48:04,623 INFO scheduler Scheduled Job Complete: frappe.email.doctype.email_account.email_account.notify_unreplied for dev1
2021-09-03 09:48:04,717 INFO scheduler Scheduled Job Start: frappe.email.doctype.email_account.email_account.pull for dev1
2021-09-03 09:48:05,118 INFO scheduler Scheduled Job Complete: frappe.email.doctype.email_account.email_account.pull for dev1
2021-09-03 09:48:05,219 INFO scheduler Scheduled Job Start: frappe.email.queue.flush for dev1
2021-09-03 09:48:05,570 INFO scheduler Scheduled Job Complete: frappe.email.queue.flush for dev1
2021-09-03 09:49:03,376 DEBUG scheduler Queued events for site dev1
2021-09-03 09:50:03,780 DEBUG scheduler Queued events for site dev1
2021-09-03 09:51:04,189 DEBUG scheduler Queued events for site dev1
2021-09-03 09:52:04,696 DEBUG scheduler Queued events for site dev1
2021-09-03 09:52:04,733 INFO scheduler Scheduled Job Start: frappe.monitor.flush for dev1
2021-09-03 09:52:05,013 INFO scheduler Scheduled Job Complete: frappe.monitor.flush for dev1
2021-09-03 09:52:05,112 INFO scheduler Scheduled Job Start: frappe.utils.global_search.sync_global_search for dev1
2021-09-03 09:52:05,417 INFO scheduler Scheduled Job Complete: frappe.utils.global_search.sync_global_search for dev1
2021-09-03 09:52:05,520 INFO scheduler Scheduled Job Start: frappe.integrations.doctype.razorpay_settings.razorpay_settings.capture_payment for dev1
2021-09-03 09:52:05,944 INFO scheduler Scheduled Job Complete: frappe.integrations.doctype.razorpay_settings.razorpay_settings.capture_payment for dev1
2021-09-03 09:52:06,055 INFO scheduler Scheduled Job Start: frappe.email.doctype.email_account.email_account.notify_unreplied for dev1
2021-09-03 09:52:06,440 INFO scheduler Scheduled Job Complete: frappe.email.doctype.email_account.email_account.notify_unreplied for dev1
2021-09-03 09:52:06,544 INFO scheduler Scheduled Job Start: frappe.email.doctype.email_account.email_account.pull for dev1
2021-09-03 09:52:06,970 INFO scheduler Scheduled Job Complete: frappe.email.doctype.email_account.email_account.pull for dev1
2021-09-03 09:52:07,080 INFO scheduler Scheduled Job Start: frappe.email.queue.flush for dev1
2021-09-03 09:52:07,416 INFO scheduler Scheduled Job Complete: frappe.email.queue.flush for dev1
2021-09-03 09:53:05,133 DEBUG scheduler Queued events for site dev1
2021-09-03 09:54:05,494 DEBUG scheduler Queued events for site dev1
2021-09-03 09:55:05,825 DEBUG scheduler Queued events for site dev1
2021-09-03 09:56:06,234 DEBUG scheduler Queued events for site dev1
2021-09-03 09:56:06,269 INFO scheduler Scheduled Job Start: frappe.monitor.flush for dev1
2021-09-03 09:56:06,527 INFO scheduler Scheduled Job Complete: frappe.monitor.flush for dev1
2021-09-03 09:56:06,608 INFO scheduler Scheduled Job Start: frappe.utils.global_search.sync_global_search for dev1
2021-09-03 09:56:06,856 INFO scheduler Scheduled Job Complete: frappe.utils.global_search.sync_global_search for dev1
2021-09-03 09:56:06,951 INFO scheduler Scheduled Job Start: frappe.integrations.doctype.razorpay_settings.razorpay_settings.capture_payment for dev1
2021-09-03 09:56:07,400 INFO scheduler Scheduled Job Complete: frappe.integrations.doctype.razorpay_settings.razorpay_settings.capture_payment for dev1
2021-09-03 09:56:07,499 INFO scheduler Scheduled Job Start: frappe.email.doctype.email_account.email_account.notify_unreplied for dev1
2021-09-03 09:56:07,845 INFO scheduler Scheduled Job Complete: frappe.email.doctype.email_account.email_account.notify_unreplied for dev1
2021-09-03 09:56:07,930 INFO scheduler Scheduled Job Start: frappe.email.doctype.email_account.email_account.pull for dev1
2021-09-03 09:56:08,287 INFO scheduler Scheduled Job Complete: frappe.email.doctype.email_account.email_account.pull for dev1
2021-09-03 09:56:08,376 INFO scheduler Scheduled Job Start: frappe.email.queue.flush for dev1
2021-09-03 09:56:08,639 INFO scheduler Scheduled Job Complete: frappe.email.queue.flush for dev1
2021-09-03 09:57:06,638 DEBUG scheduler Queued events for site dev1
2021-09-03 09:58:07,010 DEBUG scheduler Queued events for site dev1
2021-09-03 09:59:07,370 DEBUG scheduler Queued events for site dev1
2021-09-03 10:00:07,809 INFO scheduler Scheduled Job Start: frappe.email.doctype.newsletter.newsletter.send_scheduled_email for dev1
2021-09-03 10:00:07,882 DEBUG scheduler Queued events for site dev1
2021-09-03 10:00:08,298 INFO scheduler Scheduled Job Complete: frappe.email.doctype.newsletter.newsletter.send_scheduled_email for dev1
2021-09-03 10:00:08,389 INFO scheduler Scheduled Job Start: frappe.integrations.doctype.google_calendar.google_calendar.sync for dev1
2021-09-03 10:00:08,998 INFO scheduler Scheduled Job Complete: frappe.integrations.doctype.google_calendar.google_calendar.sync for dev1
2021-09-03 10:00:09,106 INFO scheduler Scheduled Job Start: frappe.desk.form.document_follow.send_hourly_updates for dev1
2021-09-03 10:00:09,480 INFO scheduler Scheduled Job Complete: frappe.desk.form.document_follow.send_hourly_updates for dev1
2021-09-03 10:00:09,588 INFO scheduler Scheduled Job Start: frappe.deferred_insert.save_to_db for dev1
2021-09-03 10:00:10,283 INFO scheduler Scheduled Job Complete: frappe.deferred_insert.save_to_db for dev1
2021-09-03 10:00:10,391 INFO scheduler Scheduled Job Start: frappe.desk.page.backups.backups.delete_downloadable_backups for dev1
2021-09-03 10:00:10,806 INFO scheduler Scheduled Job Complete: frappe.desk.page.backups.backups.delete_downloadable_backups for dev1
2021-09-03 10:00:10,913 INFO scheduler Scheduled Job Start: frappe.utils.error.collect_error_snapshots for dev1
2021-09-03 10:00:11,482 INFO scheduler Scheduled Job Complete: frappe.utils.error.collect_error_snapshots for dev1
2021-09-03 10:00:11,575 INFO scheduler Scheduled Job Start: frappe.model.utils.user_settings.sync_user_settings for dev1
2021-09-03 10:00:12,104 INFO scheduler Scheduled Job Complete: frappe.model.utils.user_settings.sync_user_settings for dev1
2021-09-03 10:00:12,236 INFO scheduler Scheduled Job Start: frappe.model.utils.link_count.update_link_count for dev1
2021-09-03 10:00:12,883 INFO scheduler Scheduled Job Complete: frappe.model.utils.link_count.update_link_count for dev1
2021-09-03 10:00:13,018 INFO scheduler Scheduled Job Start: frappe.monitor.flush for dev1
2021-09-03 10:00:13,404 INFO scheduler Scheduled Job Complete: frappe.monitor.flush for dev1
2021-09-03 10:00:13,516 INFO scheduler Scheduled Job Start: frappe.utils.global_search.sync_global_search for dev1
2021-09-03 10:00:13,870 INFO scheduler Scheduled Job Complete: frappe.utils.global_search.sync_global_search for dev1
2021-09-03 10:00:13,977 INFO scheduler Scheduled Job Start: frappe.integrations.doctype.razorpay_settings.razorpay_settings.capture_payment for dev1
2021-09-03 10:00:14,448 INFO scheduler Scheduled Job Complete: frappe.integrations.doctype.razorpay_settings.razorpay_settings.capture_payment for dev1
2021-09-03 10:00:14,552 INFO scheduler Scheduled Job Start: frappe.email.doctype.email_account.email_account.notify_unreplied for dev1
2021-09-03 10:00:14,989 INFO scheduler Scheduled Job Complete: frappe.email.doctype.email_account.email_account.notify_unreplied for dev1
2021-09-03 10:00:15,095 INFO scheduler Scheduled Job Start: frappe.email.doctype.email_account.email_account.pull for dev1
2021-09-03 10:00:15,497 INFO scheduler Scheduled Job Complete: frappe.email.doctype.email_account.email_account.pull for dev1
2021-09-03 10:00:15,605 INFO scheduler Scheduled Job Start: frappe.email.queue.flush for dev1
2021-09-03 10:00:15,915 INFO scheduler Scheduled Job Complete: frappe.email.queue.flush for dev1
2021-09-03 10:00:16,003 INFO scheduler Scheduled Job Start: frappe.twofactor.delete_all_barcodes_for_users for dev1
2021-09-03 10:00:16,440 INFO scheduler Scheduled Job Complete: frappe.twofactor.delete_all_barcodes_for_users for dev1
2021-09-03 10:00:16,538 INFO scheduler Scheduled Job Start: frappe.website.doctype.web_page.web_page.check_publish_status for dev1
2021-09-03 10:00:17,084 INFO scheduler Scheduled Job Complete: frappe.website.doctype.web_page.web_page.check_publish_status for dev1
2021-09-03 10:00:17,178 INFO scheduler Scheduled Job Start: frappe.oauth.delete_oauth2_data for dev1
2021-09-03 10:00:17,706 INFO scheduler Scheduled Job Complete: frappe.oauth.delete_oauth2_data for dev1
2021-09-03 10:01:08,424 DEBUG scheduler Queued events for site dev1
2021-09-03 10:02:08,836 DEBUG scheduler Queued events for site dev1
2021-09-03 10:03:09,208 DEBUG scheduler Queued events for site dev1
2021-09-03 10:04:09,587 DEBUG scheduler Queued events for site dev1
2021-09-03 10:04:09,623 INFO scheduler Scheduled Job Start: frappe.monitor.flush for dev1
2021-09-03 10:04:09,980 INFO scheduler Scheduled Job Complete: frappe.monitor.flush for dev1
2021-09-03 10:04:10,092 INFO scheduler Scheduled Job Start: frappe.utils.global_search.sync_global_search for dev1
2021-09-03 10:04:10,380 INFO scheduler Scheduled Job Complete: frappe.utils.global_search.sync_global_search for dev1
2021-09-03 10:04:10,472 INFO scheduler Scheduled Job Start: frappe.integrations.doctype.razorpay_settings.razorpay_settings.capture_payment for dev1
2021-09-03 10:04:10,901 INFO scheduler Scheduled Job Complete: frappe.integrations.doctype.razorpay_settings.razorpay_settings.capture_payment for dev1
2021-09-03 10:04:10,987 INFO scheduler Scheduled Job Start: frappe.email.doctype.email_account.email_account.notify_unreplied for dev1
2021-09-03 10:04:11,307 INFO scheduler Scheduled Job Complete: frappe.email.doctype.email_account.email_account.notify_unreplied for dev1
2021-09-03 10:04:11,394 INFO scheduler Scheduled Job Start: frappe.email.doctype.email_account.email_account.pull for dev1
2021-09-03 10:04:11,754 INFO scheduler Scheduled Job Complete: frappe.email.doctype.email_account.email_account.pull for dev1
2021-09-03 10:04:11,844 INFO scheduler Scheduled Job Start: frappe.email.queue.flush for dev1
2021-09-03 10:04:12,158 INFO scheduler Scheduled Job Complete: frappe.email.queue.flush for dev1
2021-09-03 10:05:10,085 DEBUG scheduler Queued events for site dev1
2021-09-03 10:06:10,460 DEBUG scheduler Queued events for site dev1
2021-09-03 10:07:10,826 DEBUG scheduler Queued events for site dev1
2021-09-03 10:08:11,215 DEBUG scheduler Queued events for site dev1
2021-09-03 10:08:11,263 INFO scheduler Scheduled Job Start: frappe.monitor.flush for dev1
2021-09-03 10:08:11,620 INFO scheduler Scheduled Job Complete: frappe.monitor.flush for dev1
2021-09-03 10:08:11,706 INFO scheduler Scheduled Job Start: frappe.utils.global_search.sync_global_search for dev1
2021-09-03 10:08:11,970 INFO scheduler Scheduled Job Complete: frappe.utils.global_search.sync_global_search for dev1
2021-09-03 10:08:12,073 INFO scheduler Scheduled Job Start: frappe.integrations.doctype.razorpay_settings.razorpay_settings.capture_payment for dev1
2021-09-03 10:08:12,475 INFO scheduler Scheduled Job Complete: frappe.integrations.doctype.razorpay_settings.razorpay_settings.capture_payment for dev1
2021-09-03 10:08:12,568 INFO scheduler Scheduled Job Start: frappe.email.doctype.email_account.email_account.notify_unreplied for dev1
2021-09-03 10:08:12,897 INFO scheduler Scheduled Job Complete: frappe.email.doctype.email_account.email_account.notify_unreplied for dev1
2021-09-03 10:08:12,983 INFO scheduler Scheduled Job Start: frappe.email.doctype.email_account.email_account.pull for dev1
2021-09-03 10:08:13,328 INFO scheduler Scheduled Job Complete: frappe.email.doctype.email_account.email_account.pull for dev1
2021-09-03 10:08:13,427 INFO scheduler Scheduled Job Start: frappe.email.queue.flush for dev1
2021-09-03 10:08:13,731 INFO scheduler Scheduled Job Complete: frappe.email.queue.flush for dev1
2021-09-03 10:09:11,695 DEBUG scheduler Queued events for site dev1
2021-09-03 10:10:12,065 DEBUG scheduler Queued events for site dev1
2021-09-03 10:11:12,418 DEBUG scheduler Queued events for site dev1
2021-09-03 10:12:12,780 DEBUG scheduler Queued events for site dev1
2021-09-03 10:12:12,818 INFO scheduler Scheduled Job Start: frappe.monitor.flush for dev1
2021-09-03 10:12:13,103 INFO scheduler Scheduled Job Complete: frappe.monitor.flush for dev1
2021-09-03 10:12:13,193 INFO scheduler Scheduled Job Start: frappe.utils.global_search.sync_global_search for dev1
2021-09-03 10:12:13,498 INFO scheduler Scheduled Job Complete: frappe.utils.global_search.sync_global_search for dev1
2021-09-03 10:12:13,635 INFO scheduler Scheduled Job Start: frappe.integrations.doctype.razorpay_settings.razorpay_settings.capture_payment for dev1
2021-09-03 10:12:14,169 INFO scheduler Scheduled Job Complete: frappe.integrations.doctype.razorpay_settings.razorpay_settings.capture_payment for dev1
2021-09-03 10:12:14,267 INFO scheduler Scheduled Job Start: frappe.email.doctype.email_account.email_account.notify_unreplied for dev1
2021-09-03 10:12:14,611 INFO scheduler Scheduled Job Complete: frappe.email.doctype.email_account.email_account.notify_unreplied for dev1
2021-09-03 10:12:14,716 INFO scheduler Scheduled Job Start: frappe.email.doctype.email_account.email_account.pull for dev1
2021-09-03 10:12:15,072 INFO scheduler Scheduled Job Complete: frappe.email.doctype.email_account.email_account.pull for dev1
2021-09-03 10:12:15,162 INFO scheduler Scheduled Job Start: frappe.email.queue.flush for dev1
2021-09-03 10:12:15,441 INFO scheduler Scheduled Job Complete: frappe.email.queue.flush for dev1
2021-09-03 10:13:13,203 DEBUG scheduler Queued events for site dev1
2021-09-03 10:14:13,559 DEBUG scheduler Queued events for site dev1
2021-09-03 10:15:13,915 DEBUG scheduler Queued events for site dev1
2021-09-03 10:15:13,997 INFO scheduler Scheduled Job Start: frappe.twofactor.delete_all_barcodes_for_users for dev1
2021-09-03 10:15:14,453 INFO scheduler Scheduled Job Complete: frappe.twofactor.delete_all_barcodes_for_users for dev1
2021-09-03 10:15:14,581 INFO scheduler Scheduled Job Start: frappe.website.doctype.web_page.web_page.check_publish_status for dev1
2021-09-03 10:15:15,068 INFO scheduler Scheduled Job Complete: frappe.website.doctype.web_page.web_page.check_publish_status for dev1
2021-09-03 10:15:15,174 INFO scheduler Scheduled Job Start: frappe.oauth.delete_oauth2_data for dev1
2021-09-03 10:15:15,615 INFO scheduler Scheduled Job Complete: frappe.oauth.delete_oauth2_data for dev1
2021-09-03 10:16:14,344 DEBUG scheduler Queued events for site dev1
2021-09-03 10:16:14,380 INFO scheduler Scheduled Job Start: frappe.monitor.flush for dev1
2021-09-03 10:16:14,644 INFO scheduler Scheduled Job Complete: frappe.monitor.flush for dev1
2021-09-03 10:16:14,746 INFO scheduler Scheduled Job Start: frappe.utils.global_search.sync_global_search for dev1
2021-09-03 10:16:15,034 INFO scheduler Scheduled Job Complete: frappe.utils.global_search.sync_global_search for dev1
2021-09-03 10:16:15,133 INFO scheduler Scheduled Job Start: frappe.integrations.doctype.razorpay_settings.razorpay_settings.capture_payment for dev1
2021-09-03 10:16:15,527 INFO scheduler Scheduled Job Complete: frappe.integrations.doctype.razorpay_settings.razorpay_settings.capture_payment for dev1
2021-09-03 10:16:15,609 INFO scheduler Scheduled Job Start: frappe.email.doctype.email_account.email_account.notify_unreplied for dev1
2021-09-03 10:16:15,934 INFO scheduler Scheduled Job Complete: frappe.email.doctype.email_account.email_account.notify_unreplied for dev1
2021-09-03 10:16:16,029 INFO scheduler Scheduled Job Start: frappe.email.doctype.email_account.email_account.pull for dev1
2021-09-03 10:16:16,370 INFO scheduler Scheduled Job Complete: frappe.email.doctype.email_account.email_account.pull for dev1
2021-09-03 10:16:16,454 INFO scheduler Scheduled Job Start: frappe.email.queue.flush for dev1
2021-09-03 10:16:16,731 INFO scheduler Scheduled Job Complete: frappe.email.queue.flush for dev1
2021-09-03 10:17:14,768 DEBUG scheduler Queued events for site dev1
2021-09-03 10:18:15,163 DEBUG scheduler Queued events for site dev1
2021-09-03 10:19:15,510 DEBUG scheduler Queued events for site dev1
2021-09-03 10:20:15,881 DEBUG scheduler Queued events for site dev1
2021-09-03 10:20:15,930 INFO scheduler Scheduled Job Start: frappe.monitor.flush for dev1
2021-09-03 10:20:16,235 INFO scheduler Scheduled Job Complete: frappe.monitor.flush for dev1
2021-09-03 10:20:16,327 INFO scheduler Scheduled Job Start: frappe.utils.global_search.sync_global_search for dev1
2021-09-03 10:20:16,573 INFO scheduler Scheduled Job Complete: frappe.utils.global_search.sync_global_search for dev1
2021-09-03 10:20:16,657 INFO scheduler Scheduled Job Start: frappe.integrations.doctype.razorpay_settings.razorpay_settings.capture_payment for dev1
2021-09-03 10:20:17,073 INFO scheduler Scheduled Job Complete: frappe.integrations.doctype.razorpay_settings.razorpay_settings.capture_payment for dev1
2021-09-03 10:20:17,157 INFO scheduler Scheduled Job Start: frappe.email.doctype.email_account.email_account.notify_unreplied for dev1
2021-09-03 10:20:17,470 INFO scheduler Scheduled Job Complete: frappe.email.doctype.email_account.email_account.notify_unreplied for dev1
2021-09-03 10:20:17,557 INFO scheduler Scheduled Job Start: frappe.email.doctype.email_account.email_account.pull for dev1
2021-09-03 10:20:17,889 INFO scheduler Scheduled Job Complete: frappe.email.doctype.email_account.email_account.pull for dev1
2021-09-03 10:20:17,977 INFO scheduler Scheduled Job Start: frappe.email.queue.flush for dev1
2021-09-03 10:20:18,246 INFO scheduler Scheduled Job Complete: frappe.email.queue.flush for dev1
2021-09-03 10:21:16,336 DEBUG scheduler Queued events for site dev1
2021-09-03 10:22:16,742 DEBUG scheduler Queued events for site dev1
2021-09-03 10:23:17,116 DEBUG scheduler Queued events for site dev1
2021-09-03 10:24:17,512 DEBUG scheduler Queued events for site dev1
2021-09-03 10:24:17,557 INFO scheduler Scheduled Job Start: frappe.monitor.flush for dev1
2021-09-03 10:24:17,837 INFO scheduler Scheduled Job Complete: frappe.monitor.flush for dev1
2021-09-03 10:24:17,945 INFO scheduler Scheduled Job Start: frappe.utils.global_search.sync_global_search for dev1
2021-09-03 10:24:18,221 INFO scheduler Scheduled Job Complete: frappe.utils.global_search.sync_global_search for dev1
2021-09-03 10:24:18,312 INFO scheduler Scheduled Job Start: frappe.integrations.doctype.razorpay_settings.razorpay_settings.capture_payment for dev1
2021-09-03 10:24:18,694 INFO scheduler Scheduled Job Complete: frappe.integrations.doctype.razorpay_settings.razorpay_settings.capture_payment for dev1
2021-09-03 10:24:18,790 INFO scheduler Scheduled Job Start: frappe.email.doctype.email_account.email_account.notify_unreplied for dev1
2021-09-03 10:24:19,130 INFO scheduler Scheduled Job Complete: frappe.email.doctype.email_account.email_account.notify_unreplied for dev1
2021-09-03 10:24:19,221 INFO scheduler Scheduled Job Start: frappe.email.doctype.email_account.email_account.pull for dev1
2021-09-03 10:24:19,566 INFO scheduler Scheduled Job Complete: frappe.email.doctype.email_account.email_account.pull for dev1
2021-09-03 10:24:19,656 INFO scheduler Scheduled Job Start: frappe.email.queue.flush for dev1
2021-09-03 10:24:19,931 INFO scheduler Scheduled Job Complete: frappe.email.queue.flush for dev1
2021-09-03 10:25:17,949 DEBUG scheduler Queued events for site dev1
2021-09-03 10:26:18,357 DEBUG scheduler Queued events for site dev1
2021-09-03 10:27:18,731 DEBUG scheduler Queued events for site dev1
2021-09-03 10:28:19,107 DEBUG scheduler Queued events for site dev1
2021-09-03 10:28:19,153 INFO scheduler Scheduled Job Start: frappe.monitor.flush for dev1
2021-09-03 10:28:19,453 INFO scheduler Scheduled Job Complete: frappe.monitor.flush for dev1
2021-09-03 10:28:19,548 INFO scheduler Scheduled Job Start: frappe.utils.global_search.sync_global_search for dev1
2021-09-03 10:28:19,814 INFO scheduler Scheduled Job Complete: frappe.utils.global_search.sync_global_search for dev1
2021-09-03 10:28:19,898 INFO scheduler Scheduled Job Start: frappe.integrations.doctype.razorpay_settings.razorpay_settings.capture_payment for dev1
2021-09-03 10:28:20,288 INFO scheduler Scheduled Job Complete: frappe.integrations.doctype.razorpay_settings.razorpay_settings.capture_payment for dev1
2021-09-03 10:28:20,374 INFO scheduler Scheduled Job Start: frappe.email.doctype.email_account.email_account.notify_unreplied for dev1
2021-09-03 10:28:20,685 INFO scheduler Scheduled Job Complete: frappe.email.doctype.email_account.email_account.notify_unreplied for dev1
2021-09-03 10:28:20,770 INFO scheduler Scheduled Job Start: frappe.email.doctype.email_account.email_account.pull for dev1
2021-09-03 10:28:21,153 INFO scheduler Scheduled Job Complete: frappe.email.doctype.email_account.email_account.pull for dev1
2021-09-03 10:28:21,253 INFO scheduler Scheduled Job Start: frappe.email.queue.flush for dev1
2021-09-03 10:28:21,530 INFO scheduler Scheduled Job Complete: frappe.email.queue.flush for dev1
2021-09-03 10:29:19,565 DEBUG scheduler Queued events for site dev1
2021-09-03 10:30:19,971 DEBUG scheduler Queued events for site dev1
2021-09-03 10:30:20,036 INFO scheduler Scheduled Job Start: frappe.twofactor.delete_all_barcodes_for_users for dev1
2021-09-03 10:30:20,478 INFO scheduler Scheduled Job Complete: frappe.twofactor.delete_all_barcodes_for_users for dev1
2021-09-03 10:30:20,575 INFO scheduler Scheduled Job Start: frappe.website.doctype.web_page.web_page.check_publish_status for dev1
2021-09-03 10:30:21,000 INFO scheduler Scheduled Job Complete: frappe.website.doctype.web_page.web_page.check_publish_status for dev1
2021-09-03 10:30:21,107 INFO scheduler Scheduled Job Start: frappe.oauth.delete_oauth2_data for dev1
2021-09-03 10:30:21,484 INFO scheduler Scheduled Job Complete: frappe.oauth.delete_oauth2_data for dev1
2021-09-03 10:38:33,017 DEBUG scheduler Queued events for site dev1
2021-09-03 10:38:33,050 INFO scheduler Scheduled Job Start: frappe.monitor.flush for dev1
2021-09-03 10:38:33,531 INFO scheduler Scheduled Job Complete: frappe.monitor.flush for dev1
2021-09-03 10:38:33,628 INFO scheduler Scheduled Job Start: frappe.utils.global_search.sync_global_search for dev1
2021-09-03 10:38:33,873 INFO scheduler Scheduled Job Complete: frappe.utils.global_search.sync_global_search for dev1
2021-09-03 10:38:33,966 INFO scheduler Scheduled Job Start: frappe.integrations.doctype.razorpay_settings.razorpay_settings.capture_payment for dev1
2021-09-03 10:38:34,423 INFO scheduler Scheduled Job Complete: frappe.integrations.doctype.razorpay_settings.razorpay_settings.capture_payment for dev1
2021-09-03 10:38:34,528 INFO scheduler Scheduled Job Start: frappe.email.doctype.email_account.email_account.notify_unreplied for dev1
2021-09-03 10:38:34,927 INFO scheduler Scheduled Job Complete: frappe.email.doctype.email_account.email_account.notify_unreplied for dev1
2021-09-03 10:38:35,031 INFO scheduler Scheduled Job Start: frappe.email.doctype.email_account.email_account.pull for dev1
2021-09-03 10:38:35,478 INFO scheduler Scheduled Job Complete: frappe.email.doctype.email_account.email_account.pull for dev1
2021-09-03 10:38:35,569 INFO scheduler Scheduled Job Start: frappe.email.queue.flush for dev1
2021-09-03 10:38:35,839 INFO scheduler Scheduled Job Complete: frappe.email.queue.flush for dev1
2021-09-03 10:39:33,627 DEBUG scheduler Queued events for site dev1
2021-09-03 10:40:34,039 DEBUG scheduler Queued events for site dev1
2021-09-03 10:40:34,080 INFO scheduler Scheduled Job Start: frappe.monitor.flush for dev1
2021-09-03 10:40:34,335 INFO scheduler Scheduled Job Complete: frappe.monitor.flush for dev1
2021-09-03 10:40:34,430 INFO scheduler Scheduled Job Start: frappe.utils.global_search.sync_global_search for dev1
2021-09-03 10:40:34,666 INFO scheduler Scheduled Job Complete: frappe.utils.global_search.sync_global_search for dev1
2021-09-03 10:40:34,745 INFO scheduler Scheduled Job Start: frappe.integrations.doctype.razorpay_settings.razorpay_settings.capture_payment for dev1
2021-09-03 10:40:35,128 INFO scheduler Scheduled Job Complete: frappe.integrations.doctype.razorpay_settings.razorpay_settings.capture_payment for dev1
2021-09-03 10:40:35,214 INFO scheduler Scheduled Job Start: frappe.email.doctype.email_account.email_account.notify_unreplied for dev1
2021-09-03 10:40:35,537 INFO scheduler Scheduled Job Complete: frappe.email.doctype.email_account.email_account.notify_unreplied for dev1
2021-09-03 10:40:35,634 INFO scheduler Scheduled Job Start: frappe.email.doctype.email_account.email_account.pull for dev1
2021-09-03 10:40:36,007 INFO scheduler Scheduled Job Complete: frappe.email.doctype.email_account.email_account.pull for dev1
2021-09-03 10:40:36,098 INFO scheduler Scheduled Job Start: frappe.email.queue.flush for dev1
2021-09-03 10:40:36,370 INFO scheduler Scheduled Job Complete: frappe.email.queue.flush for dev1
2021-09-03 10:41:34,431 DEBUG scheduler Queued events for site dev1
2021-09-03 10:42:34,821 DEBUG scheduler Queued events for site dev1
2021-09-03 10:43:35,145 DEBUG scheduler Queued events for site dev1
2021-09-03 10:44:35,514 DEBUG scheduler Queued events for site dev1
2021-09-03 10:44:35,589 INFO scheduler Scheduled Job Start: frappe.monitor.flush for dev1
2021-09-03 10:44:35,958 INFO scheduler Scheduled Job Complete: frappe.monitor.flush for dev1
2021-09-03 10:44:36,061 INFO scheduler Scheduled Job Start: frappe.utils.global_search.sync_global_search for dev1
2021-09-03 10:44:36,361 INFO scheduler Scheduled Job Complete: frappe.utils.global_search.sync_global_search for dev1
2021-09-03 10:44:36,475 INFO scheduler Scheduled Job Start: frappe.integrations.doctype.razorpay_settings.razorpay_settings.capture_payment for dev1
2021-09-03 10:44:36,914 INFO scheduler Scheduled Job Complete: frappe.integrations.doctype.razorpay_settings.razorpay_settings.capture_payment for dev1
2021-09-03 10:44:37,012 INFO scheduler Scheduled Job Start: frappe.email.doctype.email_account.email_account.notify_unreplied for dev1
2021-09-03 10:44:37,403 INFO scheduler Scheduled Job Complete: frappe.email.doctype.email_account.email_account.notify_unreplied for dev1
2021-09-03 10:44:37,512 INFO scheduler Scheduled Job Start: frappe.email.doctype.email_account.email_account.pull for dev1
2021-09-03 10:44:37,917 INFO scheduler Scheduled Job Complete: frappe.email.doctype.email_account.email_account.pull for dev1
2021-09-03 10:44:38,028 INFO scheduler Scheduled Job Start: frappe.email.queue.flush for dev1
2021-09-03 10:44:38,317 INFO scheduler Scheduled Job Complete: frappe.email.queue.flush for dev1
2021-09-03 10:45:36,049 DEBUG scheduler Queued events for site dev1
2021-09-03 10:45:36,124 INFO scheduler Scheduled Job Start: frappe.twofactor.delete_all_barcodes_for_users for dev1
2021-09-03 10:45:36,603 INFO scheduler Scheduled Job Complete: frappe.twofactor.delete_all_barcodes_for_users for dev1
2021-09-03 10:45:36,710 INFO scheduler Scheduled Job Start: frappe.website.doctype.web_page.web_page.check_publish_status for dev1
2021-09-03 10:45:37,235 INFO scheduler Scheduled Job Complete: frappe.website.doctype.web_page.web_page.check_publish_status for dev1
2021-09-03 10:45:37,319 INFO scheduler Scheduled Job Start: frappe.oauth.delete_oauth2_data for dev1
2021-09-03 10:45:37,800 INFO scheduler Scheduled Job Complete: frappe.oauth.delete_oauth2_data for dev1
2021-09-03 10:46:36,485 DEBUG scheduler Queued events for site dev1
2021-09-03 10:47:36,886 DEBUG scheduler Queued events for site dev1
2021-09-03 10:48:37,225 DEBUG scheduler Queued events for site dev1
2021-09-03 10:48:37,270 INFO scheduler Scheduled Job Start: frappe.monitor.flush for dev1
2021-09-03 10:48:37,586 INFO scheduler Scheduled Job Complete: frappe.monitor.flush for dev1
2021-09-03 10:48:37,694 INFO scheduler Scheduled Job Start: frappe.utils.global_search.sync_global_search for dev1
2021-09-03 10:48:37,959 INFO scheduler Scheduled Job Complete: frappe.utils.global_search.sync_global_search for dev1
2021-09-03 10:48:38,052 INFO scheduler Scheduled Job Start: frappe.integrations.doctype.razorpay_settings.razorpay_settings.capture_payment for dev1
2021-09-03 10:48:38,548 INFO scheduler Scheduled Job Complete: frappe.integrations.doctype.razorpay_settings.razorpay_settings.capture_payment for dev1
2021-09-03 10:48:38,642 INFO scheduler Scheduled Job Start: frappe.email.doctype.email_account.email_account.notify_unreplied for dev1
2021-09-03 10:48:39,005 INFO scheduler Scheduled Job Complete: frappe.email.doctype.email_account.email_account.notify_unreplied for dev1
2021-09-03 10:48:39,099 INFO scheduler Scheduled Job Start: frappe.email.doctype.email_account.email_account.pull for dev1
2021-09-03 10:48:39,468 INFO scheduler Scheduled Job Complete: frappe.email.doctype.email_account.email_account.pull for dev1
2021-09-03 10:48:39,564 INFO scheduler Scheduled Job Start: frappe.email.queue.flush for dev1
2021-09-03 10:48:39,831 INFO scheduler Scheduled Job Complete: frappe.email.queue.flush for dev1
2021-09-03 10:49:37,687 DEBUG scheduler Queued events for site dev1
2021-09-03 10:50:38,066 DEBUG scheduler Queued events for site dev1
2021-09-03 10:51:38,400 DEBUG scheduler Queued events for site dev1
2021-09-03 10:52:38,809 DEBUG scheduler Queued events for site dev1
2021-09-03 10:52:38,830 INFO scheduler Scheduled Job Start: frappe.monitor.flush for dev1
2021-09-03 10:52:39,224 INFO scheduler Scheduled Job Complete: frappe.monitor.flush for dev1
2021-09-03 10:52:39,328 INFO scheduler Scheduled Job Start: frappe.utils.global_search.sync_global_search for dev1
2021-09-03 10:52:39,672 INFO scheduler Scheduled Job Complete: frappe.utils.global_search.sync_global_search for dev1
2021-09-03 10:52:39,776 INFO scheduler Scheduled Job Start: frappe.integrations.doctype.razorpay_settings.razorpay_settings.capture_payment for dev1
2021-09-03 10:52:40,268 INFO scheduler Scheduled Job Complete: frappe.integrations.doctype.razorpay_settings.razorpay_settings.capture_payment for dev1
2021-09-03 10:52:40,395 INFO scheduler Scheduled Job Start: frappe.email.doctype.email_account.email_account.notify_unreplied for dev1
2021-09-03 10:52:40,784 INFO scheduler Scheduled Job Complete: frappe.email.doctype.email_account.email_account.notify_unreplied for dev1
2021-09-03 10:52:40,870 INFO scheduler Scheduled Job Start: frappe.email.doctype.email_account.email_account.pull for dev1
2021-09-03 10:52:41,287 INFO scheduler Scheduled Job Complete: frappe.email.doctype.email_account.email_account.pull for dev1
2021-09-03 10:52:41,403 INFO scheduler Scheduled Job Start: frappe.email.queue.flush for dev1
2021-09-03 10:52:41,725 INFO scheduler Scheduled Job Complete: frappe.email.queue.flush for dev1
2021-09-03 10:53:39,282 DEBUG scheduler Queued events for site dev1
2021-09-03 10:54:39,641 DEBUG scheduler Queued events for site dev1
2021-09-03 10:55:39,967 DEBUG scheduler Queued events for site dev1
2021-09-03 10:56:40,373 DEBUG scheduler Queued events for site dev1
2021-09-03 10:56:40,418 INFO scheduler Scheduled Job Start: frappe.monitor.flush for dev1
2021-09-03 10:56:40,690 INFO scheduler Scheduled Job Complete: frappe.monitor.flush for dev1
2021-09-03 10:56:40,810 INFO scheduler Scheduled Job Start: frappe.utils.global_search.sync_global_search for dev1
2021-09-03 10:56:41,104 INFO scheduler Scheduled Job Complete: frappe.utils.global_search.sync_global_search for dev1
2021-09-03 10:56:41,196 INFO scheduler Scheduled Job Start: frappe.integrations.doctype.razorpay_settings.razorpay_settings.capture_payment for dev1
2021-09-03 10:56:41,664 INFO scheduler Scheduled Job Complete: frappe.integrations.doctype.razorpay_settings.razorpay_settings.capture_payment for dev1
2021-09-03 10:56:41,768 INFO scheduler Scheduled Job Start: frappe.email.doctype.email_account.email_account.notify_unreplied for dev1
2021-09-03 10:56:42,128 INFO scheduler Scheduled Job Complete: frappe.email.doctype.email_account.email_account.notify_unreplied for dev1
2021-09-03 10:56:42,215 INFO scheduler Scheduled Job Start: frappe.email.doctype.email_account.email_account.pull for dev1
2021-09-03 10:56:42,601 INFO scheduler Scheduled Job Complete: frappe.email.doctype.email_account.email_account.pull for dev1
2021-09-03 10:56:42,696 INFO scheduler Scheduled Job Start: frappe.email.queue.flush for dev1
2021-09-03 10:56:43,016 INFO scheduler Scheduled Job Complete: frappe.email.queue.flush for dev1
2021-09-03 10:57:40,788 DEBUG scheduler Queued events for site dev1
2021-09-03 10:58:41,208 DEBUG scheduler Queued events for site dev1
2021-09-03 10:59:41,562 DEBUG scheduler Queued events for site dev1
2021-09-03 11:00:42,006 INFO scheduler Scheduled Job Start: frappe.email.doctype.newsletter.newsletter.send_scheduled_email for dev1
2021-09-03 11:00:42,073 DEBUG scheduler Queued events for site dev1
2021-09-03 11:00:42,508 INFO scheduler Scheduled Job Complete: frappe.email.doctype.newsletter.newsletter.send_scheduled_email for dev1
2021-09-03 11:00:42,615 INFO scheduler Scheduled Job Start: frappe.integrations.doctype.google_calendar.google_calendar.sync for dev1
2021-09-03 11:00:43,233 INFO scheduler Scheduled Job Complete: frappe.integrations.doctype.google_calendar.google_calendar.sync for dev1
2021-09-03 11:00:43,326 INFO scheduler Scheduled Job Start: frappe.desk.form.document_follow.send_hourly_updates for dev1
2021-09-03 11:00:43,733 INFO scheduler Scheduled Job Complete: frappe.desk.form.document_follow.send_hourly_updates for dev1
2021-09-03 11:00:43,846 INFO scheduler Scheduled Job Start: frappe.deferred_insert.save_to_db for dev1
2021-09-03 11:00:44,545 INFO scheduler Scheduled Job Complete: frappe.deferred_insert.save_to_db for dev1
2021-09-03 11:00:44,642 INFO scheduler Scheduled Job Start: frappe.desk.page.backups.backups.delete_downloadable_backups for dev1
2021-09-03 11:00:45,064 INFO scheduler Scheduled Job Complete: frappe.desk.page.backups.backups.delete_downloadable_backups for dev1
2021-09-03 11:00:45,180 INFO scheduler Scheduled Job Start: frappe.utils.error.collect_error_snapshots for dev1
2021-09-03 11:00:45,575 INFO scheduler Scheduled Job Complete: frappe.utils.error.collect_error_snapshots for dev1
2021-09-03 11:00:45,666 INFO scheduler Scheduled Job Start: frappe.model.utils.user_settings.sync_user_settings for dev1
2021-09-03 11:00:46,047 INFO scheduler Scheduled Job Complete: frappe.model.utils.user_settings.sync_user_settings for dev1
2021-09-03 11:00:46,134 INFO scheduler Scheduled Job Start: frappe.model.utils.link_count.update_link_count for dev1
2021-09-03 11:00:46,526 INFO scheduler Scheduled Job Complete: frappe.model.utils.link_count.update_link_count for dev1
2021-09-03 11:00:46,631 INFO scheduler Scheduled Job Start: frappe.monitor.flush for dev1
2021-09-03 11:00:46,904 INFO scheduler Scheduled Job Complete: frappe.monitor.flush for dev1
2021-09-03 11:00:47,016 INFO scheduler Scheduled Job Start: frappe.utils.global_search.sync_global_search for dev1
2021-09-03 11:00:47,269 INFO scheduler Scheduled Job Complete: frappe.utils.global_search.sync_global_search for dev1
2021-09-03 11:00:47,387 INFO scheduler Scheduled Job Start: frappe.integrations.doctype.razorpay_settings.razorpay_settings.capture_payment for dev1
2021-09-03 11:00:47,832 INFO scheduler Scheduled Job Complete: frappe.integrations.doctype.razorpay_settings.razorpay_settings.capture_payment for dev1
2021-09-03 11:00:47,936 INFO scheduler Scheduled Job Start: frappe.email.doctype.email_account.email_account.notify_unreplied for dev1
2021-09-03 11:00:48,285 INFO scheduler Scheduled Job Complete: frappe.email.doctype.email_account.email_account.notify_unreplied for dev1
2021-09-03 11:00:48,390 INFO scheduler Scheduled Job Start: frappe.email.doctype.email_account.email_account.pull for dev1
2021-09-03 11:00:48,760 INFO scheduler Scheduled Job Complete: frappe.email.doctype.email_account.email_account.pull for dev1
2021-09-03 11:00:48,850 INFO scheduler Scheduled Job Start: frappe.email.queue.flush for dev1
2021-09-03 11:00:49,151 INFO scheduler Scheduled Job Complete: frappe.email.queue.flush for dev1
2021-09-03 11:00:49,247 INFO scheduler Scheduled Job Start: frappe.twofactor.delete_all_barcodes_for_users for dev1
2021-09-03 11:00:49,653 INFO scheduler Scheduled Job Complete: frappe.twofactor.delete_all_barcodes_for_users for dev1
2021-09-03 11:00:49,771 INFO scheduler Scheduled Job Start: frappe.website.doctype.web_page.web_page.check_publish_status for dev1
2021-09-03 11:00:50,236 INFO scheduler Scheduled Job Complete: frappe.website.doctype.web_page.web_page.check_publish_status for dev1
2021-09-03 11:00:50,340 INFO scheduler Scheduled Job Start: frappe.oauth.delete_oauth2_data for dev1
2021-09-03 11:00:50,796 INFO scheduler Scheduled Job Complete: frappe.oauth.delete_oauth2_data for dev1
2021-09-03 11:01:42,629 DEBUG scheduler Queued events for site dev1
2021-09-03 11:02:43,018 DEBUG scheduler Queued events for site dev1
2021-09-03 11:03:43,365 DEBUG scheduler Queued events for site dev1
2021-09-03 11:04:43,723 DEBUG scheduler Queued events for site dev1
2021-09-03 11:04:43,760 INFO scheduler Scheduled Job Start: frappe.monitor.flush for dev1
2021-09-03 11:04:44,067 INFO scheduler Scheduled Job Complete: frappe.monitor.flush for dev1
2021-09-03 11:04:44,182 INFO scheduler Scheduled Job Start: frappe.utils.global_search.sync_global_search for dev1
2021-09-03 11:04:44,480 INFO scheduler Scheduled Job Complete: frappe.utils.global_search.sync_global_search for dev1
2021-09-03 11:04:44,565 INFO scheduler Scheduled Job Start: frappe.integrations.doctype.razorpay_settings.razorpay_settings.capture_payment for dev1
2021-09-03 11:04:44,988 INFO scheduler Scheduled Job Complete: frappe.integrations.doctype.razorpay_settings.razorpay_settings.capture_payment for dev1
2021-09-03 11:04:45,083 INFO scheduler Scheduled Job Start: frappe.email.doctype.email_account.email_account.notify_unreplied for dev1
2021-09-03 11:04:45,413 INFO scheduler Scheduled Job Complete: frappe.email.doctype.email_account.email_account.notify_unreplied for dev1
2021-09-03 11:04:45,498 INFO scheduler Scheduled Job Start: frappe.email.doctype.email_account.email_account.pull for dev1
2021-09-03 11:04:45,860 INFO scheduler Scheduled Job Complete: frappe.email.doctype.email_account.email_account.pull for dev1
2021-09-03 11:04:45,957 INFO scheduler Scheduled Job Start: frappe.email.queue.flush for dev1
2021-09-03 11:04:46,252 INFO scheduler Scheduled Job Complete: frappe.email.queue.flush for dev1
2021-09-03 11:05:44,133 DEBUG scheduler Queued events for site dev1
2021-09-03 11:06:44,512 DEBUG scheduler Queued events for site dev1
2021-09-03 11:07:44,859 DEBUG scheduler Queued events for site dev1
2021-09-03 11:08:45,290 DEBUG scheduler Queued events for site dev1
2021-09-03 11:08:45,333 INFO scheduler Scheduled Job Start: frappe.monitor.flush for dev1
2021-09-03 11:08:45,663 INFO scheduler Scheduled Job Complete: frappe.monitor.flush for dev1
2021-09-03 11:08:45,789 INFO scheduler Scheduled Job Start: frappe.utils.global_search.sync_global_search for dev1
2021-09-03 11:08:46,120 INFO scheduler Scheduled Job Complete: frappe.utils.global_search.sync_global_search for dev1
2021-09-03 11:08:46,232 INFO scheduler Scheduled Job Start: frappe.integrations.doctype.razorpay_settings.razorpay_settings.capture_payment for dev1
2021-09-03 11:08:46,730 INFO scheduler Scheduled Job Complete: frappe.integrations.doctype.razorpay_settings.razorpay_settings.capture_payment for dev1
2021-09-03 11:08:46,832 INFO scheduler Scheduled Job Start: frappe.email.doctype.email_account.email_account.notify_unreplied for dev1
2021-09-03 11:08:47,221 INFO scheduler Scheduled Job Complete: frappe.email.doctype.email_account.email_account.notify_unreplied for dev1
2021-09-03 11:08:47,322 INFO scheduler Scheduled Job Start: frappe.email.doctype.email_account.email_account.pull for dev1
2021-09-03 11:08:47,709 INFO scheduler Scheduled Job Complete: frappe.email.doctype.email_account.email_account.pull for dev1
2021-09-03 11:08:47,814 INFO scheduler Scheduled Job Start: frappe.email.queue.flush for dev1
2021-09-03 11:08:48,148 INFO scheduler Scheduled Job Complete: frappe.email.queue.flush for dev1
2021-09-03 11:09:45,743 DEBUG scheduler Queued events for site dev1
2021-09-03 11:10:46,138 DEBUG scheduler Queued events for site dev1
2021-09-03 11:11:46,490 DEBUG scheduler Queued events for site dev1
2021-09-03 11:12:46,862 DEBUG scheduler Queued events for site dev1
2021-09-03 11:12:46,907 INFO scheduler Scheduled Job Start: frappe.monitor.flush for dev1
2021-09-03 11:12:47,260 INFO scheduler Scheduled Job Complete: frappe.monitor.flush for dev1
2021-09-03 11:12:47,384 INFO scheduler Scheduled Job Start: frappe.utils.global_search.sync_global_search for dev1
2021-09-03 11:12:47,646 INFO scheduler Scheduled Job Complete: frappe.utils.global_search.sync_global_search for dev1
2021-09-03 11:12:47,749 INFO scheduler Scheduled Job Start: frappe.integrations.doctype.razorpay_settings.razorpay_settings.capture_payment for dev1
2021-09-03 11:12:48,258 INFO scheduler Scheduled Job Complete: frappe.integrations.doctype.razorpay_settings.razorpay_settings.capture_payment for dev1
2021-09-03 11:12:48,341 INFO scheduler Scheduled Job Start: frappe.email.doctype.email_account.email_account.notify_unreplied for dev1
2021-09-03 11:12:48,666 INFO scheduler Scheduled Job Complete: frappe.email.doctype.email_account.email_account.notify_unreplied for dev1
2021-09-03 11:12:48,778 INFO scheduler Scheduled Job Start: frappe.email.doctype.email_account.email_account.pull for dev1
2021-09-03 11:12:49,157 INFO scheduler Scheduled Job Complete: frappe.email.doctype.email_account.email_account.pull for dev1
2021-09-03 11:12:49,267 INFO scheduler Scheduled Job Start: frappe.email.queue.flush for dev1
2021-09-03 11:12:49,563 INFO scheduler Scheduled Job Complete: frappe.email.queue.flush for dev1
2021-09-03 11:13:47,331 DEBUG scheduler Queued events for site dev1
2021-09-03 11:14:47,681 DEBUG scheduler Queued events for site dev1
2021-09-03 11:15:48,034 DEBUG scheduler Queued events for site dev1
2021-09-03 11:15:48,112 INFO scheduler Scheduled Job Start: frappe.twofactor.delete_all_barcodes_for_users for dev1
2021-09-03 11:15:48,561 INFO scheduler Scheduled Job Complete: frappe.twofactor.delete_all_barcodes_for_users for dev1
2021-09-03 11:15:48,683 INFO scheduler Scheduled Job Start: frappe.website.doctype.web_page.web_page.check_publish_status for dev1
2021-09-03 11:15:49,116 INFO scheduler Scheduled Job Complete: frappe.website.doctype.web_page.web_page.check_publish_status for dev1
2021-09-03 11:15:49,216 INFO scheduler Scheduled Job Start: frappe.oauth.delete_oauth2_data for dev1
2021-09-03 11:15:49,623 INFO scheduler Scheduled Job Complete: frappe.oauth.delete_oauth2_data for dev1
2021-09-03 11:16:48,498 DEBUG scheduler Queued events for site dev1
2021-09-03 11:16:48,527 INFO scheduler Scheduled Job Start: frappe.monitor.flush for dev1
2021-09-03 11:16:48,788 INFO scheduler Scheduled Job Complete: frappe.monitor.flush for dev1
