2021-09-02 13:32:58,677 DEBUG scheduler Queued events for site dev1
2021-09-02 13:32:58,718 INFO scheduler Scheduled Job Start: frappe.monitor.flush for dev1
2021-09-02 13:32:58,971 INFO scheduler Scheduled Job Complete: frappe.monitor.flush for dev1
2021-09-02 13:32:59,063 INFO scheduler Scheduled Job Start: frappe.utils.global_search.sync_global_search for dev1
2021-09-02 13:32:59,323 INFO scheduler Scheduled Job Complete: frappe.utils.global_search.sync_global_search for dev1
2021-09-02 13:32:59,418 INFO scheduler Scheduled Job Start: frappe.integrations.doctype.razorpay_settings.razorpay_settings.capture_payment for dev1
2021-09-02 13:32:59,816 INFO scheduler Scheduled Job Complete: frappe.integrations.doctype.razorpay_settings.razorpay_settings.capture_payment for dev1
2021-09-02 13:32:59,912 INFO scheduler Scheduled Job Start: frappe.email.doctype.email_account.email_account.notify_unreplied for dev1
2021-09-02 13:33:00,221 INFO scheduler Scheduled Job Complete: frappe.email.doctype.email_account.email_account.notify_unreplied for dev1
2021-09-02 13:33:00,337 INFO scheduler Scheduled Job Start: frappe.email.doctype.email_account.email_account.pull for dev1
2021-09-02 13:33:00,674 INFO scheduler Scheduled Job Complete: frappe.email.doctype.email_account.email_account.pull for dev1
2021-09-02 13:33:00,779 INFO scheduler Scheduled Job Start: frappe.email.queue.flush for dev1
2021-09-02 13:33:01,060 INFO scheduler Scheduled Job Complete: frappe.email.queue.flush for dev1
2021-09-02 13:33:59,086 DEBUG scheduler Queued events for site dev1
2021-09-02 13:34:59,494 DEBUG scheduler Queued events for site dev1
2021-09-02 13:35:59,868 DEBUG scheduler Queued events for site dev1
2021-09-02 13:37:00,287 DEBUG scheduler Queued events for site dev1
2021-09-02 13:37:00,335 INFO scheduler Scheduled Job Start: frappe.monitor.flush for dev1
2021-09-02 13:37:00,662 INFO scheduler Scheduled Job Complete: frappe.monitor.flush for dev1
2021-09-02 13:37:00,760 INFO scheduler Scheduled Job Start: frappe.utils.global_search.sync_global_search for dev1
2021-09-02 13:37:01,017 INFO scheduler Scheduled Job Complete: frappe.utils.global_search.sync_global_search for dev1
2021-09-02 13:37:01,117 INFO scheduler Scheduled Job Start: frappe.integrations.doctype.razorpay_settings.razorpay_settings.capture_payment for dev1
2021-09-02 13:37:01,505 INFO scheduler Scheduled Job Complete: frappe.integrations.doctype.razorpay_settings.razorpay_settings.capture_payment for dev1
2021-09-02 13:37:01,599 INFO scheduler Scheduled Job Start: frappe.email.doctype.email_account.email_account.notify_unreplied for dev1
2021-09-02 13:37:01,909 INFO scheduler Scheduled Job Complete: frappe.email.doctype.email_account.email_account.notify_unreplied for dev1
2021-09-02 13:37:02,018 INFO scheduler Scheduled Job Start: frappe.email.doctype.email_account.email_account.pull for dev1
2021-09-02 13:37:02,379 INFO scheduler Scheduled Job Complete: frappe.email.doctype.email_account.email_account.pull for dev1
2021-09-02 13:37:02,468 INFO scheduler Scheduled Job Start: frappe.email.queue.flush for dev1
2021-09-02 13:37:02,747 INFO scheduler Scheduled Job Complete: frappe.email.queue.flush for dev1
2021-09-02 13:38:00,778 DEBUG scheduler Queued events for site dev1
2021-09-02 13:39:01,158 DEBUG scheduler Queued events for site dev1
2021-09-02 13:40:01,557 DEBUG scheduler Queued events for site dev1
2021-09-02 13:40:01,595 INFO scheduler Scheduled Job Start: frappe.monitor.flush for dev1
2021-09-02 13:40:01,884 INFO scheduler Scheduled Job Complete: frappe.monitor.flush for dev1
2021-09-02 13:40:01,988 INFO scheduler Scheduled Job Start: frappe.utils.global_search.sync_global_search for dev1
2021-09-02 13:40:02,272 INFO scheduler Scheduled Job Complete: frappe.utils.global_search.sync_global_search for dev1
2021-09-02 13:40:02,372 INFO scheduler Scheduled Job Start: frappe.integrations.doctype.razorpay_settings.razorpay_settings.capture_payment for dev1
2021-09-02 13:40:02,739 INFO scheduler Scheduled Job Complete: frappe.integrations.doctype.razorpay_settings.razorpay_settings.capture_payment for dev1
2021-09-02 13:40:02,844 INFO scheduler Scheduled Job Start: frappe.email.doctype.email_account.email_account.notify_unreplied for dev1
2021-09-02 13:40:03,158 INFO scheduler Scheduled Job Complete: frappe.email.doctype.email_account.email_account.notify_unreplied for dev1
2021-09-02 13:40:03,253 INFO scheduler Scheduled Job Start: frappe.email.doctype.email_account.email_account.pull for dev1
2021-09-02 13:40:03,588 INFO scheduler Scheduled Job Complete: frappe.email.doctype.email_account.email_account.pull for dev1
2021-09-02 13:40:03,701 INFO scheduler Scheduled Job Start: frappe.email.queue.flush for dev1
2021-09-02 13:40:03,949 INFO scheduler Scheduled Job Complete: frappe.email.queue.flush for dev1
2021-09-02 13:41:01,996 DEBUG scheduler Queued events for site dev1
2021-09-02 13:42:02,434 DEBUG scheduler Queued events for site dev1
2021-09-02 13:43:02,832 DEBUG scheduler Queued events for site dev1
2021-09-02 13:44:03,312 DEBUG scheduler Queued events for site dev1
2021-09-02 13:44:03,363 INFO scheduler Scheduled Job Start: frappe.monitor.flush for dev1
2021-09-02 13:44:03,733 INFO scheduler Scheduled Job Complete: frappe.monitor.flush for dev1
2021-09-02 13:44:03,840 INFO scheduler Scheduled Job Start: frappe.utils.global_search.sync_global_search for dev1
2021-09-02 13:44:04,171 INFO scheduler Scheduled Job Complete: frappe.utils.global_search.sync_global_search for dev1
2021-09-02 13:44:04,280 INFO scheduler Scheduled Job Start: frappe.integrations.doctype.razorpay_settings.razorpay_settings.capture_payment for dev1
2021-09-02 13:44:04,772 INFO scheduler Scheduled Job Complete: frappe.integrations.doctype.razorpay_settings.razorpay_settings.capture_payment for dev1
2021-09-02 13:44:04,891 INFO scheduler Scheduled Job Start: frappe.email.doctype.email_account.email_account.notify_unreplied for dev1
2021-09-02 13:44:05,304 INFO scheduler Scheduled Job Complete: frappe.email.doctype.email_account.email_account.notify_unreplied for dev1
2021-09-02 13:44:05,401 INFO scheduler Scheduled Job Start: frappe.email.doctype.email_account.email_account.pull for dev1
2021-09-02 13:44:05,829 INFO scheduler Scheduled Job Complete: frappe.email.doctype.email_account.email_account.pull for dev1
2021-09-02 13:44:05,942 INFO scheduler Scheduled Job Start: frappe.email.queue.flush for dev1
2021-09-02 13:44:06,448 INFO scheduler Scheduled Job Complete: frappe.email.queue.flush for dev1
2021-09-02 13:45:03,847 DEBUG scheduler Queued events for site dev1
2021-09-02 13:45:03,924 INFO scheduler Scheduled Job Start: frappe.twofactor.delete_all_barcodes_for_users for dev1
2021-09-02 13:45:04,422 INFO scheduler Scheduled Job Complete: frappe.twofactor.delete_all_barcodes_for_users for dev1
2021-09-02 13:45:04,519 INFO scheduler Scheduled Job Start: frappe.website.doctype.web_page.web_page.check_publish_status for dev1
2021-09-02 13:45:04,967 INFO scheduler Scheduled Job Complete: frappe.website.doctype.web_page.web_page.check_publish_status for dev1
2021-09-02 13:45:05,076 INFO scheduler Scheduled Job Start: frappe.oauth.delete_oauth2_data for dev1
2021-09-02 13:45:05,506 INFO scheduler Scheduled Job Complete: frappe.oauth.delete_oauth2_data for dev1
2021-09-02 13:46:04,312 DEBUG scheduler Queued events for site dev1
2021-09-02 13:47:04,705 DEBUG scheduler Queued events for site dev1
2021-09-02 13:48:05,121 DEBUG scheduler Queued events for site dev1
2021-09-02 13:48:05,174 INFO scheduler Scheduled Job Start: frappe.monitor.flush for dev1
2021-09-02 13:48:05,541 INFO scheduler Scheduled Job Complete: frappe.monitor.flush for dev1
2021-09-02 13:48:05,640 INFO scheduler Scheduled Job Start: frappe.utils.global_search.sync_global_search for dev1
2021-09-02 13:48:05,927 INFO scheduler Scheduled Job Complete: frappe.utils.global_search.sync_global_search for dev1
2021-09-02 13:48:06,028 INFO scheduler Scheduled Job Start: frappe.integrations.doctype.razorpay_settings.razorpay_settings.capture_payment for dev1
2021-09-02 13:48:06,477 INFO scheduler Scheduled Job Complete: frappe.integrations.doctype.razorpay_settings.razorpay_settings.capture_payment for dev1
2021-09-02 13:48:06,580 INFO scheduler Scheduled Job Start: frappe.email.doctype.email_account.email_account.notify_unreplied for dev1
2021-09-02 13:48:06,919 INFO scheduler Scheduled Job Complete: frappe.email.doctype.email_account.email_account.notify_unreplied for dev1
2021-09-02 13:48:07,008 INFO scheduler Scheduled Job Start: frappe.email.doctype.email_account.email_account.pull for dev1
2021-09-02 13:48:07,374 INFO scheduler Scheduled Job Complete: frappe.email.doctype.email_account.email_account.pull for dev1
2021-09-02 13:48:07,469 INFO scheduler Scheduled Job Start: frappe.email.queue.flush for dev1
2021-09-02 13:48:07,761 INFO scheduler Scheduled Job Complete: frappe.email.queue.flush for dev1
2021-09-02 13:49:05,681 DEBUG scheduler Queued events for site dev1
2021-09-02 13:50:06,134 DEBUG scheduler Queued events for site dev1
2021-09-02 13:51:06,506 DEBUG scheduler Queued events for site dev1
2021-09-02 13:52:06,914 DEBUG scheduler Queued events for site dev1
2021-09-02 13:52:06,956 INFO scheduler Scheduled Job Start: frappe.monitor.flush for dev1
2021-09-02 13:52:07,324 INFO scheduler Scheduled Job Complete: frappe.monitor.flush for dev1
2021-09-02 13:52:07,434 INFO scheduler Scheduled Job Start: frappe.utils.global_search.sync_global_search for dev1
2021-09-02 13:52:07,729 INFO scheduler Scheduled Job Complete: frappe.utils.global_search.sync_global_search for dev1
2021-09-02 13:52:07,841 INFO scheduler Scheduled Job Start: frappe.integrations.doctype.razorpay_settings.razorpay_settings.capture_payment for dev1
2021-09-02 13:52:08,270 INFO scheduler Scheduled Job Complete: frappe.integrations.doctype.razorpay_settings.razorpay_settings.capture_payment for dev1
2021-09-02 13:52:08,389 INFO scheduler Scheduled Job Start: frappe.email.doctype.email_account.email_account.notify_unreplied for dev1
2021-09-02 13:52:08,768 INFO scheduler Scheduled Job Complete: frappe.email.doctype.email_account.email_account.notify_unreplied for dev1
2021-09-02 13:52:08,859 INFO scheduler Scheduled Job Start: frappe.email.doctype.email_account.email_account.pull for dev1
2021-09-02 13:52:09,246 INFO scheduler Scheduled Job Complete: frappe.email.doctype.email_account.email_account.pull for dev1
2021-09-02 13:52:09,354 INFO scheduler Scheduled Job Start: frappe.email.queue.flush for dev1
2021-09-02 13:52:09,650 INFO scheduler Scheduled Job Complete: frappe.email.queue.flush for dev1
2021-09-02 13:53:07,416 DEBUG scheduler Queued events for site dev1
2021-09-02 13:54:07,796 DEBUG scheduler Queued events for site dev1
2021-09-02 13:55:08,164 DEBUG scheduler Queued events for site dev1
2021-09-02 13:56:08,561 DEBUG scheduler Queued events for site dev1
2021-09-02 13:56:08,601 INFO scheduler Scheduled Job Start: frappe.monitor.flush for dev1
2021-09-02 13:56:08,872 INFO scheduler Scheduled Job Complete: frappe.monitor.flush for dev1
2021-09-02 13:56:08,971 INFO scheduler Scheduled Job Start: frappe.utils.global_search.sync_global_search for dev1
2021-09-02 13:56:09,239 INFO scheduler Scheduled Job Complete: frappe.utils.global_search.sync_global_search for dev1
2021-09-02 13:56:09,331 INFO scheduler Scheduled Job Start: frappe.integrations.doctype.razorpay_settings.razorpay_settings.capture_payment for dev1
2021-09-02 13:56:09,709 INFO scheduler Scheduled Job Complete: frappe.integrations.doctype.razorpay_settings.razorpay_settings.capture_payment for dev1
2021-09-02 13:56:09,803 INFO scheduler Scheduled Job Start: frappe.email.doctype.email_account.email_account.notify_unreplied for dev1
2021-09-02 13:56:10,139 INFO scheduler Scheduled Job Complete: frappe.email.doctype.email_account.email_account.notify_unreplied for dev1
2021-09-02 13:56:10,239 INFO scheduler Scheduled Job Start: frappe.email.doctype.email_account.email_account.pull for dev1
2021-09-02 13:56:10,556 INFO scheduler Scheduled Job Complete: frappe.email.doctype.email_account.email_account.pull for dev1
2021-09-02 13:56:10,648 INFO scheduler Scheduled Job Start: frappe.email.queue.flush for dev1
2021-09-02 13:56:10,920 INFO scheduler Scheduled Job Complete: frappe.email.queue.flush for dev1
2021-09-02 13:57:09,005 DEBUG scheduler Queued events for site dev1
2021-09-02 13:58:09,443 DEBUG scheduler Queued events for site dev1
2021-09-02 13:59:09,828 DEBUG scheduler Queued events for site dev1
2021-09-02 14:00:10,267 INFO scheduler Scheduled Job Start: frappe.email.doctype.newsletter.newsletter.send_scheduled_email for dev1
2021-09-02 14:00:10,316 DEBUG scheduler Queued events for site dev1
2021-09-02 14:00:10,753 INFO scheduler Scheduled Job Complete: frappe.email.doctype.newsletter.newsletter.send_scheduled_email for dev1
2021-09-02 14:00:10,849 INFO scheduler Scheduled Job Start: frappe.integrations.doctype.google_calendar.google_calendar.sync for dev1
2021-09-02 14:00:11,409 INFO scheduler Scheduled Job Complete: frappe.integrations.doctype.google_calendar.google_calendar.sync for dev1
2021-09-02 14:00:11,509 INFO scheduler Scheduled Job Start: frappe.desk.form.document_follow.send_hourly_updates for dev1
2021-09-02 14:00:11,878 INFO scheduler Scheduled Job Complete: frappe.desk.form.document_follow.send_hourly_updates for dev1
2021-09-02 14:00:11,978 INFO scheduler Scheduled Job Start: frappe.deferred_insert.save_to_db for dev1
2021-09-02 14:00:12,398 INFO scheduler Scheduled Job Complete: frappe.deferred_insert.save_to_db for dev1
2021-09-02 14:00:12,502 INFO scheduler Scheduled Job Start: frappe.desk.page.backups.backups.delete_downloadable_backups for dev1
2021-09-02 14:00:12,864 INFO scheduler Scheduled Job Complete: frappe.desk.page.backups.backups.delete_downloadable_backups for dev1
2021-09-02 14:00:12,974 INFO scheduler Scheduled Job Start: frappe.utils.error.collect_error_snapshots for dev1
2021-09-02 14:00:13,338 INFO scheduler Scheduled Job Complete: frappe.utils.error.collect_error_snapshots for dev1
2021-09-02 14:00:13,432 INFO scheduler Scheduled Job Start: frappe.model.utils.user_settings.sync_user_settings for dev1
2021-09-02 14:00:13,779 INFO scheduler Scheduled Job Complete: frappe.model.utils.user_settings.sync_user_settings for dev1
2021-09-02 14:00:13,883 INFO scheduler Scheduled Job Start: frappe.model.utils.link_count.update_link_count for dev1
2021-09-02 14:00:14,241 INFO scheduler Scheduled Job Complete: frappe.model.utils.link_count.update_link_count for dev1
2021-09-02 14:00:14,342 INFO scheduler Scheduled Job Start: frappe.monitor.flush for dev1
2021-09-02 14:00:14,594 INFO scheduler Scheduled Job Complete: frappe.monitor.flush for dev1
2021-09-02 14:00:14,697 INFO scheduler Scheduled Job Start: frappe.utils.global_search.sync_global_search for dev1
2021-09-02 14:00:14,947 INFO scheduler Scheduled Job Complete: frappe.utils.global_search.sync_global_search for dev1
2021-09-02 14:00:15,035 INFO scheduler Scheduled Job Start: frappe.integrations.doctype.razorpay_settings.razorpay_settings.capture_payment for dev1
2021-09-02 14:00:15,430 INFO scheduler Scheduled Job Complete: frappe.integrations.doctype.razorpay_settings.razorpay_settings.capture_payment for dev1
2021-09-02 14:00:15,528 INFO scheduler Scheduled Job Start: frappe.email.doctype.email_account.email_account.notify_unreplied for dev1
2021-09-02 14:00:15,838 INFO scheduler Scheduled Job Complete: frappe.email.doctype.email_account.email_account.notify_unreplied for dev1
2021-09-02 14:00:15,939 INFO scheduler Scheduled Job Start: frappe.email.doctype.email_account.email_account.pull for dev1
2021-09-02 14:00:16,284 INFO scheduler Scheduled Job Complete: frappe.email.doctype.email_account.email_account.pull for dev1
2021-09-02 14:00:16,381 INFO scheduler Scheduled Job Start: frappe.email.queue.flush for dev1
2021-09-02 14:00:16,702 INFO scheduler Scheduled Job Complete: frappe.email.queue.flush for dev1
2021-09-02 14:00:16,796 INFO scheduler Scheduled Job Start: frappe.twofactor.delete_all_barcodes_for_users for dev1
2021-09-02 14:00:17,200 INFO scheduler Scheduled Job Complete: frappe.twofactor.delete_all_barcodes_for_users for dev1
2021-09-02 14:00:17,299 INFO scheduler Scheduled Job Start: frappe.website.doctype.web_page.web_page.check_publish_status for dev1
2021-09-02 14:00:17,749 INFO scheduler Scheduled Job Complete: frappe.website.doctype.web_page.web_page.check_publish_status for dev1
2021-09-02 14:00:17,858 INFO scheduler Scheduled Job Start: frappe.oauth.delete_oauth2_data for dev1
2021-09-02 14:00:18,253 INFO scheduler Scheduled Job Complete: frappe.oauth.delete_oauth2_data for dev1
2021-09-02 14:01:10,915 DEBUG scheduler Queued events for site dev1
2021-09-02 14:02:11,298 DEBUG scheduler Queued events for site dev1
2021-09-02 14:03:11,692 DEBUG scheduler Queued events for site dev1
2021-09-02 14:04:12,102 DEBUG scheduler Queued events for site dev1
2021-09-02 14:04:12,145 INFO scheduler Scheduled Job Start: frappe.monitor.flush for dev1
2021-09-02 14:04:12,418 INFO scheduler Scheduled Job Complete: frappe.monitor.flush for dev1
2021-09-02 14:04:12,506 INFO scheduler Scheduled Job Start: frappe.utils.global_search.sync_global_search for dev1
2021-09-02 14:04:12,757 INFO scheduler Scheduled Job Complete: frappe.utils.global_search.sync_global_search for dev1
2021-09-02 14:04:12,857 INFO scheduler Scheduled Job Start: frappe.integrations.doctype.razorpay_settings.razorpay_settings.capture_payment for dev1
2021-09-02 14:04:13,251 INFO scheduler Scheduled Job Complete: frappe.integrations.doctype.razorpay_settings.razorpay_settings.capture_payment for dev1
2021-09-02 14:04:13,364 INFO scheduler Scheduled Job Start: frappe.email.doctype.email_account.email_account.notify_unreplied for dev1
2021-09-02 14:04:13,677 INFO scheduler Scheduled Job Complete: frappe.email.doctype.email_account.email_account.notify_unreplied for dev1
2021-09-02 14:04:13,766 INFO scheduler Scheduled Job Start: frappe.email.doctype.email_account.email_account.pull for dev1
2021-09-02 14:04:14,123 INFO scheduler Scheduled Job Complete: frappe.email.doctype.email_account.email_account.pull for dev1
2021-09-02 14:04:14,224 INFO scheduler Scheduled Job Start: frappe.email.queue.flush for dev1
2021-09-02 14:04:14,506 INFO scheduler Scheduled Job Complete: frappe.email.queue.flush for dev1
2021-09-02 14:05:12,540 DEBUG scheduler Queued events for site dev1
2021-09-02 14:06:12,926 DEBUG scheduler Queued events for site dev1
2021-09-02 14:07:13,268 DEBUG scheduler Queued events for site dev1
2021-09-02 14:08:13,675 DEBUG scheduler Queued events for site dev1
2021-09-02 14:08:13,727 INFO scheduler Scheduled Job Start: frappe.monitor.flush for dev1
2021-09-02 14:08:13,982 INFO scheduler Scheduled Job Complete: frappe.monitor.flush for dev1
2021-09-02 14:08:14,077 INFO scheduler Scheduled Job Start: frappe.utils.global_search.sync_global_search for dev1
2021-09-02 14:08:14,343 INFO scheduler Scheduled Job Complete: frappe.utils.global_search.sync_global_search for dev1
2021-09-02 14:08:14,454 INFO scheduler Scheduled Job Start: frappe.integrations.doctype.razorpay_settings.razorpay_settings.capture_payment for dev1
2021-09-02 14:08:14,833 INFO scheduler Scheduled Job Complete: frappe.integrations.doctype.razorpay_settings.razorpay_settings.capture_payment for dev1
2021-09-02 14:08:14,918 INFO scheduler Scheduled Job Start: frappe.email.doctype.email_account.email_account.notify_unreplied for dev1
2021-09-02 14:08:15,256 INFO scheduler Scheduled Job Complete: frappe.email.doctype.email_account.email_account.notify_unreplied for dev1
2021-09-02 14:08:15,347 INFO scheduler Scheduled Job Start: frappe.email.doctype.email_account.email_account.pull for dev1
2021-09-02 14:08:15,686 INFO scheduler Scheduled Job Complete: frappe.email.doctype.email_account.email_account.pull for dev1
2021-09-02 14:08:15,778 INFO scheduler Scheduled Job Start: frappe.email.queue.flush for dev1
2021-09-02 14:08:16,044 INFO scheduler Scheduled Job Complete: frappe.email.queue.flush for dev1
2021-09-02 14:09:14,116 DEBUG scheduler Queued events for site dev1
2021-09-02 14:10:14,525 DEBUG scheduler Queued events for site dev1
2021-09-02 14:11:14,897 DEBUG scheduler Queued events for site dev1
2021-09-02 14:12:15,294 DEBUG scheduler Queued events for site dev1
2021-09-02 14:12:15,334 INFO scheduler Scheduled Job Start: frappe.monitor.flush for dev1
2021-09-02 14:12:15,589 INFO scheduler Scheduled Job Complete: frappe.monitor.flush for dev1
2021-09-02 14:12:15,683 INFO scheduler Scheduled Job Start: frappe.utils.global_search.sync_global_search for dev1
2021-09-02 14:12:15,918 INFO scheduler Scheduled Job Complete: frappe.utils.global_search.sync_global_search for dev1
2021-09-02 14:12:16,016 INFO scheduler Scheduled Job Start: frappe.integrations.doctype.razorpay_settings.razorpay_settings.capture_payment for dev1
2021-09-02 14:12:16,396 INFO scheduler Scheduled Job Complete: frappe.integrations.doctype.razorpay_settings.razorpay_settings.capture_payment for dev1
2021-09-02 14:12:16,488 INFO scheduler Scheduled Job Start: frappe.email.doctype.email_account.email_account.notify_unreplied for dev1
2021-09-02 14:12:16,800 INFO scheduler Scheduled Job Complete: frappe.email.doctype.email_account.email_account.notify_unreplied for dev1
2021-09-02 14:12:16,897 INFO scheduler Scheduled Job Start: frappe.email.doctype.email_account.email_account.pull for dev1
2021-09-02 14:12:17,251 INFO scheduler Scheduled Job Complete: frappe.email.doctype.email_account.email_account.pull for dev1
2021-09-02 14:12:17,338 INFO scheduler Scheduled Job Start: frappe.email.queue.flush for dev1
2021-09-02 14:12:17,585 INFO scheduler Scheduled Job Complete: frappe.email.queue.flush for dev1
2021-09-02 14:13:15,722 DEBUG scheduler Queued events for site dev1
2021-09-02 14:14:16,109 DEBUG scheduler Queued events for site dev1
2021-09-02 14:15:16,534 DEBUG scheduler Queued events for site dev1
2021-09-02 14:15:16,596 INFO scheduler Scheduled Job Start: frappe.twofactor.delete_all_barcodes_for_users for dev1
2021-09-02 14:15:16,994 INFO scheduler Scheduled Job Complete: frappe.twofactor.delete_all_barcodes_for_users for dev1
2021-09-02 14:15:17,099 INFO scheduler Scheduled Job Start: frappe.website.doctype.web_page.web_page.check_publish_status for dev1
2021-09-02 14:15:17,565 INFO scheduler Scheduled Job Complete: frappe.website.doctype.web_page.web_page.check_publish_status for dev1
2021-09-02 14:15:17,674 INFO scheduler Scheduled Job Start: frappe.oauth.delete_oauth2_data for dev1
2021-09-02 14:15:18,072 INFO scheduler Scheduled Job Complete: frappe.oauth.delete_oauth2_data for dev1
2021-09-02 14:16:16,961 DEBUG scheduler Queued events for site dev1
2021-09-02 14:16:16,999 INFO scheduler Scheduled Job Start: frappe.monitor.flush for dev1
2021-09-02 14:16:17,326 INFO scheduler Scheduled Job Complete: frappe.monitor.flush for dev1
2021-09-02 14:16:17,414 INFO scheduler Scheduled Job Start: frappe.utils.global_search.sync_global_search for dev1
2021-09-02 14:16:17,647 INFO scheduler Scheduled Job Complete: frappe.utils.global_search.sync_global_search for dev1
2021-09-02 14:16:17,747 INFO scheduler Scheduled Job Start: frappe.integrations.doctype.razorpay_settings.razorpay_settings.capture_payment for dev1
2021-09-02 14:16:18,123 INFO scheduler Scheduled Job Complete: frappe.integrations.doctype.razorpay_settings.razorpay_settings.capture_payment for dev1
2021-09-02 14:16:18,228 INFO scheduler Scheduled Job Start: frappe.email.doctype.email_account.email_account.notify_unreplied for dev1
2021-09-02 14:16:18,550 INFO scheduler Scheduled Job Complete: frappe.email.doctype.email_account.email_account.notify_unreplied for dev1
2021-09-02 14:16:18,643 INFO scheduler Scheduled Job Start: frappe.email.doctype.email_account.email_account.pull for dev1
2021-09-02 14:16:18,969 INFO scheduler Scheduled Job Complete: frappe.email.doctype.email_account.email_account.pull for dev1
2021-09-02 14:16:19,066 INFO scheduler Scheduled Job Start: frappe.email.queue.flush for dev1
2021-09-02 14:16:19,336 INFO scheduler Scheduled Job Complete: frappe.email.queue.flush for dev1
2021-09-02 14:17:17,440 DEBUG scheduler Queued events for site dev1
2021-09-02 14:18:17,824 DEBUG scheduler Queued events for site dev1
2021-09-02 14:19:18,210 DEBUG scheduler Queued events for site dev1
2021-09-02 14:20:18,615 DEBUG scheduler Queued events for site dev1
2021-09-02 14:20:18,656 INFO scheduler Scheduled Job Start: frappe.monitor.flush for dev1
2021-09-02 14:20:18,978 INFO scheduler Scheduled Job Complete: frappe.monitor.flush for dev1
2021-09-02 14:20:19,071 INFO scheduler Scheduled Job Start: frappe.utils.global_search.sync_global_search for dev1
2021-09-02 14:20:19,379 INFO scheduler Scheduled Job Complete: frappe.utils.global_search.sync_global_search for dev1
2021-09-02 14:20:19,477 INFO scheduler Scheduled Job Start: frappe.integrations.doctype.razorpay_settings.razorpay_settings.capture_payment for dev1
2021-09-02 14:20:19,901 INFO scheduler Scheduled Job Complete: frappe.integrations.doctype.razorpay_settings.razorpay_settings.capture_payment for dev1
2021-09-02 14:20:20,023 INFO scheduler Scheduled Job Start: frappe.email.doctype.email_account.email_account.notify_unreplied for dev1
2021-09-02 14:20:20,440 INFO scheduler Scheduled Job Complete: frappe.email.doctype.email_account.email_account.notify_unreplied for dev1
2021-09-02 14:20:20,543 INFO scheduler Scheduled Job Start: frappe.email.doctype.email_account.email_account.pull for dev1
2021-09-02 14:20:20,892 INFO scheduler Scheduled Job Complete: frappe.email.doctype.email_account.email_account.pull for dev1
2021-09-02 14:20:20,981 INFO scheduler Scheduled Job Start: frappe.email.queue.flush for dev1
2021-09-02 14:20:21,273 INFO scheduler Scheduled Job Complete: frappe.email.queue.flush for dev1
2021-09-02 14:21:19,092 DEBUG scheduler Queued events for site dev1
2021-09-02 14:22:19,483 DEBUG scheduler Queued events for site dev1
2021-09-02 14:23:19,847 DEBUG scheduler Queued events for site dev1
2021-09-02 14:24:20,243 DEBUG scheduler Queued events for site dev1
2021-09-02 14:24:20,288 INFO scheduler Scheduled Job Start: frappe.monitor.flush for dev1
2021-09-02 14:24:20,550 INFO scheduler Scheduled Job Complete: frappe.monitor.flush for dev1
2021-09-02 14:24:20,647 INFO scheduler Scheduled Job Start: frappe.utils.global_search.sync_global_search for dev1
2021-09-02 14:24:20,899 INFO scheduler Scheduled Job Complete: frappe.utils.global_search.sync_global_search for dev1
2021-09-02 14:24:21,005 INFO scheduler Scheduled Job Start: frappe.integrations.doctype.razorpay_settings.razorpay_settings.capture_payment for dev1
2021-09-02 14:24:21,457 INFO scheduler Scheduled Job Complete: frappe.integrations.doctype.razorpay_settings.razorpay_settings.capture_payment for dev1
2021-09-02 14:24:21,557 INFO scheduler Scheduled Job Start: frappe.email.doctype.email_account.email_account.notify_unreplied for dev1
2021-09-02 14:24:21,928 INFO scheduler Scheduled Job Complete: frappe.email.doctype.email_account.email_account.notify_unreplied for dev1
2021-09-02 14:24:22,025 INFO scheduler Scheduled Job Start: frappe.email.doctype.email_account.email_account.pull for dev1
2021-09-02 14:24:22,379 INFO scheduler Scheduled Job Complete: frappe.email.doctype.email_account.email_account.pull for dev1
2021-09-02 14:24:22,476 INFO scheduler Scheduled Job Start: frappe.email.queue.flush for dev1
2021-09-02 14:24:22,806 INFO scheduler Scheduled Job Complete: frappe.email.queue.flush for dev1
2021-09-02 14:25:20,690 DEBUG scheduler Queued events for site dev1
2021-09-02 14:26:21,083 DEBUG scheduler Queued events for site dev1
2021-09-02 14:27:21,477 DEBUG scheduler Queued events for site dev1
2021-09-02 14:28:21,857 DEBUG scheduler Queued events for site dev1
2021-09-02 14:28:21,893 INFO scheduler Scheduled Job Start: frappe.monitor.flush for dev1
2021-09-02 14:28:22,150 INFO scheduler Scheduled Job Complete: frappe.monitor.flush for dev1
2021-09-02 14:28:22,251 INFO scheduler Scheduled Job Start: frappe.utils.global_search.sync_global_search for dev1
2021-09-02 14:28:22,514 INFO scheduler Scheduled Job Complete: frappe.utils.global_search.sync_global_search for dev1
2021-09-02 14:28:22,608 INFO scheduler Scheduled Job Start: frappe.integrations.doctype.razorpay_settings.razorpay_settings.capture_payment for dev1
2021-09-02 14:28:23,024 INFO scheduler Scheduled Job Complete: frappe.integrations.doctype.razorpay_settings.razorpay_settings.capture_payment for dev1
2021-09-02 14:28:23,123 INFO scheduler Scheduled Job Start: frappe.email.doctype.email_account.email_account.notify_unreplied for dev1
2021-09-02 14:28:23,460 INFO scheduler Scheduled Job Complete: frappe.email.doctype.email_account.email_account.notify_unreplied for dev1
2021-09-02 14:28:23,565 INFO scheduler Scheduled Job Start: frappe.email.doctype.email_account.email_account.pull for dev1
2021-09-02 14:28:23,925 INFO scheduler Scheduled Job Complete: frappe.email.doctype.email_account.email_account.pull for dev1
2021-09-02 14:28:24,025 INFO scheduler Scheduled Job Start: frappe.email.queue.flush for dev1
2021-09-02 14:28:24,314 INFO scheduler Scheduled Job Complete: frappe.email.queue.flush for dev1
2021-09-02 14:29:22,355 DEBUG scheduler Queued events for site dev1
2021-09-02 14:30:22,755 DEBUG scheduler Queued events for site dev1
2021-09-02 14:30:22,822 INFO scheduler Scheduled Job Start: frappe.twofactor.delete_all_barcodes_for_users for dev1
2021-09-02 14:30:23,351 INFO scheduler Scheduled Job Complete: frappe.twofactor.delete_all_barcodes_for_users for dev1
2021-09-02 14:30:23,448 INFO scheduler Scheduled Job Start: frappe.website.doctype.web_page.web_page.check_publish_status for dev1
2021-09-02 14:30:23,877 INFO scheduler Scheduled Job Complete: frappe.website.doctype.web_page.web_page.check_publish_status for dev1
2021-09-02 14:30:23,984 INFO scheduler Scheduled Job Start: frappe.oauth.delete_oauth2_data for dev1
2021-09-02 14:30:24,468 INFO scheduler Scheduled Job Complete: frappe.oauth.delete_oauth2_data for dev1
2021-09-02 14:31:23,181 DEBUG scheduler Queued events for site dev1
2021-09-02 14:32:23,611 DEBUG scheduler Queued events for site dev1
2021-09-02 14:32:23,651 INFO scheduler Scheduled Job Start: frappe.monitor.flush for dev1
2021-09-02 14:32:23,988 INFO scheduler Scheduled Job Complete: frappe.monitor.flush for dev1
2021-09-02 14:32:24,088 INFO scheduler Scheduled Job Start: frappe.utils.global_search.sync_global_search for dev1
2021-09-02 14:32:24,440 INFO scheduler Scheduled Job Complete: frappe.utils.global_search.sync_global_search for dev1
2021-09-02 14:32:24,554 INFO scheduler Scheduled Job Start: frappe.integrations.doctype.razorpay_settings.razorpay_settings.capture_payment for dev1
2021-09-02 14:32:25,103 INFO scheduler Scheduled Job Complete: frappe.integrations.doctype.razorpay_settings.razorpay_settings.capture_payment for dev1
2021-09-02 14:32:25,239 INFO scheduler Scheduled Job Start: frappe.email.doctype.email_account.email_account.notify_unreplied for dev1
2021-09-02 14:32:25,702 INFO scheduler Scheduled Job Complete: frappe.email.doctype.email_account.email_account.notify_unreplied for dev1
2021-09-02 14:32:25,809 INFO scheduler Scheduled Job Start: frappe.email.doctype.email_account.email_account.pull for dev1
2021-09-02 14:32:26,206 INFO scheduler Scheduled Job Complete: frappe.email.doctype.email_account.email_account.pull for dev1
2021-09-02 14:32:26,299 INFO scheduler Scheduled Job Start: frappe.email.queue.flush for dev1
2021-09-02 14:32:26,634 INFO scheduler Scheduled Job Complete: frappe.email.queue.flush for dev1
2021-09-02 14:33:24,134 DEBUG scheduler Queued events for site dev1
2021-09-02 14:34:24,535 DEBUG scheduler Queued events for site dev1
2021-09-02 14:35:24,918 DEBUG scheduler Queued events for site dev1
2021-09-02 14:36:25,331 DEBUG scheduler Queued events for site dev1
2021-09-02 14:36:25,368 INFO scheduler Scheduled Job Start: frappe.monitor.flush for dev1
2021-09-02 14:36:25,619 INFO scheduler Scheduled Job Complete: frappe.monitor.flush for dev1
2021-09-02 14:36:25,703 INFO scheduler Scheduled Job Start: frappe.utils.global_search.sync_global_search for dev1
2021-09-02 14:36:25,941 INFO scheduler Scheduled Job Complete: frappe.utils.global_search.sync_global_search for dev1
2021-09-02 14:36:26,034 INFO scheduler Scheduled Job Start: frappe.integrations.doctype.razorpay_settings.razorpay_settings.capture_payment for dev1
2021-09-02 14:36:26,421 INFO scheduler Scheduled Job Complete: frappe.integrations.doctype.razorpay_settings.razorpay_settings.capture_payment for dev1
2021-09-02 14:36:26,532 INFO scheduler Scheduled Job Start: frappe.email.doctype.email_account.email_account.notify_unreplied for dev1
2021-09-02 14:36:26,896 INFO scheduler Scheduled Job Complete: frappe.email.doctype.email_account.email_account.notify_unreplied for dev1
2021-09-02 14:36:27,015 INFO scheduler Scheduled Job Start: frappe.email.doctype.email_account.email_account.pull for dev1
2021-09-02 14:36:27,366 INFO scheduler Scheduled Job Complete: frappe.email.doctype.email_account.email_account.pull for dev1
2021-09-02 14:36:27,472 INFO scheduler Scheduled Job Start: frappe.email.queue.flush for dev1
2021-09-02 14:36:27,741 INFO scheduler Scheduled Job Complete: frappe.email.queue.flush for dev1
2021-09-02 14:37:25,738 DEBUG scheduler Queued events for site dev1
2021-09-02 14:38:26,148 DEBUG scheduler Queued events for site dev1
2021-09-02 14:39:26,517 DEBUG scheduler Queued events for site dev1
2021-09-02 14:40:26,943 DEBUG scheduler Queued events for site dev1
2021-09-02 14:40:26,981 INFO scheduler Scheduled Job Start: frappe.monitor.flush for dev1
2021-09-02 14:40:27,298 INFO scheduler Scheduled Job Complete: frappe.monitor.flush for dev1
2021-09-02 14:40:27,391 INFO scheduler Scheduled Job Start: frappe.utils.global_search.sync_global_search for dev1
2021-09-02 14:40:27,678 INFO scheduler Scheduled Job Complete: frappe.utils.global_search.sync_global_search for dev1
2021-09-02 14:40:27,788 INFO scheduler Scheduled Job Start: frappe.integrations.doctype.razorpay_settings.razorpay_settings.capture_payment for dev1
2021-09-02 14:40:28,260 INFO scheduler Scheduled Job Complete: frappe.integrations.doctype.razorpay_settings.razorpay_settings.capture_payment for dev1
2021-09-02 14:40:28,372 INFO scheduler Scheduled Job Start: frappe.email.doctype.email_account.email_account.notify_unreplied for dev1
2021-09-02 14:40:28,746 INFO scheduler Scheduled Job Complete: frappe.email.doctype.email_account.email_account.notify_unreplied for dev1
2021-09-02 14:40:28,850 INFO scheduler Scheduled Job Start: frappe.email.doctype.email_account.email_account.pull for dev1
2021-09-02 14:40:29,229 INFO scheduler Scheduled Job Complete: frappe.email.doctype.email_account.email_account.pull for dev1
2021-09-02 14:40:29,348 INFO scheduler Scheduled Job Start: frappe.email.queue.flush for dev1
2021-09-02 14:40:29,659 INFO scheduler Scheduled Job Complete: frappe.email.queue.flush for dev1
2021-09-02 14:41:27,356 DEBUG scheduler Queued events for site dev1
2021-09-02 14:42:27,762 DEBUG scheduler Queued events for site dev1
2021-09-02 14:43:28,154 DEBUG scheduler Queued events for site dev1
2021-09-02 14:44:28,562 DEBUG scheduler Queued events for site dev1
2021-09-02 14:44:28,601 INFO scheduler Scheduled Job Start: frappe.monitor.flush for dev1
2021-09-02 14:44:28,848 INFO scheduler Scheduled Job Complete: frappe.monitor.flush for dev1
2021-09-02 14:44:28,939 INFO scheduler Scheduled Job Start: frappe.utils.global_search.sync_global_search for dev1
2021-09-02 14:44:29,189 INFO scheduler Scheduled Job Complete: frappe.utils.global_search.sync_global_search for dev1
2021-09-02 14:44:29,281 INFO scheduler Scheduled Job Start: frappe.integrations.doctype.razorpay_settings.razorpay_settings.capture_payment for dev1
2021-09-02 14:44:29,663 INFO scheduler Scheduled Job Complete: frappe.integrations.doctype.razorpay_settings.razorpay_settings.capture_payment for dev1
2021-09-02 14:44:29,758 INFO scheduler Scheduled Job Start: frappe.email.doctype.email_account.email_account.notify_unreplied for dev1
2021-09-02 14:44:30,077 INFO scheduler Scheduled Job Complete: frappe.email.doctype.email_account.email_account.notify_unreplied for dev1
2021-09-02 14:44:30,186 INFO scheduler Scheduled Job Start: frappe.email.doctype.email_account.email_account.pull for dev1
2021-09-02 14:44:30,507 INFO scheduler Scheduled Job Complete: frappe.email.doctype.email_account.email_account.pull for dev1
2021-09-02 14:44:30,604 INFO scheduler Scheduled Job Start: frappe.email.queue.flush for dev1
2021-09-02 14:44:30,854 INFO scheduler Scheduled Job Complete: frappe.email.queue.flush for dev1
2021-09-02 14:45:28,973 DEBUG scheduler Queued events for site dev1
2021-09-02 14:45:29,038 INFO scheduler Scheduled Job Start: frappe.twofactor.delete_all_barcodes_for_users for dev1
2021-09-02 14:45:29,492 INFO scheduler Scheduled Job Complete: frappe.twofactor.delete_all_barcodes_for_users for dev1
2021-09-02 14:45:29,592 INFO scheduler Scheduled Job Start: frappe.website.doctype.web_page.web_page.check_publish_status for dev1
2021-09-02 14:45:30,080 INFO scheduler Scheduled Job Complete: frappe.website.doctype.web_page.web_page.check_publish_status for dev1
2021-09-02 14:45:30,197 INFO scheduler Scheduled Job Start: frappe.oauth.delete_oauth2_data for dev1
2021-09-02 14:45:30,610 INFO scheduler Scheduled Job Complete: frappe.oauth.delete_oauth2_data for dev1
2021-09-02 14:46:29,397 DEBUG scheduler Queued events for site dev1
2021-09-02 14:47:29,792 DEBUG scheduler Queued events for site dev1
2021-09-02 14:48:30,212 DEBUG scheduler Queued events for site dev1
2021-09-02 14:48:30,248 INFO scheduler Scheduled Job Start: frappe.monitor.flush for dev1
2021-09-02 14:48:30,515 INFO scheduler Scheduled Job Complete: frappe.monitor.flush for dev1
2021-09-02 14:48:30,628 INFO scheduler Scheduled Job Start: frappe.utils.global_search.sync_global_search for dev1
2021-09-02 14:48:30,875 INFO scheduler Scheduled Job Complete: frappe.utils.global_search.sync_global_search for dev1
2021-09-02 14:48:30,963 INFO scheduler Scheduled Job Start: frappe.integrations.doctype.razorpay_settings.razorpay_settings.capture_payment for dev1
2021-09-02 14:48:31,396 INFO scheduler Scheduled Job Complete: frappe.integrations.doctype.razorpay_settings.razorpay_settings.capture_payment for dev1
2021-09-02 14:48:31,489 INFO scheduler Scheduled Job Start: frappe.email.doctype.email_account.email_account.notify_unreplied for dev1
2021-09-02 14:48:31,824 INFO scheduler Scheduled Job Complete: frappe.email.doctype.email_account.email_account.notify_unreplied for dev1
2021-09-02 14:48:31,918 INFO scheduler Scheduled Job Start: frappe.email.doctype.email_account.email_account.pull for dev1
2021-09-02 14:48:32,267 INFO scheduler Scheduled Job Complete: frappe.email.doctype.email_account.email_account.pull for dev1
2021-09-02 14:48:32,354 INFO scheduler Scheduled Job Start: frappe.email.queue.flush for dev1
2021-09-02 14:48:32,620 INFO scheduler Scheduled Job Complete: frappe.email.queue.flush for dev1
2021-09-02 14:49:30,650 DEBUG scheduler Queued events for site dev1
2021-09-02 14:50:31,072 DEBUG scheduler Queued events for site dev1
2021-09-02 14:51:31,440 DEBUG scheduler Queued events for site dev1
2021-09-02 14:52:31,837 DEBUG scheduler Queued events for site dev1
2021-09-02 14:52:31,873 INFO scheduler Scheduled Job Start: frappe.monitor.flush for dev1
2021-09-02 14:52:32,127 INFO scheduler Scheduled Job Complete: frappe.monitor.flush for dev1
2021-09-02 14:52:32,227 INFO scheduler Scheduled Job Start: frappe.utils.global_search.sync_global_search for dev1
2021-09-02 14:52:32,472 INFO scheduler Scheduled Job Complete: frappe.utils.global_search.sync_global_search for dev1
2021-09-02 14:52:32,563 INFO scheduler Scheduled Job Start: frappe.integrations.doctype.razorpay_settings.razorpay_settings.capture_payment for dev1
2021-09-02 14:52:32,942 INFO scheduler Scheduled Job Complete: frappe.integrations.doctype.razorpay_settings.razorpay_settings.capture_payment for dev1
2021-09-02 14:52:33,037 INFO scheduler Scheduled Job Start: frappe.email.doctype.email_account.email_account.notify_unreplied for dev1
2021-09-02 14:52:33,376 INFO scheduler Scheduled Job Complete: frappe.email.doctype.email_account.email_account.notify_unreplied for dev1
2021-09-02 14:52:33,479 INFO scheduler Scheduled Job Start: frappe.email.doctype.email_account.email_account.pull for dev1
2021-09-02 14:52:33,803 INFO scheduler Scheduled Job Complete: frappe.email.doctype.email_account.email_account.pull for dev1
2021-09-02 14:52:33,895 INFO scheduler Scheduled Job Start: frappe.email.queue.flush for dev1
2021-09-02 14:52:34,155 INFO scheduler Scheduled Job Complete: frappe.email.queue.flush for dev1
2021-09-02 14:53:32,255 DEBUG scheduler Queued events for site dev1
2021-09-02 14:54:32,647 DEBUG scheduler Queued events for site dev1
2021-09-02 14:55:33,005 DEBUG scheduler Queued events for site dev1
2021-09-02 14:56:33,455 DEBUG scheduler Queued events for site dev1
2021-09-02 14:56:33,500 INFO scheduler Scheduled Job Start: frappe.monitor.flush for dev1
2021-09-02 14:56:33,756 INFO scheduler Scheduled Job Complete: frappe.monitor.flush for dev1
2021-09-02 14:56:33,847 INFO scheduler Scheduled Job Start: frappe.utils.global_search.sync_global_search for dev1
2021-09-02 14:56:34,092 INFO scheduler Scheduled Job Complete: frappe.utils.global_search.sync_global_search for dev1
2021-09-02 14:56:34,187 INFO scheduler Scheduled Job Start: frappe.integrations.doctype.razorpay_settings.razorpay_settings.capture_payment for dev1
2021-09-02 14:56:34,580 INFO scheduler Scheduled Job Complete: frappe.integrations.doctype.razorpay_settings.razorpay_settings.capture_payment for dev1
2021-09-02 14:56:34,677 INFO scheduler Scheduled Job Start: frappe.email.doctype.email_account.email_account.notify_unreplied for dev1
2021-09-02 14:56:35,011 INFO scheduler Scheduled Job Complete: frappe.email.doctype.email_account.email_account.notify_unreplied for dev1
2021-09-02 14:56:35,097 INFO scheduler Scheduled Job Start: frappe.email.doctype.email_account.email_account.pull for dev1
2021-09-02 14:56:35,464 INFO scheduler Scheduled Job Complete: frappe.email.doctype.email_account.email_account.pull for dev1
2021-09-02 14:56:35,560 INFO scheduler Scheduled Job Start: frappe.email.queue.flush for dev1
2021-09-02 14:56:35,830 INFO scheduler Scheduled Job Complete: frappe.email.queue.flush for dev1
2021-09-02 14:57:33,888 DEBUG scheduler Queued events for site dev1
2021-09-02 14:58:34,297 DEBUG scheduler Queued events for site dev1
2021-09-02 14:59:34,651 DEBUG scheduler Queued events for site dev1
2021-09-02 15:00:35,098 INFO scheduler Scheduled Job Start: frappe.email.doctype.newsletter.newsletter.send_scheduled_email for dev1
2021-09-02 15:00:35,156 DEBUG scheduler Queued events for site dev1
2021-09-02 15:00:35,603 INFO scheduler Scheduled Job Complete: frappe.email.doctype.newsletter.newsletter.send_scheduled_email for dev1
2021-09-02 15:00:35,698 INFO scheduler Scheduled Job Start: frappe.integrations.doctype.google_calendar.google_calendar.sync for dev1
2021-09-02 15:00:36,328 INFO scheduler Scheduled Job Complete: frappe.integrations.doctype.google_calendar.google_calendar.sync for dev1
2021-09-02 15:00:36,425 INFO scheduler Scheduled Job Start: frappe.desk.form.document_follow.send_hourly_updates for dev1
2021-09-02 15:00:36,884 INFO scheduler Scheduled Job Complete: frappe.desk.form.document_follow.send_hourly_updates for dev1
2021-09-02 15:00:36,987 INFO scheduler Scheduled Job Start: frappe.deferred_insert.save_to_db for dev1
2021-09-02 15:00:37,507 INFO scheduler Scheduled Job Complete: frappe.deferred_insert.save_to_db for dev1
2021-09-02 15:00:37,606 INFO scheduler Scheduled Job Start: frappe.desk.page.backups.backups.delete_downloadable_backups for dev1
2021-09-02 15:00:38,007 INFO scheduler Scheduled Job Complete: frappe.desk.page.backups.backups.delete_downloadable_backups for dev1
2021-09-02 15:00:38,117 INFO scheduler Scheduled Job Start: frappe.utils.error.collect_error_snapshots for dev1
2021-09-02 15:00:38,520 INFO scheduler Scheduled Job Complete: frappe.utils.error.collect_error_snapshots for dev1
2021-09-02 15:00:38,619 INFO scheduler Scheduled Job Start: frappe.model.utils.user_settings.sync_user_settings for dev1
2021-09-02 15:00:38,981 INFO scheduler Scheduled Job Complete: frappe.model.utils.user_settings.sync_user_settings for dev1
2021-09-02 15:00:39,091 INFO scheduler Scheduled Job Start: frappe.model.utils.link_count.update_link_count for dev1
2021-09-02 15:00:39,533 INFO scheduler Scheduled Job Complete: frappe.model.utils.link_count.update_link_count for dev1
2021-09-02 15:00:39,627 INFO scheduler Scheduled Job Start: frappe.monitor.flush for dev1
2021-09-02 15:00:39,915 INFO scheduler Scheduled Job Complete: frappe.monitor.flush for dev1
2021-09-02 15:00:40,020 INFO scheduler Scheduled Job Start: frappe.utils.global_search.sync_global_search for dev1
2021-09-02 15:00:40,285 INFO scheduler Scheduled Job Complete: frappe.utils.global_search.sync_global_search for dev1
2021-09-02 15:00:40,378 INFO scheduler Scheduled Job Start: frappe.integrations.doctype.razorpay_settings.razorpay_settings.capture_payment for dev1
2021-09-02 15:00:40,838 INFO scheduler Scheduled Job Complete: frappe.integrations.doctype.razorpay_settings.razorpay_settings.capture_payment for dev1
2021-09-02 15:00:40,939 INFO scheduler Scheduled Job Start: frappe.email.doctype.email_account.email_account.notify_unreplied for dev1
2021-09-02 15:00:41,251 INFO scheduler Scheduled Job Complete: frappe.email.doctype.email_account.email_account.notify_unreplied for dev1
2021-09-02 15:00:41,367 INFO scheduler Scheduled Job Start: frappe.email.doctype.email_account.email_account.pull for dev1
2021-09-02 15:00:41,687 INFO scheduler Scheduled Job Complete: frappe.email.doctype.email_account.email_account.pull for dev1
2021-09-02 15:00:41,775 INFO scheduler Scheduled Job Start: frappe.email.queue.flush for dev1
2021-09-02 15:00:42,042 INFO scheduler Scheduled Job Complete: frappe.email.queue.flush for dev1
2021-09-02 15:00:42,133 INFO scheduler Scheduled Job Start: frappe.twofactor.delete_all_barcodes_for_users for dev1
2021-09-02 15:00:42,571 INFO scheduler Scheduled Job Complete: frappe.twofactor.delete_all_barcodes_for_users for dev1
2021-09-02 15:00:42,701 INFO scheduler Scheduled Job Start: frappe.website.doctype.web_page.web_page.check_publish_status for dev1
2021-09-02 15:00:43,195 INFO scheduler Scheduled Job Complete: frappe.website.doctype.web_page.web_page.check_publish_status for dev1
2021-09-02 15:00:43,288 INFO scheduler Scheduled Job Start: frappe.oauth.delete_oauth2_data for dev1
2021-09-02 15:00:43,714 INFO scheduler Scheduled Job Complete: frappe.oauth.delete_oauth2_data for dev1
2021-09-02 15:01:35,740 DEBUG scheduler Queued events for site dev1
2021-09-02 15:02:36,140 DEBUG scheduler Queued events for site dev1
2021-09-02 15:03:36,509 DEBUG scheduler Queued events for site dev1
2021-09-02 15:04:36,876 DEBUG scheduler Queued events for site dev1
2021-09-02 15:04:36,913 INFO scheduler Scheduled Job Start: frappe.monitor.flush for dev1
2021-09-02 15:04:37,193 INFO scheduler Scheduled Job Complete: frappe.monitor.flush for dev1
2021-09-02 15:04:37,288 INFO scheduler Scheduled Job Start: frappe.utils.global_search.sync_global_search for dev1
2021-09-02 15:04:37,538 INFO scheduler Scheduled Job Complete: frappe.utils.global_search.sync_global_search for dev1
2021-09-02 15:04:37,624 INFO scheduler Scheduled Job Start: frappe.integrations.doctype.razorpay_settings.razorpay_settings.capture_payment for dev1
2021-09-02 15:04:38,021 INFO scheduler Scheduled Job Complete: frappe.integrations.doctype.razorpay_settings.razorpay_settings.capture_payment for dev1
2021-09-02 15:04:38,133 INFO scheduler Scheduled Job Start: frappe.email.doctype.email_account.email_account.notify_unreplied for dev1
2021-09-02 15:04:38,456 INFO scheduler Scheduled Job Complete: frappe.email.doctype.email_account.email_account.notify_unreplied for dev1
2021-09-02 15:04:38,555 INFO scheduler Scheduled Job Start: frappe.email.doctype.email_account.email_account.pull for dev1
2021-09-02 15:04:38,875 INFO scheduler Scheduled Job Complete: frappe.email.doctype.email_account.email_account.pull for dev1
2021-09-02 15:04:38,964 INFO scheduler Scheduled Job Start: frappe.email.queue.flush for dev1
2021-09-02 15:04:39,241 INFO scheduler Scheduled Job Complete: frappe.email.queue.flush for dev1
2021-09-02 15:05:37,285 DEBUG scheduler Queued events for site dev1
2021-09-02 15:06:37,676 DEBUG scheduler Queued events for site dev1
2021-09-02 15:07:38,029 DEBUG scheduler Queued events for site dev1
2021-09-02 15:08:38,446 DEBUG scheduler Queued events for site dev1
2021-09-02 15:08:38,486 INFO scheduler Scheduled Job Start: frappe.monitor.flush for dev1
2021-09-02 15:08:38,794 INFO scheduler Scheduled Job Complete: frappe.monitor.flush for dev1
2021-09-02 15:08:38,892 INFO scheduler Scheduled Job Start: frappe.utils.global_search.sync_global_search for dev1
2021-09-02 15:08:39,160 INFO scheduler Scheduled Job Complete: frappe.utils.global_search.sync_global_search for dev1
2021-09-02 15:08:39,279 INFO scheduler Scheduled Job Start: frappe.integrations.doctype.razorpay_settings.razorpay_settings.capture_payment for dev1
2021-09-02 15:08:39,651 INFO scheduler Scheduled Job Complete: frappe.integrations.doctype.razorpay_settings.razorpay_settings.capture_payment for dev1
2021-09-02 15:08:39,742 INFO scheduler Scheduled Job Start: frappe.email.doctype.email_account.email_account.notify_unreplied for dev1
2021-09-02 15:08:40,073 INFO scheduler Scheduled Job Complete: frappe.email.doctype.email_account.email_account.notify_unreplied for dev1
2021-09-02 15:08:40,182 INFO scheduler Scheduled Job Start: frappe.email.doctype.email_account.email_account.pull for dev1
2021-09-02 15:08:40,541 INFO scheduler Scheduled Job Complete: frappe.email.doctype.email_account.email_account.pull for dev1
2021-09-02 15:08:40,628 INFO scheduler Scheduled Job Start: frappe.email.queue.flush for dev1
2021-09-02 15:08:40,929 INFO scheduler Scheduled Job Complete: frappe.email.queue.flush for dev1
2021-09-02 15:09:38,896 DEBUG scheduler Queued events for site dev1
2021-09-02 15:10:39,304 DEBUG scheduler Queued events for site dev1
2021-09-02 15:11:39,674 DEBUG scheduler Queued events for site dev1
2021-09-02 15:12:40,073 DEBUG scheduler Queued events for site dev1
2021-09-02 15:12:40,115 INFO scheduler Scheduled Job Start: frappe.monitor.flush for dev1
2021-09-02 15:12:40,392 INFO scheduler Scheduled Job Complete: frappe.monitor.flush for dev1
2021-09-02 15:12:40,495 INFO scheduler Scheduled Job Start: frappe.utils.global_search.sync_global_search for dev1
2021-09-02 15:12:40,728 INFO scheduler Scheduled Job Complete: frappe.utils.global_search.sync_global_search for dev1
2021-09-02 15:12:40,837 INFO scheduler Scheduled Job Start: frappe.integrations.doctype.razorpay_settings.razorpay_settings.capture_payment for dev1
2021-09-02 15:12:41,226 INFO scheduler Scheduled Job Complete: frappe.integrations.doctype.razorpay_settings.razorpay_settings.capture_payment for dev1
2021-09-02 15:12:41,331 INFO scheduler Scheduled Job Start: frappe.email.doctype.email_account.email_account.notify_unreplied for dev1
2021-09-02 15:12:41,637 INFO scheduler Scheduled Job Complete: frappe.email.doctype.email_account.email_account.notify_unreplied for dev1
2021-09-02 15:12:41,734 INFO scheduler Scheduled Job Start: frappe.email.doctype.email_account.email_account.pull for dev1
2021-09-02 15:12:42,058 INFO scheduler Scheduled Job Complete: frappe.email.doctype.email_account.email_account.pull for dev1
2021-09-02 15:12:42,151 INFO scheduler Scheduled Job Start: frappe.email.queue.flush for dev1
2021-09-02 15:12:42,417 INFO scheduler Scheduled Job Complete: frappe.email.queue.flush for dev1
2021-09-02 15:13:40,539 DEBUG scheduler Queued events for site dev1
2021-09-02 15:14:40,952 DEBUG scheduler Queued events for site dev1
2021-09-02 15:15:41,335 DEBUG scheduler Queued events for site dev1
2021-09-02 15:15:41,421 INFO scheduler Scheduled Job Start: frappe.twofactor.delete_all_barcodes_for_users for dev1
2021-09-02 15:15:41,835 INFO scheduler Scheduled Job Complete: frappe.twofactor.delete_all_barcodes_for_users for dev1
2021-09-02 15:15:41,932 INFO scheduler Scheduled Job Start: frappe.website.doctype.web_page.web_page.check_publish_status for dev1
2021-09-02 15:15:42,369 INFO scheduler Scheduled Job Complete: frappe.website.doctype.web_page.web_page.check_publish_status for dev1
2021-09-02 15:15:42,465 INFO scheduler Scheduled Job Start: frappe.oauth.delete_oauth2_data for dev1
2021-09-02 15:15:42,850 INFO scheduler Scheduled Job Complete: frappe.oauth.delete_oauth2_data for dev1
2021-09-02 15:16:41,800 DEBUG scheduler Queued events for site dev1
2021-09-02 15:16:41,848 INFO scheduler Scheduled Job Start: frappe.monitor.flush for dev1
2021-09-02 15:16:42,149 INFO scheduler Scheduled Job Complete: frappe.monitor.flush for dev1
2021-09-02 15:16:42,251 INFO scheduler Scheduled Job Start: frappe.utils.global_search.sync_global_search for dev1
2021-09-02 15:16:42,513 INFO scheduler Scheduled Job Complete: frappe.utils.global_search.sync_global_search for dev1
2021-09-02 15:16:42,603 INFO scheduler Scheduled Job Start: frappe.integrations.doctype.razorpay_settings.razorpay_settings.capture_payment for dev1
2021-09-02 15:16:42,988 INFO scheduler Scheduled Job Complete: frappe.integrations.doctype.razorpay_settings.razorpay_settings.capture_payment for dev1
2021-09-02 15:16:43,078 INFO scheduler Scheduled Job Start: frappe.email.doctype.email_account.email_account.notify_unreplied for dev1
2021-09-02 15:16:43,418 INFO scheduler Scheduled Job Complete: frappe.email.doctype.email_account.email_account.notify_unreplied for dev1
2021-09-02 15:16:43,520 INFO scheduler Scheduled Job Start: frappe.email.doctype.email_account.email_account.pull for dev1
2021-09-02 15:16:43,846 INFO scheduler Scheduled Job Complete: frappe.email.doctype.email_account.email_account.pull for dev1
2021-09-02 15:16:43,932 INFO scheduler Scheduled Job Start: frappe.email.queue.flush for dev1
2021-09-02 15:16:44,204 INFO scheduler Scheduled Job Complete: frappe.email.queue.flush for dev1
2021-09-02 15:17:42,270 DEBUG scheduler Queued events for site dev1
2021-09-02 15:18:42,658 DEBUG scheduler Queued events for site dev1
2021-09-02 15:19:43,007 DEBUG scheduler Queued events for site dev1
2021-09-02 15:20:43,415 DEBUG scheduler Queued events for site dev1
2021-09-02 15:20:43,463 INFO scheduler Scheduled Job Start: frappe.monitor.flush for dev1
2021-09-02 15:20:43,760 INFO scheduler Scheduled Job Complete: frappe.monitor.flush for dev1
2021-09-02 15:20:43,845 INFO scheduler Scheduled Job Start: frappe.utils.global_search.sync_global_search for dev1
2021-09-02 15:20:44,087 INFO scheduler Scheduled Job Complete: frappe.utils.global_search.sync_global_search for dev1
2021-09-02 15:20:44,198 INFO scheduler Scheduled Job Start: frappe.integrations.doctype.razorpay_settings.razorpay_settings.capture_payment for dev1
2021-09-02 15:20:44,595 INFO scheduler Scheduled Job Complete: frappe.integrations.doctype.razorpay_settings.razorpay_settings.capture_payment for dev1
2021-09-02 15:20:44,684 INFO scheduler Scheduled Job Start: frappe.email.doctype.email_account.email_account.notify_unreplied for dev1
2021-09-02 15:20:45,008 INFO scheduler Scheduled Job Complete: frappe.email.doctype.email_account.email_account.notify_unreplied for dev1
2021-09-02 15:20:45,100 INFO scheduler Scheduled Job Start: frappe.email.doctype.email_account.email_account.pull for dev1
2021-09-02 15:20:45,456 INFO scheduler Scheduled Job Complete: frappe.email.doctype.email_account.email_account.pull for dev1
2021-09-02 15:20:45,549 INFO scheduler Scheduled Job Start: frappe.email.queue.flush for dev1
2021-09-02 15:20:45,796 INFO scheduler Scheduled Job Complete: frappe.email.queue.flush for dev1
2021-09-02 15:21:43,906 DEBUG scheduler Queued events for site dev1
2021-09-02 15:22:44,299 DEBUG scheduler Queued events for site dev1
2021-09-02 15:23:44,677 DEBUG scheduler Queued events for site dev1
2021-09-02 15:24:45,110 DEBUG scheduler Queued events for site dev1
2021-09-02 15:24:45,144 INFO scheduler Scheduled Job Start: frappe.monitor.flush for dev1
2021-09-02 15:24:45,424 INFO scheduler Scheduled Job Complete: frappe.monitor.flush for dev1
2021-09-02 15:24:45,517 INFO scheduler Scheduled Job Start: frappe.utils.global_search.sync_global_search for dev1
2021-09-02 15:24:45,766 INFO scheduler Scheduled Job Complete: frappe.utils.global_search.sync_global_search for dev1
2021-09-02 15:24:45,855 INFO scheduler Scheduled Job Start: frappe.integrations.doctype.razorpay_settings.razorpay_settings.capture_payment for dev1
2021-09-02 15:24:46,245 INFO scheduler Scheduled Job Complete: frappe.integrations.doctype.razorpay_settings.razorpay_settings.capture_payment for dev1
2021-09-02 15:24:46,342 INFO scheduler Scheduled Job Start: frappe.email.doctype.email_account.email_account.notify_unreplied for dev1
2021-09-02 15:24:46,637 INFO scheduler Scheduled Job Complete: frappe.email.doctype.email_account.email_account.notify_unreplied for dev1
2021-09-02 15:24:46,738 INFO scheduler Scheduled Job Start: frappe.email.doctype.email_account.email_account.pull for dev1
2021-09-02 15:24:47,067 INFO scheduler Scheduled Job Complete: frappe.email.doctype.email_account.email_account.pull for dev1
2021-09-02 15:24:47,158 INFO scheduler Scheduled Job Start: frappe.email.queue.flush for dev1
2021-09-02 15:24:47,435 INFO scheduler Scheduled Job Complete: frappe.email.queue.flush for dev1
2021-09-02 15:25:45,564 DEBUG scheduler Queued events for site dev1
2021-09-02 15:26:45,928 DEBUG scheduler Queued events for site dev1
2021-09-02 15:27:46,304 DEBUG scheduler Queued events for site dev1
2021-09-02 15:28:46,713 DEBUG scheduler Queued events for site dev1
2021-09-02 15:28:46,749 INFO scheduler Scheduled Job Start: frappe.monitor.flush for dev1
2021-09-02 15:28:47,052 INFO scheduler Scheduled Job Complete: frappe.monitor.flush for dev1
2021-09-02 15:28:47,151 INFO scheduler Scheduled Job Start: frappe.utils.global_search.sync_global_search for dev1
2021-09-02 15:28:47,412 INFO scheduler Scheduled Job Complete: frappe.utils.global_search.sync_global_search for dev1
2021-09-02 15:28:47,496 INFO scheduler Scheduled Job Start: frappe.integrations.doctype.razorpay_settings.razorpay_settings.capture_payment for dev1
2021-09-02 15:28:47,879 INFO scheduler Scheduled Job Complete: frappe.integrations.doctype.razorpay_settings.razorpay_settings.capture_payment for dev1
2021-09-02 15:28:47,972 INFO scheduler Scheduled Job Start: frappe.email.doctype.email_account.email_account.notify_unreplied for dev1
2021-09-02 15:28:48,308 INFO scheduler Scheduled Job Complete: frappe.email.doctype.email_account.email_account.notify_unreplied for dev1
2021-09-02 15:28:48,407 INFO scheduler Scheduled Job Start: frappe.email.doctype.email_account.email_account.pull for dev1
2021-09-02 15:28:48,756 INFO scheduler Scheduled Job Complete: frappe.email.doctype.email_account.email_account.pull for dev1
2021-09-02 15:28:48,840 INFO scheduler Scheduled Job Start: frappe.email.queue.flush for dev1
2021-09-02 15:28:49,098 INFO scheduler Scheduled Job Complete: frappe.email.queue.flush for dev1
2021-09-02 15:29:47,187 DEBUG scheduler Queued events for site dev1
2021-09-02 15:30:47,598 DEBUG scheduler Queued events for site dev1
2021-09-02 15:30:47,660 INFO scheduler Scheduled Job Start: frappe.twofactor.delete_all_barcodes_for_users for dev1
2021-09-02 15:30:48,075 INFO scheduler Scheduled Job Complete: frappe.twofactor.delete_all_barcodes_for_users for dev1
2021-09-02 15:30:48,183 INFO scheduler Scheduled Job Start: frappe.website.doctype.web_page.web_page.check_publish_status for dev1
2021-09-02 15:30:48,625 INFO scheduler Scheduled Job Complete: frappe.website.doctype.web_page.web_page.check_publish_status for dev1
2021-09-02 15:30:48,729 INFO scheduler Scheduled Job Start: frappe.oauth.delete_oauth2_data for dev1
2021-09-02 15:30:49,134 INFO scheduler Scheduled Job Complete: frappe.oauth.delete_oauth2_data for dev1
2021-09-02 15:31:47,989 DEBUG scheduler Queued events for site dev1
2021-09-02 15:32:48,431 DEBUG scheduler Queued events for site dev1
2021-09-02 15:32:48,474 INFO scheduler Scheduled Job Start: frappe.monitor.flush for dev1
2021-09-02 15:32:48,749 INFO scheduler Scheduled Job Complete: frappe.monitor.flush for dev1
2021-09-02 15:32:48,840 INFO scheduler Scheduled Job Start: frappe.utils.global_search.sync_global_search for dev1
2021-09-02 15:32:49,102 INFO scheduler Scheduled Job Complete: frappe.utils.global_search.sync_global_search for dev1
2021-09-02 15:32:49,209 INFO scheduler Scheduled Job Start: frappe.integrations.doctype.razorpay_settings.razorpay_settings.capture_payment for dev1
2021-09-02 15:32:49,645 INFO scheduler Scheduled Job Complete: frappe.integrations.doctype.razorpay_settings.razorpay_settings.capture_payment for dev1
2021-09-02 15:32:49,741 INFO scheduler Scheduled Job Start: frappe.email.doctype.email_account.email_account.notify_unreplied for dev1
2021-09-02 15:32:50,067 INFO scheduler Scheduled Job Complete: frappe.email.doctype.email_account.email_account.notify_unreplied for dev1
2021-09-02 15:32:50,174 INFO scheduler Scheduled Job Start: frappe.email.doctype.email_account.email_account.pull for dev1
2021-09-02 15:32:50,533 INFO scheduler Scheduled Job Complete: frappe.email.doctype.email_account.email_account.pull for dev1
2021-09-02 15:32:50,624 INFO scheduler Scheduled Job Start: frappe.email.queue.flush for dev1
2021-09-02 15:32:50,886 INFO scheduler Scheduled Job Complete: frappe.email.queue.flush for dev1
2021-09-02 15:33:48,868 DEBUG scheduler Queued events for site dev1
2021-09-02 15:34:49,299 DEBUG scheduler Queued events for site dev1
2021-09-02 15:35:49,699 DEBUG scheduler Queued events for site dev1
2021-09-02 15:36:50,109 DEBUG scheduler Queued events for site dev1
2021-09-02 15:36:50,144 INFO scheduler Scheduled Job Start: frappe.monitor.flush for dev1
2021-09-02 15:36:50,406 INFO scheduler Scheduled Job Complete: frappe.monitor.flush for dev1
2021-09-02 15:36:50,497 INFO scheduler Scheduled Job Start: frappe.utils.global_search.sync_global_search for dev1
2021-09-02 15:36:50,729 INFO scheduler Scheduled Job Complete: frappe.utils.global_search.sync_global_search for dev1
2021-09-02 15:36:50,834 INFO scheduler Scheduled Job Start: frappe.integrations.doctype.razorpay_settings.razorpay_settings.capture_payment for dev1
2021-09-02 15:36:51,213 INFO scheduler Scheduled Job Complete: frappe.integrations.doctype.razorpay_settings.razorpay_settings.capture_payment for dev1
2021-09-02 15:36:51,299 INFO scheduler Scheduled Job Start: frappe.email.doctype.email_account.email_account.notify_unreplied for dev1
2021-09-02 15:36:51,646 INFO scheduler Scheduled Job Complete: frappe.email.doctype.email_account.email_account.notify_unreplied for dev1
2021-09-02 15:36:51,737 INFO scheduler Scheduled Job Start: frappe.email.doctype.email_account.email_account.pull for dev1
2021-09-02 15:36:52,044 INFO scheduler Scheduled Job Complete: frappe.email.doctype.email_account.email_account.pull for dev1
2021-09-02 15:36:52,134 INFO scheduler Scheduled Job Start: frappe.email.queue.flush for dev1
2021-09-02 15:36:52,416 INFO scheduler Scheduled Job Complete: frappe.email.queue.flush for dev1
2021-09-02 15:37:50,521 DEBUG scheduler Queued events for site dev1
2021-09-02 15:38:50,914 DEBUG scheduler Queued events for site dev1
2021-09-02 15:39:51,282 DEBUG scheduler Queued events for site dev1
2021-09-02 15:40:51,667 DEBUG scheduler Queued events for site dev1
2021-09-02 15:40:51,717 INFO scheduler Scheduled Job Start: frappe.monitor.flush for dev1
2021-09-02 15:40:51,996 INFO scheduler Scheduled Job Complete: frappe.monitor.flush for dev1
2021-09-02 15:40:52,094 INFO scheduler Scheduled Job Start: frappe.utils.global_search.sync_global_search for dev1
2021-09-02 15:40:52,346 INFO scheduler Scheduled Job Complete: frappe.utils.global_search.sync_global_search for dev1
2021-09-02 15:40:52,444 INFO scheduler Scheduled Job Start: frappe.integrations.doctype.razorpay_settings.razorpay_settings.capture_payment for dev1
2021-09-02 15:40:52,834 INFO scheduler Scheduled Job Complete: frappe.integrations.doctype.razorpay_settings.razorpay_settings.capture_payment for dev1
2021-09-02 15:40:52,945 INFO scheduler Scheduled Job Start: frappe.email.doctype.email_account.email_account.notify_unreplied for dev1
2021-09-02 15:40:53,283 INFO scheduler Scheduled Job Complete: frappe.email.doctype.email_account.email_account.notify_unreplied for dev1
2021-09-02 15:40:53,389 INFO scheduler Scheduled Job Start: frappe.email.doctype.email_account.email_account.pull for dev1
2021-09-02 15:40:53,737 INFO scheduler Scheduled Job Complete: frappe.email.doctype.email_account.email_account.pull for dev1
2021-09-02 15:40:53,823 INFO scheduler Scheduled Job Start: frappe.email.queue.flush for dev1
2021-09-02 15:40:54,112 INFO scheduler Scheduled Job Complete: frappe.email.queue.flush for dev1
2021-09-02 15:41:52,118 DEBUG scheduler Queued events for site dev1
2021-09-02 15:42:52,520 DEBUG scheduler Queued events for site dev1
2021-09-02 15:43:52,875 DEBUG scheduler Queued events for site dev1
2021-09-02 15:44:53,303 DEBUG scheduler Queued events for site dev1
2021-09-02 15:44:53,353 INFO scheduler Scheduled Job Start: frappe.monitor.flush for dev1
2021-09-02 15:44:53,639 INFO scheduler Scheduled Job Complete: frappe.monitor.flush for dev1
2021-09-02 15:44:53,740 INFO scheduler Scheduled Job Start: frappe.utils.global_search.sync_global_search for dev1
2021-09-02 15:44:54,018 INFO scheduler Scheduled Job Complete: frappe.utils.global_search.sync_global_search for dev1
2021-09-02 15:44:54,126 INFO scheduler Scheduled Job Start: frappe.integrations.doctype.razorpay_settings.razorpay_settings.capture_payment for dev1
2021-09-02 15:44:54,557 INFO scheduler Scheduled Job Complete: frappe.integrations.doctype.razorpay_settings.razorpay_settings.capture_payment for dev1
2021-09-02 15:44:54,651 INFO scheduler Scheduled Job Start: frappe.email.doctype.email_account.email_account.notify_unreplied for dev1
2021-09-02 15:44:54,976 INFO scheduler Scheduled Job Complete: frappe.email.doctype.email_account.email_account.notify_unreplied for dev1
2021-09-02 15:44:55,072 INFO scheduler Scheduled Job Start: frappe.email.doctype.email_account.email_account.pull for dev1
2021-09-02 15:44:55,413 INFO scheduler Scheduled Job Complete: frappe.email.doctype.email_account.email_account.pull for dev1
2021-09-02 15:44:55,516 INFO scheduler Scheduled Job Start: frappe.email.queue.flush for dev1
2021-09-02 15:44:55,792 INFO scheduler Scheduled Job Complete: frappe.email.queue.flush for dev1
2021-09-02 15:45:53,787 DEBUG scheduler Queued events for site dev1
2021-09-02 15:45:53,867 INFO scheduler Scheduled Job Start: frappe.twofactor.delete_all_barcodes_for_users for dev1
2021-09-02 15:45:54,351 INFO scheduler Scheduled Job Complete: frappe.twofactor.delete_all_barcodes_for_users for dev1
2021-09-02 15:45:54,453 INFO scheduler Scheduled Job Start: frappe.website.doctype.web_page.web_page.check_publish_status for dev1
2021-09-02 15:45:54,944 INFO scheduler Scheduled Job Complete: frappe.website.doctype.web_page.web_page.check_publish_status for dev1
2021-09-02 15:45:55,062 INFO scheduler Scheduled Job Start: frappe.oauth.delete_oauth2_data for dev1
2021-09-02 15:45:55,497 INFO scheduler Scheduled Job Complete: frappe.oauth.delete_oauth2_data for dev1
2021-09-02 15:46:54,275 DEBUG scheduler Queued events for site dev1
2021-09-02 15:47:54,658 DEBUG scheduler Queued events for site dev1
2021-09-02 15:48:55,052 DEBUG scheduler Queued events for site dev1
2021-09-02 15:48:55,089 INFO scheduler Scheduled Job Start: frappe.monitor.flush for dev1
2021-09-02 15:48:55,354 INFO scheduler Scheduled Job Complete: frappe.monitor.flush for dev1
2021-09-02 15:48:55,447 INFO scheduler Scheduled Job Start: frappe.utils.global_search.sync_global_search for dev1
2021-09-02 15:48:55,692 INFO scheduler Scheduled Job Complete: frappe.utils.global_search.sync_global_search for dev1
2021-09-02 15:48:55,793 INFO scheduler Scheduled Job Start: frappe.integrations.doctype.razorpay_settings.razorpay_settings.capture_payment for dev1
2021-09-02 15:48:56,192 INFO scheduler Scheduled Job Complete: frappe.integrations.doctype.razorpay_settings.razorpay_settings.capture_payment for dev1
2021-09-02 15:48:56,301 INFO scheduler Scheduled Job Start: frappe.email.doctype.email_account.email_account.notify_unreplied for dev1
2021-09-02 15:48:56,608 INFO scheduler Scheduled Job Complete: frappe.email.doctype.email_account.email_account.notify_unreplied for dev1
2021-09-02 15:48:56,696 INFO scheduler Scheduled Job Start: frappe.email.doctype.email_account.email_account.pull for dev1
2021-09-02 15:48:57,038 INFO scheduler Scheduled Job Complete: frappe.email.doctype.email_account.email_account.pull for dev1
2021-09-02 15:48:57,123 INFO scheduler Scheduled Job Start: frappe.email.queue.flush for dev1
2021-09-02 15:48:57,403 INFO scheduler Scheduled Job Complete: frappe.email.queue.flush for dev1
2021-09-02 15:49:55,481 DEBUG scheduler Queued events for site dev1
2021-09-02 15:50:55,883 DEBUG scheduler Queued events for site dev1
2021-09-02 15:51:56,235 DEBUG scheduler Queued events for site dev1
2021-09-02 15:52:56,633 DEBUG scheduler Queued events for site dev1
2021-09-02 15:52:56,682 INFO scheduler Scheduled Job Start: frappe.monitor.flush for dev1
2021-09-02 15:52:56,939 INFO scheduler Scheduled Job Complete: frappe.monitor.flush for dev1
2021-09-02 15:52:57,038 INFO scheduler Scheduled Job Start: frappe.utils.global_search.sync_global_search for dev1
2021-09-02 15:52:57,324 INFO scheduler Scheduled Job Complete: frappe.utils.global_search.sync_global_search for dev1
2021-09-02 15:52:57,419 INFO scheduler Scheduled Job Start: frappe.integrations.doctype.razorpay_settings.razorpay_settings.capture_payment for dev1
2021-09-02 15:52:57,792 INFO scheduler Scheduled Job Complete: frappe.integrations.doctype.razorpay_settings.razorpay_settings.capture_payment for dev1
2021-09-02 15:52:57,894 INFO scheduler Scheduled Job Start: frappe.email.doctype.email_account.email_account.notify_unreplied for dev1
2021-09-02 15:52:58,207 INFO scheduler Scheduled Job Complete: frappe.email.doctype.email_account.email_account.notify_unreplied for dev1
2021-09-02 15:52:58,297 INFO scheduler Scheduled Job Start: frappe.email.doctype.email_account.email_account.pull for dev1
2021-09-02 15:52:58,642 INFO scheduler Scheduled Job Complete: frappe.email.doctype.email_account.email_account.pull for dev1
2021-09-02 15:52:58,730 INFO scheduler Scheduled Job Start: frappe.email.queue.flush for dev1
2021-09-02 15:52:58,990 INFO scheduler Scheduled Job Complete: frappe.email.queue.flush for dev1
2021-09-02 15:53:57,063 DEBUG scheduler Queued events for site dev1
2021-09-02 15:54:57,486 DEBUG scheduler Queued events for site dev1
2021-09-02 15:55:57,874 DEBUG scheduler Queued events for site dev1
2021-09-02 15:56:58,275 DEBUG scheduler Queued events for site dev1
2021-09-02 15:56:58,311 INFO scheduler Scheduled Job Start: frappe.monitor.flush for dev1
2021-09-02 15:56:58,568 INFO scheduler Scheduled Job Complete: frappe.monitor.flush for dev1
2021-09-02 15:56:58,656 INFO scheduler Scheduled Job Start: frappe.utils.global_search.sync_global_search for dev1
2021-09-02 15:56:58,910 INFO scheduler Scheduled Job Complete: frappe.utils.global_search.sync_global_search for dev1
2021-09-02 15:56:58,996 INFO scheduler Scheduled Job Start: frappe.integrations.doctype.razorpay_settings.razorpay_settings.capture_payment for dev1
2021-09-02 15:56:59,386 INFO scheduler Scheduled Job Complete: frappe.integrations.doctype.razorpay_settings.razorpay_settings.capture_payment for dev1
2021-09-02 15:56:59,488 INFO scheduler Scheduled Job Start: frappe.email.doctype.email_account.email_account.notify_unreplied for dev1
2021-09-02 15:56:59,799 INFO scheduler Scheduled Job Complete: frappe.email.doctype.email_account.email_account.notify_unreplied for dev1
2021-09-02 15:56:59,915 INFO scheduler Scheduled Job Start: frappe.email.doctype.email_account.email_account.pull for dev1
2021-09-02 15:57:00,264 INFO scheduler Scheduled Job Complete: frappe.email.doctype.email_account.email_account.pull for dev1
2021-09-02 15:57:00,376 INFO scheduler Scheduled Job Start: frappe.email.queue.flush for dev1
2021-09-02 15:57:00,637 INFO scheduler Scheduled Job Complete: frappe.email.queue.flush for dev1
2021-09-02 15:57:58,686 DEBUG scheduler Queued events for site dev1
2021-09-02 15:58:59,087 DEBUG scheduler Queued events for site dev1
2021-09-02 15:59:59,467 DEBUG scheduler Queued events for site dev1
2021-09-02 16:00:59,926 INFO scheduler Scheduled Job Start: frappe.email.doctype.newsletter.newsletter.send_scheduled_email for dev1
2021-09-02 16:00:59,973 DEBUG scheduler Queued events for site dev1
2021-09-02 16:01:00,426 INFO scheduler Scheduled Job Complete: frappe.email.doctype.newsletter.newsletter.send_scheduled_email for dev1
2021-09-02 16:01:00,532 INFO scheduler Scheduled Job Start: frappe.integrations.doctype.google_calendar.google_calendar.sync for dev1
2021-09-02 16:01:01,086 INFO scheduler Scheduled Job Complete: frappe.integrations.doctype.google_calendar.google_calendar.sync for dev1
2021-09-02 16:01:01,210 INFO scheduler Scheduled Job Start: frappe.desk.form.document_follow.send_hourly_updates for dev1
2021-09-02 16:01:01,605 INFO scheduler Scheduled Job Complete: frappe.desk.form.document_follow.send_hourly_updates for dev1
2021-09-02 16:01:01,706 INFO scheduler Scheduled Job Start: frappe.deferred_insert.save_to_db for dev1
2021-09-02 16:01:02,193 INFO scheduler Scheduled Job Complete: frappe.deferred_insert.save_to_db for dev1
2021-09-02 16:01:02,281 INFO scheduler Scheduled Job Start: frappe.desk.page.backups.backups.delete_downloadable_backups for dev1
2021-09-02 16:01:02,664 INFO scheduler Scheduled Job Complete: frappe.desk.page.backups.backups.delete_downloadable_backups for dev1
2021-09-02 16:01:02,772 INFO scheduler Scheduled Job Start: frappe.utils.error.collect_error_snapshots for dev1
2021-09-02 16:01:03,119 INFO scheduler Scheduled Job Complete: frappe.utils.error.collect_error_snapshots for dev1
2021-09-02 16:01:03,242 INFO scheduler Scheduled Job Start: frappe.model.utils.user_settings.sync_user_settings for dev1
2021-09-02 16:01:03,585 INFO scheduler Scheduled Job Complete: frappe.model.utils.user_settings.sync_user_settings for dev1
2021-09-02 16:01:03,676 INFO scheduler Scheduled Job Start: frappe.model.utils.link_count.update_link_count for dev1
2021-09-02 16:01:04,034 INFO scheduler Scheduled Job Complete: frappe.model.utils.link_count.update_link_count for dev1
2021-09-02 16:01:04,141 INFO scheduler Scheduled Job Start: frappe.monitor.flush for dev1
2021-09-02 16:01:04,398 INFO scheduler Scheduled Job Complete: frappe.monitor.flush for dev1
2021-09-02 16:01:04,497 INFO scheduler Scheduled Job Start: frappe.utils.global_search.sync_global_search for dev1
2021-09-02 16:01:04,739 INFO scheduler Scheduled Job Complete: frappe.utils.global_search.sync_global_search for dev1
2021-09-02 16:01:04,828 INFO scheduler Scheduled Job Start: frappe.integrations.doctype.razorpay_settings.razorpay_settings.capture_payment for dev1
2021-09-02 16:01:05,219 INFO scheduler Scheduled Job Complete: frappe.integrations.doctype.razorpay_settings.razorpay_settings.capture_payment for dev1
2021-09-02 16:01:05,319 INFO scheduler Scheduled Job Start: frappe.email.doctype.email_account.email_account.notify_unreplied for dev1
2021-09-02 16:01:05,644 INFO scheduler Scheduled Job Complete: frappe.email.doctype.email_account.email_account.notify_unreplied for dev1
2021-09-02 16:01:05,739 INFO scheduler Scheduled Job Start: frappe.email.doctype.email_account.email_account.pull for dev1
2021-09-02 16:01:06,062 INFO scheduler Scheduled Job Complete: frappe.email.doctype.email_account.email_account.pull for dev1
2021-09-02 16:01:06,150 INFO scheduler Scheduled Job Start: frappe.email.queue.flush for dev1
2021-09-02 16:01:06,449 INFO scheduler Scheduled Job Complete: frappe.email.queue.flush for dev1
2021-09-02 16:01:06,541 INFO scheduler Scheduled Job Start: frappe.twofactor.delete_all_barcodes_for_users for dev1
2021-09-02 16:01:06,919 INFO scheduler Scheduled Job Complete: frappe.twofactor.delete_all_barcodes_for_users for dev1
2021-09-02 16:01:07,016 INFO scheduler Scheduled Job Start: frappe.website.doctype.web_page.web_page.check_publish_status for dev1
2021-09-02 16:01:07,490 INFO scheduler Scheduled Job Complete: frappe.website.doctype.web_page.web_page.check_publish_status for dev1
2021-09-02 16:01:07,595 INFO scheduler Scheduled Job Start: frappe.oauth.delete_oauth2_data for dev1
2021-09-02 16:01:07,982 INFO scheduler Scheduled Job Complete: frappe.oauth.delete_oauth2_data for dev1
2021-09-02 16:02:00,618 DEBUG scheduler Queued events for site dev1
2021-09-02 16:03:01,012 DEBUG scheduler Queued events for site dev1
2021-09-02 16:04:01,425 DEBUG scheduler Queued events for site dev1
2021-09-02 16:04:01,474 INFO scheduler Scheduled Job Start: frappe.monitor.flush for dev1
2021-09-02 16:04:01,800 INFO scheduler Scheduled Job Complete: frappe.monitor.flush for dev1
2021-09-02 16:04:01,887 INFO scheduler Scheduled Job Start: frappe.utils.global_search.sync_global_search for dev1
2021-09-02 16:04:02,136 INFO scheduler Scheduled Job Complete: frappe.utils.global_search.sync_global_search for dev1
2021-09-02 16:04:02,233 INFO scheduler Scheduled Job Start: frappe.integrations.doctype.razorpay_settings.razorpay_settings.capture_payment for dev1
2021-09-02 16:04:02,614 INFO scheduler Scheduled Job Complete: frappe.integrations.doctype.razorpay_settings.razorpay_settings.capture_payment for dev1
2021-09-02 16:04:02,705 INFO scheduler Scheduled Job Start: frappe.email.doctype.email_account.email_account.notify_unreplied for dev1
2021-09-02 16:04:03,036 INFO scheduler Scheduled Job Complete: frappe.email.doctype.email_account.email_account.notify_unreplied for dev1
2021-09-02 16:04:03,131 INFO scheduler Scheduled Job Start: frappe.email.doctype.email_account.email_account.pull for dev1
2021-09-02 16:04:03,474 INFO scheduler Scheduled Job Complete: frappe.email.doctype.email_account.email_account.pull for dev1
2021-09-02 16:04:03,560 INFO scheduler Scheduled Job Start: frappe.email.queue.flush for dev1
2021-09-02 16:04:03,837 INFO scheduler Scheduled Job Complete: frappe.email.queue.flush for dev1
2021-09-02 16:05:01,936 DEBUG scheduler Queued events for site dev1
2021-09-02 16:06:02,297 DEBUG scheduler Queued events for site dev1
2021-09-02 16:07:02,632 DEBUG scheduler Queued events for site dev1
2021-09-02 16:08:03,043 DEBUG scheduler Queued events for site dev1
2021-09-02 16:08:03,091 INFO scheduler Scheduled Job Start: frappe.monitor.flush for dev1
2021-09-02 16:08:03,401 INFO scheduler Scheduled Job Complete: frappe.monitor.flush for dev1
2021-09-02 16:08:03,505 INFO scheduler Scheduled Job Start: frappe.utils.global_search.sync_global_search for dev1
2021-09-02 16:08:03,749 INFO scheduler Scheduled Job Complete: frappe.utils.global_search.sync_global_search for dev1
2021-09-02 16:08:03,838 INFO scheduler Scheduled Job Start: frappe.integrations.doctype.razorpay_settings.razorpay_settings.capture_payment for dev1
2021-09-02 16:08:04,222 INFO scheduler Scheduled Job Complete: frappe.integrations.doctype.razorpay_settings.razorpay_settings.capture_payment for dev1
2021-09-02 16:08:04,305 INFO scheduler Scheduled Job Start: frappe.email.doctype.email_account.email_account.notify_unreplied for dev1
2021-09-02 16:08:04,749 INFO scheduler Scheduled Job Complete: frappe.email.doctype.email_account.email_account.notify_unreplied for dev1
2021-09-02 16:08:04,845 INFO scheduler Scheduled Job Start: frappe.email.doctype.email_account.email_account.pull for dev1
2021-09-02 16:08:05,223 INFO scheduler Scheduled Job Complete: frappe.email.doctype.email_account.email_account.pull for dev1
2021-09-02 16:08:05,335 INFO scheduler Scheduled Job Start: frappe.email.queue.flush for dev1
2021-09-02 16:08:05,604 INFO scheduler Scheduled Job Complete: frappe.email.queue.flush for dev1
2021-09-02 16:09:03,511 DEBUG scheduler Queued events for site dev1
2021-09-02 16:10:03,910 DEBUG scheduler Queued events for site dev1
2021-09-02 16:11:04,282 DEBUG scheduler Queued events for site dev1
2021-09-02 16:12:04,701 DEBUG scheduler Queued events for site dev1
2021-09-02 16:12:04,738 INFO scheduler Scheduled Job Start: frappe.monitor.flush for dev1
2021-09-02 16:12:04,991 INFO scheduler Scheduled Job Complete: frappe.monitor.flush for dev1
2021-09-02 16:12:05,077 INFO scheduler Scheduled Job Start: frappe.utils.global_search.sync_global_search for dev1
2021-09-02 16:12:05,352 INFO scheduler Scheduled Job Complete: frappe.utils.global_search.sync_global_search for dev1
2021-09-02 16:12:05,435 INFO scheduler Scheduled Job Start: frappe.integrations.doctype.razorpay_settings.razorpay_settings.capture_payment for dev1
2021-09-02 16:12:05,814 INFO scheduler Scheduled Job Complete: frappe.integrations.doctype.razorpay_settings.razorpay_settings.capture_payment for dev1
2021-09-02 16:12:05,913 INFO scheduler Scheduled Job Start: frappe.email.doctype.email_account.email_account.notify_unreplied for dev1
2021-09-02 16:12:06,285 INFO scheduler Scheduled Job Complete: frappe.email.doctype.email_account.email_account.notify_unreplied for dev1
2021-09-02 16:12:06,379 INFO scheduler Scheduled Job Start: frappe.email.doctype.email_account.email_account.pull for dev1
2021-09-02 16:12:06,702 INFO scheduler Scheduled Job Complete: frappe.email.doctype.email_account.email_account.pull for dev1
2021-09-02 16:12:06,790 INFO scheduler Scheduled Job Start: frappe.email.queue.flush for dev1
2021-09-02 16:12:07,040 INFO scheduler Scheduled Job Complete: frappe.email.queue.flush for dev1
2021-09-02 16:13:05,096 DEBUG scheduler Queued events for site dev1
2021-09-02 16:14:05,490 DEBUG scheduler Queued events for site dev1
2021-09-02 16:15:05,900 DEBUG scheduler Queued events for site dev1
2021-09-02 16:15:05,973 INFO scheduler Scheduled Job Start: frappe.twofactor.delete_all_barcodes_for_users for dev1
2021-09-02 16:15:06,465 INFO scheduler Scheduled Job Complete: frappe.twofactor.delete_all_barcodes_for_users for dev1
2021-09-02 16:15:06,570 INFO scheduler Scheduled Job Start: frappe.website.doctype.web_page.web_page.check_publish_status for dev1
2021-09-02 16:15:07,005 INFO scheduler Scheduled Job Complete: frappe.website.doctype.web_page.web_page.check_publish_status for dev1
2021-09-02 16:15:07,122 INFO scheduler Scheduled Job Start: frappe.oauth.delete_oauth2_data for dev1
2021-09-02 16:15:07,523 INFO scheduler Scheduled Job Complete: frappe.oauth.delete_oauth2_data for dev1
2021-09-02 16:16:06,378 DEBUG scheduler Queued events for site dev1
2021-09-02 16:16:06,412 INFO scheduler Scheduled Job Start: frappe.monitor.flush for dev1
2021-09-02 16:16:06,678 INFO scheduler Scheduled Job Complete: frappe.monitor.flush for dev1
2021-09-02 16:16:06,776 INFO scheduler Scheduled Job Start: frappe.utils.global_search.sync_global_search for dev1
2021-09-02 16:16:07,070 INFO scheduler Scheduled Job Complete: frappe.utils.global_search.sync_global_search for dev1
2021-09-02 16:16:07,177 INFO scheduler Scheduled Job Start: frappe.integrations.doctype.razorpay_settings.razorpay_settings.capture_payment for dev1
2021-09-02 16:16:07,573 INFO scheduler Scheduled Job Complete: frappe.integrations.doctype.razorpay_settings.razorpay_settings.capture_payment for dev1
2021-09-02 16:16:07,680 INFO scheduler Scheduled Job Start: frappe.email.doctype.email_account.email_account.notify_unreplied for dev1
2021-09-02 16:16:07,978 INFO scheduler Scheduled Job Complete: frappe.email.doctype.email_account.email_account.notify_unreplied for dev1
2021-09-02 16:16:08,074 INFO scheduler Scheduled Job Start: frappe.email.doctype.email_account.email_account.pull for dev1
2021-09-02 16:16:08,401 INFO scheduler Scheduled Job Complete: frappe.email.doctype.email_account.email_account.pull for dev1
2021-09-02 16:16:08,492 INFO scheduler Scheduled Job Start: frappe.email.queue.flush for dev1
2021-09-02 16:16:08,742 INFO scheduler Scheduled Job Complete: frappe.email.queue.flush for dev1
2021-09-02 16:17:06,816 DEBUG scheduler Queued events for site dev1
2021-09-02 16:18:07,211 DEBUG scheduler Queued events for site dev1
2021-09-02 16:19:07,567 DEBUG scheduler Queued events for site dev1
2021-09-02 16:20:07,972 DEBUG scheduler Queued events for site dev1
2021-09-02 16:20:08,013 INFO scheduler Scheduled Job Start: frappe.monitor.flush for dev1
2021-09-02 16:20:08,317 INFO scheduler Scheduled Job Complete: frappe.monitor.flush for dev1
2021-09-02 16:20:08,414 INFO scheduler Scheduled Job Start: frappe.utils.global_search.sync_global_search for dev1
2021-09-02 16:20:08,656 INFO scheduler Scheduled Job Complete: frappe.utils.global_search.sync_global_search for dev1
2021-09-02 16:20:08,741 INFO scheduler Scheduled Job Start: frappe.integrations.doctype.razorpay_settings.razorpay_settings.capture_payment for dev1
2021-09-02 16:20:09,129 INFO scheduler Scheduled Job Complete: frappe.integrations.doctype.razorpay_settings.razorpay_settings.capture_payment for dev1
2021-09-02 16:20:09,231 INFO scheduler Scheduled Job Start: frappe.email.doctype.email_account.email_account.notify_unreplied for dev1
2021-09-02 16:20:09,552 INFO scheduler Scheduled Job Complete: frappe.email.doctype.email_account.email_account.notify_unreplied for dev1
2021-09-02 16:20:09,638 INFO scheduler Scheduled Job Start: frappe.email.doctype.email_account.email_account.pull for dev1
2021-09-02 16:20:10,002 INFO scheduler Scheduled Job Complete: frappe.email.doctype.email_account.email_account.pull for dev1
2021-09-02 16:20:10,105 INFO scheduler Scheduled Job Start: frappe.email.queue.flush for dev1
2021-09-02 16:20:10,381 INFO scheduler Scheduled Job Complete: frappe.email.queue.flush for dev1
2021-09-02 16:21:08,419 DEBUG scheduler Queued events for site dev1
2021-09-02 16:22:08,790 DEBUG scheduler Queued events for site dev1
2021-09-02 16:23:09,131 DEBUG scheduler Queued events for site dev1
2021-09-02 16:24:09,536 DEBUG scheduler Queued events for site dev1
2021-09-02 16:24:09,575 INFO scheduler Scheduled Job Start: frappe.monitor.flush for dev1
2021-09-02 16:24:09,835 INFO scheduler Scheduled Job Complete: frappe.monitor.flush for dev1
2021-09-02 16:24:09,927 INFO scheduler Scheduled Job Start: frappe.utils.global_search.sync_global_search for dev1
2021-09-02 16:24:10,223 INFO scheduler Scheduled Job Complete: frappe.utils.global_search.sync_global_search for dev1
2021-09-02 16:24:10,326 INFO scheduler Scheduled Job Start: frappe.integrations.doctype.razorpay_settings.razorpay_settings.capture_payment for dev1
2021-09-02 16:24:10,696 INFO scheduler Scheduled Job Complete: frappe.integrations.doctype.razorpay_settings.razorpay_settings.capture_payment for dev1
2021-09-02 16:24:10,786 INFO scheduler Scheduled Job Start: frappe.email.doctype.email_account.email_account.notify_unreplied for dev1
2021-09-02 16:24:11,100 INFO scheduler Scheduled Job Complete: frappe.email.doctype.email_account.email_account.notify_unreplied for dev1
2021-09-02 16:24:11,198 INFO scheduler Scheduled Job Start: frappe.email.doctype.email_account.email_account.pull for dev1
2021-09-02 16:24:11,534 INFO scheduler Scheduled Job Complete: frappe.email.doctype.email_account.email_account.pull for dev1
2021-09-02 16:24:11,637 INFO scheduler Scheduled Job Start: frappe.email.queue.flush for dev1
2021-09-02 16:24:11,909 INFO scheduler Scheduled Job Complete: frappe.email.queue.flush for dev1
2021-09-02 16:25:09,945 DEBUG scheduler Queued events for site dev1
2021-09-02 16:26:10,328 DEBUG scheduler Queued events for site dev1
2021-09-02 16:27:10,700 DEBUG scheduler Queued events for site dev1
2021-09-02 16:28:11,128 DEBUG scheduler Queued events for site dev1
2021-09-02 16:28:11,185 INFO scheduler Scheduled Job Start: frappe.monitor.flush for dev1
2021-09-02 16:28:11,472 INFO scheduler Scheduled Job Complete: frappe.monitor.flush for dev1
2021-09-02 16:28:11,562 INFO scheduler Scheduled Job Start: frappe.utils.global_search.sync_global_search for dev1
2021-09-02 16:28:11,826 INFO scheduler Scheduled Job Complete: frappe.utils.global_search.sync_global_search for dev1
2021-09-02 16:28:11,929 INFO scheduler Scheduled Job Start: frappe.integrations.doctype.razorpay_settings.razorpay_settings.capture_payment for dev1
2021-09-02 16:28:12,309 INFO scheduler Scheduled Job Complete: frappe.integrations.doctype.razorpay_settings.razorpay_settings.capture_payment for dev1
2021-09-02 16:28:12,411 INFO scheduler Scheduled Job Start: frappe.email.doctype.email_account.email_account.notify_unreplied for dev1
2021-09-02 16:28:12,754 INFO scheduler Scheduled Job Complete: frappe.email.doctype.email_account.email_account.notify_unreplied for dev1
2021-09-02 16:28:12,870 INFO scheduler Scheduled Job Start: frappe.email.doctype.email_account.email_account.pull for dev1
2021-09-02 16:28:13,279 INFO scheduler Scheduled Job Complete: frappe.email.doctype.email_account.email_account.pull for dev1
2021-09-02 16:28:13,378 INFO scheduler Scheduled Job Start: frappe.email.queue.flush for dev1
2021-09-02 16:28:13,647 INFO scheduler Scheduled Job Complete: frappe.email.queue.flush for dev1
2021-09-02 16:29:11,557 DEBUG scheduler Queued events for site dev1
2021-09-02 16:30:11,966 DEBUG scheduler Queued events for site dev1
2021-09-02 16:30:12,028 INFO scheduler Scheduled Job Start: frappe.twofactor.delete_all_barcodes_for_users for dev1
2021-09-02 16:30:12,460 INFO scheduler Scheduled Job Complete: frappe.twofactor.delete_all_barcodes_for_users for dev1
2021-09-02 16:30:12,562 INFO scheduler Scheduled Job Start: frappe.website.doctype.web_page.web_page.check_publish_status for dev1
2021-09-02 16:30:13,003 INFO scheduler Scheduled Job Complete: frappe.website.doctype.web_page.web_page.check_publish_status for dev1
2021-09-02 16:30:13,099 INFO scheduler Scheduled Job Start: frappe.oauth.delete_oauth2_data for dev1
2021-09-02 16:30:13,517 INFO scheduler Scheduled Job Complete: frappe.oauth.delete_oauth2_data for dev1
2021-09-02 16:31:12,373 DEBUG scheduler Queued events for site dev1
2021-09-02 16:32:12,803 DEBUG scheduler Queued events for site dev1
2021-09-02 16:32:12,845 INFO scheduler Scheduled Job Start: frappe.monitor.flush for dev1
2021-09-02 16:32:13,120 INFO scheduler Scheduled Job Complete: frappe.monitor.flush for dev1
2021-09-02 16:32:13,214 INFO scheduler Scheduled Job Start: frappe.utils.global_search.sync_global_search for dev1
2021-09-02 16:32:13,462 INFO scheduler Scheduled Job Complete: frappe.utils.global_search.sync_global_search for dev1
2021-09-02 16:32:13,557 INFO scheduler Scheduled Job Start: frappe.integrations.doctype.razorpay_settings.razorpay_settings.capture_payment for dev1
2021-09-02 16:32:13,943 INFO scheduler Scheduled Job Complete: frappe.integrations.doctype.razorpay_settings.razorpay_settings.capture_payment for dev1
2021-09-02 16:32:14,032 INFO scheduler Scheduled Job Start: frappe.email.doctype.email_account.email_account.notify_unreplied for dev1
2021-09-02 16:32:14,347 INFO scheduler Scheduled Job Complete: frappe.email.doctype.email_account.email_account.notify_unreplied for dev1
2021-09-02 16:32:14,444 INFO scheduler Scheduled Job Start: frappe.email.doctype.email_account.email_account.pull for dev1
2021-09-02 16:32:14,779 INFO scheduler Scheduled Job Complete: frappe.email.doctype.email_account.email_account.pull for dev1
2021-09-02 16:32:14,875 INFO scheduler Scheduled Job Start: frappe.email.queue.flush for dev1
2021-09-02 16:32:15,143 INFO scheduler Scheduled Job Complete: frappe.email.queue.flush for dev1
2021-09-02 16:33:13,248 DEBUG scheduler Queued events for site dev1
2021-09-02 16:34:13,636 DEBUG scheduler Queued events for site dev1
2021-09-02 16:35:14,005 DEBUG scheduler Queued events for site dev1
2021-09-02 16:36:14,420 DEBUG scheduler Queued events for site dev1
2021-09-02 16:36:14,469 INFO scheduler Scheduled Job Start: frappe.monitor.flush for dev1
2021-09-02 16:36:14,785 INFO scheduler Scheduled Job Complete: frappe.monitor.flush for dev1
2021-09-02 16:36:14,888 INFO scheduler Scheduled Job Start: frappe.utils.global_search.sync_global_search for dev1
2021-09-02 16:36:15,145 INFO scheduler Scheduled Job Complete: frappe.utils.global_search.sync_global_search for dev1
2021-09-02 16:36:15,244 INFO scheduler Scheduled Job Start: frappe.integrations.doctype.razorpay_settings.razorpay_settings.capture_payment for dev1
2021-09-02 16:36:15,613 INFO scheduler Scheduled Job Complete: frappe.integrations.doctype.razorpay_settings.razorpay_settings.capture_payment for dev1
2021-09-02 16:36:15,701 INFO scheduler Scheduled Job Start: frappe.email.doctype.email_account.email_account.notify_unreplied for dev1
2021-09-02 16:36:16,027 INFO scheduler Scheduled Job Complete: frappe.email.doctype.email_account.email_account.notify_unreplied for dev1
2021-09-02 16:36:16,144 INFO scheduler Scheduled Job Start: frappe.email.doctype.email_account.email_account.pull for dev1
2021-09-02 16:36:16,497 INFO scheduler Scheduled Job Complete: frappe.email.doctype.email_account.email_account.pull for dev1
2021-09-02 16:36:16,591 INFO scheduler Scheduled Job Start: frappe.email.queue.flush for dev1
2021-09-02 16:36:16,849 INFO scheduler Scheduled Job Complete: frappe.email.queue.flush for dev1
2021-09-02 16:37:14,912 DEBUG scheduler Queued events for site dev1
2021-09-02 16:38:15,317 DEBUG scheduler Queued events for site dev1
2021-09-02 16:39:15,703 DEBUG scheduler Queued events for site dev1
2021-09-02 16:40:16,102 DEBUG scheduler Queued events for site dev1
2021-09-02 16:40:16,153 INFO scheduler Scheduled Job Start: frappe.monitor.flush for dev1
2021-09-02 16:40:16,438 INFO scheduler Scheduled Job Complete: frappe.monitor.flush for dev1
2021-09-02 16:40:16,550 INFO scheduler Scheduled Job Start: frappe.utils.global_search.sync_global_search for dev1
2021-09-02 16:40:16,811 INFO scheduler Scheduled Job Complete: frappe.utils.global_search.sync_global_search for dev1
2021-09-02 16:40:16,900 INFO scheduler Scheduled Job Start: frappe.integrations.doctype.razorpay_settings.razorpay_settings.capture_payment for dev1
2021-09-02 16:40:17,323 INFO scheduler Scheduled Job Complete: frappe.integrations.doctype.razorpay_settings.razorpay_settings.capture_payment for dev1
2021-09-02 16:40:17,409 INFO scheduler Scheduled Job Start: frappe.email.doctype.email_account.email_account.notify_unreplied for dev1
2021-09-02 16:40:17,737 INFO scheduler Scheduled Job Complete: frappe.email.doctype.email_account.email_account.notify_unreplied for dev1
2021-09-02 16:40:17,830 INFO scheduler Scheduled Job Start: frappe.email.doctype.email_account.email_account.pull for dev1
2021-09-02 16:40:18,186 INFO scheduler Scheduled Job Complete: frappe.email.doctype.email_account.email_account.pull for dev1
2021-09-02 16:40:18,270 INFO scheduler Scheduled Job Start: frappe.email.queue.flush for dev1
2021-09-02 16:40:18,572 INFO scheduler Scheduled Job Complete: frappe.email.queue.flush for dev1
2021-09-02 16:41:16,548 DEBUG scheduler Queued events for site dev1
2021-09-02 16:42:16,950 DEBUG scheduler Queued events for site dev1
2021-09-02 16:43:17,319 DEBUG scheduler Queued events for site dev1
2021-09-02 16:44:17,741 DEBUG scheduler Queued events for site dev1
2021-09-02 16:44:17,779 INFO scheduler Scheduled Job Start: frappe.monitor.flush for dev1
2021-09-02 16:44:18,064 INFO scheduler Scheduled Job Complete: frappe.monitor.flush for dev1
2021-09-02 16:44:18,170 INFO scheduler Scheduled Job Start: frappe.utils.global_search.sync_global_search for dev1
2021-09-02 16:44:18,439 INFO scheduler Scheduled Job Complete: frappe.utils.global_search.sync_global_search for dev1
2021-09-02 16:44:18,539 INFO scheduler Scheduled Job Start: frappe.integrations.doctype.razorpay_settings.razorpay_settings.capture_payment for dev1
2021-09-02 16:44:18,911 INFO scheduler Scheduled Job Complete: frappe.integrations.doctype.razorpay_settings.razorpay_settings.capture_payment for dev1
2021-09-02 16:44:19,006 INFO scheduler Scheduled Job Start: frappe.email.doctype.email_account.email_account.notify_unreplied for dev1
2021-09-02 16:44:19,426 INFO scheduler Scheduled Job Complete: frappe.email.doctype.email_account.email_account.notify_unreplied for dev1
2021-09-02 16:44:19,516 INFO scheduler Scheduled Job Start: frappe.email.doctype.email_account.email_account.pull for dev1
2021-09-02 16:44:19,913 INFO scheduler Scheduled Job Complete: frappe.email.doctype.email_account.email_account.pull for dev1
2021-09-02 16:44:20,000 INFO scheduler Scheduled Job Start: frappe.email.queue.flush for dev1
2021-09-02 16:44:20,278 INFO scheduler Scheduled Job Complete: frappe.email.queue.flush for dev1
2021-09-02 16:45:18,199 DEBUG scheduler Queued events for site dev1
2021-09-02 16:45:18,262 INFO scheduler Scheduled Job Start: frappe.twofactor.delete_all_barcodes_for_users for dev1
2021-09-02 16:45:18,687 INFO scheduler Scheduled Job Complete: frappe.twofactor.delete_all_barcodes_for_users for dev1
2021-09-02 16:45:18,795 INFO scheduler Scheduled Job Start: frappe.website.doctype.web_page.web_page.check_publish_status for dev1
2021-09-02 16:45:19,228 INFO scheduler Scheduled Job Complete: frappe.website.doctype.web_page.web_page.check_publish_status for dev1
2021-09-02 16:45:19,333 INFO scheduler Scheduled Job Start: frappe.oauth.delete_oauth2_data for dev1
2021-09-02 16:45:19,724 INFO scheduler Scheduled Job Complete: frappe.oauth.delete_oauth2_data for dev1
2021-09-02 16:46:18,637 DEBUG scheduler Queued events for site dev1
2021-09-02 16:47:19,020 DEBUG scheduler Queued events for site dev1
2021-09-02 16:48:19,417 DEBUG scheduler Queued events for site dev1
2021-09-02 16:48:19,451 INFO scheduler Scheduled Job Start: frappe.monitor.flush for dev1
2021-09-02 16:48:19,738 INFO scheduler Scheduled Job Complete: frappe.monitor.flush for dev1
2021-09-02 16:48:19,843 INFO scheduler Scheduled Job Start: frappe.utils.global_search.sync_global_search for dev1
2021-09-02 16:48:20,096 INFO scheduler Scheduled Job Complete: frappe.utils.global_search.sync_global_search for dev1
2021-09-02 16:48:20,195 INFO scheduler Scheduled Job Start: frappe.integrations.doctype.razorpay_settings.razorpay_settings.capture_payment for dev1
2021-09-02 16:48:20,668 INFO scheduler Scheduled Job Complete: frappe.integrations.doctype.razorpay_settings.razorpay_settings.capture_payment for dev1
2021-09-02 16:48:20,769 INFO scheduler Scheduled Job Start: frappe.email.doctype.email_account.email_account.notify_unreplied for dev1
2021-09-02 16:48:21,142 INFO scheduler Scheduled Job Complete: frappe.email.doctype.email_account.email_account.notify_unreplied for dev1
2021-09-02 16:48:21,244 INFO scheduler Scheduled Job Start: frappe.email.doctype.email_account.email_account.pull for dev1
2021-09-02 16:48:21,589 INFO scheduler Scheduled Job Complete: frappe.email.doctype.email_account.email_account.pull for dev1
2021-09-02 16:48:21,708 INFO scheduler Scheduled Job Start: frappe.email.queue.flush for dev1
2021-09-02 16:48:21,962 INFO scheduler Scheduled Job Complete: frappe.email.queue.flush for dev1
2021-09-02 16:49:19,848 DEBUG scheduler Queued events for site dev1
2021-09-02 16:50:20,259 DEBUG scheduler Queued events for site dev1
