2021-09-02 20:06:39,907 DEBUG scheduler Queued events for site dev1
2021-09-02 20:07:40,266 DEBUG scheduler Queued events for site dev1
2021-09-02 20:08:40,700 DEBUG scheduler Queued events for site dev1
2021-09-02 20:08:40,732 INFO scheduler Scheduled Job Start: frappe.monitor.flush for dev1
2021-09-02 20:08:40,989 INFO scheduler Scheduled Job Complete: frappe.monitor.flush for dev1
2021-09-02 20:08:41,077 INFO scheduler Scheduled Job Start: frappe.utils.global_search.sync_global_search for dev1
2021-09-02 20:08:41,334 INFO scheduler Scheduled Job Complete: frappe.utils.global_search.sync_global_search for dev1
2021-09-02 20:08:41,427 INFO scheduler Scheduled Job Start: frappe.integrations.doctype.razorpay_settings.razorpay_settings.capture_payment for dev1
2021-09-02 20:08:41,817 INFO scheduler Scheduled Job Complete: frappe.integrations.doctype.razorpay_settings.razorpay_settings.capture_payment for dev1
2021-09-02 20:08:41,910 INFO scheduler Scheduled Job Start: frappe.email.doctype.email_account.email_account.notify_unreplied for dev1
2021-09-02 20:08:42,239 INFO scheduler Scheduled Job Complete: frappe.email.doctype.email_account.email_account.notify_unreplied for dev1
2021-09-02 20:08:42,334 INFO scheduler Scheduled Job Start: frappe.email.doctype.email_account.email_account.pull for dev1
2021-09-02 20:08:42,680 INFO scheduler Scheduled Job Complete: frappe.email.doctype.email_account.email_account.pull for dev1
2021-09-02 20:08:42,779 INFO scheduler Scheduled Job Start: frappe.email.queue.flush for dev1
2021-09-02 20:08:43,033 INFO scheduler Scheduled Job Complete: frappe.email.queue.flush for dev1
2021-09-02 20:09:41,123 DEBUG scheduler Queued events for site dev1
2021-09-02 20:10:41,539 DEBUG scheduler Queued events for site dev1
2021-09-02 20:11:41,932 DEBUG scheduler Queued events for site dev1
2021-09-02 20:12:42,341 DEBUG scheduler Queued events for site dev1
2021-09-02 20:12:42,389 INFO scheduler Scheduled Job Start: frappe.monitor.flush for dev1
2021-09-02 20:12:42,716 INFO scheduler Scheduled Job Complete: frappe.monitor.flush for dev1
2021-09-02 20:12:42,811 INFO scheduler Scheduled Job Start: frappe.utils.global_search.sync_global_search for dev1
2021-09-02 20:12:43,091 INFO scheduler Scheduled Job Complete: frappe.utils.global_search.sync_global_search for dev1
2021-09-02 20:12:43,185 INFO scheduler Scheduled Job Start: frappe.integrations.doctype.razorpay_settings.razorpay_settings.capture_payment for dev1
2021-09-02 20:12:43,602 INFO scheduler Scheduled Job Complete: frappe.integrations.doctype.razorpay_settings.razorpay_settings.capture_payment for dev1
2021-09-02 20:12:43,703 INFO scheduler Scheduled Job Start: frappe.email.doctype.email_account.email_account.notify_unreplied for dev1
2021-09-02 20:12:44,011 INFO scheduler Scheduled Job Complete: frappe.email.doctype.email_account.email_account.notify_unreplied for dev1
2021-09-02 20:12:44,108 INFO scheduler Scheduled Job Start: frappe.email.doctype.email_account.email_account.pull for dev1
2021-09-02 20:12:44,450 INFO scheduler Scheduled Job Complete: frappe.email.doctype.email_account.email_account.pull for dev1
2021-09-02 20:12:44,540 INFO scheduler Scheduled Job Start: frappe.email.queue.flush for dev1
2021-09-02 20:12:44,812 INFO scheduler Scheduled Job Complete: frappe.email.queue.flush for dev1
2021-09-02 20:13:42,825 DEBUG scheduler Queued events for site dev1
2021-09-02 20:14:43,203 DEBUG scheduler Queued events for site dev1
2021-09-02 20:15:43,556 DEBUG scheduler Queued events for site dev1
2021-09-02 20:15:43,618 INFO scheduler Scheduled Job Start: frappe.twofactor.delete_all_barcodes_for_users for dev1
2021-09-02 20:15:44,015 INFO scheduler Scheduled Job Complete: frappe.twofactor.delete_all_barcodes_for_users for dev1
2021-09-02 20:15:44,120 INFO scheduler Scheduled Job Start: frappe.website.doctype.web_page.web_page.check_publish_status for dev1
2021-09-02 20:15:44,563 INFO scheduler Scheduled Job Complete: frappe.website.doctype.web_page.web_page.check_publish_status for dev1
2021-09-02 20:15:44,667 INFO scheduler Scheduled Job Start: frappe.oauth.delete_oauth2_data for dev1
2021-09-02 20:15:45,106 INFO scheduler Scheduled Job Complete: frappe.oauth.delete_oauth2_data for dev1
2021-09-02 20:16:43,969 DEBUG scheduler Queued events for site dev1
2021-09-02 20:16:44,003 INFO scheduler Scheduled Job Start: frappe.monitor.flush for dev1
2021-09-02 20:16:44,311 INFO scheduler Scheduled Job Complete: frappe.monitor.flush for dev1
2021-09-02 20:16:44,403 INFO scheduler Scheduled Job Start: frappe.utils.global_search.sync_global_search for dev1
2021-09-02 20:16:44,656 INFO scheduler Scheduled Job Complete: frappe.utils.global_search.sync_global_search for dev1
2021-09-02 20:16:44,743 INFO scheduler Scheduled Job Start: frappe.integrations.doctype.razorpay_settings.razorpay_settings.capture_payment for dev1
2021-09-02 20:16:45,113 INFO scheduler Scheduled Job Complete: frappe.integrations.doctype.razorpay_settings.razorpay_settings.capture_payment for dev1
2021-09-02 20:16:45,207 INFO scheduler Scheduled Job Start: frappe.email.doctype.email_account.email_account.notify_unreplied for dev1
2021-09-02 20:16:45,528 INFO scheduler Scheduled Job Complete: frappe.email.doctype.email_account.email_account.notify_unreplied for dev1
2021-09-02 20:16:45,620 INFO scheduler Scheduled Job Start: frappe.email.doctype.email_account.email_account.pull for dev1
2021-09-02 20:16:45,962 INFO scheduler Scheduled Job Complete: frappe.email.doctype.email_account.email_account.pull for dev1
2021-09-02 20:16:46,072 INFO scheduler Scheduled Job Start: frappe.email.queue.flush for dev1
2021-09-02 20:16:46,354 INFO scheduler Scheduled Job Complete: frappe.email.queue.flush for dev1
2021-09-02 20:17:44,448 DEBUG scheduler Queued events for site dev1
2021-09-02 20:18:44,805 DEBUG scheduler Queued events for site dev1
2021-09-02 20:19:45,171 DEBUG scheduler Queued events for site dev1
2021-09-02 20:20:45,565 DEBUG scheduler Queued events for site dev1
2021-09-02 20:20:45,611 INFO scheduler Scheduled Job Start: frappe.monitor.flush for dev1
2021-09-02 20:20:45,857 INFO scheduler Scheduled Job Complete: frappe.monitor.flush for dev1
2021-09-02 20:20:45,941 INFO scheduler Scheduled Job Start: frappe.utils.global_search.sync_global_search for dev1
2021-09-02 20:20:46,177 INFO scheduler Scheduled Job Complete: frappe.utils.global_search.sync_global_search for dev1
2021-09-02 20:20:46,258 INFO scheduler Scheduled Job Start: frappe.integrations.doctype.razorpay_settings.razorpay_settings.capture_payment for dev1
2021-09-02 20:20:46,653 INFO scheduler Scheduled Job Complete: frappe.integrations.doctype.razorpay_settings.razorpay_settings.capture_payment for dev1
2021-09-02 20:20:46,743 INFO scheduler Scheduled Job Start: frappe.email.doctype.email_account.email_account.notify_unreplied for dev1
2021-09-02 20:20:47,059 INFO scheduler Scheduled Job Complete: frappe.email.doctype.email_account.email_account.notify_unreplied for dev1
2021-09-02 20:20:47,156 INFO scheduler Scheduled Job Start: frappe.email.doctype.email_account.email_account.pull for dev1
2021-09-02 20:20:47,495 INFO scheduler Scheduled Job Complete: frappe.email.doctype.email_account.email_account.pull for dev1
2021-09-02 20:20:47,578 INFO scheduler Scheduled Job Start: frappe.email.queue.flush for dev1
2021-09-02 20:20:47,847 INFO scheduler Scheduled Job Complete: frappe.email.queue.flush for dev1
2021-09-02 20:21:45,976 DEBUG scheduler Queued events for site dev1
2021-09-02 20:22:46,360 DEBUG scheduler Queued events for site dev1
2021-09-02 20:23:46,730 DEBUG scheduler Queued events for site dev1
2021-09-02 20:24:47,126 DEBUG scheduler Queued events for site dev1
2021-09-02 20:24:47,163 INFO scheduler Scheduled Job Start: frappe.monitor.flush for dev1
2021-09-02 20:24:47,448 INFO scheduler Scheduled Job Complete: frappe.monitor.flush for dev1
2021-09-02 20:24:47,550 INFO scheduler Scheduled Job Start: frappe.utils.global_search.sync_global_search for dev1
2021-09-02 20:24:47,808 INFO scheduler Scheduled Job Complete: frappe.utils.global_search.sync_global_search for dev1
2021-09-02 20:24:47,903 INFO scheduler Scheduled Job Start: frappe.integrations.doctype.razorpay_settings.razorpay_settings.capture_payment for dev1
2021-09-02 20:24:48,282 INFO scheduler Scheduled Job Complete: frappe.integrations.doctype.razorpay_settings.razorpay_settings.capture_payment for dev1
2021-09-02 20:24:48,380 INFO scheduler Scheduled Job Start: frappe.email.doctype.email_account.email_account.notify_unreplied for dev1
2021-09-02 20:24:48,713 INFO scheduler Scheduled Job Complete: frappe.email.doctype.email_account.email_account.notify_unreplied for dev1
2021-09-02 20:24:48,805 INFO scheduler Scheduled Job Start: frappe.email.doctype.email_account.email_account.pull for dev1
2021-09-02 20:24:49,114 INFO scheduler Scheduled Job Complete: frappe.email.doctype.email_account.email_account.pull for dev1
2021-09-02 20:24:49,216 INFO scheduler Scheduled Job Start: frappe.email.queue.flush for dev1
2021-09-02 20:24:49,486 INFO scheduler Scheduled Job Complete: frappe.email.queue.flush for dev1
2021-09-02 20:25:47,578 DEBUG scheduler Queued events for site dev1
2021-09-02 20:26:47,959 DEBUG scheduler Queued events for site dev1
2021-09-02 20:27:48,310 DEBUG scheduler Queued events for site dev1
2021-09-02 20:28:48,697 DEBUG scheduler Queued events for site dev1
2021-09-02 20:28:48,733 INFO scheduler Scheduled Job Start: frappe.monitor.flush for dev1
2021-09-02 20:28:48,984 INFO scheduler Scheduled Job Complete: frappe.monitor.flush for dev1
2021-09-02 20:28:49,075 INFO scheduler Scheduled Job Start: frappe.utils.global_search.sync_global_search for dev1
2021-09-02 20:28:49,334 INFO scheduler Scheduled Job Complete: frappe.utils.global_search.sync_global_search for dev1
2021-09-02 20:28:49,439 INFO scheduler Scheduled Job Start: frappe.integrations.doctype.razorpay_settings.razorpay_settings.capture_payment for dev1
2021-09-02 20:28:49,828 INFO scheduler Scheduled Job Complete: frappe.integrations.doctype.razorpay_settings.razorpay_settings.capture_payment for dev1
2021-09-02 20:28:49,923 INFO scheduler Scheduled Job Start: frappe.email.doctype.email_account.email_account.notify_unreplied for dev1
2021-09-02 20:28:50,247 INFO scheduler Scheduled Job Complete: frappe.email.doctype.email_account.email_account.notify_unreplied for dev1
2021-09-02 20:28:50,347 INFO scheduler Scheduled Job Start: frappe.email.doctype.email_account.email_account.pull for dev1
2021-09-02 20:28:50,686 INFO scheduler Scheduled Job Complete: frappe.email.doctype.email_account.email_account.pull for dev1
2021-09-02 20:28:50,781 INFO scheduler Scheduled Job Start: frappe.email.queue.flush for dev1
2021-09-02 20:28:51,045 INFO scheduler Scheduled Job Complete: frappe.email.queue.flush for dev1
2021-09-02 20:29:49,105 DEBUG scheduler Queued events for site dev1
2021-09-02 20:30:49,517 DEBUG scheduler Queued events for site dev1
2021-09-02 20:30:49,577 INFO scheduler Scheduled Job Start: frappe.twofactor.delete_all_barcodes_for_users for dev1
2021-09-02 20:30:49,979 INFO scheduler Scheduled Job Complete: frappe.twofactor.delete_all_barcodes_for_users for dev1
2021-09-02 20:30:50,071 INFO scheduler Scheduled Job Start: frappe.website.doctype.web_page.web_page.check_publish_status for dev1
2021-09-02 20:30:50,590 INFO scheduler Scheduled Job Complete: frappe.website.doctype.web_page.web_page.check_publish_status for dev1
2021-09-02 20:30:50,689 INFO scheduler Scheduled Job Start: frappe.oauth.delete_oauth2_data for dev1
2021-09-02 20:30:51,106 INFO scheduler Scheduled Job Complete: frappe.oauth.delete_oauth2_data for dev1
2021-09-02 20:31:49,925 DEBUG scheduler Queued events for site dev1
2021-09-02 20:32:50,341 DEBUG scheduler Queued events for site dev1
2021-09-02 20:32:50,379 INFO scheduler Scheduled Job Start: frappe.monitor.flush for dev1
2021-09-02 20:32:50,640 INFO scheduler Scheduled Job Complete: frappe.monitor.flush for dev1
2021-09-02 20:32:50,747 INFO scheduler Scheduled Job Start: frappe.utils.global_search.sync_global_search for dev1
2021-09-02 20:32:51,000 INFO scheduler Scheduled Job Complete: frappe.utils.global_search.sync_global_search for dev1
2021-09-02 20:32:51,107 INFO scheduler Scheduled Job Start: frappe.integrations.doctype.razorpay_settings.razorpay_settings.capture_payment for dev1
2021-09-02 20:32:51,505 INFO scheduler Scheduled Job Complete: frappe.integrations.doctype.razorpay_settings.razorpay_settings.capture_payment for dev1
2021-09-02 20:32:51,599 INFO scheduler Scheduled Job Start: frappe.email.doctype.email_account.email_account.notify_unreplied for dev1
2021-09-02 20:32:51,922 INFO scheduler Scheduled Job Complete: frappe.email.doctype.email_account.email_account.notify_unreplied for dev1
2021-09-02 20:32:52,029 INFO scheduler Scheduled Job Start: frappe.email.doctype.email_account.email_account.pull for dev1
2021-09-02 20:32:52,363 INFO scheduler Scheduled Job Complete: frappe.email.doctype.email_account.email_account.pull for dev1
2021-09-02 20:32:52,468 INFO scheduler Scheduled Job Start: frappe.email.queue.flush for dev1
2021-09-02 20:32:52,742 INFO scheduler Scheduled Job Complete: frappe.email.queue.flush for dev1
2021-09-02 20:33:50,774 DEBUG scheduler Queued events for site dev1
2021-09-02 20:34:51,181 DEBUG scheduler Queued events for site dev1
2021-09-02 20:35:51,543 DEBUG scheduler Queued events for site dev1
2021-09-02 20:36:51,938 DEBUG scheduler Queued events for site dev1
2021-09-02 20:36:51,973 INFO scheduler Scheduled Job Start: frappe.monitor.flush for dev1
2021-09-02 20:36:52,232 INFO scheduler Scheduled Job Complete: frappe.monitor.flush for dev1
2021-09-02 20:36:52,314 INFO scheduler Scheduled Job Start: frappe.utils.global_search.sync_global_search for dev1
2021-09-02 20:36:52,551 INFO scheduler Scheduled Job Complete: frappe.utils.global_search.sync_global_search for dev1
2021-09-02 20:36:52,635 INFO scheduler Scheduled Job Start: frappe.integrations.doctype.razorpay_settings.razorpay_settings.capture_payment for dev1
2021-09-02 20:36:53,025 INFO scheduler Scheduled Job Complete: frappe.integrations.doctype.razorpay_settings.razorpay_settings.capture_payment for dev1
2021-09-02 20:36:53,115 INFO scheduler Scheduled Job Start: frappe.email.doctype.email_account.email_account.notify_unreplied for dev1
2021-09-02 20:36:53,436 INFO scheduler Scheduled Job Complete: frappe.email.doctype.email_account.email_account.notify_unreplied for dev1
2021-09-02 20:36:53,526 INFO scheduler Scheduled Job Start: frappe.email.doctype.email_account.email_account.pull for dev1
2021-09-02 20:36:53,878 INFO scheduler Scheduled Job Complete: frappe.email.doctype.email_account.email_account.pull for dev1
2021-09-02 20:36:53,968 INFO scheduler Scheduled Job Start: frappe.email.queue.flush for dev1
2021-09-02 20:36:54,243 INFO scheduler Scheduled Job Complete: frappe.email.queue.flush for dev1
2021-09-02 20:37:52,342 DEBUG scheduler Queued events for site dev1
2021-09-02 20:38:52,749 DEBUG scheduler Queued events for site dev1
2021-09-02 20:39:53,135 DEBUG scheduler Queued events for site dev1
2021-09-02 20:40:53,558 DEBUG scheduler Queued events for site dev1
2021-09-02 20:40:53,593 INFO scheduler Scheduled Job Start: frappe.monitor.flush for dev1
2021-09-02 20:40:53,861 INFO scheduler Scheduled Job Complete: frappe.monitor.flush for dev1
2021-09-02 20:40:53,955 INFO scheduler Scheduled Job Start: frappe.utils.global_search.sync_global_search for dev1
2021-09-02 20:40:54,210 INFO scheduler Scheduled Job Complete: frappe.utils.global_search.sync_global_search for dev1
2021-09-02 20:40:54,303 INFO scheduler Scheduled Job Start: frappe.integrations.doctype.razorpay_settings.razorpay_settings.capture_payment for dev1
2021-09-02 20:40:54,688 INFO scheduler Scheduled Job Complete: frappe.integrations.doctype.razorpay_settings.razorpay_settings.capture_payment for dev1
2021-09-02 20:40:54,797 INFO scheduler Scheduled Job Start: frappe.email.doctype.email_account.email_account.notify_unreplied for dev1
2021-09-02 20:40:55,118 INFO scheduler Scheduled Job Complete: frappe.email.doctype.email_account.email_account.notify_unreplied for dev1
2021-09-02 20:40:55,217 INFO scheduler Scheduled Job Start: frappe.email.doctype.email_account.email_account.pull for dev1
2021-09-02 20:40:55,541 INFO scheduler Scheduled Job Complete: frappe.email.doctype.email_account.email_account.pull for dev1
2021-09-02 20:40:55,628 INFO scheduler Scheduled Job Start: frappe.email.queue.flush for dev1
2021-09-02 20:40:55,894 INFO scheduler Scheduled Job Complete: frappe.email.queue.flush for dev1
2021-09-02 20:41:54,004 DEBUG scheduler Queued events for site dev1
2021-09-02 20:42:54,396 DEBUG scheduler Queued events for site dev1
2021-09-02 20:43:54,781 DEBUG scheduler Queued events for site dev1
2021-09-02 20:44:55,156 DEBUG scheduler Queued events for site dev1
2021-09-02 20:44:55,203 INFO scheduler Scheduled Job Start: frappe.monitor.flush for dev1
2021-09-02 20:44:55,462 INFO scheduler Scheduled Job Complete: frappe.monitor.flush for dev1
2021-09-02 20:44:55,554 INFO scheduler Scheduled Job Start: frappe.utils.global_search.sync_global_search for dev1
2021-09-02 20:44:55,800 INFO scheduler Scheduled Job Complete: frappe.utils.global_search.sync_global_search for dev1
2021-09-02 20:44:55,896 INFO scheduler Scheduled Job Start: frappe.integrations.doctype.razorpay_settings.razorpay_settings.capture_payment for dev1
2021-09-02 20:44:56,285 INFO scheduler Scheduled Job Complete: frappe.integrations.doctype.razorpay_settings.razorpay_settings.capture_payment for dev1
2021-09-02 20:44:56,377 INFO scheduler Scheduled Job Start: frappe.email.doctype.email_account.email_account.notify_unreplied for dev1
2021-09-02 20:44:56,709 INFO scheduler Scheduled Job Complete: frappe.email.doctype.email_account.email_account.notify_unreplied for dev1
2021-09-02 20:44:56,806 INFO scheduler Scheduled Job Start: frappe.email.doctype.email_account.email_account.pull for dev1
2021-09-02 20:44:57,138 INFO scheduler Scheduled Job Complete: frappe.email.doctype.email_account.email_account.pull for dev1
2021-09-02 20:44:57,240 INFO scheduler Scheduled Job Start: frappe.email.queue.flush for dev1
2021-09-02 20:44:57,502 INFO scheduler Scheduled Job Complete: frappe.email.queue.flush for dev1
2021-09-02 20:45:55,584 DEBUG scheduler Queued events for site dev1
2021-09-02 20:45:55,647 INFO scheduler Scheduled Job Start: frappe.twofactor.delete_all_barcodes_for_users for dev1
2021-09-02 20:45:56,053 INFO scheduler Scheduled Job Complete: frappe.twofactor.delete_all_barcodes_for_users for dev1
2021-09-02 20:45:56,175 INFO scheduler Scheduled Job Start: frappe.website.doctype.web_page.web_page.check_publish_status for dev1
2021-09-02 20:45:56,622 INFO scheduler Scheduled Job Complete: frappe.website.doctype.web_page.web_page.check_publish_status for dev1
2021-09-02 20:45:56,728 INFO scheduler Scheduled Job Start: frappe.oauth.delete_oauth2_data for dev1
2021-09-02 20:45:57,140 INFO scheduler Scheduled Job Complete: frappe.oauth.delete_oauth2_data for dev1
2021-09-02 20:46:55,985 DEBUG scheduler Queued events for site dev1
2021-09-02 20:47:56,375 DEBUG scheduler Queued events for site dev1
2021-09-02 20:48:56,783 DEBUG scheduler Queued events for site dev1
2021-09-02 20:48:56,818 INFO scheduler Scheduled Job Start: frappe.monitor.flush for dev1
2021-09-02 20:48:57,130 INFO scheduler Scheduled Job Complete: frappe.monitor.flush for dev1
2021-09-02 20:48:57,229 INFO scheduler Scheduled Job Start: frappe.utils.global_search.sync_global_search for dev1
2021-09-02 20:48:57,467 INFO scheduler Scheduled Job Complete: frappe.utils.global_search.sync_global_search for dev1
2021-09-02 20:48:57,554 INFO scheduler Scheduled Job Start: frappe.integrations.doctype.razorpay_settings.razorpay_settings.capture_payment for dev1
2021-09-02 20:48:57,911 INFO scheduler Scheduled Job Complete: frappe.integrations.doctype.razorpay_settings.razorpay_settings.capture_payment for dev1
2021-09-02 20:48:58,009 INFO scheduler Scheduled Job Start: frappe.email.doctype.email_account.email_account.notify_unreplied for dev1
2021-09-02 20:48:58,335 INFO scheduler Scheduled Job Complete: frappe.email.doctype.email_account.email_account.notify_unreplied for dev1
2021-09-02 20:48:58,424 INFO scheduler Scheduled Job Start: frappe.email.doctype.email_account.email_account.pull for dev1
2021-09-02 20:48:58,772 INFO scheduler Scheduled Job Complete: frappe.email.doctype.email_account.email_account.pull for dev1
2021-09-02 20:48:58,870 INFO scheduler Scheduled Job Start: frappe.email.queue.flush for dev1
2021-09-02 20:48:59,141 INFO scheduler Scheduled Job Complete: frappe.email.queue.flush for dev1
2021-09-02 20:49:57,268 DEBUG scheduler Queued events for site dev1
2021-09-02 20:50:57,676 DEBUG scheduler Queued events for site dev1
2021-09-02 20:51:58,033 DEBUG scheduler Queued events for site dev1
2021-09-02 20:52:58,428 DEBUG scheduler Queued events for site dev1
2021-09-02 20:52:58,463 INFO scheduler Scheduled Job Start: frappe.monitor.flush for dev1
2021-09-02 20:52:58,717 INFO scheduler Scheduled Job Complete: frappe.monitor.flush for dev1
2021-09-02 20:52:58,810 INFO scheduler Scheduled Job Start: frappe.utils.global_search.sync_global_search for dev1
2021-09-02 20:52:59,059 INFO scheduler Scheduled Job Complete: frappe.utils.global_search.sync_global_search for dev1
2021-09-02 20:52:59,159 INFO scheduler Scheduled Job Start: frappe.integrations.doctype.razorpay_settings.razorpay_settings.capture_payment for dev1
2021-09-02 20:52:59,555 INFO scheduler Scheduled Job Complete: frappe.integrations.doctype.razorpay_settings.razorpay_settings.capture_payment for dev1
2021-09-02 20:52:59,655 INFO scheduler Scheduled Job Start: frappe.email.doctype.email_account.email_account.notify_unreplied for dev1
2021-09-02 20:52:59,976 INFO scheduler Scheduled Job Complete: frappe.email.doctype.email_account.email_account.notify_unreplied for dev1
2021-09-02 20:53:00,075 INFO scheduler Scheduled Job Start: frappe.email.doctype.email_account.email_account.pull for dev1
2021-09-02 20:53:00,422 INFO scheduler Scheduled Job Complete: frappe.email.doctype.email_account.email_account.pull for dev1
2021-09-02 20:53:00,518 INFO scheduler Scheduled Job Start: frappe.email.queue.flush for dev1
2021-09-02 20:53:00,786 INFO scheduler Scheduled Job Complete: frappe.email.queue.flush for dev1
2021-09-02 20:53:58,832 DEBUG scheduler Queued events for site dev1
2021-09-02 20:54:59,248 DEBUG scheduler Queued events for site dev1
2021-09-02 20:55:59,622 DEBUG scheduler Queued events for site dev1
2021-09-02 20:57:00,064 DEBUG scheduler Queued events for site dev1
2021-09-02 20:57:00,112 INFO scheduler Scheduled Job Start: frappe.monitor.flush for dev1
2021-09-02 20:57:00,382 INFO scheduler Scheduled Job Complete: frappe.monitor.flush for dev1
2021-09-02 20:57:00,479 INFO scheduler Scheduled Job Start: frappe.utils.global_search.sync_global_search for dev1
2021-09-02 20:57:00,722 INFO scheduler Scheduled Job Complete: frappe.utils.global_search.sync_global_search for dev1
2021-09-02 20:57:00,817 INFO scheduler Scheduled Job Start: frappe.integrations.doctype.razorpay_settings.razorpay_settings.capture_payment for dev1
2021-09-02 20:57:01,257 INFO scheduler Scheduled Job Complete: frappe.integrations.doctype.razorpay_settings.razorpay_settings.capture_payment for dev1
2021-09-02 20:57:01,351 INFO scheduler Scheduled Job Start: frappe.email.doctype.email_account.email_account.notify_unreplied for dev1
2021-09-02 20:57:01,680 INFO scheduler Scheduled Job Complete: frappe.email.doctype.email_account.email_account.notify_unreplied for dev1
2021-09-02 20:57:01,782 INFO scheduler Scheduled Job Start: frappe.email.doctype.email_account.email_account.pull for dev1
2021-09-02 20:57:02,099 INFO scheduler Scheduled Job Complete: frappe.email.doctype.email_account.email_account.pull for dev1
2021-09-02 20:57:02,196 INFO scheduler Scheduled Job Start: frappe.email.queue.flush for dev1
2021-09-02 20:57:02,463 INFO scheduler Scheduled Job Complete: frappe.email.queue.flush for dev1
2021-09-02 20:58:00,509 DEBUG scheduler Queued events for site dev1
2021-09-02 20:59:00,912 DEBUG scheduler Queued events for site dev1
2021-09-02 21:00:01,322 INFO scheduler Scheduled Job Start: frappe.email.doctype.newsletter.newsletter.send_scheduled_email for dev1
2021-09-02 21:00:01,378 DEBUG scheduler Queued events for site dev1
2021-09-02 21:00:01,833 INFO scheduler Scheduled Job Complete: frappe.email.doctype.newsletter.newsletter.send_scheduled_email for dev1
2021-09-02 21:00:01,949 INFO scheduler Scheduled Job Start: frappe.integrations.doctype.google_calendar.google_calendar.sync for dev1
2021-09-02 21:00:02,540 INFO scheduler Scheduled Job Complete: frappe.integrations.doctype.google_calendar.google_calendar.sync for dev1
2021-09-02 21:00:02,658 INFO scheduler Scheduled Job Start: frappe.desk.form.document_follow.send_hourly_updates for dev1
2021-09-02 21:00:03,045 INFO scheduler Scheduled Job Complete: frappe.desk.form.document_follow.send_hourly_updates for dev1
2021-09-02 21:00:03,145 INFO scheduler Scheduled Job Start: frappe.deferred_insert.save_to_db for dev1
2021-09-02 21:00:03,526 INFO scheduler Scheduled Job Complete: frappe.deferred_insert.save_to_db for dev1
2021-09-02 21:00:03,635 INFO scheduler Scheduled Job Start: frappe.desk.page.backups.backups.delete_downloadable_backups for dev1
2021-09-02 21:00:04,009 INFO scheduler Scheduled Job Complete: frappe.desk.page.backups.backups.delete_downloadable_backups for dev1
2021-09-02 21:00:04,110 INFO scheduler Scheduled Job Start: frappe.utils.error.collect_error_snapshots for dev1
2021-09-02 21:00:04,526 INFO scheduler Scheduled Job Complete: frappe.utils.error.collect_error_snapshots for dev1
2021-09-02 21:00:04,640 INFO scheduler Scheduled Job Start: frappe.model.utils.user_settings.sync_user_settings for dev1
2021-09-02 21:00:05,004 INFO scheduler Scheduled Job Complete: frappe.model.utils.user_settings.sync_user_settings for dev1
2021-09-02 21:00:05,101 INFO scheduler Scheduled Job Start: frappe.model.utils.link_count.update_link_count for dev1
2021-09-02 21:00:05,468 INFO scheduler Scheduled Job Complete: frappe.model.utils.link_count.update_link_count for dev1
2021-09-02 21:00:05,563 INFO scheduler Scheduled Job Start: frappe.monitor.flush for dev1
2021-09-02 21:00:05,793 INFO scheduler Scheduled Job Complete: frappe.monitor.flush for dev1
2021-09-02 21:00:05,896 INFO scheduler Scheduled Job Start: frappe.utils.global_search.sync_global_search for dev1
2021-09-02 21:00:06,128 INFO scheduler Scheduled Job Complete: frappe.utils.global_search.sync_global_search for dev1
2021-09-02 21:00:06,244 INFO scheduler Scheduled Job Start: frappe.integrations.doctype.razorpay_settings.razorpay_settings.capture_payment for dev1
2021-09-02 21:00:06,667 INFO scheduler Scheduled Job Complete: frappe.integrations.doctype.razorpay_settings.razorpay_settings.capture_payment for dev1
2021-09-02 21:00:06,758 INFO scheduler Scheduled Job Start: frappe.email.doctype.email_account.email_account.notify_unreplied for dev1
2021-09-02 21:00:07,054 INFO scheduler Scheduled Job Complete: frappe.email.doctype.email_account.email_account.notify_unreplied for dev1
2021-09-02 21:00:07,148 INFO scheduler Scheduled Job Start: frappe.email.doctype.email_account.email_account.pull for dev1
2021-09-02 21:00:07,510 INFO scheduler Scheduled Job Complete: frappe.email.doctype.email_account.email_account.pull for dev1
2021-09-02 21:00:07,614 INFO scheduler Scheduled Job Start: frappe.email.queue.flush for dev1
2021-09-02 21:00:07,893 INFO scheduler Scheduled Job Complete: frappe.email.queue.flush for dev1
2021-09-02 21:00:07,984 INFO scheduler Scheduled Job Start: frappe.twofactor.delete_all_barcodes_for_users for dev1
2021-09-02 21:00:08,385 INFO scheduler Scheduled Job Complete: frappe.twofactor.delete_all_barcodes_for_users for dev1
2021-09-02 21:00:08,487 INFO scheduler Scheduled Job Start: frappe.website.doctype.web_page.web_page.check_publish_status for dev1
2021-09-02 21:00:08,904 INFO scheduler Scheduled Job Complete: frappe.website.doctype.web_page.web_page.check_publish_status for dev1
2021-09-02 21:00:09,011 INFO scheduler Scheduled Job Start: frappe.oauth.delete_oauth2_data for dev1
2021-09-02 21:00:09,414 INFO scheduler Scheduled Job Complete: frappe.oauth.delete_oauth2_data for dev1
2021-09-02 21:01:01,988 DEBUG scheduler Queued events for site dev1
2021-09-02 21:02:02,387 DEBUG scheduler Queued events for site dev1
2021-09-02 21:03:02,756 DEBUG scheduler Queued events for site dev1
2021-09-02 21:04:03,120 DEBUG scheduler Queued events for site dev1
2021-09-02 21:04:03,159 INFO scheduler Scheduled Job Start: frappe.monitor.flush for dev1
2021-09-02 21:04:03,428 INFO scheduler Scheduled Job Complete: frappe.monitor.flush for dev1
2021-09-02 21:04:03,514 INFO scheduler Scheduled Job Start: frappe.utils.global_search.sync_global_search for dev1
2021-09-02 21:04:03,777 INFO scheduler Scheduled Job Complete: frappe.utils.global_search.sync_global_search for dev1
2021-09-02 21:04:03,858 INFO scheduler Scheduled Job Start: frappe.integrations.doctype.razorpay_settings.razorpay_settings.capture_payment for dev1
2021-09-02 21:04:04,257 INFO scheduler Scheduled Job Complete: frappe.integrations.doctype.razorpay_settings.razorpay_settings.capture_payment for dev1
2021-09-02 21:04:04,356 INFO scheduler Scheduled Job Start: frappe.email.doctype.email_account.email_account.notify_unreplied for dev1
2021-09-02 21:04:04,685 INFO scheduler Scheduled Job Complete: frappe.email.doctype.email_account.email_account.notify_unreplied for dev1
2021-09-02 21:04:04,773 INFO scheduler Scheduled Job Start: frappe.email.doctype.email_account.email_account.pull for dev1
2021-09-02 21:04:05,100 INFO scheduler Scheduled Job Complete: frappe.email.doctype.email_account.email_account.pull for dev1
2021-09-02 21:04:05,199 INFO scheduler Scheduled Job Start: frappe.email.queue.flush for dev1
2021-09-02 21:04:05,448 INFO scheduler Scheduled Job Complete: frappe.email.queue.flush for dev1
2021-09-02 21:05:03,569 DEBUG scheduler Queued events for site dev1
2021-09-02 21:06:03,948 DEBUG scheduler Queued events for site dev1
2021-09-02 21:07:04,297 DEBUG scheduler Queued events for site dev1
2021-09-02 21:08:04,720 DEBUG scheduler Queued events for site dev1
2021-09-02 21:08:04,764 INFO scheduler Scheduled Job Start: frappe.monitor.flush for dev1
2021-09-02 21:08:05,017 INFO scheduler Scheduled Job Complete: frappe.monitor.flush for dev1
2021-09-02 21:08:05,110 INFO scheduler Scheduled Job Start: frappe.utils.global_search.sync_global_search for dev1
2021-09-02 21:08:05,380 INFO scheduler Scheduled Job Complete: frappe.utils.global_search.sync_global_search for dev1
2021-09-02 21:08:05,470 INFO scheduler Scheduled Job Start: frappe.integrations.doctype.razorpay_settings.razorpay_settings.capture_payment for dev1
2021-09-02 21:08:05,876 INFO scheduler Scheduled Job Complete: frappe.integrations.doctype.razorpay_settings.razorpay_settings.capture_payment for dev1
2021-09-02 21:08:05,972 INFO scheduler Scheduled Job Start: frappe.email.doctype.email_account.email_account.notify_unreplied for dev1
2021-09-02 21:08:06,289 INFO scheduler Scheduled Job Complete: frappe.email.doctype.email_account.email_account.notify_unreplied for dev1
2021-09-02 21:08:06,389 INFO scheduler Scheduled Job Start: frappe.email.doctype.email_account.email_account.pull for dev1
2021-09-02 21:08:06,716 INFO scheduler Scheduled Job Complete: frappe.email.doctype.email_account.email_account.pull for dev1
2021-09-02 21:08:06,802 INFO scheduler Scheduled Job Start: frappe.email.queue.flush for dev1
2021-09-02 21:08:07,056 INFO scheduler Scheduled Job Complete: frappe.email.queue.flush for dev1
2021-09-02 21:09:05,151 DEBUG scheduler Queued events for site dev1
2021-09-02 21:10:05,565 DEBUG scheduler Queued events for site dev1
2021-09-02 21:11:05,929 DEBUG scheduler Queued events for site dev1
2021-09-02 21:12:06,336 DEBUG scheduler Queued events for site dev1
2021-09-02 21:12:06,374 INFO scheduler Scheduled Job Start: frappe.monitor.flush for dev1
2021-09-02 21:12:06,691 INFO scheduler Scheduled Job Complete: frappe.monitor.flush for dev1
2021-09-02 21:12:06,788 INFO scheduler Scheduled Job Start: frappe.utils.global_search.sync_global_search for dev1
2021-09-02 21:12:07,062 INFO scheduler Scheduled Job Complete: frappe.utils.global_search.sync_global_search for dev1
2021-09-02 21:12:07,151 INFO scheduler Scheduled Job Start: frappe.integrations.doctype.razorpay_settings.razorpay_settings.capture_payment for dev1
2021-09-02 21:12:07,550 INFO scheduler Scheduled Job Complete: frappe.integrations.doctype.razorpay_settings.razorpay_settings.capture_payment for dev1
2021-09-02 21:12:07,633 INFO scheduler Scheduled Job Start: frappe.email.doctype.email_account.email_account.notify_unreplied for dev1
2021-09-02 21:12:07,951 INFO scheduler Scheduled Job Complete: frappe.email.doctype.email_account.email_account.notify_unreplied for dev1
2021-09-02 21:12:08,050 INFO scheduler Scheduled Job Start: frappe.email.doctype.email_account.email_account.pull for dev1
2021-09-02 21:12:08,394 INFO scheduler Scheduled Job Complete: frappe.email.doctype.email_account.email_account.pull for dev1
2021-09-02 21:12:08,486 INFO scheduler Scheduled Job Start: frappe.email.queue.flush for dev1
2021-09-02 21:12:08,737 INFO scheduler Scheduled Job Complete: frappe.email.queue.flush for dev1
2021-09-02 21:13:06,820 DEBUG scheduler Queued events for site dev1
2021-09-02 21:14:07,208 DEBUG scheduler Queued events for site dev1
2021-09-02 21:15:07,619 DEBUG scheduler Queued events for site dev1
2021-09-02 21:15:07,680 INFO scheduler Scheduled Job Start: frappe.twofactor.delete_all_barcodes_for_users for dev1
2021-09-02 21:15:08,084 INFO scheduler Scheduled Job Complete: frappe.twofactor.delete_all_barcodes_for_users for dev1
2021-09-02 21:15:08,198 INFO scheduler Scheduled Job Start: frappe.website.doctype.web_page.web_page.check_publish_status for dev1
2021-09-02 21:15:08,666 INFO scheduler Scheduled Job Complete: frappe.website.doctype.web_page.web_page.check_publish_status for dev1
2021-09-02 21:15:08,756 INFO scheduler Scheduled Job Start: frappe.oauth.delete_oauth2_data for dev1
2021-09-02 21:15:09,141 INFO scheduler Scheduled Job Complete: frappe.oauth.delete_oauth2_data for dev1
2021-09-02 21:16:08,046 DEBUG scheduler Queued events for site dev1
2021-09-02 21:16:08,091 INFO scheduler Scheduled Job Start: frappe.monitor.flush for dev1
2021-09-02 21:16:08,374 INFO scheduler Scheduled Job Complete: frappe.monitor.flush for dev1
2021-09-02 21:16:08,465 INFO scheduler Scheduled Job Start: frappe.utils.global_search.sync_global_search for dev1
2021-09-02 21:16:08,723 INFO scheduler Scheduled Job Complete: frappe.utils.global_search.sync_global_search for dev1
2021-09-02 21:16:08,814 INFO scheduler Scheduled Job Start: frappe.integrations.doctype.razorpay_settings.razorpay_settings.capture_payment for dev1
2021-09-02 21:16:09,212 INFO scheduler Scheduled Job Complete: frappe.integrations.doctype.razorpay_settings.razorpay_settings.capture_payment for dev1
2021-09-02 21:16:09,304 INFO scheduler Scheduled Job Start: frappe.email.doctype.email_account.email_account.notify_unreplied for dev1
2021-09-02 21:16:09,607 INFO scheduler Scheduled Job Complete: frappe.email.doctype.email_account.email_account.notify_unreplied for dev1
2021-09-02 21:16:09,703 INFO scheduler Scheduled Job Start: frappe.email.doctype.email_account.email_account.pull for dev1
2021-09-02 21:16:10,048 INFO scheduler Scheduled Job Complete: frappe.email.doctype.email_account.email_account.pull for dev1
2021-09-02 21:16:10,133 INFO scheduler Scheduled Job Start: frappe.email.queue.flush for dev1
2021-09-02 21:16:10,415 INFO scheduler Scheduled Job Complete: frappe.email.queue.flush for dev1
2021-09-02 21:17:08,512 DEBUG scheduler Queued events for site dev1
2021-09-02 21:18:08,875 DEBUG scheduler Queued events for site dev1
2021-09-02 21:19:09,218 DEBUG scheduler Queued events for site dev1
2021-09-02 21:20:09,601 DEBUG scheduler Queued events for site dev1
2021-09-02 21:20:09,636 INFO scheduler Scheduled Job Start: frappe.monitor.flush for dev1
2021-09-02 21:20:09,961 INFO scheduler Scheduled Job Complete: frappe.monitor.flush for dev1
2021-09-02 21:20:10,059 INFO scheduler Scheduled Job Start: frappe.utils.global_search.sync_global_search for dev1
2021-09-02 21:20:10,311 INFO scheduler Scheduled Job Complete: frappe.utils.global_search.sync_global_search for dev1
2021-09-02 21:20:10,412 INFO scheduler Scheduled Job Start: frappe.integrations.doctype.razorpay_settings.razorpay_settings.capture_payment for dev1
2021-09-02 21:20:10,778 INFO scheduler Scheduled Job Complete: frappe.integrations.doctype.razorpay_settings.razorpay_settings.capture_payment for dev1
2021-09-02 21:20:10,887 INFO scheduler Scheduled Job Start: frappe.email.doctype.email_account.email_account.notify_unreplied for dev1
2021-09-02 21:20:11,216 INFO scheduler Scheduled Job Complete: frappe.email.doctype.email_account.email_account.notify_unreplied for dev1
2021-09-02 21:20:11,302 INFO scheduler Scheduled Job Start: frappe.email.doctype.email_account.email_account.pull for dev1
2021-09-02 21:20:11,616 INFO scheduler Scheduled Job Complete: frappe.email.doctype.email_account.email_account.pull for dev1
2021-09-02 21:20:11,722 INFO scheduler Scheduled Job Start: frappe.email.queue.flush for dev1
2021-09-02 21:20:11,986 INFO scheduler Scheduled Job Complete: frappe.email.queue.flush for dev1
2021-09-02 21:21:10,004 DEBUG scheduler Queued events for site dev1
2021-09-02 21:22:10,390 DEBUG scheduler Queued events for site dev1
2021-09-02 21:23:10,733 DEBUG scheduler Queued events for site dev1
2021-09-02 21:24:11,109 DEBUG scheduler Queued events for site dev1
2021-09-02 21:24:11,154 INFO scheduler Scheduled Job Start: frappe.monitor.flush for dev1
2021-09-02 21:24:11,470 INFO scheduler Scheduled Job Complete: frappe.monitor.flush for dev1
2021-09-02 21:24:11,563 INFO scheduler Scheduled Job Start: frappe.utils.global_search.sync_global_search for dev1
2021-09-02 21:24:11,809 INFO scheduler Scheduled Job Complete: frappe.utils.global_search.sync_global_search for dev1
2021-09-02 21:24:11,910 INFO scheduler Scheduled Job Start: frappe.integrations.doctype.razorpay_settings.razorpay_settings.capture_payment for dev1
2021-09-02 21:24:12,299 INFO scheduler Scheduled Job Complete: frappe.integrations.doctype.razorpay_settings.razorpay_settings.capture_payment for dev1
2021-09-02 21:24:12,410 INFO scheduler Scheduled Job Start: frappe.email.doctype.email_account.email_account.notify_unreplied for dev1
2021-09-02 21:24:12,712 INFO scheduler Scheduled Job Complete: frappe.email.doctype.email_account.email_account.notify_unreplied for dev1
2021-09-02 21:24:12,805 INFO scheduler Scheduled Job Start: frappe.email.doctype.email_account.email_account.pull for dev1
2021-09-02 21:24:13,113 INFO scheduler Scheduled Job Complete: frappe.email.doctype.email_account.email_account.pull for dev1
2021-09-02 21:24:13,207 INFO scheduler Scheduled Job Start: frappe.email.queue.flush for dev1
2021-09-02 21:24:13,464 INFO scheduler Scheduled Job Complete: frappe.email.queue.flush for dev1
2021-09-02 21:25:11,618 DEBUG scheduler Queued events for site dev1
2021-09-02 21:26:12,003 DEBUG scheduler Queued events for site dev1
2021-09-02 21:27:12,363 DEBUG scheduler Queued events for site dev1
2021-09-02 21:28:12,764 DEBUG scheduler Queued events for site dev1
2021-09-02 21:28:12,804 INFO scheduler Scheduled Job Start: frappe.monitor.flush for dev1
2021-09-02 21:28:13,123 INFO scheduler Scheduled Job Complete: frappe.monitor.flush for dev1
2021-09-02 21:28:13,218 INFO scheduler Scheduled Job Start: frappe.utils.global_search.sync_global_search for dev1
2021-09-02 21:28:13,466 INFO scheduler Scheduled Job Complete: frappe.utils.global_search.sync_global_search for dev1
2021-09-02 21:28:13,576 INFO scheduler Scheduled Job Start: frappe.integrations.doctype.razorpay_settings.razorpay_settings.capture_payment for dev1
2021-09-02 21:28:13,962 INFO scheduler Scheduled Job Complete: frappe.integrations.doctype.razorpay_settings.razorpay_settings.capture_payment for dev1
2021-09-02 21:28:14,046 INFO scheduler Scheduled Job Start: frappe.email.doctype.email_account.email_account.notify_unreplied for dev1
2021-09-02 21:28:14,373 INFO scheduler Scheduled Job Complete: frappe.email.doctype.email_account.email_account.notify_unreplied for dev1
2021-09-02 21:28:14,460 INFO scheduler Scheduled Job Start: frappe.email.doctype.email_account.email_account.pull for dev1
2021-09-02 21:28:14,778 INFO scheduler Scheduled Job Complete: frappe.email.doctype.email_account.email_account.pull for dev1
2021-09-02 21:28:14,872 INFO scheduler Scheduled Job Start: frappe.email.queue.flush for dev1
2021-09-02 21:28:15,141 INFO scheduler Scheduled Job Complete: frappe.email.queue.flush for dev1
2021-09-02 21:29:13,237 DEBUG scheduler Queued events for site dev1
2021-09-02 21:30:13,679 DEBUG scheduler Queued events for site dev1
2021-09-02 21:30:13,756 INFO scheduler Scheduled Job Start: frappe.twofactor.delete_all_barcodes_for_users for dev1
2021-09-02 21:30:14,190 INFO scheduler Scheduled Job Complete: frappe.twofactor.delete_all_barcodes_for_users for dev1
2021-09-02 21:30:14,284 INFO scheduler Scheduled Job Start: frappe.website.doctype.web_page.web_page.check_publish_status for dev1
2021-09-02 21:30:14,732 INFO scheduler Scheduled Job Complete: frappe.website.doctype.web_page.web_page.check_publish_status for dev1
2021-09-02 21:30:14,829 INFO scheduler Scheduled Job Start: frappe.oauth.delete_oauth2_data for dev1
2021-09-02 21:30:15,244 INFO scheduler Scheduled Job Complete: frappe.oauth.delete_oauth2_data for dev1
2021-09-02 21:31:14,111 DEBUG scheduler Queued events for site dev1
2021-09-02 21:32:14,549 DEBUG scheduler Queued events for site dev1
2021-09-02 21:32:14,592 INFO scheduler Scheduled Job Start: frappe.monitor.flush for dev1
2021-09-02 21:32:14,845 INFO scheduler Scheduled Job Complete: frappe.monitor.flush for dev1
2021-09-02 21:32:14,950 INFO scheduler Scheduled Job Start: frappe.utils.global_search.sync_global_search for dev1
2021-09-02 21:32:15,226 INFO scheduler Scheduled Job Complete: frappe.utils.global_search.sync_global_search for dev1
2021-09-02 21:32:15,307 INFO scheduler Scheduled Job Start: frappe.integrations.doctype.razorpay_settings.razorpay_settings.capture_payment for dev1
2021-09-02 21:32:15,702 INFO scheduler Scheduled Job Complete: frappe.integrations.doctype.razorpay_settings.razorpay_settings.capture_payment for dev1
2021-09-02 21:32:15,800 INFO scheduler Scheduled Job Start: frappe.email.doctype.email_account.email_account.notify_unreplied for dev1
2021-09-02 21:32:16,132 INFO scheduler Scheduled Job Complete: frappe.email.doctype.email_account.email_account.notify_unreplied for dev1
2021-09-02 21:32:16,235 INFO scheduler Scheduled Job Start: frappe.email.doctype.email_account.email_account.pull for dev1
2021-09-02 21:32:16,554 INFO scheduler Scheduled Job Complete: frappe.email.doctype.email_account.email_account.pull for dev1
2021-09-02 21:32:16,649 INFO scheduler Scheduled Job Start: frappe.email.queue.flush for dev1
2021-09-02 21:32:16,922 INFO scheduler Scheduled Job Complete: frappe.email.queue.flush for dev1
2021-09-02 21:33:14,968 DEBUG scheduler Queued events for site dev1
2021-09-02 21:34:15,364 DEBUG scheduler Queued events for site dev1
2021-09-02 21:35:15,714 DEBUG scheduler Queued events for site dev1
2021-09-02 21:36:16,117 DEBUG scheduler Queued events for site dev1
2021-09-02 21:36:16,157 INFO scheduler Scheduled Job Start: frappe.monitor.flush for dev1
2021-09-02 21:36:16,434 INFO scheduler Scheduled Job Complete: frappe.monitor.flush for dev1
2021-09-02 21:36:16,531 INFO scheduler Scheduled Job Start: frappe.utils.global_search.sync_global_search for dev1
2021-09-02 21:36:16,796 INFO scheduler Scheduled Job Complete: frappe.utils.global_search.sync_global_search for dev1
2021-09-02 21:36:16,898 INFO scheduler Scheduled Job Start: frappe.integrations.doctype.razorpay_settings.razorpay_settings.capture_payment for dev1
2021-09-02 21:36:17,311 INFO scheduler Scheduled Job Complete: frappe.integrations.doctype.razorpay_settings.razorpay_settings.capture_payment for dev1
2021-09-02 21:36:17,406 INFO scheduler Scheduled Job Start: frappe.email.doctype.email_account.email_account.notify_unreplied for dev1
2021-09-02 21:36:17,710 INFO scheduler Scheduled Job Complete: frappe.email.doctype.email_account.email_account.notify_unreplied for dev1
2021-09-02 21:36:17,810 INFO scheduler Scheduled Job Start: frappe.email.doctype.email_account.email_account.pull for dev1
2021-09-02 21:36:18,173 INFO scheduler Scheduled Job Complete: frappe.email.doctype.email_account.email_account.pull for dev1
2021-09-02 21:36:18,264 INFO scheduler Scheduled Job Start: frappe.email.queue.flush for dev1
2021-09-02 21:36:18,513 INFO scheduler Scheduled Job Complete: frappe.email.queue.flush for dev1
2021-09-02 21:37:16,555 DEBUG scheduler Queued events for site dev1
2021-09-02 21:38:16,951 DEBUG scheduler Queued events for site dev1
2021-09-02 21:39:17,321 DEBUG scheduler Queued events for site dev1
2021-09-02 21:40:17,727 DEBUG scheduler Queued events for site dev1
2021-09-02 21:40:17,766 INFO scheduler Scheduled Job Start: frappe.monitor.flush for dev1
2021-09-02 21:40:18,041 INFO scheduler Scheduled Job Complete: frappe.monitor.flush for dev1
2021-09-02 21:40:18,129 INFO scheduler Scheduled Job Start: frappe.utils.global_search.sync_global_search for dev1
2021-09-02 21:40:18,391 INFO scheduler Scheduled Job Complete: frappe.utils.global_search.sync_global_search for dev1
2021-09-02 21:40:18,485 INFO scheduler Scheduled Job Start: frappe.integrations.doctype.razorpay_settings.razorpay_settings.capture_payment for dev1
2021-09-02 21:40:18,886 INFO scheduler Scheduled Job Complete: frappe.integrations.doctype.razorpay_settings.razorpay_settings.capture_payment for dev1
2021-09-02 21:40:18,981 INFO scheduler Scheduled Job Start: frappe.email.doctype.email_account.email_account.notify_unreplied for dev1
2021-09-02 21:40:19,303 INFO scheduler Scheduled Job Complete: frappe.email.doctype.email_account.email_account.notify_unreplied for dev1
2021-09-02 21:40:19,392 INFO scheduler Scheduled Job Start: frappe.email.doctype.email_account.email_account.pull for dev1
2021-09-02 21:40:19,732 INFO scheduler Scheduled Job Complete: frappe.email.doctype.email_account.email_account.pull for dev1
2021-09-02 21:40:19,832 INFO scheduler Scheduled Job Start: frappe.email.queue.flush for dev1
2021-09-02 21:40:20,103 INFO scheduler Scheduled Job Complete: frappe.email.queue.flush for dev1
2021-09-02 21:41:18,181 DEBUG scheduler Queued events for site dev1
2021-09-02 21:42:18,568 DEBUG scheduler Queued events for site dev1
2021-09-02 21:43:18,943 DEBUG scheduler Queued events for site dev1
2021-09-02 21:44:19,337 DEBUG scheduler Queued events for site dev1
2021-09-02 21:44:19,374 INFO scheduler Scheduled Job Start: frappe.monitor.flush for dev1
2021-09-02 21:44:19,624 INFO scheduler Scheduled Job Complete: frappe.monitor.flush for dev1
2021-09-02 21:44:19,715 INFO scheduler Scheduled Job Start: frappe.utils.global_search.sync_global_search for dev1
2021-09-02 21:44:19,974 INFO scheduler Scheduled Job Complete: frappe.utils.global_search.sync_global_search for dev1
2021-09-02 21:44:20,063 INFO scheduler Scheduled Job Start: frappe.integrations.doctype.razorpay_settings.razorpay_settings.capture_payment for dev1
2021-09-02 21:44:20,449 INFO scheduler Scheduled Job Complete: frappe.integrations.doctype.razorpay_settings.razorpay_settings.capture_payment for dev1
2021-09-02 21:44:20,538 INFO scheduler Scheduled Job Start: frappe.email.doctype.email_account.email_account.notify_unreplied for dev1
2021-09-02 21:44:20,857 INFO scheduler Scheduled Job Complete: frappe.email.doctype.email_account.email_account.notify_unreplied for dev1
2021-09-02 21:44:20,951 INFO scheduler Scheduled Job Start: frappe.email.doctype.email_account.email_account.pull for dev1
2021-09-02 21:44:21,308 INFO scheduler Scheduled Job Complete: frappe.email.doctype.email_account.email_account.pull for dev1
2021-09-02 21:44:21,411 INFO scheduler Scheduled Job Start: frappe.email.queue.flush for dev1
2021-09-02 21:44:21,672 INFO scheduler Scheduled Job Complete: frappe.email.queue.flush for dev1
2021-09-02 21:45:19,785 DEBUG scheduler Queued events for site dev1
2021-09-02 21:45:19,868 INFO scheduler Scheduled Job Start: frappe.twofactor.delete_all_barcodes_for_users for dev1
2021-09-02 21:45:20,277 INFO scheduler Scheduled Job Complete: frappe.twofactor.delete_all_barcodes_for_users for dev1
2021-09-02 21:45:20,376 INFO scheduler Scheduled Job Start: frappe.website.doctype.web_page.web_page.check_publish_status for dev1
2021-09-02 21:45:20,828 INFO scheduler Scheduled Job Complete: frappe.website.doctype.web_page.web_page.check_publish_status for dev1
2021-09-02 21:45:20,925 INFO scheduler Scheduled Job Start: frappe.oauth.delete_oauth2_data for dev1
2021-09-02 21:45:21,326 INFO scheduler Scheduled Job Complete: frappe.oauth.delete_oauth2_data for dev1
2021-09-02 21:46:20,239 DEBUG scheduler Queued events for site dev1
2021-09-02 21:47:20,627 DEBUG scheduler Queued events for site dev1
2021-09-02 21:48:21,034 DEBUG scheduler Queued events for site dev1
2021-09-02 21:48:21,073 INFO scheduler Scheduled Job Start: frappe.monitor.flush for dev1
2021-09-02 21:48:21,339 INFO scheduler Scheduled Job Complete: frappe.monitor.flush for dev1
2021-09-02 21:48:21,431 INFO scheduler Scheduled Job Start: frappe.utils.global_search.sync_global_search for dev1
2021-09-02 21:48:21,672 INFO scheduler Scheduled Job Complete: frappe.utils.global_search.sync_global_search for dev1
2021-09-02 21:48:21,769 INFO scheduler Scheduled Job Start: frappe.integrations.doctype.razorpay_settings.razorpay_settings.capture_payment for dev1
2021-09-02 21:48:22,159 INFO scheduler Scheduled Job Complete: frappe.integrations.doctype.razorpay_settings.razorpay_settings.capture_payment for dev1
2021-09-02 21:48:22,269 INFO scheduler Scheduled Job Start: frappe.email.doctype.email_account.email_account.notify_unreplied for dev1
2021-09-02 21:48:22,575 INFO scheduler Scheduled Job Complete: frappe.email.doctype.email_account.email_account.notify_unreplied for dev1
2021-09-02 21:48:22,663 INFO scheduler Scheduled Job Start: frappe.email.doctype.email_account.email_account.pull for dev1
2021-09-02 21:48:23,018 INFO scheduler Scheduled Job Complete: frappe.email.doctype.email_account.email_account.pull for dev1
2021-09-02 21:48:23,110 INFO scheduler Scheduled Job Start: frappe.email.queue.flush for dev1
2021-09-02 21:48:23,399 INFO scheduler Scheduled Job Complete: frappe.email.queue.flush for dev1
2021-09-02 21:49:21,453 DEBUG scheduler Queued events for site dev1
2021-09-02 21:50:21,884 DEBUG scheduler Queued events for site dev1
2021-09-02 21:51:22,256 DEBUG scheduler Queued events for site dev1
2021-09-02 21:52:22,635 DEBUG scheduler Queued events for site dev1
2021-09-02 21:52:22,681 INFO scheduler Scheduled Job Start: frappe.monitor.flush for dev1
2021-09-02 21:52:22,947 INFO scheduler Scheduled Job Complete: frappe.monitor.flush for dev1
2021-09-02 21:52:23,037 INFO scheduler Scheduled Job Start: frappe.utils.global_search.sync_global_search for dev1
2021-09-02 21:52:23,311 INFO scheduler Scheduled Job Complete: frappe.utils.global_search.sync_global_search for dev1
2021-09-02 21:52:23,400 INFO scheduler Scheduled Job Start: frappe.integrations.doctype.razorpay_settings.razorpay_settings.capture_payment for dev1
2021-09-02 21:52:23,807 INFO scheduler Scheduled Job Complete: frappe.integrations.doctype.razorpay_settings.razorpay_settings.capture_payment for dev1
2021-09-02 21:52:23,898 INFO scheduler Scheduled Job Start: frappe.email.doctype.email_account.email_account.notify_unreplied for dev1
2021-09-02 21:52:24,223 INFO scheduler Scheduled Job Complete: frappe.email.doctype.email_account.email_account.notify_unreplied for dev1
2021-09-02 21:52:24,322 INFO scheduler Scheduled Job Start: frappe.email.doctype.email_account.email_account.pull for dev1
2021-09-02 21:52:24,649 INFO scheduler Scheduled Job Complete: frappe.email.doctype.email_account.email_account.pull for dev1
2021-09-02 21:52:24,735 INFO scheduler Scheduled Job Start: frappe.email.queue.flush for dev1
2021-09-02 21:52:25,000 INFO scheduler Scheduled Job Complete: frappe.email.queue.flush for dev1
2021-09-02 21:53:23,071 DEBUG scheduler Queued events for site dev1
2021-09-02 21:54:23,451 DEBUG scheduler Queued events for site dev1
2021-09-02 21:55:23,806 DEBUG scheduler Queued events for site dev1
2021-09-02 21:56:24,224 DEBUG scheduler Queued events for site dev1
2021-09-02 21:56:24,270 INFO scheduler Scheduled Job Start: frappe.monitor.flush for dev1
2021-09-02 21:56:24,582 INFO scheduler Scheduled Job Complete: frappe.monitor.flush for dev1
2021-09-02 21:56:24,670 INFO scheduler Scheduled Job Start: frappe.utils.global_search.sync_global_search for dev1
2021-09-02 21:56:24,916 INFO scheduler Scheduled Job Complete: frappe.utils.global_search.sync_global_search for dev1
2021-09-02 21:56:25,017 INFO scheduler Scheduled Job Start: frappe.integrations.doctype.razorpay_settings.razorpay_settings.capture_payment for dev1
2021-09-02 21:56:25,394 INFO scheduler Scheduled Job Complete: frappe.integrations.doctype.razorpay_settings.razorpay_settings.capture_payment for dev1
2021-09-02 21:56:25,485 INFO scheduler Scheduled Job Start: frappe.email.doctype.email_account.email_account.notify_unreplied for dev1
2021-09-02 21:56:25,788 INFO scheduler Scheduled Job Complete: frappe.email.doctype.email_account.email_account.notify_unreplied for dev1
2021-09-02 21:56:25,883 INFO scheduler Scheduled Job Start: frappe.email.doctype.email_account.email_account.pull for dev1
2021-09-02 21:56:26,229 INFO scheduler Scheduled Job Complete: frappe.email.doctype.email_account.email_account.pull for dev1
2021-09-02 21:56:26,321 INFO scheduler Scheduled Job Start: frappe.email.queue.flush for dev1
2021-09-02 21:56:26,606 INFO scheduler Scheduled Job Complete: frappe.email.queue.flush for dev1
2021-09-02 21:57:24,719 DEBUG scheduler Queued events for site dev1
2021-09-02 21:58:25,091 DEBUG scheduler Queued events for site dev1
2021-09-02 21:59:25,456 DEBUG scheduler Queued events for site dev1
2021-09-02 22:00:25,879 INFO scheduler Scheduled Job Start: frappe.email.doctype.newsletter.newsletter.send_scheduled_email for dev1
2021-09-02 22:00:25,932 DEBUG scheduler Queued events for site dev1
2021-09-02 22:00:26,358 INFO scheduler Scheduled Job Complete: frappe.email.doctype.newsletter.newsletter.send_scheduled_email for dev1
2021-09-02 22:00:26,466 INFO scheduler Scheduled Job Start: frappe.integrations.doctype.google_calendar.google_calendar.sync for dev1
2021-09-02 22:00:27,020 INFO scheduler Scheduled Job Complete: frappe.integrations.doctype.google_calendar.google_calendar.sync for dev1
2021-09-02 22:00:27,119 INFO scheduler Scheduled Job Start: frappe.desk.form.document_follow.send_hourly_updates for dev1
2021-09-02 22:00:27,503 INFO scheduler Scheduled Job Complete: frappe.desk.form.document_follow.send_hourly_updates for dev1
2021-09-02 22:00:27,599 INFO scheduler Scheduled Job Start: frappe.deferred_insert.save_to_db for dev1
2021-09-02 22:00:27,954 INFO scheduler Scheduled Job Complete: frappe.deferred_insert.save_to_db for dev1
2021-09-02 22:00:28,050 INFO scheduler Scheduled Job Start: frappe.desk.page.backups.backups.delete_downloadable_backups for dev1
2021-09-02 22:00:28,437 INFO scheduler Scheduled Job Complete: frappe.desk.page.backups.backups.delete_downloadable_backups for dev1
2021-09-02 22:00:28,532 INFO scheduler Scheduled Job Start: frappe.utils.error.collect_error_snapshots for dev1
2021-09-02 22:00:28,903 INFO scheduler Scheduled Job Complete: frappe.utils.error.collect_error_snapshots for dev1
2021-09-02 22:00:29,004 INFO scheduler Scheduled Job Start: frappe.model.utils.user_settings.sync_user_settings for dev1
2021-09-02 22:00:29,381 INFO scheduler Scheduled Job Complete: frappe.model.utils.user_settings.sync_user_settings for dev1
2021-09-02 22:00:29,477 INFO scheduler Scheduled Job Start: frappe.model.utils.link_count.update_link_count for dev1
2021-09-02 22:00:29,854 INFO scheduler Scheduled Job Complete: frappe.model.utils.link_count.update_link_count for dev1
2021-09-02 22:00:29,949 INFO scheduler Scheduled Job Start: frappe.monitor.flush for dev1
2021-09-02 22:00:30,198 INFO scheduler Scheduled Job Complete: frappe.monitor.flush for dev1
2021-09-02 22:00:30,291 INFO scheduler Scheduled Job Start: frappe.utils.global_search.sync_global_search for dev1
2021-09-02 22:00:30,539 INFO scheduler Scheduled Job Complete: frappe.utils.global_search.sync_global_search for dev1
2021-09-02 22:00:30,628 INFO scheduler Scheduled Job Start: frappe.integrations.doctype.razorpay_settings.razorpay_settings.capture_payment for dev1
2021-09-02 22:00:31,020 INFO scheduler Scheduled Job Complete: frappe.integrations.doctype.razorpay_settings.razorpay_settings.capture_payment for dev1
2021-09-02 22:00:31,125 INFO scheduler Scheduled Job Start: frappe.email.doctype.email_account.email_account.notify_unreplied for dev1
2021-09-02 22:00:31,456 INFO scheduler Scheduled Job Complete: frappe.email.doctype.email_account.email_account.notify_unreplied for dev1
2021-09-02 22:00:31,556 INFO scheduler Scheduled Job Start: frappe.email.doctype.email_account.email_account.pull for dev1
2021-09-02 22:00:31,885 INFO scheduler Scheduled Job Complete: frappe.email.doctype.email_account.email_account.pull for dev1
2021-09-02 22:00:31,983 INFO scheduler Scheduled Job Start: frappe.email.queue.flush for dev1
2021-09-02 22:00:32,258 INFO scheduler Scheduled Job Complete: frappe.email.queue.flush for dev1
2021-09-02 22:00:32,355 INFO scheduler Scheduled Job Start: frappe.twofactor.delete_all_barcodes_for_users for dev1
2021-09-02 22:00:32,763 INFO scheduler Scheduled Job Complete: frappe.twofactor.delete_all_barcodes_for_users for dev1
2021-09-02 22:00:32,860 INFO scheduler Scheduled Job Start: frappe.website.doctype.web_page.web_page.check_publish_status for dev1
2021-09-02 22:00:33,307 INFO scheduler Scheduled Job Complete: frappe.website.doctype.web_page.web_page.check_publish_status for dev1
2021-09-02 22:00:33,420 INFO scheduler Scheduled Job Start: frappe.oauth.delete_oauth2_data for dev1
2021-09-02 22:00:33,813 INFO scheduler Scheduled Job Complete: frappe.oauth.delete_oauth2_data for dev1
2021-09-02 22:01:26,495 DEBUG scheduler Queued events for site dev1
2021-09-02 22:02:26,886 DEBUG scheduler Queued events for site dev1
2021-09-02 22:03:27,248 DEBUG scheduler Queued events for site dev1
2021-09-02 22:04:27,646 DEBUG scheduler Queued events for site dev1
2021-09-02 22:04:27,684 INFO scheduler Scheduled Job Start: frappe.monitor.flush for dev1
2021-09-02 22:04:27,984 INFO scheduler Scheduled Job Complete: frappe.monitor.flush for dev1
2021-09-02 22:04:28,069 INFO scheduler Scheduled Job Start: frappe.utils.global_search.sync_global_search for dev1
2021-09-02 22:04:28,328 INFO scheduler Scheduled Job Complete: frappe.utils.global_search.sync_global_search for dev1
2021-09-02 22:04:28,432 INFO scheduler Scheduled Job Start: frappe.integrations.doctype.razorpay_settings.razorpay_settings.capture_payment for dev1
2021-09-02 22:04:28,804 INFO scheduler Scheduled Job Complete: frappe.integrations.doctype.razorpay_settings.razorpay_settings.capture_payment for dev1
2021-09-02 22:04:28,905 INFO scheduler Scheduled Job Start: frappe.email.doctype.email_account.email_account.notify_unreplied for dev1
2021-09-02 22:04:29,217 INFO scheduler Scheduled Job Complete: frappe.email.doctype.email_account.email_account.notify_unreplied for dev1
2021-09-02 22:04:29,326 INFO scheduler Scheduled Job Start: frappe.email.doctype.email_account.email_account.pull for dev1
2021-09-02 22:04:29,676 INFO scheduler Scheduled Job Complete: frappe.email.doctype.email_account.email_account.pull for dev1
2021-09-02 22:04:29,771 INFO scheduler Scheduled Job Start: frappe.email.queue.flush for dev1
2021-09-02 22:04:30,042 INFO scheduler Scheduled Job Complete: frappe.email.queue.flush for dev1
2021-09-02 22:05:28,101 DEBUG scheduler Queued events for site dev1
2021-09-02 22:06:28,496 DEBUG scheduler Queued events for site dev1
2021-09-02 22:07:28,808 DEBUG scheduler Queued events for site dev1
2021-09-02 22:08:29,191 DEBUG scheduler Queued events for site dev1
2021-09-02 22:08:29,237 INFO scheduler Scheduled Job Start: frappe.monitor.flush for dev1
2021-09-02 22:08:29,541 INFO scheduler Scheduled Job Complete: frappe.monitor.flush for dev1
2021-09-02 22:08:29,639 INFO scheduler Scheduled Job Start: frappe.utils.global_search.sync_global_search for dev1
2021-09-02 22:08:29,901 INFO scheduler Scheduled Job Complete: frappe.utils.global_search.sync_global_search for dev1
2021-09-02 22:08:30,005 INFO scheduler Scheduled Job Start: frappe.integrations.doctype.razorpay_settings.razorpay_settings.capture_payment for dev1
2021-09-02 22:08:30,406 INFO scheduler Scheduled Job Complete: frappe.integrations.doctype.razorpay_settings.razorpay_settings.capture_payment for dev1
2021-09-02 22:08:30,492 INFO scheduler Scheduled Job Start: frappe.email.doctype.email_account.email_account.notify_unreplied for dev1
2021-09-02 22:08:30,794 INFO scheduler Scheduled Job Complete: frappe.email.doctype.email_account.email_account.notify_unreplied for dev1
2021-09-02 22:08:30,892 INFO scheduler Scheduled Job Start: frappe.email.doctype.email_account.email_account.pull for dev1
2021-09-02 22:08:31,239 INFO scheduler Scheduled Job Complete: frappe.email.doctype.email_account.email_account.pull for dev1
2021-09-02 22:08:31,343 INFO scheduler Scheduled Job Start: frappe.email.queue.flush for dev1
2021-09-02 22:08:31,609 INFO scheduler Scheduled Job Complete: frappe.email.queue.flush for dev1
2021-09-02 22:09:29,670 DEBUG scheduler Queued events for site dev1
2021-09-02 22:10:30,061 DEBUG scheduler Queued events for site dev1
2021-09-02 22:11:30,457 DEBUG scheduler Queued events for site dev1
2021-09-02 22:12:30,841 DEBUG scheduler Queued events for site dev1
2021-09-02 22:12:30,887 INFO scheduler Scheduled Job Start: frappe.monitor.flush for dev1
2021-09-02 22:12:31,179 INFO scheduler Scheduled Job Complete: frappe.monitor.flush for dev1
2021-09-02 22:12:31,285 INFO scheduler Scheduled Job Start: frappe.utils.global_search.sync_global_search for dev1
2021-09-02 22:12:31,529 INFO scheduler Scheduled Job Complete: frappe.utils.global_search.sync_global_search for dev1
2021-09-02 22:12:31,618 INFO scheduler Scheduled Job Start: frappe.integrations.doctype.razorpay_settings.razorpay_settings.capture_payment for dev1
2021-09-02 22:12:31,995 INFO scheduler Scheduled Job Complete: frappe.integrations.doctype.razorpay_settings.razorpay_settings.capture_payment for dev1
2021-09-02 22:12:32,085 INFO scheduler Scheduled Job Start: frappe.email.doctype.email_account.email_account.notify_unreplied for dev1
2021-09-02 22:12:32,400 INFO scheduler Scheduled Job Complete: frappe.email.doctype.email_account.email_account.notify_unreplied for dev1
2021-09-02 22:12:32,499 INFO scheduler Scheduled Job Start: frappe.email.doctype.email_account.email_account.pull for dev1
2021-09-02 22:12:32,832 INFO scheduler Scheduled Job Complete: frappe.email.doctype.email_account.email_account.pull for dev1
2021-09-02 22:12:32,918 INFO scheduler Scheduled Job Start: frappe.email.queue.flush for dev1
2021-09-02 22:12:33,190 INFO scheduler Scheduled Job Complete: frappe.email.queue.flush for dev1
2021-09-02 22:13:31,307 DEBUG scheduler Queued events for site dev1
2021-09-02 22:14:31,708 DEBUG scheduler Queued events for site dev1
2021-09-02 22:15:32,075 DEBUG scheduler Queued events for site dev1
2021-09-02 22:15:32,138 INFO scheduler Scheduled Job Start: frappe.twofactor.delete_all_barcodes_for_users for dev1
2021-09-02 22:15:32,556 INFO scheduler Scheduled Job Complete: frappe.twofactor.delete_all_barcodes_for_users for dev1
2021-09-02 22:15:32,670 INFO scheduler Scheduled Job Start: frappe.website.doctype.web_page.web_page.check_publish_status for dev1
2021-09-02 22:15:33,131 INFO scheduler Scheduled Job Complete: frappe.website.doctype.web_page.web_page.check_publish_status for dev1
2021-09-02 22:15:33,240 INFO scheduler Scheduled Job Start: frappe.oauth.delete_oauth2_data for dev1
2021-09-02 22:15:33,621 INFO scheduler Scheduled Job Complete: frappe.oauth.delete_oauth2_data for dev1
2021-09-02 22:16:32,493 DEBUG scheduler Queued events for site dev1
2021-09-02 22:16:32,528 INFO scheduler Scheduled Job Start: frappe.monitor.flush for dev1
2021-09-02 22:16:32,819 INFO scheduler Scheduled Job Complete: frappe.monitor.flush for dev1
2021-09-02 22:16:32,915 INFO scheduler Scheduled Job Start: frappe.utils.global_search.sync_global_search for dev1
2021-09-02 22:16:33,157 INFO scheduler Scheduled Job Complete: frappe.utils.global_search.sync_global_search for dev1
2021-09-02 22:16:33,247 INFO scheduler Scheduled Job Start: frappe.integrations.doctype.razorpay_settings.razorpay_settings.capture_payment for dev1
2021-09-02 22:16:33,615 INFO scheduler Scheduled Job Complete: frappe.integrations.doctype.razorpay_settings.razorpay_settings.capture_payment for dev1
2021-09-02 22:16:33,717 INFO scheduler Scheduled Job Start: frappe.email.doctype.email_account.email_account.notify_unreplied for dev1
2021-09-02 22:16:34,028 INFO scheduler Scheduled Job Complete: frappe.email.doctype.email_account.email_account.notify_unreplied for dev1
2021-09-02 22:16:34,119 INFO scheduler Scheduled Job Start: frappe.email.doctype.email_account.email_account.pull for dev1
2021-09-02 22:16:34,491 INFO scheduler Scheduled Job Complete: frappe.email.doctype.email_account.email_account.pull for dev1
2021-09-02 22:16:34,576 INFO scheduler Scheduled Job Start: frappe.email.queue.flush for dev1
2021-09-02 22:16:34,841 INFO scheduler Scheduled Job Complete: frappe.email.queue.flush for dev1
2021-09-02 22:17:32,924 DEBUG scheduler Queued events for site dev1
2021-09-02 22:18:33,325 DEBUG scheduler Queued events for site dev1
2021-09-02 22:19:33,707 DEBUG scheduler Queued events for site dev1
2021-09-02 22:20:34,090 DEBUG scheduler Queued events for site dev1
2021-09-02 22:20:34,130 INFO scheduler Scheduled Job Start: frappe.monitor.flush for dev1
2021-09-02 22:20:34,420 INFO scheduler Scheduled Job Complete: frappe.monitor.flush for dev1
2021-09-02 22:20:34,512 INFO scheduler Scheduled Job Start: frappe.utils.global_search.sync_global_search for dev1
2021-09-02 22:20:34,785 INFO scheduler Scheduled Job Complete: frappe.utils.global_search.sync_global_search for dev1
2021-09-02 22:20:34,906 INFO scheduler Scheduled Job Start: frappe.integrations.doctype.razorpay_settings.razorpay_settings.capture_payment for dev1
2021-09-02 22:20:35,303 INFO scheduler Scheduled Job Complete: frappe.integrations.doctype.razorpay_settings.razorpay_settings.capture_payment for dev1
2021-09-02 22:20:35,412 INFO scheduler Scheduled Job Start: frappe.email.doctype.email_account.email_account.notify_unreplied for dev1
2021-09-02 22:20:35,733 INFO scheduler Scheduled Job Complete: frappe.email.doctype.email_account.email_account.notify_unreplied for dev1
2021-09-02 22:20:35,817 INFO scheduler Scheduled Job Start: frappe.email.doctype.email_account.email_account.pull for dev1
2021-09-02 22:20:36,146 INFO scheduler Scheduled Job Complete: frappe.email.doctype.email_account.email_account.pull for dev1
2021-09-02 22:20:36,248 INFO scheduler Scheduled Job Start: frappe.email.queue.flush for dev1
2021-09-02 22:20:36,497 INFO scheduler Scheduled Job Complete: frappe.email.queue.flush for dev1
2021-09-02 22:21:34,566 DEBUG scheduler Queued events for site dev1
2021-09-02 22:22:35,023 DEBUG scheduler Queued events for site dev1
2021-09-02 22:23:35,392 DEBUG scheduler Queued events for site dev1
2021-09-02 22:24:35,823 DEBUG scheduler Queued events for site dev1
2021-09-02 22:24:35,873 INFO scheduler Scheduled Job Start: frappe.monitor.flush for dev1
2021-09-02 22:24:36,216 INFO scheduler Scheduled Job Complete: frappe.monitor.flush for dev1
2021-09-02 22:24:36,313 INFO scheduler Scheduled Job Start: frappe.utils.global_search.sync_global_search for dev1
2021-09-02 22:24:36,576 INFO scheduler Scheduled Job Complete: frappe.utils.global_search.sync_global_search for dev1
2021-09-02 22:24:36,665 INFO scheduler Scheduled Job Start: frappe.integrations.doctype.razorpay_settings.razorpay_settings.capture_payment for dev1
2021-09-02 22:24:37,043 INFO scheduler Scheduled Job Complete: frappe.integrations.doctype.razorpay_settings.razorpay_settings.capture_payment for dev1
2021-09-02 22:24:37,141 INFO scheduler Scheduled Job Start: frappe.email.doctype.email_account.email_account.notify_unreplied for dev1
2021-09-02 22:24:37,458 INFO scheduler Scheduled Job Complete: frappe.email.doctype.email_account.email_account.notify_unreplied for dev1
2021-09-02 22:24:37,572 INFO scheduler Scheduled Job Start: frappe.email.doctype.email_account.email_account.pull for dev1
2021-09-02 22:24:37,935 INFO scheduler Scheduled Job Complete: frappe.email.doctype.email_account.email_account.pull for dev1
2021-09-02 22:24:38,038 INFO scheduler Scheduled Job Start: frappe.email.queue.flush for dev1
2021-09-02 22:24:38,329 INFO scheduler Scheduled Job Complete: frappe.email.queue.flush for dev1
2021-09-02 22:25:36,329 DEBUG scheduler Queued events for site dev1
2021-09-02 22:26:36,741 DEBUG scheduler Queued events for site dev1
2021-09-02 22:27:37,144 DEBUG scheduler Queued events for site dev1
2021-09-02 22:28:37,541 DEBUG scheduler Queued events for site dev1
2021-09-02 22:28:37,583 INFO scheduler Scheduled Job Start: frappe.monitor.flush for dev1
2021-09-02 22:28:37,862 INFO scheduler Scheduled Job Complete: frappe.monitor.flush for dev1
2021-09-02 22:28:37,959 INFO scheduler Scheduled Job Start: frappe.utils.global_search.sync_global_search for dev1
2021-09-02 22:28:38,231 INFO scheduler Scheduled Job Complete: frappe.utils.global_search.sync_global_search for dev1
2021-09-02 22:28:38,328 INFO scheduler Scheduled Job Start: frappe.integrations.doctype.razorpay_settings.razorpay_settings.capture_payment for dev1
2021-09-02 22:28:38,721 INFO scheduler Scheduled Job Complete: frappe.integrations.doctype.razorpay_settings.razorpay_settings.capture_payment for dev1
2021-09-02 22:28:38,811 INFO scheduler Scheduled Job Start: frappe.email.doctype.email_account.email_account.notify_unreplied for dev1
2021-09-02 22:28:39,140 INFO scheduler Scheduled Job Complete: frappe.email.doctype.email_account.email_account.notify_unreplied for dev1
2021-09-02 22:28:39,240 INFO scheduler Scheduled Job Start: frappe.email.doctype.email_account.email_account.pull for dev1
2021-09-02 22:28:39,591 INFO scheduler Scheduled Job Complete: frappe.email.doctype.email_account.email_account.pull for dev1
2021-09-02 22:28:39,690 INFO scheduler Scheduled Job Start: frappe.email.queue.flush for dev1
2021-09-02 22:28:39,957 INFO scheduler Scheduled Job Complete: frappe.email.queue.flush for dev1
2021-09-02 22:29:37,978 DEBUG scheduler Queued events for site dev1
2021-09-02 22:30:38,394 DEBUG scheduler Queued events for site dev1
2021-09-02 22:30:38,459 INFO scheduler Scheduled Job Start: frappe.twofactor.delete_all_barcodes_for_users for dev1
2021-09-02 22:30:38,904 INFO scheduler Scheduled Job Complete: frappe.twofactor.delete_all_barcodes_for_users for dev1
2021-09-02 22:30:39,009 INFO scheduler Scheduled Job Start: frappe.website.doctype.web_page.web_page.check_publish_status for dev1
2021-09-02 22:30:39,472 INFO scheduler Scheduled Job Complete: frappe.website.doctype.web_page.web_page.check_publish_status for dev1
2021-09-02 22:30:39,574 INFO scheduler Scheduled Job Start: frappe.oauth.delete_oauth2_data for dev1
2021-09-02 22:30:39,988 INFO scheduler Scheduled Job Complete: frappe.oauth.delete_oauth2_data for dev1
2021-09-02 22:31:38,831 DEBUG scheduler Queued events for site dev1
2021-09-02 22:32:39,287 DEBUG scheduler Queued events for site dev1
2021-09-02 22:32:39,328 INFO scheduler Scheduled Job Start: frappe.monitor.flush for dev1
2021-09-02 22:32:39,658 INFO scheduler Scheduled Job Complete: frappe.monitor.flush for dev1
2021-09-02 22:32:39,751 INFO scheduler Scheduled Job Start: frappe.utils.global_search.sync_global_search for dev1
2021-09-02 22:32:40,015 INFO scheduler Scheduled Job Complete: frappe.utils.global_search.sync_global_search for dev1
2021-09-02 22:32:40,108 INFO scheduler Scheduled Job Start: frappe.integrations.doctype.razorpay_settings.razorpay_settings.capture_payment for dev1
2021-09-02 22:32:40,559 INFO scheduler Scheduled Job Complete: frappe.integrations.doctype.razorpay_settings.razorpay_settings.capture_payment for dev1
2021-09-02 22:32:40,659 INFO scheduler Scheduled Job Start: frappe.email.doctype.email_account.email_account.notify_unreplied for dev1
2021-09-02 22:32:41,037 INFO scheduler Scheduled Job Complete: frappe.email.doctype.email_account.email_account.notify_unreplied for dev1
2021-09-02 22:32:41,129 INFO scheduler Scheduled Job Start: frappe.email.doctype.email_account.email_account.pull for dev1
2021-09-02 22:32:41,520 INFO scheduler Scheduled Job Complete: frappe.email.doctype.email_account.email_account.pull for dev1
2021-09-02 22:32:41,610 INFO scheduler Scheduled Job Start: frappe.email.queue.flush for dev1
2021-09-02 22:32:41,895 INFO scheduler Scheduled Job Complete: frappe.email.queue.flush for dev1
2021-09-02 22:33:39,775 DEBUG scheduler Queued events for site dev1
2021-09-02 22:34:40,211 DEBUG scheduler Queued events for site dev1
2021-09-02 22:35:40,605 DEBUG scheduler Queued events for site dev1
2021-09-02 22:36:41,026 DEBUG scheduler Queued events for site dev1
2021-09-02 22:36:41,065 INFO scheduler Scheduled Job Start: frappe.monitor.flush for dev1
2021-09-02 22:36:41,343 INFO scheduler Scheduled Job Complete: frappe.monitor.flush for dev1
2021-09-02 22:36:41,438 INFO scheduler Scheduled Job Start: frappe.utils.global_search.sync_global_search for dev1
2021-09-02 22:36:41,670 INFO scheduler Scheduled Job Complete: frappe.utils.global_search.sync_global_search for dev1
2021-09-02 22:36:41,760 INFO scheduler Scheduled Job Start: frappe.integrations.doctype.razorpay_settings.razorpay_settings.capture_payment for dev1
2021-09-02 22:36:42,155 INFO scheduler Scheduled Job Complete: frappe.integrations.doctype.razorpay_settings.razorpay_settings.capture_payment for dev1
2021-09-02 22:36:42,261 INFO scheduler Scheduled Job Start: frappe.email.doctype.email_account.email_account.notify_unreplied for dev1
2021-09-02 22:36:42,570 INFO scheduler Scheduled Job Complete: frappe.email.doctype.email_account.email_account.notify_unreplied for dev1
2021-09-02 22:36:42,664 INFO scheduler Scheduled Job Start: frappe.email.doctype.email_account.email_account.pull for dev1
2021-09-02 22:36:42,998 INFO scheduler Scheduled Job Complete: frappe.email.doctype.email_account.email_account.pull for dev1
2021-09-02 22:36:43,089 INFO scheduler Scheduled Job Start: frappe.email.queue.flush for dev1
2021-09-02 22:36:43,387 INFO scheduler Scheduled Job Complete: frappe.email.queue.flush for dev1
2021-09-02 22:37:41,480 DEBUG scheduler Queued events for site dev1
2021-09-02 22:38:41,882 DEBUG scheduler Queued events for site dev1
2021-09-02 22:39:42,272 DEBUG scheduler Queued events for site dev1
2021-09-02 22:40:42,655 DEBUG scheduler Queued events for site dev1
2021-09-02 22:40:42,693 INFO scheduler Scheduled Job Start: frappe.monitor.flush for dev1
2021-09-02 22:40:42,982 INFO scheduler Scheduled Job Complete: frappe.monitor.flush for dev1
2021-09-02 22:40:43,087 INFO scheduler Scheduled Job Start: frappe.utils.global_search.sync_global_search for dev1
2021-09-02 22:40:43,344 INFO scheduler Scheduled Job Complete: frappe.utils.global_search.sync_global_search for dev1
2021-09-02 22:40:43,428 INFO scheduler Scheduled Job Start: frappe.integrations.doctype.razorpay_settings.razorpay_settings.capture_payment for dev1
2021-09-02 22:40:43,808 INFO scheduler Scheduled Job Complete: frappe.integrations.doctype.razorpay_settings.razorpay_settings.capture_payment for dev1
2021-09-02 22:40:43,901 INFO scheduler Scheduled Job Start: frappe.email.doctype.email_account.email_account.notify_unreplied for dev1
2021-09-02 22:40:44,251 INFO scheduler Scheduled Job Complete: frappe.email.doctype.email_account.email_account.notify_unreplied for dev1
2021-09-02 22:40:44,335 INFO scheduler Scheduled Job Start: frappe.email.doctype.email_account.email_account.pull for dev1
2021-09-02 22:40:44,667 INFO scheduler Scheduled Job Complete: frappe.email.doctype.email_account.email_account.pull for dev1
2021-09-02 22:40:44,761 INFO scheduler Scheduled Job Start: frappe.email.queue.flush for dev1
2021-09-02 22:40:45,025 INFO scheduler Scheduled Job Complete: frappe.email.queue.flush for dev1
2021-09-02 22:41:43,093 DEBUG scheduler Queued events for site dev1
2021-09-02 22:42:43,531 DEBUG scheduler Queued events for site dev1
2021-09-02 22:43:43,919 DEBUG scheduler Queued events for site dev1
2021-09-02 22:44:44,339 DEBUG scheduler Queued events for site dev1
2021-09-02 22:44:44,374 INFO scheduler Scheduled Job Start: frappe.monitor.flush for dev1
2021-09-02 22:44:44,641 INFO scheduler Scheduled Job Complete: frappe.monitor.flush for dev1
2021-09-02 22:44:44,730 INFO scheduler Scheduled Job Start: frappe.utils.global_search.sync_global_search for dev1
2021-09-02 22:44:44,981 INFO scheduler Scheduled Job Complete: frappe.utils.global_search.sync_global_search for dev1
2021-09-02 22:44:45,069 INFO scheduler Scheduled Job Start: frappe.integrations.doctype.razorpay_settings.razorpay_settings.capture_payment for dev1
2021-09-02 22:44:45,468 INFO scheduler Scheduled Job Complete: frappe.integrations.doctype.razorpay_settings.razorpay_settings.capture_payment for dev1
2021-09-02 22:44:45,570 INFO scheduler Scheduled Job Start: frappe.email.doctype.email_account.email_account.notify_unreplied for dev1
2021-09-02 22:44:45,880 INFO scheduler Scheduled Job Complete: frappe.email.doctype.email_account.email_account.notify_unreplied for dev1
2021-09-02 22:44:45,982 INFO scheduler Scheduled Job Start: frappe.email.doctype.email_account.email_account.pull for dev1
2021-09-02 22:44:46,333 INFO scheduler Scheduled Job Complete: frappe.email.doctype.email_account.email_account.pull for dev1
2021-09-02 22:44:46,420 INFO scheduler Scheduled Job Start: frappe.email.queue.flush for dev1
2021-09-02 22:44:46,703 INFO scheduler Scheduled Job Complete: frappe.email.queue.flush for dev1
2021-09-02 22:45:44,779 DEBUG scheduler Queued events for site dev1
2021-09-02 22:45:44,844 INFO scheduler Scheduled Job Start: frappe.twofactor.delete_all_barcodes_for_users for dev1
2021-09-02 22:45:45,363 INFO scheduler Scheduled Job Complete: frappe.twofactor.delete_all_barcodes_for_users for dev1
2021-09-02 22:45:45,495 INFO scheduler Scheduled Job Start: frappe.website.doctype.web_page.web_page.check_publish_status for dev1
2021-09-02 22:45:45,990 INFO scheduler Scheduled Job Complete: frappe.website.doctype.web_page.web_page.check_publish_status for dev1
2021-09-02 22:45:46,083 INFO scheduler Scheduled Job Start: frappe.oauth.delete_oauth2_data for dev1
2021-09-02 22:45:46,549 INFO scheduler Scheduled Job Complete: frappe.oauth.delete_oauth2_data for dev1
2021-09-02 22:46:45,226 DEBUG scheduler Queued events for site dev1
2021-09-02 22:47:45,629 DEBUG scheduler Queued events for site dev1
2021-09-02 22:48:46,021 DEBUG scheduler Queued events for site dev1
2021-09-02 22:48:46,056 INFO scheduler Scheduled Job Start: frappe.monitor.flush for dev1
2021-09-02 22:48:46,372 INFO scheduler Scheduled Job Complete: frappe.monitor.flush for dev1
2021-09-02 22:48:46,465 INFO scheduler Scheduled Job Start: frappe.utils.global_search.sync_global_search for dev1
2021-09-02 22:48:46,723 INFO scheduler Scheduled Job Complete: frappe.utils.global_search.sync_global_search for dev1
2021-09-02 22:48:46,828 INFO scheduler Scheduled Job Start: frappe.integrations.doctype.razorpay_settings.razorpay_settings.capture_payment for dev1
2021-09-02 22:48:47,258 INFO scheduler Scheduled Job Complete: frappe.integrations.doctype.razorpay_settings.razorpay_settings.capture_payment for dev1
2021-09-02 22:48:47,356 INFO scheduler Scheduled Job Start: frappe.email.doctype.email_account.email_account.notify_unreplied for dev1
2021-09-02 22:48:47,714 INFO scheduler Scheduled Job Complete: frappe.email.doctype.email_account.email_account.notify_unreplied for dev1
2021-09-02 22:48:47,821 INFO scheduler Scheduled Job Start: frappe.email.doctype.email_account.email_account.pull for dev1
2021-09-02 22:48:48,155 INFO scheduler Scheduled Job Complete: frappe.email.doctype.email_account.email_account.pull for dev1
2021-09-02 22:48:48,260 INFO scheduler Scheduled Job Start: frappe.email.queue.flush for dev1
2021-09-02 22:48:48,532 INFO scheduler Scheduled Job Complete: frappe.email.queue.flush for dev1
2021-09-02 22:49:46,506 DEBUG scheduler Queued events for site dev1
2021-09-02 22:50:46,908 DEBUG scheduler Queued events for site dev1
2021-09-02 22:51:47,358 DEBUG scheduler Queued events for site dev1
2021-09-02 22:52:47,763 DEBUG scheduler Queued events for site dev1
2021-09-02 22:52:47,802 INFO scheduler Scheduled Job Start: frappe.monitor.flush for dev1
2021-09-02 22:52:48,109 INFO scheduler Scheduled Job Complete: frappe.monitor.flush for dev1
2021-09-02 22:52:48,220 INFO scheduler Scheduled Job Start: frappe.utils.global_search.sync_global_search for dev1
2021-09-02 22:52:48,486 INFO scheduler Scheduled Job Complete: frappe.utils.global_search.sync_global_search for dev1
2021-09-02 22:52:48,586 INFO scheduler Scheduled Job Start: frappe.integrations.doctype.razorpay_settings.razorpay_settings.capture_payment for dev1
2021-09-02 22:52:48,997 INFO scheduler Scheduled Job Complete: frappe.integrations.doctype.razorpay_settings.razorpay_settings.capture_payment for dev1
2021-09-02 22:52:49,098 INFO scheduler Scheduled Job Start: frappe.email.doctype.email_account.email_account.notify_unreplied for dev1
2021-09-02 22:52:49,432 INFO scheduler Scheduled Job Complete: frappe.email.doctype.email_account.email_account.notify_unreplied for dev1
2021-09-02 22:52:49,538 INFO scheduler Scheduled Job Start: frappe.email.doctype.email_account.email_account.pull for dev1
2021-09-02 22:52:49,885 INFO scheduler Scheduled Job Complete: frappe.email.doctype.email_account.email_account.pull for dev1
2021-09-02 22:52:49,987 INFO scheduler Scheduled Job Start: frappe.email.queue.flush for dev1
2021-09-02 22:52:50,297 INFO scheduler Scheduled Job Complete: frappe.email.queue.flush for dev1
2021-09-02 22:53:48,255 DEBUG scheduler Queued events for site dev1
2021-09-02 22:54:48,648 DEBUG scheduler Queued events for site dev1
2021-09-02 22:55:49,027 DEBUG scheduler Queued events for site dev1
2021-09-02 22:56:49,435 DEBUG scheduler Queued events for site dev1
2021-09-02 22:56:49,486 INFO scheduler Scheduled Job Start: frappe.monitor.flush for dev1
2021-09-02 22:56:49,788 INFO scheduler Scheduled Job Complete: frappe.monitor.flush for dev1
2021-09-02 22:56:49,880 INFO scheduler Scheduled Job Start: frappe.utils.global_search.sync_global_search for dev1
2021-09-02 22:56:50,130 INFO scheduler Scheduled Job Complete: frappe.utils.global_search.sync_global_search for dev1
2021-09-02 22:56:50,235 INFO scheduler Scheduled Job Start: frappe.integrations.doctype.razorpay_settings.razorpay_settings.capture_payment for dev1
2021-09-02 22:56:50,619 INFO scheduler Scheduled Job Complete: frappe.integrations.doctype.razorpay_settings.razorpay_settings.capture_payment for dev1
2021-09-02 22:56:50,730 INFO scheduler Scheduled Job Start: frappe.email.doctype.email_account.email_account.notify_unreplied for dev1
2021-09-02 22:56:51,031 INFO scheduler Scheduled Job Complete: frappe.email.doctype.email_account.email_account.notify_unreplied for dev1
2021-09-02 22:56:51,125 INFO scheduler Scheduled Job Start: frappe.email.doctype.email_account.email_account.pull for dev1
2021-09-02 22:56:51,486 INFO scheduler Scheduled Job Complete: frappe.email.doctype.email_account.email_account.pull for dev1
2021-09-02 22:56:51,592 INFO scheduler Scheduled Job Start: frappe.email.queue.flush for dev1
2021-09-02 22:56:51,887 INFO scheduler Scheduled Job Complete: frappe.email.queue.flush for dev1
2021-09-02 22:57:49,909 DEBUG scheduler Queued events for site dev1
2021-09-02 22:58:50,338 DEBUG scheduler Queued events for site dev1
2021-09-02 22:59:50,719 DEBUG scheduler Queued events for site dev1
2021-09-02 23:00:51,151 INFO scheduler Scheduled Job Start: frappe.email.doctype.newsletter.newsletter.send_scheduled_email for dev1
2021-09-02 23:00:51,233 DEBUG scheduler Queued events for site dev1
2021-09-02 23:00:51,687 INFO scheduler Scheduled Job Complete: frappe.email.doctype.newsletter.newsletter.send_scheduled_email for dev1
2021-09-02 23:00:51,777 INFO scheduler Scheduled Job Start: frappe.integrations.doctype.google_calendar.google_calendar.sync for dev1
2021-09-02 23:00:52,386 INFO scheduler Scheduled Job Complete: frappe.integrations.doctype.google_calendar.google_calendar.sync for dev1
2021-09-02 23:00:52,490 INFO scheduler Scheduled Job Start: frappe.desk.form.document_follow.send_hourly_updates for dev1
2021-09-02 23:00:52,869 INFO scheduler Scheduled Job Complete: frappe.desk.form.document_follow.send_hourly_updates for dev1
2021-09-02 23:00:52,978 INFO scheduler Scheduled Job Start: frappe.deferred_insert.save_to_db for dev1
2021-09-02 23:00:53,368 INFO scheduler Scheduled Job Complete: frappe.deferred_insert.save_to_db for dev1
2021-09-02 23:00:53,463 INFO scheduler Scheduled Job Start: frappe.desk.page.backups.backups.delete_downloadable_backups for dev1
2021-09-02 23:00:53,851 INFO scheduler Scheduled Job Complete: frappe.desk.page.backups.backups.delete_downloadable_backups for dev1
2021-09-02 23:00:53,953 INFO scheduler Scheduled Job Start: frappe.utils.error.collect_error_snapshots for dev1
2021-09-02 23:00:54,338 INFO scheduler Scheduled Job Complete: frappe.utils.error.collect_error_snapshots for dev1
2021-09-02 23:00:54,454 INFO scheduler Scheduled Job Start: frappe.model.utils.user_settings.sync_user_settings for dev1
2021-09-02 23:00:54,850 INFO scheduler Scheduled Job Complete: frappe.model.utils.user_settings.sync_user_settings for dev1
2021-09-02 23:00:54,955 INFO scheduler Scheduled Job Start: frappe.model.utils.link_count.update_link_count for dev1
2021-09-02 23:00:55,328 INFO scheduler Scheduled Job Complete: frappe.model.utils.link_count.update_link_count for dev1
2021-09-02 23:00:55,431 INFO scheduler Scheduled Job Start: frappe.monitor.flush for dev1
2021-09-02 23:00:55,673 INFO scheduler Scheduled Job Complete: frappe.monitor.flush for dev1
2021-09-02 23:00:55,771 INFO scheduler Scheduled Job Start: frappe.utils.global_search.sync_global_search for dev1
2021-09-02 23:00:56,029 INFO scheduler Scheduled Job Complete: frappe.utils.global_search.sync_global_search for dev1
2021-09-02 23:00:56,129 INFO scheduler Scheduled Job Start: frappe.integrations.doctype.razorpay_settings.razorpay_settings.capture_payment for dev1
2021-09-02 23:00:56,530 INFO scheduler Scheduled Job Complete: frappe.integrations.doctype.razorpay_settings.razorpay_settings.capture_payment for dev1
2021-09-02 23:00:56,627 INFO scheduler Scheduled Job Start: frappe.email.doctype.email_account.email_account.notify_unreplied for dev1
2021-09-02 23:00:56,971 INFO scheduler Scheduled Job Complete: frappe.email.doctype.email_account.email_account.notify_unreplied for dev1
2021-09-02 23:00:57,073 INFO scheduler Scheduled Job Start: frappe.email.doctype.email_account.email_account.pull for dev1
2021-09-02 23:00:57,436 INFO scheduler Scheduled Job Complete: frappe.email.doctype.email_account.email_account.pull for dev1
2021-09-02 23:00:57,516 INFO scheduler Scheduled Job Start: frappe.email.queue.flush for dev1
2021-09-02 23:00:57,788 INFO scheduler Scheduled Job Complete: frappe.email.queue.flush for dev1
2021-09-02 23:00:57,883 INFO scheduler Scheduled Job Start: frappe.twofactor.delete_all_barcodes_for_users for dev1
2021-09-02 23:00:58,299 INFO scheduler Scheduled Job Complete: frappe.twofactor.delete_all_barcodes_for_users for dev1
2021-09-02 23:00:58,411 INFO scheduler Scheduled Job Start: frappe.website.doctype.web_page.web_page.check_publish_status for dev1
2021-09-02 23:00:58,873 INFO scheduler Scheduled Job Complete: frappe.website.doctype.web_page.web_page.check_publish_status for dev1
2021-09-02 23:00:59,002 INFO scheduler Scheduled Job Start: frappe.oauth.delete_oauth2_data for dev1
2021-09-02 23:00:59,421 INFO scheduler Scheduled Job Complete: frappe.oauth.delete_oauth2_data for dev1
2021-09-02 23:01:51,857 DEBUG scheduler Queued events for site dev1
2021-09-02 23:02:52,274 DEBUG scheduler Queued events for site dev1
2021-09-02 23:03:52,641 DEBUG scheduler Queued events for site dev1
2021-09-02 23:04:53,065 DEBUG scheduler Queued events for site dev1
2021-09-02 23:04:53,111 INFO scheduler Scheduled Job Start: frappe.monitor.flush for dev1
2021-09-02 23:04:53,395 INFO scheduler Scheduled Job Complete: frappe.monitor.flush for dev1
2021-09-02 23:04:53,484 INFO scheduler Scheduled Job Start: frappe.utils.global_search.sync_global_search for dev1
2021-09-02 23:04:53,732 INFO scheduler Scheduled Job Complete: frappe.utils.global_search.sync_global_search for dev1
2021-09-02 23:04:53,825 INFO scheduler Scheduled Job Start: frappe.integrations.doctype.razorpay_settings.razorpay_settings.capture_payment for dev1
2021-09-02 23:04:54,225 INFO scheduler Scheduled Job Complete: frappe.integrations.doctype.razorpay_settings.razorpay_settings.capture_payment for dev1
2021-09-02 23:04:54,320 INFO scheduler Scheduled Job Start: frappe.email.doctype.email_account.email_account.notify_unreplied for dev1
2021-09-02 23:04:54,632 INFO scheduler Scheduled Job Complete: frappe.email.doctype.email_account.email_account.notify_unreplied for dev1
2021-09-02 23:04:54,725 INFO scheduler Scheduled Job Start: frappe.email.doctype.email_account.email_account.pull for dev1
2021-09-02 23:04:55,074 INFO scheduler Scheduled Job Complete: frappe.email.doctype.email_account.email_account.pull for dev1
2021-09-02 23:04:55,164 INFO scheduler Scheduled Job Start: frappe.email.queue.flush for dev1
2021-09-02 23:04:55,471 INFO scheduler Scheduled Job Complete: frappe.email.queue.flush for dev1
2021-09-02 23:05:53,524 DEBUG scheduler Queued events for site dev1
2021-09-02 23:06:53,904 DEBUG scheduler Queued events for site dev1
2021-09-02 23:07:54,322 DEBUG scheduler Queued events for site dev1
2021-09-02 23:08:54,804 DEBUG scheduler Queued events for site dev1
2021-09-02 23:08:54,862 INFO scheduler Scheduled Job Start: frappe.monitor.flush for dev1
2021-09-02 23:08:55,252 INFO scheduler Scheduled Job Complete: frappe.monitor.flush for dev1
2021-09-02 23:08:55,376 INFO scheduler Scheduled Job Start: frappe.utils.global_search.sync_global_search for dev1
2021-09-02 23:08:55,724 INFO scheduler Scheduled Job Complete: frappe.utils.global_search.sync_global_search for dev1
2021-09-02 23:08:55,835 INFO scheduler Scheduled Job Start: frappe.integrations.doctype.razorpay_settings.razorpay_settings.capture_payment for dev1
2021-09-02 23:08:56,365 INFO scheduler Scheduled Job Complete: frappe.integrations.doctype.razorpay_settings.razorpay_settings.capture_payment for dev1
2021-09-02 23:08:56,476 INFO scheduler Scheduled Job Start: frappe.email.doctype.email_account.email_account.notify_unreplied for dev1
2021-09-02 23:08:56,894 INFO scheduler Scheduled Job Complete: frappe.email.doctype.email_account.email_account.notify_unreplied for dev1
2021-09-02 23:08:57,005 INFO scheduler Scheduled Job Start: frappe.email.doctype.email_account.email_account.pull for dev1
2021-09-02 23:08:57,475 INFO scheduler Scheduled Job Complete: frappe.email.doctype.email_account.email_account.pull for dev1
2021-09-02 23:08:57,590 INFO scheduler Scheduled Job Start: frappe.email.queue.flush for dev1
2021-09-02 23:08:57,947 INFO scheduler Scheduled Job Complete: frappe.email.queue.flush for dev1
2021-09-02 23:09:55,382 DEBUG scheduler Queued events for site dev1
2021-09-02 23:10:55,839 DEBUG scheduler Queued events for site dev1
2021-09-02 23:11:56,304 DEBUG scheduler Queued events for site dev1
2021-09-02 23:12:56,797 DEBUG scheduler Queued events for site dev1
2021-09-02 23:12:56,843 INFO scheduler Scheduled Job Start: frappe.monitor.flush for dev1
2021-09-02 23:12:57,225 INFO scheduler Scheduled Job Complete: frappe.monitor.flush for dev1
2021-09-02 23:12:57,330 INFO scheduler Scheduled Job Start: frappe.utils.global_search.sync_global_search for dev1
2021-09-02 23:12:57,671 INFO scheduler Scheduled Job Complete: frappe.utils.global_search.sync_global_search for dev1
2021-09-02 23:12:57,784 INFO scheduler Scheduled Job Start: frappe.integrations.doctype.razorpay_settings.razorpay_settings.capture_payment for dev1
2021-09-02 23:12:58,298 INFO scheduler Scheduled Job Complete: frappe.integrations.doctype.razorpay_settings.razorpay_settings.capture_payment for dev1
2021-09-02 23:12:58,410 INFO scheduler Scheduled Job Start: frappe.email.doctype.email_account.email_account.notify_unreplied for dev1
2021-09-02 23:12:58,845 INFO scheduler Scheduled Job Complete: frappe.email.doctype.email_account.email_account.notify_unreplied for dev1
2021-09-02 23:12:58,959 INFO scheduler Scheduled Job Start: frappe.email.doctype.email_account.email_account.pull for dev1
2021-09-02 23:12:59,458 INFO scheduler Scheduled Job Complete: frappe.email.doctype.email_account.email_account.pull for dev1
2021-09-02 23:12:59,576 INFO scheduler Scheduled Job Start: frappe.email.queue.flush for dev1
2021-09-02 23:12:59,940 INFO scheduler Scheduled Job Complete: frappe.email.queue.flush for dev1
2021-09-02 23:13:57,445 DEBUG scheduler Queued events for site dev1
2021-09-02 23:14:57,961 DEBUG scheduler Queued events for site dev1
2021-09-02 23:15:58,390 DEBUG scheduler Queued events for site dev1
2021-09-02 23:15:58,477 INFO scheduler Scheduled Job Start: frappe.twofactor.delete_all_barcodes_for_users for dev1
2021-09-02 23:15:59,037 INFO scheduler Scheduled Job Complete: frappe.twofactor.delete_all_barcodes_for_users for dev1
2021-09-02 23:15:59,148 INFO scheduler Scheduled Job Start: frappe.website.doctype.web_page.web_page.check_publish_status for dev1
2021-09-02 23:15:59,722 INFO scheduler Scheduled Job Complete: frappe.website.doctype.web_page.web_page.check_publish_status for dev1
2021-09-02 23:15:59,837 INFO scheduler Scheduled Job Start: frappe.oauth.delete_oauth2_data for dev1
2021-09-02 23:16:00,401 INFO scheduler Scheduled Job Complete: frappe.oauth.delete_oauth2_data for dev1
2021-09-02 23:16:58,924 DEBUG scheduler Queued events for site dev1
2021-09-02 23:16:58,966 INFO scheduler Scheduled Job Start: frappe.monitor.flush for dev1
2021-09-02 23:16:59,351 INFO scheduler Scheduled Job Complete: frappe.monitor.flush for dev1
2021-09-02 23:16:59,462 INFO scheduler Scheduled Job Start: frappe.utils.global_search.sync_global_search for dev1
2021-09-02 23:16:59,794 INFO scheduler Scheduled Job Complete: frappe.utils.global_search.sync_global_search for dev1
2021-09-02 23:16:59,892 INFO scheduler Scheduled Job Start: frappe.integrations.doctype.razorpay_settings.razorpay_settings.capture_payment for dev1
2021-09-02 23:17:00,431 INFO scheduler Scheduled Job Complete: frappe.integrations.doctype.razorpay_settings.razorpay_settings.capture_payment for dev1
2021-09-02 23:17:00,549 INFO scheduler Scheduled Job Start: frappe.email.doctype.email_account.email_account.notify_unreplied for dev1
2021-09-02 23:17:00,939 INFO scheduler Scheduled Job Complete: frappe.email.doctype.email_account.email_account.notify_unreplied for dev1
2021-09-02 23:17:01,044 INFO scheduler Scheduled Job Start: frappe.email.doctype.email_account.email_account.pull for dev1
2021-09-02 23:17:01,481 INFO scheduler Scheduled Job Complete: frappe.email.doctype.email_account.email_account.pull for dev1
2021-09-02 23:17:01,596 INFO scheduler Scheduled Job Start: frappe.email.queue.flush for dev1
2021-09-02 23:17:01,983 INFO scheduler Scheduled Job Complete: frappe.email.queue.flush for dev1
2021-09-02 23:17:59,473 DEBUG scheduler Queued events for site dev1
2021-09-02 23:18:59,920 DEBUG scheduler Queued events for site dev1
2021-09-02 23:20:00,419 DEBUG scheduler Queued events for site dev1
2021-09-02 23:20:00,473 INFO scheduler Scheduled Job Start: frappe.monitor.flush for dev1
2021-09-02 23:20:00,879 INFO scheduler Scheduled Job Complete: frappe.monitor.flush for dev1
2021-09-02 23:20:00,979 INFO scheduler Scheduled Job Start: frappe.utils.global_search.sync_global_search for dev1
2021-09-02 23:20:01,286 INFO scheduler Scheduled Job Complete: frappe.utils.global_search.sync_global_search for dev1
2021-09-02 23:20:01,400 INFO scheduler Scheduled Job Start: frappe.integrations.doctype.razorpay_settings.razorpay_settings.capture_payment for dev1
2021-09-02 23:20:01,891 INFO scheduler Scheduled Job Complete: frappe.integrations.doctype.razorpay_settings.razorpay_settings.capture_payment for dev1
2021-09-02 23:20:02,004 INFO scheduler Scheduled Job Start: frappe.email.doctype.email_account.email_account.notify_unreplied for dev1
2021-09-02 23:20:02,434 INFO scheduler Scheduled Job Complete: frappe.email.doctype.email_account.email_account.notify_unreplied for dev1
2021-09-02 23:20:02,541 INFO scheduler Scheduled Job Start: frappe.email.doctype.email_account.email_account.pull for dev1
2021-09-02 23:20:02,954 INFO scheduler Scheduled Job Complete: frappe.email.doctype.email_account.email_account.pull for dev1
2021-09-02 23:20:03,055 INFO scheduler Scheduled Job Start: frappe.email.queue.flush for dev1
2021-09-02 23:20:03,412 INFO scheduler Scheduled Job Complete: frappe.email.queue.flush for dev1
2021-09-02 23:21:00,983 DEBUG scheduler Queued events for site dev1
2021-09-02 23:22:01,429 DEBUG scheduler Queued events for site dev1
2021-09-02 23:23:01,852 DEBUG scheduler Queued events for site dev1
2021-09-02 23:24:02,296 DEBUG scheduler Queued events for site dev1
2021-09-02 23:24:02,333 INFO scheduler Scheduled Job Start: frappe.monitor.flush for dev1
2021-09-02 23:24:02,601 INFO scheduler Scheduled Job Complete: frappe.monitor.flush for dev1
2021-09-02 23:24:02,686 INFO scheduler Scheduled Job Start: frappe.utils.global_search.sync_global_search for dev1
2021-09-02 23:24:02,949 INFO scheduler Scheduled Job Complete: frappe.utils.global_search.sync_global_search for dev1
2021-09-02 23:24:03,035 INFO scheduler Scheduled Job Start: frappe.integrations.doctype.razorpay_settings.razorpay_settings.capture_payment for dev1
2021-09-02 23:24:03,509 INFO scheduler Scheduled Job Complete: frappe.integrations.doctype.razorpay_settings.razorpay_settings.capture_payment for dev1
2021-09-02 23:24:03,613 INFO scheduler Scheduled Job Start: frappe.email.doctype.email_account.email_account.notify_unreplied for dev1
2021-09-02 23:24:03,925 INFO scheduler Scheduled Job Complete: frappe.email.doctype.email_account.email_account.notify_unreplied for dev1
2021-09-02 23:24:04,014 INFO scheduler Scheduled Job Start: frappe.email.doctype.email_account.email_account.pull for dev1
2021-09-02 23:24:04,379 INFO scheduler Scheduled Job Complete: frappe.email.doctype.email_account.email_account.pull for dev1
2021-09-02 23:24:04,481 INFO scheduler Scheduled Job Start: frappe.email.queue.flush for dev1
2021-09-02 23:24:04,749 INFO scheduler Scheduled Job Complete: frappe.email.queue.flush for dev1
