2021-09-02 10:37:43,001 INFO scheduler Scheduled Job Start: frappe.integrations.doctype.s3_backup_settings.s3_backup_settings.take_backups_monthly for dev1
2021-09-02 10:37:43,005 INFO scheduler Scheduled Job Start: frappe.social.doctype.energy_point_log.energy_point_log.send_monthly_summary for dev1
2021-09-02 10:37:43,603 INFO scheduler Scheduled Job Complete: frappe.social.doctype.energy_point_log.energy_point_log.send_monthly_summary for dev1
2021-09-02 10:37:43,613 DEBUG scheduler Queued events for site dev1
2021-09-02 10:37:43,731 INFO scheduler Scheduled Job Start: frappe.email.doctype.auto_email_report.auto_email_report.send_monthly for dev1
2021-09-02 10:37:43,733 INFO scheduler Scheduled Job Complete: frappe.integrations.doctype.s3_backup_settings.s3_backup_settings.take_backups_monthly for dev1
2021-09-02 10:37:43,853 INFO scheduler Scheduled Job Start: frappe.integrations.doctype.google_drive.google_drive.weekly_backup for dev1
2021-09-02 10:37:44,418 INFO scheduler Scheduled Job Complete: frappe.email.doctype.auto_email_report.auto_email_report.send_monthly for dev1
2021-09-02 10:37:44,552 INFO scheduler Scheduled Job Start: frappe.core.doctype.log_settings.log_settings.run_log_clean_up for dev1
2021-09-02 10:37:44,555 INFO scheduler Scheduled Job Complete: frappe.integrations.doctype.google_drive.google_drive.weekly_backup for dev1
2021-09-02 10:37:44,682 INFO scheduler Scheduled Job Start: frappe.social.doctype.energy_point_log.energy_point_log.send_weekly_summary for dev1
2021-09-02 10:37:45,181 INFO scheduler Scheduled Job Complete: frappe.core.doctype.log_settings.log_settings.run_log_clean_up for dev1
2021-09-02 10:37:45,216 INFO scheduler Scheduled Job Complete: frappe.social.doctype.energy_point_log.energy_point_log.send_weekly_summary for dev1
2021-09-02 10:37:45,278 INFO scheduler Scheduled Job Start: frappe.core.doctype.prepared_report.prepared_report.delete_expired_prepared_reports for dev1
2021-09-02 10:37:45,306 INFO scheduler Scheduled Job Start: frappe.desk.form.document_follow.send_weekly_updates for dev1
2021-09-02 10:37:45,751 INFO scheduler Scheduled Job Complete: frappe.core.doctype.prepared_report.prepared_report.delete_expired_prepared_reports for dev1
2021-09-02 10:37:45,774 INFO scheduler Scheduled Job Complete: frappe.desk.form.document_follow.send_weekly_updates for dev1
2021-09-02 10:37:45,852 INFO scheduler Scheduled Job Start: frappe.email.doctype.unhandled_email.unhandled_email.remove_old_unhandled_emails for dev1
2021-09-02 10:37:45,880 INFO scheduler Scheduled Job Start: frappe.desk.doctype.route_history.route_history.flush_old_route_records for dev1
2021-09-02 10:37:46,368 INFO scheduler Scheduled Job Complete: frappe.email.doctype.unhandled_email.unhandled_email.remove_old_unhandled_emails for dev1
2021-09-02 10:37:46,435 INFO scheduler Scheduled Job Complete: frappe.desk.doctype.route_history.route_history.flush_old_route_records for dev1
2021-09-02 10:37:46,459 INFO scheduler Scheduled Job Start: frappe.automation.doctype.auto_repeat.auto_repeat.set_auto_repeat_as_completed for dev1
2021-09-02 10:37:46,522 INFO scheduler Scheduled Job Start: frappe.integrations.doctype.s3_backup_settings.s3_backup_settings.take_backups_weekly for dev1
2021-09-02 10:37:47,073 INFO scheduler Scheduled Job Complete: frappe.automation.doctype.auto_repeat.auto_repeat.set_auto_repeat_as_completed for dev1
2021-09-02 10:37:47,182 INFO scheduler Scheduled Job Complete: frappe.integrations.doctype.s3_backup_settings.s3_backup_settings.take_backups_weekly for dev1
2021-09-02 10:37:47,197 INFO scheduler Scheduled Job Start: frappe.automation.doctype.auto_repeat.auto_repeat.make_auto_repeat_entry for dev1
2021-09-02 10:37:47,280 INFO scheduler Scheduled Job Start: frappe.integrations.doctype.dropbox_settings.dropbox_settings.take_backups_weekly for dev1
2021-09-02 10:37:47,630 INFO scheduler Scheduled Job Complete: frappe.automation.doctype.auto_repeat.auto_repeat.make_auto_repeat_entry for dev1
2021-09-02 10:37:47,730 INFO scheduler Scheduled Job Start: frappe.integrations.doctype.google_contacts.google_contacts.sync for dev1
2021-09-02 10:37:47,950 INFO scheduler Scheduled Job Complete: frappe.integrations.doctype.dropbox_settings.dropbox_settings.take_backups_weekly for dev1
2021-09-02 10:37:48,036 INFO scheduler Scheduled Job Start: frappe.integrations.doctype.google_drive.google_drive.daily_backup for dev1
2021-09-02 10:37:48,525 INFO scheduler Scheduled Job Complete: frappe.integrations.doctype.google_contacts.google_contacts.sync for dev1
2021-09-02 10:37:48,652 INFO scheduler Scheduled Job Start: frappe.social.doctype.energy_point_settings.energy_point_settings.allocate_review_points for dev1
2021-09-02 10:37:48,755 INFO scheduler Scheduled Job Complete: frappe.integrations.doctype.google_drive.google_drive.daily_backup for dev1
2021-09-02 10:37:48,866 INFO scheduler Scheduled Job Start: frappe.integrations.doctype.s3_backup_settings.s3_backup_settings.take_backups_daily for dev1
2021-09-02 10:37:49,152 INFO scheduler Scheduled Job Complete: frappe.social.doctype.energy_point_settings.energy_point_settings.allocate_review_points for dev1
2021-09-02 10:37:49,279 INFO scheduler Scheduled Job Start: frappe.desk.form.document_follow.send_daily_updates for dev1
2021-09-02 10:37:49,411 INFO scheduler Scheduled Job Complete: frappe.integrations.doctype.s3_backup_settings.s3_backup_settings.take_backups_daily for dev1
2021-09-02 10:37:49,533 INFO scheduler Scheduled Job Start: frappe.utils.change_log.check_for_update for dev1
2021-09-02 10:37:49,814 INFO scheduler Scheduled Job Complete: frappe.desk.form.document_follow.send_daily_updates for dev1
2021-09-02 10:37:49,905 INFO scheduler Scheduled Job Start: frappe.website.doctype.personal_data_deletion_request.personal_data_deletion_request.remove_unverified_record for dev1
2021-09-02 10:37:50,393 INFO scheduler Scheduled Job Complete: frappe.website.doctype.personal_data_deletion_request.personal_data_deletion_request.remove_unverified_record for dev1
2021-09-02 10:37:50,493 INFO scheduler Scheduled Job Start: frappe.email.doctype.auto_email_report.auto_email_report.send_daily for dev1
2021-09-02 10:37:51,010 INFO scheduler Scheduled Job Complete: frappe.email.doctype.auto_email_report.auto_email_report.send_daily for dev1
2021-09-02 10:37:51,112 INFO scheduler Scheduled Job Start: frappe.utils.scheduler.restrict_scheduler_events_if_dormant for dev1
2021-09-02 10:37:51,354 INFO scheduler Scheduled Job Complete: frappe.utils.change_log.check_for_update for dev1
2021-09-02 10:37:51,444 INFO scheduler Scheduled Job Start: frappe.integrations.doctype.dropbox_settings.dropbox_settings.take_backups_daily for dev1
2021-09-02 10:37:51,535 INFO scheduler Scheduled Job Failed: frappe.utils.scheduler.restrict_scheduler_events_if_dormant for dev1
2021-09-02 10:37:51,623 INFO scheduler Scheduled Job Start: frappe.email.doctype.notification.notification.trigger_daily_alerts for dev1
2021-09-02 10:37:52,121 INFO scheduler Scheduled Job Complete: frappe.integrations.doctype.dropbox_settings.dropbox_settings.take_backups_daily for dev1
2021-09-02 10:37:52,142 INFO scheduler Scheduled Job Complete: frappe.email.doctype.notification.notification.trigger_daily_alerts for dev1
2021-09-02 10:37:52,255 INFO scheduler Scheduled Job Start: frappe.sessions.clear_expired_sessions for dev1
2021-09-02 10:37:52,681 INFO scheduler Scheduled Job Complete: frappe.sessions.clear_expired_sessions for dev1
2021-09-02 10:37:52,787 INFO scheduler Scheduled Job Start: frappe.desk.doctype.event.event.send_event_digest for dev1
2021-09-02 10:37:53,330 INFO scheduler Scheduled Job Complete: frappe.desk.doctype.event.event.send_event_digest for dev1
2021-09-02 10:37:53,427 INFO scheduler Scheduled Job Start: frappe.core.doctype.error_log.error_log.set_old_logs_as_seen for dev1
2021-09-02 10:37:53,818 INFO scheduler Scheduled Job Complete: frappe.core.doctype.error_log.error_log.set_old_logs_as_seen for dev1
2021-09-02 10:37:53,915 INFO scheduler Scheduled Job Start: frappe.desk.notifications.clear_notifications for dev1
2021-09-02 10:37:54,303 INFO scheduler Scheduled Job Complete: frappe.desk.notifications.clear_notifications for dev1
2021-09-02 10:37:54,415 INFO scheduler Scheduled Job Start: frappe.email.queue.set_expiry_for_email_queue for dev1
2021-09-02 10:37:54,838 INFO scheduler Scheduled Job Complete: frappe.email.queue.set_expiry_for_email_queue for dev1
2021-09-02 10:37:54,936 INFO scheduler Scheduled Job Start: frappe.email.doctype.newsletter.newsletter.send_scheduled_email for dev1
2021-09-02 10:37:55,425 INFO scheduler Scheduled Job Complete: frappe.email.doctype.newsletter.newsletter.send_scheduled_email for dev1
2021-09-02 10:37:55,524 INFO scheduler Scheduled Job Start: frappe.integrations.doctype.google_calendar.google_calendar.sync for dev1
2021-09-02 10:37:56,196 INFO scheduler Scheduled Job Complete: frappe.integrations.doctype.google_calendar.google_calendar.sync for dev1
2021-09-02 10:37:56,295 INFO scheduler Scheduled Job Start: frappe.desk.form.document_follow.send_hourly_updates for dev1
2021-09-02 10:37:56,700 INFO scheduler Scheduled Job Complete: frappe.desk.form.document_follow.send_hourly_updates for dev1
2021-09-02 10:37:56,803 INFO scheduler Scheduled Job Start: frappe.deferred_insert.save_to_db for dev1
2021-09-02 10:37:57,309 INFO scheduler Scheduled Job Complete: frappe.deferred_insert.save_to_db for dev1
2021-09-02 10:37:57,412 INFO scheduler Scheduled Job Start: frappe.desk.page.backups.backups.delete_downloadable_backups for dev1
2021-09-02 10:37:57,802 INFO scheduler Scheduled Job Complete: frappe.desk.page.backups.backups.delete_downloadable_backups for dev1
2021-09-02 10:37:57,906 INFO scheduler Scheduled Job Start: frappe.utils.error.collect_error_snapshots for dev1
2021-09-02 10:37:58,277 INFO scheduler Scheduled Job Complete: frappe.utils.error.collect_error_snapshots for dev1
2021-09-02 10:37:58,383 INFO scheduler Scheduled Job Start: frappe.model.utils.user_settings.sync_user_settings for dev1
2021-09-02 10:37:58,785 INFO scheduler Scheduled Job Complete: frappe.model.utils.user_settings.sync_user_settings for dev1
2021-09-02 10:37:58,889 INFO scheduler Scheduled Job Start: frappe.model.utils.link_count.update_link_count for dev1
2021-09-02 10:37:59,293 INFO scheduler Scheduled Job Complete: frappe.model.utils.link_count.update_link_count for dev1
2021-09-02 10:37:59,400 INFO scheduler Scheduled Job Start: frappe.monitor.flush for dev1
2021-09-02 10:37:59,666 INFO scheduler Scheduled Job Complete: frappe.monitor.flush for dev1
2021-09-02 10:37:59,771 INFO scheduler Scheduled Job Start: frappe.utils.global_search.sync_global_search for dev1
2021-09-02 10:38:00,273 INFO scheduler Scheduled Job Complete: frappe.utils.global_search.sync_global_search for dev1
2021-09-02 10:38:00,360 INFO scheduler Scheduled Job Start: frappe.integrations.doctype.razorpay_settings.razorpay_settings.capture_payment for dev1
2021-09-02 10:38:00,863 INFO scheduler Scheduled Job Complete: frappe.integrations.doctype.razorpay_settings.razorpay_settings.capture_payment for dev1
2021-09-02 10:38:00,972 INFO scheduler Scheduled Job Start: frappe.email.doctype.email_account.email_account.notify_unreplied for dev1
2021-09-02 10:38:01,296 INFO scheduler Scheduled Job Complete: frappe.email.doctype.email_account.email_account.notify_unreplied for dev1
2021-09-02 10:38:01,389 INFO scheduler Scheduled Job Start: frappe.email.doctype.email_account.email_account.pull for dev1
2021-09-02 10:38:01,708 INFO scheduler Scheduled Job Complete: frappe.email.doctype.email_account.email_account.pull for dev1
2021-09-02 10:38:01,816 INFO scheduler Scheduled Job Start: frappe.email.queue.flush for dev1
2021-09-02 10:38:02,115 INFO scheduler Scheduled Job Complete: frappe.email.queue.flush for dev1
2021-09-02 10:38:02,215 INFO scheduler Scheduled Job Start: frappe.twofactor.delete_all_barcodes_for_users for dev1
2021-09-02 10:38:02,630 INFO scheduler Scheduled Job Complete: frappe.twofactor.delete_all_barcodes_for_users for dev1
2021-09-02 10:38:02,722 INFO scheduler Scheduled Job Start: frappe.website.doctype.web_page.web_page.check_publish_status for dev1
2021-09-02 10:38:03,282 INFO scheduler Scheduled Job Complete: frappe.website.doctype.web_page.web_page.check_publish_status for dev1
2021-09-02 10:38:03,425 INFO scheduler Scheduled Job Start: frappe.oauth.delete_oauth2_data for dev1
2021-09-02 10:38:04,036 INFO scheduler Scheduled Job Complete: frappe.oauth.delete_oauth2_data for dev1
2021-09-02 10:38:44,129 DEBUG scheduler Queued events for site dev1
2021-09-02 10:39:44,516 DEBUG scheduler Queued events for site dev1
2021-09-02 10:40:44,891 DEBUG scheduler Queued events for site dev1
2021-09-02 10:40:44,937 INFO scheduler Scheduled Job Start: frappe.monitor.flush for dev1
2021-09-02 10:40:45,239 INFO scheduler Scheduled Job Complete: frappe.monitor.flush for dev1
2021-09-02 10:40:45,335 INFO scheduler Scheduled Job Start: frappe.utils.global_search.sync_global_search for dev1
2021-09-02 10:40:45,592 INFO scheduler Scheduled Job Complete: frappe.utils.global_search.sync_global_search for dev1
2021-09-02 10:40:45,687 INFO scheduler Scheduled Job Start: frappe.integrations.doctype.razorpay_settings.razorpay_settings.capture_payment for dev1
2021-09-02 10:40:46,108 INFO scheduler Scheduled Job Complete: frappe.integrations.doctype.razorpay_settings.razorpay_settings.capture_payment for dev1
2021-09-02 10:40:46,224 INFO scheduler Scheduled Job Start: frappe.email.doctype.email_account.email_account.notify_unreplied for dev1
2021-09-02 10:40:46,553 INFO scheduler Scheduled Job Complete: frappe.email.doctype.email_account.email_account.notify_unreplied for dev1
2021-09-02 10:40:46,650 INFO scheduler Scheduled Job Start: frappe.email.doctype.email_account.email_account.pull for dev1
2021-09-02 10:40:46,999 INFO scheduler Scheduled Job Complete: frappe.email.doctype.email_account.email_account.pull for dev1
2021-09-02 10:40:47,114 INFO scheduler Scheduled Job Start: frappe.email.queue.flush for dev1
2021-09-02 10:40:47,395 INFO scheduler Scheduled Job Complete: frappe.email.queue.flush for dev1
2021-09-02 10:41:45,357 DEBUG scheduler Queued events for site dev1
2021-09-02 10:42:45,757 DEBUG scheduler Queued events for site dev1
2021-09-02 10:43:46,128 DEBUG scheduler Queued events for site dev1
2021-09-02 10:44:46,554 DEBUG scheduler Queued events for site dev1
2021-09-02 10:44:46,592 INFO scheduler Scheduled Job Start: frappe.monitor.flush for dev1
2021-09-02 10:44:46,869 INFO scheduler Scheduled Job Complete: frappe.monitor.flush for dev1
2021-09-02 10:44:46,966 INFO scheduler Scheduled Job Start: frappe.utils.global_search.sync_global_search for dev1
2021-09-02 10:44:47,240 INFO scheduler Scheduled Job Complete: frappe.utils.global_search.sync_global_search for dev1
2021-09-02 10:44:47,357 INFO scheduler Scheduled Job Start: frappe.integrations.doctype.razorpay_settings.razorpay_settings.capture_payment for dev1
2021-09-02 10:44:47,794 INFO scheduler Scheduled Job Complete: frappe.integrations.doctype.razorpay_settings.razorpay_settings.capture_payment for dev1
2021-09-02 10:44:47,906 INFO scheduler Scheduled Job Start: frappe.email.doctype.email_account.email_account.notify_unreplied for dev1
2021-09-02 10:44:48,259 INFO scheduler Scheduled Job Complete: frappe.email.doctype.email_account.email_account.notify_unreplied for dev1
2021-09-02 10:44:48,364 INFO scheduler Scheduled Job Start: frappe.email.doctype.email_account.email_account.pull for dev1
2021-09-02 10:44:48,736 INFO scheduler Scheduled Job Complete: frappe.email.doctype.email_account.email_account.pull for dev1
2021-09-02 10:44:48,838 INFO scheduler Scheduled Job Start: frappe.email.queue.flush for dev1
2021-09-02 10:44:49,134 INFO scheduler Scheduled Job Complete: frappe.email.queue.flush for dev1
2021-09-02 10:45:46,997 DEBUG scheduler Queued events for site dev1
2021-09-02 10:45:47,066 INFO scheduler Scheduled Job Start: frappe.twofactor.delete_all_barcodes_for_users for dev1
2021-09-02 10:45:47,504 INFO scheduler Scheduled Job Complete: frappe.twofactor.delete_all_barcodes_for_users for dev1
2021-09-02 10:45:47,598 INFO scheduler Scheduled Job Start: frappe.website.doctype.web_page.web_page.check_publish_status for dev1
2021-09-02 10:45:48,047 INFO scheduler Scheduled Job Complete: frappe.website.doctype.web_page.web_page.check_publish_status for dev1
2021-09-02 10:45:48,138 INFO scheduler Scheduled Job Start: frappe.oauth.delete_oauth2_data for dev1
2021-09-02 10:45:48,561 INFO scheduler Scheduled Job Complete: frappe.oauth.delete_oauth2_data for dev1
2021-09-02 10:46:47,426 DEBUG scheduler Queued events for site dev1
2021-09-02 10:47:47,827 DEBUG scheduler Queued events for site dev1
2021-09-02 10:48:48,243 DEBUG scheduler Queued events for site dev1
2021-09-02 10:48:48,279 INFO scheduler Scheduled Job Start: frappe.monitor.flush for dev1
2021-09-02 10:48:48,578 INFO scheduler Scheduled Job Complete: frappe.monitor.flush for dev1
2021-09-02 10:48:48,688 INFO scheduler Scheduled Job Start: frappe.utils.global_search.sync_global_search for dev1
2021-09-02 10:48:48,983 INFO scheduler Scheduled Job Complete: frappe.utils.global_search.sync_global_search for dev1
2021-09-02 10:48:49,087 INFO scheduler Scheduled Job Start: frappe.integrations.doctype.razorpay_settings.razorpay_settings.capture_payment for dev1
2021-09-02 10:48:49,488 INFO scheduler Scheduled Job Complete: frappe.integrations.doctype.razorpay_settings.razorpay_settings.capture_payment for dev1
2021-09-02 10:48:49,581 INFO scheduler Scheduled Job Start: frappe.email.doctype.email_account.email_account.notify_unreplied for dev1
2021-09-02 10:48:49,907 INFO scheduler Scheduled Job Complete: frappe.email.doctype.email_account.email_account.notify_unreplied for dev1
2021-09-02 10:48:50,010 INFO scheduler Scheduled Job Start: frappe.email.doctype.email_account.email_account.pull for dev1
2021-09-02 10:48:50,381 INFO scheduler Scheduled Job Complete: frappe.email.doctype.email_account.email_account.pull for dev1
2021-09-02 10:48:50,475 INFO scheduler Scheduled Job Start: frappe.email.queue.flush for dev1
2021-09-02 10:48:50,780 INFO scheduler Scheduled Job Complete: frappe.email.queue.flush for dev1
2021-09-02 10:49:48,705 DEBUG scheduler Queued events for site dev1
2021-09-02 10:50:49,122 DEBUG scheduler Queued events for site dev1
2021-09-02 10:51:49,522 DEBUG scheduler Queued events for site dev1
2021-09-02 10:52:49,964 DEBUG scheduler Queued events for site dev1
2021-09-02 10:52:50,013 INFO scheduler Scheduled Job Start: frappe.monitor.flush for dev1
2021-09-02 10:52:50,288 INFO scheduler Scheduled Job Complete: frappe.monitor.flush for dev1
2021-09-02 10:52:50,382 INFO scheduler Scheduled Job Start: frappe.utils.global_search.sync_global_search for dev1
2021-09-02 10:52:50,633 INFO scheduler Scheduled Job Complete: frappe.utils.global_search.sync_global_search for dev1
2021-09-02 10:52:50,724 INFO scheduler Scheduled Job Start: frappe.integrations.doctype.razorpay_settings.razorpay_settings.capture_payment for dev1
2021-09-02 10:52:51,089 INFO scheduler Scheduled Job Complete: frappe.integrations.doctype.razorpay_settings.razorpay_settings.capture_payment for dev1
2021-09-02 10:52:51,184 INFO scheduler Scheduled Job Start: frappe.email.doctype.email_account.email_account.notify_unreplied for dev1
2021-09-02 10:52:51,512 INFO scheduler Scheduled Job Complete: frappe.email.doctype.email_account.email_account.notify_unreplied for dev1
2021-09-02 10:52:51,626 INFO scheduler Scheduled Job Start: frappe.email.doctype.email_account.email_account.pull for dev1
2021-09-02 10:52:51,957 INFO scheduler Scheduled Job Complete: frappe.email.doctype.email_account.email_account.pull for dev1
2021-09-02 10:52:52,050 INFO scheduler Scheduled Job Start: frappe.email.queue.flush for dev1
2021-09-02 10:52:52,334 INFO scheduler Scheduled Job Complete: frappe.email.queue.flush for dev1
2021-09-02 10:53:50,421 DEBUG scheduler Queued events for site dev1
2021-09-02 10:54:50,844 DEBUG scheduler Queued events for site dev1
2021-09-02 10:55:51,250 DEBUG scheduler Queued events for site dev1
2021-09-02 10:56:51,638 DEBUG scheduler Queued events for site dev1
2021-09-02 10:56:51,680 INFO scheduler Scheduled Job Start: frappe.monitor.flush for dev1
2021-09-02 10:56:51,998 INFO scheduler Scheduled Job Complete: frappe.monitor.flush for dev1
2021-09-02 10:56:52,092 INFO scheduler Scheduled Job Start: frappe.utils.global_search.sync_global_search for dev1
2021-09-02 10:56:52,368 INFO scheduler Scheduled Job Complete: frappe.utils.global_search.sync_global_search for dev1
2021-09-02 10:56:52,472 INFO scheduler Scheduled Job Start: frappe.integrations.doctype.razorpay_settings.razorpay_settings.capture_payment for dev1
2021-09-02 10:56:52,846 INFO scheduler Scheduled Job Complete: frappe.integrations.doctype.razorpay_settings.razorpay_settings.capture_payment for dev1
2021-09-02 10:56:52,961 INFO scheduler Scheduled Job Start: frappe.email.doctype.email_account.email_account.notify_unreplied for dev1
2021-09-02 10:56:53,285 INFO scheduler Scheduled Job Complete: frappe.email.doctype.email_account.email_account.notify_unreplied for dev1
2021-09-02 10:56:53,372 INFO scheduler Scheduled Job Start: frappe.email.doctype.email_account.email_account.pull for dev1
2021-09-02 10:56:53,694 INFO scheduler Scheduled Job Complete: frappe.email.doctype.email_account.email_account.pull for dev1
2021-09-02 10:56:53,783 INFO scheduler Scheduled Job Start: frappe.email.queue.flush for dev1
2021-09-02 10:56:54,031 INFO scheduler Scheduled Job Complete: frappe.email.queue.flush for dev1
2021-09-02 10:57:52,121 DEBUG scheduler Queued events for site dev1
2021-09-02 10:58:52,516 DEBUG scheduler Queued events for site dev1
2021-09-02 10:59:52,915 DEBUG scheduler Queued events for site dev1
2021-09-02 11:00:53,397 INFO scheduler Scheduled Job Start: frappe.email.doctype.newsletter.newsletter.send_scheduled_email for dev1
2021-09-02 11:00:53,471 DEBUG scheduler Queued events for site dev1
2021-09-02 11:00:53,916 INFO scheduler Scheduled Job Complete: frappe.email.doctype.newsletter.newsletter.send_scheduled_email for dev1
2021-09-02 11:00:54,025 INFO scheduler Scheduled Job Start: frappe.integrations.doctype.google_calendar.google_calendar.sync for dev1
2021-09-02 11:00:54,601 INFO scheduler Scheduled Job Complete: frappe.integrations.doctype.google_calendar.google_calendar.sync for dev1
2021-09-02 11:00:54,699 INFO scheduler Scheduled Job Start: frappe.desk.form.document_follow.send_hourly_updates for dev1
2021-09-02 11:00:55,065 INFO scheduler Scheduled Job Complete: frappe.desk.form.document_follow.send_hourly_updates for dev1
2021-09-02 11:00:55,161 INFO scheduler Scheduled Job Start: frappe.deferred_insert.save_to_db for dev1
2021-09-02 11:00:55,695 INFO scheduler Scheduled Job Complete: frappe.deferred_insert.save_to_db for dev1
2021-09-02 11:00:55,815 INFO scheduler Scheduled Job Start: frappe.desk.page.backups.backups.delete_downloadable_backups for dev1
2021-09-02 11:00:56,273 INFO scheduler Scheduled Job Complete: frappe.desk.page.backups.backups.delete_downloadable_backups for dev1
2021-09-02 11:00:56,380 INFO scheduler Scheduled Job Start: frappe.utils.error.collect_error_snapshots for dev1
2021-09-02 11:00:56,816 INFO scheduler Scheduled Job Complete: frappe.utils.error.collect_error_snapshots for dev1
2021-09-02 11:00:56,922 INFO scheduler Scheduled Job Start: frappe.model.utils.user_settings.sync_user_settings for dev1
2021-09-02 11:00:57,361 INFO scheduler Scheduled Job Complete: frappe.model.utils.user_settings.sync_user_settings for dev1
2021-09-02 11:00:57,492 INFO scheduler Scheduled Job Start: frappe.model.utils.link_count.update_link_count for dev1
2021-09-02 11:00:57,950 INFO scheduler Scheduled Job Complete: frappe.model.utils.link_count.update_link_count for dev1
2021-09-02 11:00:58,056 INFO scheduler Scheduled Job Start: frappe.monitor.flush for dev1
2021-09-02 11:00:58,351 INFO scheduler Scheduled Job Complete: frappe.monitor.flush for dev1
2021-09-02 11:00:58,444 INFO scheduler Scheduled Job Start: frappe.utils.global_search.sync_global_search for dev1
2021-09-02 11:00:58,700 INFO scheduler Scheduled Job Complete: frappe.utils.global_search.sync_global_search for dev1
2021-09-02 11:00:58,797 INFO scheduler Scheduled Job Start: frappe.integrations.doctype.razorpay_settings.razorpay_settings.capture_payment for dev1
2021-09-02 11:00:59,190 INFO scheduler Scheduled Job Complete: frappe.integrations.doctype.razorpay_settings.razorpay_settings.capture_payment for dev1
2021-09-02 11:00:59,286 INFO scheduler Scheduled Job Start: frappe.email.doctype.email_account.email_account.notify_unreplied for dev1
2021-09-02 11:00:59,616 INFO scheduler Scheduled Job Complete: frappe.email.doctype.email_account.email_account.notify_unreplied for dev1
2021-09-02 11:00:59,708 INFO scheduler Scheduled Job Start: frappe.email.doctype.email_account.email_account.pull for dev1
2021-09-02 11:01:00,072 INFO scheduler Scheduled Job Complete: frappe.email.doctype.email_account.email_account.pull for dev1
2021-09-02 11:01:00,179 INFO scheduler Scheduled Job Start: frappe.email.queue.flush for dev1
2021-09-02 11:01:00,459 INFO scheduler Scheduled Job Complete: frappe.email.queue.flush for dev1
2021-09-02 11:01:00,546 INFO scheduler Scheduled Job Start: frappe.twofactor.delete_all_barcodes_for_users for dev1
2021-09-02 11:01:00,958 INFO scheduler Scheduled Job Complete: frappe.twofactor.delete_all_barcodes_for_users for dev1
2021-09-02 11:01:01,060 INFO scheduler Scheduled Job Start: frappe.website.doctype.web_page.web_page.check_publish_status for dev1
2021-09-02 11:01:01,509 INFO scheduler Scheduled Job Complete: frappe.website.doctype.web_page.web_page.check_publish_status for dev1
2021-09-02 11:01:01,607 INFO scheduler Scheduled Job Start: frappe.oauth.delete_oauth2_data for dev1
2021-09-02 11:01:01,997 INFO scheduler Scheduled Job Complete: frappe.oauth.delete_oauth2_data for dev1
2021-09-02 11:01:54,054 DEBUG scheduler Queued events for site dev1
2021-09-02 11:02:54,449 DEBUG scheduler Queued events for site dev1
2021-09-02 11:03:54,815 DEBUG scheduler Queued events for site dev1
2021-09-02 11:04:55,190 DEBUG scheduler Queued events for site dev1
2021-09-02 11:04:55,225 INFO scheduler Scheduled Job Start: frappe.monitor.flush for dev1
2021-09-02 11:04:55,485 INFO scheduler Scheduled Job Complete: frappe.monitor.flush for dev1
2021-09-02 11:04:55,604 INFO scheduler Scheduled Job Start: frappe.utils.global_search.sync_global_search for dev1
2021-09-02 11:04:55,854 INFO scheduler Scheduled Job Complete: frappe.utils.global_search.sync_global_search for dev1
2021-09-02 11:04:55,947 INFO scheduler Scheduled Job Start: frappe.integrations.doctype.razorpay_settings.razorpay_settings.capture_payment for dev1
2021-09-02 11:04:56,343 INFO scheduler Scheduled Job Complete: frappe.integrations.doctype.razorpay_settings.razorpay_settings.capture_payment for dev1
2021-09-02 11:04:56,423 INFO scheduler Scheduled Job Start: frappe.email.doctype.email_account.email_account.notify_unreplied for dev1
2021-09-02 11:04:56,765 INFO scheduler Scheduled Job Complete: frappe.email.doctype.email_account.email_account.notify_unreplied for dev1
2021-09-02 11:04:56,863 INFO scheduler Scheduled Job Start: frappe.email.doctype.email_account.email_account.pull for dev1
2021-09-02 11:04:57,195 INFO scheduler Scheduled Job Complete: frappe.email.doctype.email_account.email_account.pull for dev1
2021-09-02 11:04:57,293 INFO scheduler Scheduled Job Start: frappe.email.queue.flush for dev1
2021-09-02 11:04:57,542 INFO scheduler Scheduled Job Complete: frappe.email.queue.flush for dev1
2021-09-02 11:05:55,605 DEBUG scheduler Queued events for site dev1
2021-09-02 11:06:55,997 DEBUG scheduler Queued events for site dev1
2021-09-02 11:07:56,368 DEBUG scheduler Queued events for site dev1
2021-09-02 11:08:56,742 DEBUG scheduler Queued events for site dev1
2021-09-02 11:08:56,780 INFO scheduler Scheduled Job Start: frappe.monitor.flush for dev1
2021-09-02 11:08:57,030 INFO scheduler Scheduled Job Complete: frappe.monitor.flush for dev1
2021-09-02 11:08:57,118 INFO scheduler Scheduled Job Start: frappe.utils.global_search.sync_global_search for dev1
2021-09-02 11:08:57,364 INFO scheduler Scheduled Job Complete: frappe.utils.global_search.sync_global_search for dev1
2021-09-02 11:08:57,453 INFO scheduler Scheduled Job Start: frappe.integrations.doctype.razorpay_settings.razorpay_settings.capture_payment for dev1
2021-09-02 11:08:57,843 INFO scheduler Scheduled Job Complete: frappe.integrations.doctype.razorpay_settings.razorpay_settings.capture_payment for dev1
2021-09-02 11:08:57,942 INFO scheduler Scheduled Job Start: frappe.email.doctype.email_account.email_account.notify_unreplied for dev1
2021-09-02 11:08:58,260 INFO scheduler Scheduled Job Complete: frappe.email.doctype.email_account.email_account.notify_unreplied for dev1
2021-09-02 11:08:58,359 INFO scheduler Scheduled Job Start: frappe.email.doctype.email_account.email_account.pull for dev1
2021-09-02 11:08:58,675 INFO scheduler Scheduled Job Complete: frappe.email.doctype.email_account.email_account.pull for dev1
2021-09-02 11:08:58,775 INFO scheduler Scheduled Job Start: frappe.email.queue.flush for dev1
2021-09-02 11:08:59,048 INFO scheduler Scheduled Job Complete: frappe.email.queue.flush for dev1
2021-09-02 11:09:57,151 DEBUG scheduler Queued events for site dev1
2021-09-02 11:10:57,544 DEBUG scheduler Queued events for site dev1
2021-09-02 11:11:57,910 DEBUG scheduler Queued events for site dev1
2021-09-02 11:12:58,291 DEBUG scheduler Queued events for site dev1
2021-09-02 11:12:58,329 INFO scheduler Scheduled Job Start: frappe.monitor.flush for dev1
2021-09-02 11:12:58,587 INFO scheduler Scheduled Job Complete: frappe.monitor.flush for dev1
2021-09-02 11:12:58,684 INFO scheduler Scheduled Job Start: frappe.utils.global_search.sync_global_search for dev1
2021-09-02 11:12:58,917 INFO scheduler Scheduled Job Complete: frappe.utils.global_search.sync_global_search for dev1
2021-09-02 11:12:59,010 INFO scheduler Scheduled Job Start: frappe.integrations.doctype.razorpay_settings.razorpay_settings.capture_payment for dev1
2021-09-02 11:12:59,389 INFO scheduler Scheduled Job Complete: frappe.integrations.doctype.razorpay_settings.razorpay_settings.capture_payment for dev1
2021-09-02 11:12:59,492 INFO scheduler Scheduled Job Start: frappe.email.doctype.email_account.email_account.notify_unreplied for dev1
2021-09-02 11:12:59,797 INFO scheduler Scheduled Job Complete: frappe.email.doctype.email_account.email_account.notify_unreplied for dev1
2021-09-02 11:12:59,892 INFO scheduler Scheduled Job Start: frappe.email.doctype.email_account.email_account.pull for dev1
2021-09-02 11:13:00,231 INFO scheduler Scheduled Job Complete: frappe.email.doctype.email_account.email_account.pull for dev1
2021-09-02 11:13:00,330 INFO scheduler Scheduled Job Start: frappe.email.queue.flush for dev1
2021-09-02 11:13:00,590 INFO scheduler Scheduled Job Complete: frappe.email.queue.flush for dev1
2021-09-02 11:13:58,709 DEBUG scheduler Queued events for site dev1
2021-09-02 11:14:59,076 DEBUG scheduler Queued events for site dev1
2021-09-02 11:15:59,444 DEBUG scheduler Queued events for site dev1
2021-09-02 11:15:59,515 INFO scheduler Scheduled Job Start: frappe.twofactor.delete_all_barcodes_for_users for dev1
2021-09-02 11:15:59,954 INFO scheduler Scheduled Job Complete: frappe.twofactor.delete_all_barcodes_for_users for dev1
2021-09-02 11:16:00,048 INFO scheduler Scheduled Job Start: frappe.website.doctype.web_page.web_page.check_publish_status for dev1
2021-09-02 11:16:00,497 INFO scheduler Scheduled Job Complete: frappe.website.doctype.web_page.web_page.check_publish_status for dev1
2021-09-02 11:16:00,607 INFO scheduler Scheduled Job Start: frappe.oauth.delete_oauth2_data for dev1
2021-09-02 11:16:00,998 INFO scheduler Scheduled Job Complete: frappe.oauth.delete_oauth2_data for dev1
2021-09-02 11:16:59,887 DEBUG scheduler Queued events for site dev1
2021-09-02 11:16:59,929 INFO scheduler Scheduled Job Start: frappe.monitor.flush for dev1
2021-09-02 11:17:00,213 INFO scheduler Scheduled Job Complete: frappe.monitor.flush for dev1
2021-09-02 11:17:00,323 INFO scheduler Scheduled Job Start: frappe.utils.global_search.sync_global_search for dev1
2021-09-02 11:17:00,585 INFO scheduler Scheduled Job Complete: frappe.utils.global_search.sync_global_search for dev1
2021-09-02 11:17:00,667 INFO scheduler Scheduled Job Start: frappe.integrations.doctype.razorpay_settings.razorpay_settings.capture_payment for dev1
2021-09-02 11:17:01,031 INFO scheduler Scheduled Job Complete: frappe.integrations.doctype.razorpay_settings.razorpay_settings.capture_payment for dev1
2021-09-02 11:17:01,133 INFO scheduler Scheduled Job Start: frappe.email.doctype.email_account.email_account.notify_unreplied for dev1
2021-09-02 11:17:01,452 INFO scheduler Scheduled Job Complete: frappe.email.doctype.email_account.email_account.notify_unreplied for dev1
2021-09-02 11:17:01,539 INFO scheduler Scheduled Job Start: frappe.email.doctype.email_account.email_account.pull for dev1
2021-09-02 11:17:01,856 INFO scheduler Scheduled Job Complete: frappe.email.doctype.email_account.email_account.pull for dev1
2021-09-02 11:17:01,945 INFO scheduler Scheduled Job Start: frappe.email.queue.flush for dev1
2021-09-02 11:17:02,208 INFO scheduler Scheduled Job Complete: frappe.email.queue.flush for dev1
2021-09-02 11:18:00,335 DEBUG scheduler Queued events for site dev1
2021-09-02 11:19:00,755 DEBUG scheduler Queued events for site dev1
2021-09-02 11:20:01,165 DEBUG scheduler Queued events for site dev1
2021-09-02 11:20:01,209 INFO scheduler Scheduled Job Start: frappe.monitor.flush for dev1
2021-09-02 11:20:01,469 INFO scheduler Scheduled Job Complete: frappe.monitor.flush for dev1
2021-09-02 11:20:01,568 INFO scheduler Scheduled Job Start: frappe.utils.global_search.sync_global_search for dev1
2021-09-02 11:20:01,798 INFO scheduler Scheduled Job Complete: frappe.utils.global_search.sync_global_search for dev1
2021-09-02 11:20:01,889 INFO scheduler Scheduled Job Start: frappe.integrations.doctype.razorpay_settings.razorpay_settings.capture_payment for dev1
2021-09-02 11:20:02,275 INFO scheduler Scheduled Job Complete: frappe.integrations.doctype.razorpay_settings.razorpay_settings.capture_payment for dev1
2021-09-02 11:20:02,372 INFO scheduler Scheduled Job Start: frappe.email.doctype.email_account.email_account.notify_unreplied for dev1
2021-09-02 11:20:02,665 INFO scheduler Scheduled Job Complete: frappe.email.doctype.email_account.email_account.notify_unreplied for dev1
2021-09-02 11:20:02,773 INFO scheduler Scheduled Job Start: frappe.email.doctype.email_account.email_account.pull for dev1
2021-09-02 11:20:03,092 INFO scheduler Scheduled Job Complete: frappe.email.doctype.email_account.email_account.pull for dev1
2021-09-02 11:20:03,197 INFO scheduler Scheduled Job Start: frappe.email.queue.flush for dev1
2021-09-02 11:20:03,477 INFO scheduler Scheduled Job Complete: frappe.email.queue.flush for dev1
2021-09-02 11:21:01,590 DEBUG scheduler Queued events for site dev1
2021-09-02 11:22:01,984 DEBUG scheduler Queued events for site dev1
2021-09-02 11:23:02,355 DEBUG scheduler Queued events for site dev1
2021-09-02 11:24:02,748 DEBUG scheduler Queued events for site dev1
2021-09-02 11:24:02,785 INFO scheduler Scheduled Job Start: frappe.monitor.flush for dev1
2021-09-02 11:24:03,038 INFO scheduler Scheduled Job Complete: frappe.monitor.flush for dev1
2021-09-02 11:24:03,128 INFO scheduler Scheduled Job Start: frappe.utils.global_search.sync_global_search for dev1
2021-09-02 11:24:03,423 INFO scheduler Scheduled Job Complete: frappe.utils.global_search.sync_global_search for dev1
2021-09-02 11:24:03,514 INFO scheduler Scheduled Job Start: frappe.integrations.doctype.razorpay_settings.razorpay_settings.capture_payment for dev1
2021-09-02 11:24:03,882 INFO scheduler Scheduled Job Complete: frappe.integrations.doctype.razorpay_settings.razorpay_settings.capture_payment for dev1
2021-09-02 11:24:03,969 INFO scheduler Scheduled Job Start: frappe.email.doctype.email_account.email_account.notify_unreplied for dev1
2021-09-02 11:24:04,289 INFO scheduler Scheduled Job Complete: frappe.email.doctype.email_account.email_account.notify_unreplied for dev1
2021-09-02 11:24:04,413 INFO scheduler Scheduled Job Start: frappe.email.doctype.email_account.email_account.pull for dev1
2021-09-02 11:24:04,754 INFO scheduler Scheduled Job Complete: frappe.email.doctype.email_account.email_account.pull for dev1
2021-09-02 11:24:04,852 INFO scheduler Scheduled Job Start: frappe.email.queue.flush for dev1
2021-09-02 11:24:05,144 INFO scheduler Scheduled Job Complete: frappe.email.queue.flush for dev1
2021-09-02 11:25:03,155 DEBUG scheduler Queued events for site dev1
2021-09-02 11:26:03,541 DEBUG scheduler Queued events for site dev1
2021-09-02 11:27:03,894 DEBUG scheduler Queued events for site dev1
2021-09-02 11:28:04,332 DEBUG scheduler Queued events for site dev1
2021-09-02 11:28:04,384 INFO scheduler Scheduled Job Start: frappe.monitor.flush for dev1
2021-09-02 11:28:04,692 INFO scheduler Scheduled Job Complete: frappe.monitor.flush for dev1
2021-09-02 11:28:04,794 INFO scheduler Scheduled Job Start: frappe.utils.global_search.sync_global_search for dev1
2021-09-02 11:28:05,078 INFO scheduler Scheduled Job Complete: frappe.utils.global_search.sync_global_search for dev1
2021-09-02 11:28:05,194 INFO scheduler Scheduled Job Start: frappe.integrations.doctype.razorpay_settings.razorpay_settings.capture_payment for dev1
2021-09-02 11:28:05,617 INFO scheduler Scheduled Job Complete: frappe.integrations.doctype.razorpay_settings.razorpay_settings.capture_payment for dev1
2021-09-02 11:28:05,725 INFO scheduler Scheduled Job Start: frappe.email.doctype.email_account.email_account.notify_unreplied for dev1
2021-09-02 11:28:06,115 INFO scheduler Scheduled Job Complete: frappe.email.doctype.email_account.email_account.notify_unreplied for dev1
2021-09-02 11:28:06,227 INFO scheduler Scheduled Job Start: frappe.email.doctype.email_account.email_account.pull for dev1
2021-09-02 11:28:06,626 INFO scheduler Scheduled Job Complete: frappe.email.doctype.email_account.email_account.pull for dev1
2021-09-02 11:28:06,735 INFO scheduler Scheduled Job Start: frappe.email.queue.flush for dev1
2021-09-02 11:28:07,041 INFO scheduler Scheduled Job Complete: frappe.email.queue.flush for dev1
2021-09-02 11:29:04,775 DEBUG scheduler Queued events for site dev1
2021-09-02 11:30:05,209 DEBUG scheduler Queued events for site dev1
2021-09-02 11:30:05,288 INFO scheduler Scheduled Job Start: frappe.twofactor.delete_all_barcodes_for_users for dev1
2021-09-02 11:30:05,733 INFO scheduler Scheduled Job Complete: frappe.twofactor.delete_all_barcodes_for_users for dev1
2021-09-02 11:30:05,830 INFO scheduler Scheduled Job Start: frappe.website.doctype.web_page.web_page.check_publish_status for dev1
2021-09-02 11:30:06,285 INFO scheduler Scheduled Job Complete: frappe.website.doctype.web_page.web_page.check_publish_status for dev1
2021-09-02 11:30:06,400 INFO scheduler Scheduled Job Start: frappe.oauth.delete_oauth2_data for dev1
2021-09-02 11:30:06,805 INFO scheduler Scheduled Job Complete: frappe.oauth.delete_oauth2_data for dev1
2021-09-02 11:31:05,683 DEBUG scheduler Queued events for site dev1
2021-09-02 11:32:06,120 DEBUG scheduler Queued events for site dev1
2021-09-02 11:32:06,175 INFO scheduler Scheduled Job Start: frappe.monitor.flush for dev1
2021-09-02 11:32:06,461 INFO scheduler Scheduled Job Complete: frappe.monitor.flush for dev1
2021-09-02 11:32:06,561 INFO scheduler Scheduled Job Start: frappe.utils.global_search.sync_global_search for dev1
2021-09-02 11:32:06,815 INFO scheduler Scheduled Job Complete: frappe.utils.global_search.sync_global_search for dev1
2021-09-02 11:32:06,926 INFO scheduler Scheduled Job Start: frappe.integrations.doctype.razorpay_settings.razorpay_settings.capture_payment for dev1
2021-09-02 11:32:07,359 INFO scheduler Scheduled Job Complete: frappe.integrations.doctype.razorpay_settings.razorpay_settings.capture_payment for dev1
2021-09-02 11:32:07,466 INFO scheduler Scheduled Job Start: frappe.email.doctype.email_account.email_account.notify_unreplied for dev1
2021-09-02 11:32:07,851 INFO scheduler Scheduled Job Complete: frappe.email.doctype.email_account.email_account.notify_unreplied for dev1
2021-09-02 11:32:07,963 INFO scheduler Scheduled Job Start: frappe.email.doctype.email_account.email_account.pull for dev1
2021-09-02 11:32:08,336 INFO scheduler Scheduled Job Complete: frappe.email.doctype.email_account.email_account.pull for dev1
2021-09-02 11:32:08,447 INFO scheduler Scheduled Job Start: frappe.email.queue.flush for dev1
2021-09-02 11:32:08,743 INFO scheduler Scheduled Job Complete: frappe.email.queue.flush for dev1
2021-09-02 11:33:06,573 DEBUG scheduler Queued events for site dev1
2021-09-02 11:34:06,959 DEBUG scheduler Queued events for site dev1
2021-09-02 11:35:07,319 DEBUG scheduler Queued events for site dev1
2021-09-02 11:36:07,712 DEBUG scheduler Queued events for site dev1
2021-09-02 11:36:07,748 INFO scheduler Scheduled Job Start: frappe.monitor.flush for dev1
2021-09-02 11:36:08,011 INFO scheduler Scheduled Job Complete: frappe.monitor.flush for dev1
2021-09-02 11:36:08,100 INFO scheduler Scheduled Job Start: frappe.utils.global_search.sync_global_search for dev1
2021-09-02 11:36:08,348 INFO scheduler Scheduled Job Complete: frappe.utils.global_search.sync_global_search for dev1
2021-09-02 11:36:08,448 INFO scheduler Scheduled Job Start: frappe.integrations.doctype.razorpay_settings.razorpay_settings.capture_payment for dev1
2021-09-02 11:36:08,819 INFO scheduler Scheduled Job Complete: frappe.integrations.doctype.razorpay_settings.razorpay_settings.capture_payment for dev1
2021-09-02 11:36:08,925 INFO scheduler Scheduled Job Start: frappe.email.doctype.email_account.email_account.notify_unreplied for dev1
2021-09-02 11:36:09,243 INFO scheduler Scheduled Job Complete: frappe.email.doctype.email_account.email_account.notify_unreplied for dev1
2021-09-02 11:36:09,346 INFO scheduler Scheduled Job Start: frappe.email.doctype.email_account.email_account.pull for dev1
2021-09-02 11:36:09,686 INFO scheduler Scheduled Job Complete: frappe.email.doctype.email_account.email_account.pull for dev1
2021-09-02 11:36:09,773 INFO scheduler Scheduled Job Start: frappe.email.queue.flush for dev1
2021-09-02 11:36:10,039 INFO scheduler Scheduled Job Complete: frappe.email.queue.flush for dev1
2021-09-02 11:37:08,130 DEBUG scheduler Queued events for site dev1
2021-09-02 11:38:08,521 DEBUG scheduler Queued events for site dev1
2021-09-02 11:39:08,908 DEBUG scheduler Queued events for site dev1
2021-09-02 11:40:09,279 DEBUG scheduler Queued events for site dev1
2021-09-02 11:40:09,316 INFO scheduler Scheduled Job Start: frappe.monitor.flush for dev1
2021-09-02 11:40:09,559 INFO scheduler Scheduled Job Complete: frappe.monitor.flush for dev1
2021-09-02 11:40:09,645 INFO scheduler Scheduled Job Start: frappe.utils.global_search.sync_global_search for dev1
2021-09-02 11:40:09,910 INFO scheduler Scheduled Job Complete: frappe.utils.global_search.sync_global_search for dev1
2021-09-02 11:40:10,003 INFO scheduler Scheduled Job Start: frappe.integrations.doctype.razorpay_settings.razorpay_settings.capture_payment for dev1
2021-09-02 11:40:10,379 INFO scheduler Scheduled Job Complete: frappe.integrations.doctype.razorpay_settings.razorpay_settings.capture_payment for dev1
2021-09-02 11:40:10,484 INFO scheduler Scheduled Job Start: frappe.email.doctype.email_account.email_account.notify_unreplied for dev1
2021-09-02 11:40:10,791 INFO scheduler Scheduled Job Complete: frappe.email.doctype.email_account.email_account.notify_unreplied for dev1
2021-09-02 11:40:10,876 INFO scheduler Scheduled Job Start: frappe.email.doctype.email_account.email_account.pull for dev1
2021-09-02 11:40:11,204 INFO scheduler Scheduled Job Complete: frappe.email.doctype.email_account.email_account.pull for dev1
2021-09-02 11:40:11,306 INFO scheduler Scheduled Job Start: frappe.email.queue.flush for dev1
2021-09-02 11:40:11,589 INFO scheduler Scheduled Job Complete: frappe.email.queue.flush for dev1
2021-09-02 11:41:09,682 DEBUG scheduler Queued events for site dev1
2021-09-02 11:42:10,065 DEBUG scheduler Queued events for site dev1
2021-09-02 11:43:10,416 DEBUG scheduler Queued events for site dev1
2021-09-02 11:44:10,783 DEBUG scheduler Queued events for site dev1
2021-09-02 11:44:10,818 INFO scheduler Scheduled Job Start: frappe.monitor.flush for dev1
2021-09-02 11:44:11,069 INFO scheduler Scheduled Job Complete: frappe.monitor.flush for dev1
2021-09-02 11:44:11,180 INFO scheduler Scheduled Job Start: frappe.utils.global_search.sync_global_search for dev1
2021-09-02 11:44:11,427 INFO scheduler Scheduled Job Complete: frappe.utils.global_search.sync_global_search for dev1
2021-09-02 11:44:11,512 INFO scheduler Scheduled Job Start: frappe.integrations.doctype.razorpay_settings.razorpay_settings.capture_payment for dev1
2021-09-02 11:44:11,885 INFO scheduler Scheduled Job Complete: frappe.integrations.doctype.razorpay_settings.razorpay_settings.capture_payment for dev1
2021-09-02 11:44:11,976 INFO scheduler Scheduled Job Start: frappe.email.doctype.email_account.email_account.notify_unreplied for dev1
2021-09-02 11:44:12,301 INFO scheduler Scheduled Job Complete: frappe.email.doctype.email_account.email_account.notify_unreplied for dev1
2021-09-02 11:44:12,393 INFO scheduler Scheduled Job Start: frappe.email.doctype.email_account.email_account.pull for dev1
2021-09-02 11:44:12,721 INFO scheduler Scheduled Job Complete: frappe.email.doctype.email_account.email_account.pull for dev1
2021-09-02 11:44:12,813 INFO scheduler Scheduled Job Start: frappe.email.queue.flush for dev1
2021-09-02 11:44:13,083 INFO scheduler Scheduled Job Complete: frappe.email.queue.flush for dev1
2021-09-02 11:45:11,213 DEBUG scheduler Queued events for site dev1
2021-09-02 11:45:11,276 INFO scheduler Scheduled Job Start: frappe.twofactor.delete_all_barcodes_for_users for dev1
2021-09-02 11:45:11,700 INFO scheduler Scheduled Job Complete: frappe.twofactor.delete_all_barcodes_for_users for dev1
2021-09-02 11:45:11,794 INFO scheduler Scheduled Job Start: frappe.website.doctype.web_page.web_page.check_publish_status for dev1
2021-09-02 11:45:12,239 INFO scheduler Scheduled Job Complete: frappe.website.doctype.web_page.web_page.check_publish_status for dev1
2021-09-02 11:45:12,356 INFO scheduler Scheduled Job Start: frappe.oauth.delete_oauth2_data for dev1
2021-09-02 11:45:12,758 INFO scheduler Scheduled Job Complete: frappe.oauth.delete_oauth2_data for dev1
2021-09-02 11:46:11,652 DEBUG scheduler Queued events for site dev1
2021-09-02 11:47:12,031 DEBUG scheduler Queued events for site dev1
2021-09-02 11:48:12,444 DEBUG scheduler Queued events for site dev1
2021-09-02 11:48:12,479 INFO scheduler Scheduled Job Start: frappe.monitor.flush for dev1
2021-09-02 11:48:12,767 INFO scheduler Scheduled Job Complete: frappe.monitor.flush for dev1
2021-09-02 11:48:12,869 INFO scheduler Scheduled Job Start: frappe.utils.global_search.sync_global_search for dev1
2021-09-02 11:48:13,117 INFO scheduler Scheduled Job Complete: frappe.utils.global_search.sync_global_search for dev1
2021-09-02 11:48:13,213 INFO scheduler Scheduled Job Start: frappe.integrations.doctype.razorpay_settings.razorpay_settings.capture_payment for dev1
2021-09-02 11:48:13,589 INFO scheduler Scheduled Job Complete: frappe.integrations.doctype.razorpay_settings.razorpay_settings.capture_payment for dev1
2021-09-02 11:48:13,694 INFO scheduler Scheduled Job Start: frappe.email.doctype.email_account.email_account.notify_unreplied for dev1
2021-09-02 11:48:13,995 INFO scheduler Scheduled Job Complete: frappe.email.doctype.email_account.email_account.notify_unreplied for dev1
2021-09-02 11:48:14,083 INFO scheduler Scheduled Job Start: frappe.email.doctype.email_account.email_account.pull for dev1
2021-09-02 11:48:14,414 INFO scheduler Scheduled Job Complete: frappe.email.doctype.email_account.email_account.pull for dev1
2021-09-02 11:48:14,511 INFO scheduler Scheduled Job Start: frappe.email.queue.flush for dev1
2021-09-02 11:48:14,781 INFO scheduler Scheduled Job Complete: frappe.email.queue.flush for dev1
2021-09-02 11:49:12,873 DEBUG scheduler Queued events for site dev1
2021-09-02 11:50:13,276 DEBUG scheduler Queued events for site dev1
2021-09-02 11:51:13,635 DEBUG scheduler Queued events for site dev1
2021-09-02 11:52:14,038 DEBUG scheduler Queued events for site dev1
2021-09-02 11:52:14,078 INFO scheduler Scheduled Job Start: frappe.monitor.flush for dev1
2021-09-02 11:52:14,372 INFO scheduler Scheduled Job Complete: frappe.monitor.flush for dev1
2021-09-02 11:52:14,462 INFO scheduler Scheduled Job Start: frappe.utils.global_search.sync_global_search for dev1
2021-09-02 11:52:14,708 INFO scheduler Scheduled Job Complete: frappe.utils.global_search.sync_global_search for dev1
2021-09-02 11:52:14,795 INFO scheduler Scheduled Job Start: frappe.integrations.doctype.razorpay_settings.razorpay_settings.capture_payment for dev1
2021-09-02 11:52:15,180 INFO scheduler Scheduled Job Complete: frappe.integrations.doctype.razorpay_settings.razorpay_settings.capture_payment for dev1
2021-09-02 11:52:15,263 INFO scheduler Scheduled Job Start: frappe.email.doctype.email_account.email_account.notify_unreplied for dev1
2021-09-02 11:52:15,567 INFO scheduler Scheduled Job Complete: frappe.email.doctype.email_account.email_account.notify_unreplied for dev1
2021-09-02 11:52:15,675 INFO scheduler Scheduled Job Start: frappe.email.doctype.email_account.email_account.pull for dev1
2021-09-02 11:52:16,012 INFO scheduler Scheduled Job Complete: frappe.email.doctype.email_account.email_account.pull for dev1
2021-09-02 11:52:16,108 INFO scheduler Scheduled Job Start: frappe.email.queue.flush for dev1
2021-09-02 11:52:16,361 INFO scheduler Scheduled Job Complete: frappe.email.queue.flush for dev1
2021-09-02 11:53:14,490 DEBUG scheduler Queued events for site dev1
2021-09-02 11:54:14,893 DEBUG scheduler Queued events for site dev1
2021-09-02 11:55:15,272 DEBUG scheduler Queued events for site dev1
2021-09-02 11:56:15,674 DEBUG scheduler Queued events for site dev1
2021-09-02 11:56:15,710 INFO scheduler Scheduled Job Start: frappe.monitor.flush for dev1
2021-09-02 11:56:16,002 INFO scheduler Scheduled Job Complete: frappe.monitor.flush for dev1
2021-09-02 11:56:16,086 INFO scheduler Scheduled Job Start: frappe.utils.global_search.sync_global_search for dev1
2021-09-02 11:56:16,352 INFO scheduler Scheduled Job Complete: frappe.utils.global_search.sync_global_search for dev1
2021-09-02 11:56:16,452 INFO scheduler Scheduled Job Start: frappe.integrations.doctype.razorpay_settings.razorpay_settings.capture_payment for dev1
2021-09-02 11:56:16,831 INFO scheduler Scheduled Job Complete: frappe.integrations.doctype.razorpay_settings.razorpay_settings.capture_payment for dev1
2021-09-02 11:56:16,922 INFO scheduler Scheduled Job Start: frappe.email.doctype.email_account.email_account.notify_unreplied for dev1
2021-09-02 11:56:17,244 INFO scheduler Scheduled Job Complete: frappe.email.doctype.email_account.email_account.notify_unreplied for dev1
2021-09-02 11:56:17,328 INFO scheduler Scheduled Job Start: frappe.email.doctype.email_account.email_account.pull for dev1
2021-09-02 11:56:17,666 INFO scheduler Scheduled Job Complete: frappe.email.doctype.email_account.email_account.pull for dev1
2021-09-02 11:56:17,753 INFO scheduler Scheduled Job Start: frappe.email.queue.flush for dev1
2021-09-02 11:56:18,022 INFO scheduler Scheduled Job Complete: frappe.email.queue.flush for dev1
2021-09-02 11:57:16,116 DEBUG scheduler Queued events for site dev1
2021-09-02 11:58:16,507 DEBUG scheduler Queued events for site dev1
2021-09-02 11:59:16,864 DEBUG scheduler Queued events for site dev1
2021-09-02 12:00:17,293 INFO scheduler Scheduled Job Start: frappe.email.doctype.newsletter.newsletter.send_scheduled_email for dev1
2021-09-02 12:00:17,342 DEBUG scheduler Queued events for site dev1
2021-09-02 12:00:17,761 INFO scheduler Scheduled Job Complete: frappe.email.doctype.newsletter.newsletter.send_scheduled_email for dev1
2021-09-02 12:00:17,871 INFO scheduler Scheduled Job Start: frappe.integrations.doctype.google_calendar.google_calendar.sync for dev1
2021-09-02 12:00:18,443 INFO scheduler Scheduled Job Complete: frappe.integrations.doctype.google_calendar.google_calendar.sync for dev1
2021-09-02 12:00:18,547 INFO scheduler Scheduled Job Start: frappe.desk.form.document_follow.send_hourly_updates for dev1
2021-09-02 12:00:18,932 INFO scheduler Scheduled Job Complete: frappe.desk.form.document_follow.send_hourly_updates for dev1
2021-09-02 12:00:19,040 INFO scheduler Scheduled Job Start: frappe.deferred_insert.save_to_db for dev1
2021-09-02 12:00:19,406 INFO scheduler Scheduled Job Complete: frappe.deferred_insert.save_to_db for dev1
2021-09-02 12:00:19,507 INFO scheduler Scheduled Job Start: frappe.desk.page.backups.backups.delete_downloadable_backups for dev1
2021-09-02 12:00:19,880 INFO scheduler Scheduled Job Complete: frappe.desk.page.backups.backups.delete_downloadable_backups for dev1
2021-09-02 12:00:19,975 INFO scheduler Scheduled Job Start: frappe.utils.error.collect_error_snapshots for dev1
2021-09-02 12:00:20,332 INFO scheduler Scheduled Job Complete: frappe.utils.error.collect_error_snapshots for dev1
2021-09-02 12:00:20,431 INFO scheduler Scheduled Job Start: frappe.model.utils.user_settings.sync_user_settings for dev1
2021-09-02 12:00:20,790 INFO scheduler Scheduled Job Complete: frappe.model.utils.user_settings.sync_user_settings for dev1
2021-09-02 12:00:20,889 INFO scheduler Scheduled Job Start: frappe.model.utils.link_count.update_link_count for dev1
2021-09-02 12:00:21,266 INFO scheduler Scheduled Job Complete: frappe.model.utils.link_count.update_link_count for dev1
2021-09-02 12:00:21,366 INFO scheduler Scheduled Job Start: frappe.monitor.flush for dev1
2021-09-02 12:00:21,614 INFO scheduler Scheduled Job Complete: frappe.monitor.flush for dev1
2021-09-02 12:00:21,713 INFO scheduler Scheduled Job Start: frappe.utils.global_search.sync_global_search for dev1
2021-09-02 12:00:21,953 INFO scheduler Scheduled Job Complete: frappe.utils.global_search.sync_global_search for dev1
2021-09-02 12:00:22,042 INFO scheduler Scheduled Job Start: frappe.integrations.doctype.razorpay_settings.razorpay_settings.capture_payment for dev1
2021-09-02 12:00:22,432 INFO scheduler Scheduled Job Complete: frappe.integrations.doctype.razorpay_settings.razorpay_settings.capture_payment for dev1
2021-09-02 12:00:22,538 INFO scheduler Scheduled Job Start: frappe.email.doctype.email_account.email_account.notify_unreplied for dev1
2021-09-02 12:00:22,864 INFO scheduler Scheduled Job Complete: frappe.email.doctype.email_account.email_account.notify_unreplied for dev1
2021-09-02 12:00:22,961 INFO scheduler Scheduled Job Start: frappe.email.doctype.email_account.email_account.pull for dev1
2021-09-02 12:00:23,316 INFO scheduler Scheduled Job Complete: frappe.email.doctype.email_account.email_account.pull for dev1
2021-09-02 12:00:23,407 INFO scheduler Scheduled Job Start: frappe.email.queue.flush for dev1
2021-09-02 12:00:23,685 INFO scheduler Scheduled Job Complete: frappe.email.queue.flush for dev1
2021-09-02 12:00:23,779 INFO scheduler Scheduled Job Start: frappe.twofactor.delete_all_barcodes_for_users for dev1
2021-09-02 12:00:24,173 INFO scheduler Scheduled Job Complete: frappe.twofactor.delete_all_barcodes_for_users for dev1
2021-09-02 12:00:24,266 INFO scheduler Scheduled Job Start: frappe.website.doctype.web_page.web_page.check_publish_status for dev1
2021-09-02 12:00:24,695 INFO scheduler Scheduled Job Complete: frappe.website.doctype.web_page.web_page.check_publish_status for dev1
2021-09-02 12:00:24,808 INFO scheduler Scheduled Job Start: frappe.oauth.delete_oauth2_data for dev1
2021-09-02 12:00:25,221 INFO scheduler Scheduled Job Complete: frappe.oauth.delete_oauth2_data for dev1
2021-09-02 12:01:17,887 DEBUG scheduler Queued events for site dev1
2021-09-02 12:02:18,305 DEBUG scheduler Queued events for site dev1
2021-09-02 12:03:18,660 DEBUG scheduler Queued events for site dev1
2021-09-02 12:04:19,091 DEBUG scheduler Queued events for site dev1
2021-09-02 12:04:19,132 INFO scheduler Scheduled Job Start: frappe.monitor.flush for dev1
2021-09-02 12:04:19,405 INFO scheduler Scheduled Job Complete: frappe.monitor.flush for dev1
2021-09-02 12:04:19,511 INFO scheduler Scheduled Job Start: frappe.utils.global_search.sync_global_search for dev1
2021-09-02 12:04:19,753 INFO scheduler Scheduled Job Complete: frappe.utils.global_search.sync_global_search for dev1
2021-09-02 12:04:19,857 INFO scheduler Scheduled Job Start: frappe.integrations.doctype.razorpay_settings.razorpay_settings.capture_payment for dev1
2021-09-02 12:04:20,251 INFO scheduler Scheduled Job Complete: frappe.integrations.doctype.razorpay_settings.razorpay_settings.capture_payment for dev1
2021-09-02 12:04:20,341 INFO scheduler Scheduled Job Start: frappe.email.doctype.email_account.email_account.notify_unreplied for dev1
2021-09-02 12:04:20,648 INFO scheduler Scheduled Job Complete: frappe.email.doctype.email_account.email_account.notify_unreplied for dev1
2021-09-02 12:04:20,736 INFO scheduler Scheduled Job Start: frappe.email.doctype.email_account.email_account.pull for dev1
2021-09-02 12:04:21,065 INFO scheduler Scheduled Job Complete: frappe.email.doctype.email_account.email_account.pull for dev1
2021-09-02 12:04:21,159 INFO scheduler Scheduled Job Start: frappe.email.queue.flush for dev1
2021-09-02 12:04:21,440 INFO scheduler Scheduled Job Complete: frappe.email.queue.flush for dev1
2021-09-02 12:05:19,527 DEBUG scheduler Queued events for site dev1
2021-09-02 12:06:19,914 DEBUG scheduler Queued events for site dev1
2021-09-02 12:07:20,298 DEBUG scheduler Queued events for site dev1
2021-09-02 12:08:20,719 DEBUG scheduler Queued events for site dev1
2021-09-02 12:08:20,756 INFO scheduler Scheduled Job Start: frappe.monitor.flush for dev1
2021-09-02 12:08:21,012 INFO scheduler Scheduled Job Complete: frappe.monitor.flush for dev1
2021-09-02 12:08:21,099 INFO scheduler Scheduled Job Start: frappe.utils.global_search.sync_global_search for dev1
2021-09-02 12:08:21,348 INFO scheduler Scheduled Job Complete: frappe.utils.global_search.sync_global_search for dev1
2021-09-02 12:08:21,440 INFO scheduler Scheduled Job Start: frappe.integrations.doctype.razorpay_settings.razorpay_settings.capture_payment for dev1
2021-09-02 12:08:21,832 INFO scheduler Scheduled Job Complete: frappe.integrations.doctype.razorpay_settings.razorpay_settings.capture_payment for dev1
2021-09-02 12:08:21,927 INFO scheduler Scheduled Job Start: frappe.email.doctype.email_account.email_account.notify_unreplied for dev1
2021-09-02 12:08:22,250 INFO scheduler Scheduled Job Complete: frappe.email.doctype.email_account.email_account.notify_unreplied for dev1
2021-09-02 12:08:22,345 INFO scheduler Scheduled Job Start: frappe.email.doctype.email_account.email_account.pull for dev1
2021-09-02 12:08:22,684 INFO scheduler Scheduled Job Complete: frappe.email.doctype.email_account.email_account.pull for dev1
2021-09-02 12:08:22,782 INFO scheduler Scheduled Job Start: frappe.email.queue.flush for dev1
2021-09-02 12:08:23,030 INFO scheduler Scheduled Job Complete: frappe.email.queue.flush for dev1
2021-09-02 12:09:21,135 DEBUG scheduler Queued events for site dev1
2021-09-02 12:10:21,523 DEBUG scheduler Queued events for site dev1
2021-09-02 12:11:21,870 DEBUG scheduler Queued events for site dev1
2021-09-02 12:12:22,268 DEBUG scheduler Queued events for site dev1
2021-09-02 12:12:22,310 INFO scheduler Scheduled Job Start: frappe.monitor.flush for dev1
2021-09-02 12:12:22,568 INFO scheduler Scheduled Job Complete: frappe.monitor.flush for dev1
2021-09-02 12:12:22,660 INFO scheduler Scheduled Job Start: frappe.utils.global_search.sync_global_search for dev1
2021-09-02 12:12:22,894 INFO scheduler Scheduled Job Complete: frappe.utils.global_search.sync_global_search for dev1
2021-09-02 12:12:22,985 INFO scheduler Scheduled Job Start: frappe.integrations.doctype.razorpay_settings.razorpay_settings.capture_payment for dev1
2021-09-02 12:12:23,361 INFO scheduler Scheduled Job Complete: frappe.integrations.doctype.razorpay_settings.razorpay_settings.capture_payment for dev1
2021-09-02 12:12:23,455 INFO scheduler Scheduled Job Start: frappe.email.doctype.email_account.email_account.notify_unreplied for dev1
2021-09-02 12:12:23,750 INFO scheduler Scheduled Job Complete: frappe.email.doctype.email_account.email_account.notify_unreplied for dev1
2021-09-02 12:12:23,841 INFO scheduler Scheduled Job Start: frappe.email.doctype.email_account.email_account.pull for dev1
2021-09-02 12:12:24,176 INFO scheduler Scheduled Job Complete: frappe.email.doctype.email_account.email_account.pull for dev1
2021-09-02 12:12:24,257 INFO scheduler Scheduled Job Start: frappe.email.queue.flush for dev1
2021-09-02 12:12:24,532 INFO scheduler Scheduled Job Complete: frappe.email.queue.flush for dev1
2021-09-02 12:13:22,697 DEBUG scheduler Queued events for site dev1
2021-09-02 12:14:23,093 DEBUG scheduler Queued events for site dev1
2021-09-02 12:15:23,484 DEBUG scheduler Queued events for site dev1
2021-09-02 12:15:23,550 INFO scheduler Scheduled Job Start: frappe.twofactor.delete_all_barcodes_for_users for dev1
2021-09-02 12:15:23,959 INFO scheduler Scheduled Job Complete: frappe.twofactor.delete_all_barcodes_for_users for dev1
2021-09-02 12:15:24,062 INFO scheduler Scheduled Job Start: frappe.website.doctype.web_page.web_page.check_publish_status for dev1
2021-09-02 12:15:24,496 INFO scheduler Scheduled Job Complete: frappe.website.doctype.web_page.web_page.check_publish_status for dev1
2021-09-02 12:15:24,593 INFO scheduler Scheduled Job Start: frappe.oauth.delete_oauth2_data for dev1
2021-09-02 12:15:24,964 INFO scheduler Scheduled Job Complete: frappe.oauth.delete_oauth2_data for dev1
2021-09-02 12:16:23,927 DEBUG scheduler Queued events for site dev1
2021-09-02 12:16:23,962 INFO scheduler Scheduled Job Start: frappe.monitor.flush for dev1
2021-09-02 12:16:24,247 INFO scheduler Scheduled Job Complete: frappe.monitor.flush for dev1
2021-09-02 12:16:24,335 INFO scheduler Scheduled Job Start: frappe.utils.global_search.sync_global_search for dev1
2021-09-02 12:16:24,574 INFO scheduler Scheduled Job Complete: frappe.utils.global_search.sync_global_search for dev1
2021-09-02 12:16:24,678 INFO scheduler Scheduled Job Start: frappe.integrations.doctype.razorpay_settings.razorpay_settings.capture_payment for dev1
2021-09-02 12:16:25,066 INFO scheduler Scheduled Job Complete: frappe.integrations.doctype.razorpay_settings.razorpay_settings.capture_payment for dev1
2021-09-02 12:16:25,160 INFO scheduler Scheduled Job Start: frappe.email.doctype.email_account.email_account.notify_unreplied for dev1
2021-09-02 12:16:25,471 INFO scheduler Scheduled Job Complete: frappe.email.doctype.email_account.email_account.notify_unreplied for dev1
2021-09-02 12:16:25,558 INFO scheduler Scheduled Job Start: frappe.email.doctype.email_account.email_account.pull for dev1
2021-09-02 12:16:25,868 INFO scheduler Scheduled Job Complete: frappe.email.doctype.email_account.email_account.pull for dev1
2021-09-02 12:16:25,970 INFO scheduler Scheduled Job Start: frappe.email.queue.flush for dev1
2021-09-02 12:16:26,252 INFO scheduler Scheduled Job Complete: frappe.email.queue.flush for dev1
2021-09-02 12:17:24,377 DEBUG scheduler Queued events for site dev1
2021-09-02 12:18:24,800 DEBUG scheduler Queued events for site dev1
2021-09-02 12:19:25,164 DEBUG scheduler Queued events for site dev1
2021-09-02 12:20:25,578 DEBUG scheduler Queued events for site dev1
2021-09-02 12:20:25,625 INFO scheduler Scheduled Job Start: frappe.monitor.flush for dev1
2021-09-02 12:20:25,942 INFO scheduler Scheduled Job Complete: frappe.monitor.flush for dev1
2021-09-02 12:20:26,036 INFO scheduler Scheduled Job Start: frappe.utils.global_search.sync_global_search for dev1
2021-09-02 12:20:26,296 INFO scheduler Scheduled Job Complete: frappe.utils.global_search.sync_global_search for dev1
2021-09-02 12:20:26,386 INFO scheduler Scheduled Job Start: frappe.integrations.doctype.razorpay_settings.razorpay_settings.capture_payment for dev1
2021-09-02 12:20:26,792 INFO scheduler Scheduled Job Complete: frappe.integrations.doctype.razorpay_settings.razorpay_settings.capture_payment for dev1
2021-09-02 12:20:26,896 INFO scheduler Scheduled Job Start: frappe.email.doctype.email_account.email_account.notify_unreplied for dev1
2021-09-02 12:20:27,229 INFO scheduler Scheduled Job Complete: frappe.email.doctype.email_account.email_account.notify_unreplied for dev1
2021-09-02 12:20:27,326 INFO scheduler Scheduled Job Start: frappe.email.doctype.email_account.email_account.pull for dev1
2021-09-02 12:20:27,665 INFO scheduler Scheduled Job Complete: frappe.email.doctype.email_account.email_account.pull for dev1
2021-09-02 12:20:27,756 INFO scheduler Scheduled Job Start: frappe.email.queue.flush for dev1
2021-09-02 12:20:28,024 INFO scheduler Scheduled Job Complete: frappe.email.queue.flush for dev1
2021-09-02 12:21:26,059 DEBUG scheduler Queued events for site dev1
2021-09-02 12:22:26,481 DEBUG scheduler Queued events for site dev1
2021-09-02 12:23:26,843 DEBUG scheduler Queued events for site dev1
2021-09-02 12:24:27,253 DEBUG scheduler Queued events for site dev1
2021-09-02 12:24:27,294 INFO scheduler Scheduled Job Start: frappe.monitor.flush for dev1
2021-09-02 12:24:27,619 INFO scheduler Scheduled Job Complete: frappe.monitor.flush for dev1
2021-09-02 12:24:27,710 INFO scheduler Scheduled Job Start: frappe.utils.global_search.sync_global_search for dev1
2021-09-02 12:24:27,955 INFO scheduler Scheduled Job Complete: frappe.utils.global_search.sync_global_search for dev1
2021-09-02 12:24:28,039 INFO scheduler Scheduled Job Start: frappe.integrations.doctype.razorpay_settings.razorpay_settings.capture_payment for dev1
2021-09-02 12:24:28,459 INFO scheduler Scheduled Job Complete: frappe.integrations.doctype.razorpay_settings.razorpay_settings.capture_payment for dev1
2021-09-02 12:24:28,553 INFO scheduler Scheduled Job Start: frappe.email.doctype.email_account.email_account.notify_unreplied for dev1
2021-09-02 12:24:28,868 INFO scheduler Scheduled Job Complete: frappe.email.doctype.email_account.email_account.notify_unreplied for dev1
2021-09-02 12:24:28,955 INFO scheduler Scheduled Job Start: frappe.email.doctype.email_account.email_account.pull for dev1
2021-09-02 12:24:29,346 INFO scheduler Scheduled Job Complete: frappe.email.doctype.email_account.email_account.pull for dev1
2021-09-02 12:24:29,443 INFO scheduler Scheduled Job Start: frappe.email.queue.flush for dev1
2021-09-02 12:24:29,736 INFO scheduler Scheduled Job Complete: frappe.email.queue.flush for dev1
2021-09-02 12:25:27,732 DEBUG scheduler Queued events for site dev1
2021-09-02 12:26:28,172 DEBUG scheduler Queued events for site dev1
2021-09-02 12:27:28,516 DEBUG scheduler Queued events for site dev1
2021-09-02 12:28:28,889 DEBUG scheduler Queued events for site dev1
2021-09-02 12:28:28,926 INFO scheduler Scheduled Job Start: frappe.monitor.flush for dev1
2021-09-02 12:28:29,220 INFO scheduler Scheduled Job Complete: frappe.monitor.flush for dev1
2021-09-02 12:28:29,316 INFO scheduler Scheduled Job Start: frappe.utils.global_search.sync_global_search for dev1
2021-09-02 12:28:29,564 INFO scheduler Scheduled Job Complete: frappe.utils.global_search.sync_global_search for dev1
2021-09-02 12:28:29,658 INFO scheduler Scheduled Job Start: frappe.integrations.doctype.razorpay_settings.razorpay_settings.capture_payment for dev1
2021-09-02 12:28:30,050 INFO scheduler Scheduled Job Complete: frappe.integrations.doctype.razorpay_settings.razorpay_settings.capture_payment for dev1
2021-09-02 12:28:30,145 INFO scheduler Scheduled Job Start: frappe.email.doctype.email_account.email_account.notify_unreplied for dev1
2021-09-02 12:28:30,473 INFO scheduler Scheduled Job Complete: frappe.email.doctype.email_account.email_account.notify_unreplied for dev1
2021-09-02 12:28:30,568 INFO scheduler Scheduled Job Start: frappe.email.doctype.email_account.email_account.pull for dev1
2021-09-02 12:28:30,948 INFO scheduler Scheduled Job Complete: frappe.email.doctype.email_account.email_account.pull for dev1
2021-09-02 12:28:31,035 INFO scheduler Scheduled Job Start: frappe.email.queue.flush for dev1
2021-09-02 12:28:31,309 INFO scheduler Scheduled Job Complete: frappe.email.queue.flush for dev1
2021-09-02 12:29:29,301 DEBUG scheduler Queued events for site dev1
2021-09-02 12:30:29,715 DEBUG scheduler Queued events for site dev1
2021-09-02 12:30:29,785 INFO scheduler Scheduled Job Start: frappe.twofactor.delete_all_barcodes_for_users for dev1
2021-09-02 12:30:30,192 INFO scheduler Scheduled Job Complete: frappe.twofactor.delete_all_barcodes_for_users for dev1
2021-09-02 12:30:30,297 INFO scheduler Scheduled Job Start: frappe.website.doctype.web_page.web_page.check_publish_status for dev1
2021-09-02 12:30:30,756 INFO scheduler Scheduled Job Complete: frappe.website.doctype.web_page.web_page.check_publish_status for dev1
2021-09-02 12:30:30,851 INFO scheduler Scheduled Job Start: frappe.oauth.delete_oauth2_data for dev1
2021-09-02 12:30:31,259 INFO scheduler Scheduled Job Complete: frappe.oauth.delete_oauth2_data for dev1
2021-09-02 12:31:30,113 DEBUG scheduler Queued events for site dev1
2021-09-02 12:32:30,554 DEBUG scheduler Queued events for site dev1
2021-09-02 12:32:30,598 INFO scheduler Scheduled Job Start: frappe.monitor.flush for dev1
2021-09-02 12:32:30,888 INFO scheduler Scheduled Job Complete: frappe.monitor.flush for dev1
2021-09-02 12:32:30,979 INFO scheduler Scheduled Job Start: frappe.utils.global_search.sync_global_search for dev1
2021-09-02 12:32:31,294 INFO scheduler Scheduled Job Complete: frappe.utils.global_search.sync_global_search for dev1
2021-09-02 12:32:31,384 INFO scheduler Scheduled Job Start: frappe.integrations.doctype.razorpay_settings.razorpay_settings.capture_payment for dev1
2021-09-02 12:32:31,876 INFO scheduler Scheduled Job Complete: frappe.integrations.doctype.razorpay_settings.razorpay_settings.capture_payment for dev1
2021-09-02 12:32:32,004 INFO scheduler Scheduled Job Start: frappe.email.doctype.email_account.email_account.notify_unreplied for dev1
2021-09-02 12:32:32,457 INFO scheduler Scheduled Job Complete: frappe.email.doctype.email_account.email_account.notify_unreplied for dev1
2021-09-02 12:32:32,573 INFO scheduler Scheduled Job Start: frappe.email.doctype.email_account.email_account.pull for dev1
2021-09-02 12:32:32,972 INFO scheduler Scheduled Job Complete: frappe.email.doctype.email_account.email_account.pull for dev1
2021-09-02 12:32:33,072 INFO scheduler Scheduled Job Start: frappe.email.queue.flush for dev1
2021-09-02 12:32:33,409 INFO scheduler Scheduled Job Complete: frappe.email.queue.flush for dev1
2021-09-02 12:33:30,999 DEBUG scheduler Queued events for site dev1
2021-09-02 12:34:31,446 DEBUG scheduler Queued events for site dev1
2021-09-02 12:35:31,857 DEBUG scheduler Queued events for site dev1
2021-09-02 12:36:32,281 DEBUG scheduler Queued events for site dev1
2021-09-02 12:36:32,318 INFO scheduler Scheduled Job Start: frappe.monitor.flush for dev1
2021-09-02 12:36:32,582 INFO scheduler Scheduled Job Complete: frappe.monitor.flush for dev1
2021-09-02 12:36:32,671 INFO scheduler Scheduled Job Start: frappe.utils.global_search.sync_global_search for dev1
2021-09-02 12:36:32,908 INFO scheduler Scheduled Job Complete: frappe.utils.global_search.sync_global_search for dev1
2021-09-02 12:36:33,009 INFO scheduler Scheduled Job Start: frappe.integrations.doctype.razorpay_settings.razorpay_settings.capture_payment for dev1
2021-09-02 12:36:33,408 INFO scheduler Scheduled Job Complete: frappe.integrations.doctype.razorpay_settings.razorpay_settings.capture_payment for dev1
2021-09-02 12:36:33,507 INFO scheduler Scheduled Job Start: frappe.email.doctype.email_account.email_account.notify_unreplied for dev1
2021-09-02 12:36:33,803 INFO scheduler Scheduled Job Complete: frappe.email.doctype.email_account.email_account.notify_unreplied for dev1
2021-09-02 12:36:33,898 INFO scheduler Scheduled Job Start: frappe.email.doctype.email_account.email_account.pull for dev1
2021-09-02 12:36:34,271 INFO scheduler Scheduled Job Complete: frappe.email.doctype.email_account.email_account.pull for dev1
2021-09-02 12:36:34,375 INFO scheduler Scheduled Job Start: frappe.email.queue.flush for dev1
2021-09-02 12:36:34,641 INFO scheduler Scheduled Job Complete: frappe.email.queue.flush for dev1
2021-09-02 12:37:32,686 DEBUG scheduler Queued events for site dev1
2021-09-02 12:38:33,151 DEBUG scheduler Queued events for site dev1
2021-09-02 12:39:33,657 DEBUG scheduler Queued events for site dev1
2021-09-02 12:40:34,191 DEBUG scheduler Queued events for site dev1
2021-09-02 12:40:34,232 INFO scheduler Scheduled Job Start: frappe.monitor.flush for dev1
2021-09-02 12:40:34,621 INFO scheduler Scheduled Job Complete: frappe.monitor.flush for dev1
2021-09-02 12:40:34,737 INFO scheduler Scheduled Job Start: frappe.utils.global_search.sync_global_search for dev1
2021-09-02 12:40:35,104 INFO scheduler Scheduled Job Complete: frappe.utils.global_search.sync_global_search for dev1
2021-09-02 12:40:35,219 INFO scheduler Scheduled Job Start: frappe.integrations.doctype.razorpay_settings.razorpay_settings.capture_payment for dev1
2021-09-02 12:40:35,787 INFO scheduler Scheduled Job Complete: frappe.integrations.doctype.razorpay_settings.razorpay_settings.capture_payment for dev1
2021-09-02 12:40:35,904 INFO scheduler Scheduled Job Start: frappe.email.doctype.email_account.email_account.notify_unreplied for dev1
2021-09-02 12:40:36,383 INFO scheduler Scheduled Job Complete: frappe.email.doctype.email_account.email_account.notify_unreplied for dev1
2021-09-02 12:40:36,495 INFO scheduler Scheduled Job Start: frappe.email.doctype.email_account.email_account.pull for dev1
2021-09-02 12:40:36,988 INFO scheduler Scheduled Job Complete: frappe.email.doctype.email_account.email_account.pull for dev1
2021-09-02 12:40:37,108 INFO scheduler Scheduled Job Start: frappe.email.queue.flush for dev1
2021-09-02 12:40:37,497 INFO scheduler Scheduled Job Complete: frappe.email.queue.flush for dev1
2021-09-02 12:41:34,735 DEBUG scheduler Queued events for site dev1
2021-09-02 12:42:35,232 DEBUG scheduler Queued events for site dev1
2021-09-02 12:43:35,704 DEBUG scheduler Queued events for site dev1
2021-09-02 12:44:36,220 DEBUG scheduler Queued events for site dev1
2021-09-02 12:44:36,264 INFO scheduler Scheduled Job Start: frappe.monitor.flush for dev1
2021-09-02 12:44:36,647 INFO scheduler Scheduled Job Complete: frappe.monitor.flush for dev1
2021-09-02 12:44:36,767 INFO scheduler Scheduled Job Start: frappe.utils.global_search.sync_global_search for dev1
2021-09-02 12:44:37,137 INFO scheduler Scheduled Job Complete: frappe.utils.global_search.sync_global_search for dev1
2021-09-02 12:44:37,256 INFO scheduler Scheduled Job Start: frappe.integrations.doctype.razorpay_settings.razorpay_settings.capture_payment for dev1
2021-09-02 12:44:37,823 INFO scheduler Scheduled Job Complete: frappe.integrations.doctype.razorpay_settings.razorpay_settings.capture_payment for dev1
2021-09-02 12:44:37,946 INFO scheduler Scheduled Job Start: frappe.email.doctype.email_account.email_account.notify_unreplied for dev1
2021-09-02 12:44:38,415 INFO scheduler Scheduled Job Complete: frappe.email.doctype.email_account.email_account.notify_unreplied for dev1
2021-09-02 12:44:38,529 INFO scheduler Scheduled Job Start: frappe.email.doctype.email_account.email_account.pull for dev1
2021-09-02 12:44:39,025 INFO scheduler Scheduled Job Complete: frappe.email.doctype.email_account.email_account.pull for dev1
2021-09-02 12:44:39,142 INFO scheduler Scheduled Job Start: frappe.email.queue.flush for dev1
2021-09-02 12:44:39,535 INFO scheduler Scheduled Job Complete: frappe.email.queue.flush for dev1
2021-09-02 12:45:36,804 DEBUG scheduler Queued events for site dev1
2021-09-02 12:45:36,894 INFO scheduler Scheduled Job Start: frappe.twofactor.delete_all_barcodes_for_users for dev1
2021-09-02 12:45:37,489 INFO scheduler Scheduled Job Complete: frappe.twofactor.delete_all_barcodes_for_users for dev1
2021-09-02 12:45:37,609 INFO scheduler Scheduled Job Start: frappe.website.doctype.web_page.web_page.check_publish_status for dev1
2021-09-02 12:45:38,270 INFO scheduler Scheduled Job Complete: frappe.website.doctype.web_page.web_page.check_publish_status for dev1
2021-09-02 12:45:38,396 INFO scheduler Scheduled Job Start: frappe.oauth.delete_oauth2_data for dev1
2021-09-02 12:45:38,974 INFO scheduler Scheduled Job Complete: frappe.oauth.delete_oauth2_data for dev1
2021-09-02 12:46:37,353 DEBUG scheduler Queued events for site dev1
2021-09-02 12:47:37,853 DEBUG scheduler Queued events for site dev1
2021-09-02 12:48:38,384 DEBUG scheduler Queued events for site dev1
2021-09-02 12:48:38,424 INFO scheduler Scheduled Job Start: frappe.monitor.flush for dev1
2021-09-02 12:48:38,799 INFO scheduler Scheduled Job Complete: frappe.monitor.flush for dev1
2021-09-02 12:48:38,918 INFO scheduler Scheduled Job Start: frappe.utils.global_search.sync_global_search for dev1
2021-09-02 12:48:39,294 INFO scheduler Scheduled Job Complete: frappe.utils.global_search.sync_global_search for dev1
2021-09-02 12:48:39,410 INFO scheduler Scheduled Job Start: frappe.integrations.doctype.razorpay_settings.razorpay_settings.capture_payment for dev1
2021-09-02 12:48:39,958 INFO scheduler Scheduled Job Complete: frappe.integrations.doctype.razorpay_settings.razorpay_settings.capture_payment for dev1
2021-09-02 12:48:40,077 INFO scheduler Scheduled Job Start: frappe.email.doctype.email_account.email_account.notify_unreplied for dev1
2021-09-02 12:48:40,540 INFO scheduler Scheduled Job Complete: frappe.email.doctype.email_account.email_account.notify_unreplied for dev1
2021-09-02 12:48:40,651 INFO scheduler Scheduled Job Start: frappe.email.doctype.email_account.email_account.pull for dev1
2021-09-02 12:48:41,152 INFO scheduler Scheduled Job Complete: frappe.email.doctype.email_account.email_account.pull for dev1
2021-09-02 12:48:41,267 INFO scheduler Scheduled Job Start: frappe.email.queue.flush for dev1
2021-09-02 12:48:41,648 INFO scheduler Scheduled Job Complete: frappe.email.queue.flush for dev1
2021-09-02 12:49:38,939 DEBUG scheduler Queued events for site dev1
2021-09-02 12:50:39,430 DEBUG scheduler Queued events for site dev1
2021-09-02 12:51:39,901 DEBUG scheduler Queued events for site dev1
2021-09-02 12:52:40,401 DEBUG scheduler Queued events for site dev1
2021-09-02 12:52:40,445 INFO scheduler Scheduled Job Start: frappe.monitor.flush for dev1
2021-09-02 12:52:40,830 INFO scheduler Scheduled Job Complete: frappe.monitor.flush for dev1
2021-09-02 12:52:40,958 INFO scheduler Scheduled Job Start: frappe.utils.global_search.sync_global_search for dev1
2021-09-02 12:52:41,323 INFO scheduler Scheduled Job Complete: frappe.utils.global_search.sync_global_search for dev1
2021-09-02 12:52:41,435 INFO scheduler Scheduled Job Start: frappe.integrations.doctype.razorpay_settings.razorpay_settings.capture_payment for dev1
2021-09-02 12:52:41,996 INFO scheduler Scheduled Job Complete: frappe.integrations.doctype.razorpay_settings.razorpay_settings.capture_payment for dev1
2021-09-02 12:52:42,108 INFO scheduler Scheduled Job Start: frappe.email.doctype.email_account.email_account.notify_unreplied for dev1
2021-09-02 12:52:42,579 INFO scheduler Scheduled Job Complete: frappe.email.doctype.email_account.email_account.notify_unreplied for dev1
2021-09-02 12:52:42,695 INFO scheduler Scheduled Job Start: frappe.email.doctype.email_account.email_account.pull for dev1
2021-09-02 12:52:43,178 INFO scheduler Scheduled Job Complete: frappe.email.doctype.email_account.email_account.pull for dev1
2021-09-02 12:52:43,291 INFO scheduler Scheduled Job Start: frappe.email.queue.flush for dev1
2021-09-02 12:52:43,672 INFO scheduler Scheduled Job Complete: frappe.email.queue.flush for dev1
2021-09-02 12:53:40,964 DEBUG scheduler Queued events for site dev1
2021-09-02 12:54:41,472 DEBUG scheduler Queued events for site dev1
2021-09-02 12:55:41,948 DEBUG scheduler Queued events for site dev1
2021-09-02 12:56:42,457 DEBUG scheduler Queued events for site dev1
2021-09-02 12:56:42,510 INFO scheduler Scheduled Job Start: frappe.monitor.flush for dev1
2021-09-02 12:56:42,880 INFO scheduler Scheduled Job Complete: frappe.monitor.flush for dev1
2021-09-02 12:56:42,996 INFO scheduler Scheduled Job Start: frappe.utils.global_search.sync_global_search for dev1
2021-09-02 12:56:43,366 INFO scheduler Scheduled Job Complete: frappe.utils.global_search.sync_global_search for dev1
2021-09-02 12:56:43,480 INFO scheduler Scheduled Job Start: frappe.integrations.doctype.razorpay_settings.razorpay_settings.capture_payment for dev1
2021-09-02 12:56:44,043 INFO scheduler Scheduled Job Complete: frappe.integrations.doctype.razorpay_settings.razorpay_settings.capture_payment for dev1
2021-09-02 12:56:44,155 INFO scheduler Scheduled Job Start: frappe.email.doctype.email_account.email_account.notify_unreplied for dev1
2021-09-02 12:56:44,625 INFO scheduler Scheduled Job Complete: frappe.email.doctype.email_account.email_account.notify_unreplied for dev1
2021-09-02 12:56:44,740 INFO scheduler Scheduled Job Start: frappe.email.doctype.email_account.email_account.pull for dev1
2021-09-02 12:56:45,219 INFO scheduler Scheduled Job Complete: frappe.email.doctype.email_account.email_account.pull for dev1
2021-09-02 12:56:45,334 INFO scheduler Scheduled Job Start: frappe.email.queue.flush for dev1
2021-09-02 12:56:45,730 INFO scheduler Scheduled Job Complete: frappe.email.queue.flush for dev1
2021-09-02 12:57:43,025 DEBUG scheduler Queued events for site dev1
2021-09-02 12:58:43,523 DEBUG scheduler Queued events for site dev1
2021-09-02 12:59:43,984 DEBUG scheduler Queued events for site dev1
2021-09-02 13:00:44,503 INFO scheduler Scheduled Job Start: frappe.email.doctype.newsletter.newsletter.send_scheduled_email for dev1
2021-09-02 13:00:44,583 DEBUG scheduler Queued events for site dev1
2021-09-02 13:00:45,012 INFO scheduler Scheduled Job Complete: frappe.email.doctype.newsletter.newsletter.send_scheduled_email for dev1
2021-09-02 13:00:45,110 INFO scheduler Scheduled Job Start: frappe.integrations.doctype.google_calendar.google_calendar.sync for dev1
2021-09-02 13:00:45,710 INFO scheduler Scheduled Job Complete: frappe.integrations.doctype.google_calendar.google_calendar.sync for dev1
2021-09-02 13:00:45,817 INFO scheduler Scheduled Job Start: frappe.desk.form.document_follow.send_hourly_updates for dev1
2021-09-02 13:00:46,223 INFO scheduler Scheduled Job Complete: frappe.desk.form.document_follow.send_hourly_updates for dev1
2021-09-02 13:00:46,319 INFO scheduler Scheduled Job Start: frappe.deferred_insert.save_to_db for dev1
2021-09-02 13:00:46,717 INFO scheduler Scheduled Job Complete: frappe.deferred_insert.save_to_db for dev1
2021-09-02 13:00:46,820 INFO scheduler Scheduled Job Start: frappe.desk.page.backups.backups.delete_downloadable_backups for dev1
2021-09-02 13:00:47,246 INFO scheduler Scheduled Job Complete: frappe.desk.page.backups.backups.delete_downloadable_backups for dev1
2021-09-02 13:00:47,342 INFO scheduler Scheduled Job Start: frappe.utils.error.collect_error_snapshots for dev1
2021-09-02 13:00:47,721 INFO scheduler Scheduled Job Complete: frappe.utils.error.collect_error_snapshots for dev1
2021-09-02 13:00:47,824 INFO scheduler Scheduled Job Start: frappe.model.utils.user_settings.sync_user_settings for dev1
2021-09-02 13:00:48,223 INFO scheduler Scheduled Job Complete: frappe.model.utils.user_settings.sync_user_settings for dev1
2021-09-02 13:00:48,351 INFO scheduler Scheduled Job Start: frappe.model.utils.link_count.update_link_count for dev1
2021-09-02 13:00:48,756 INFO scheduler Scheduled Job Complete: frappe.model.utils.link_count.update_link_count for dev1
2021-09-02 13:00:48,860 INFO scheduler Scheduled Job Start: frappe.monitor.flush for dev1
2021-09-02 13:00:49,111 INFO scheduler Scheduled Job Complete: frappe.monitor.flush for dev1
2021-09-02 13:00:49,241 INFO scheduler Scheduled Job Start: frappe.utils.global_search.sync_global_search for dev1
2021-09-02 13:00:49,514 INFO scheduler Scheduled Job Complete: frappe.utils.global_search.sync_global_search for dev1
2021-09-02 13:00:49,605 INFO scheduler Scheduled Job Start: frappe.integrations.doctype.razorpay_settings.razorpay_settings.capture_payment for dev1
2021-09-02 13:00:50,020 INFO scheduler Scheduled Job Complete: frappe.integrations.doctype.razorpay_settings.razorpay_settings.capture_payment for dev1
2021-09-02 13:00:50,112 INFO scheduler Scheduled Job Start: frappe.email.doctype.email_account.email_account.notify_unreplied for dev1
2021-09-02 13:00:50,453 INFO scheduler Scheduled Job Complete: frappe.email.doctype.email_account.email_account.notify_unreplied for dev1
2021-09-02 13:00:50,551 INFO scheduler Scheduled Job Start: frappe.email.doctype.email_account.email_account.pull for dev1
2021-09-02 13:00:50,895 INFO scheduler Scheduled Job Complete: frappe.email.doctype.email_account.email_account.pull for dev1
2021-09-02 13:00:50,994 INFO scheduler Scheduled Job Start: frappe.email.queue.flush for dev1
2021-09-02 13:00:51,311 INFO scheduler Scheduled Job Complete: frappe.email.queue.flush for dev1
2021-09-02 13:00:51,409 INFO scheduler Scheduled Job Start: frappe.twofactor.delete_all_barcodes_for_users for dev1
2021-09-02 13:00:51,844 INFO scheduler Scheduled Job Complete: frappe.twofactor.delete_all_barcodes_for_users for dev1
2021-09-02 13:00:51,935 INFO scheduler Scheduled Job Start: frappe.website.doctype.web_page.web_page.check_publish_status for dev1
2021-09-02 13:00:52,465 INFO scheduler Scheduled Job Complete: frappe.website.doctype.web_page.web_page.check_publish_status for dev1
2021-09-02 13:00:52,569 INFO scheduler Scheduled Job Start: frappe.oauth.delete_oauth2_data for dev1
2021-09-02 13:00:52,993 INFO scheduler Scheduled Job Complete: frappe.oauth.delete_oauth2_data for dev1
2021-09-02 13:01:45,199 DEBUG scheduler Queued events for site dev1
2021-09-02 13:02:45,601 DEBUG scheduler Queued events for site dev1
2021-09-02 13:03:45,987 DEBUG scheduler Queued events for site dev1
2021-09-02 13:04:46,409 DEBUG scheduler Queued events for site dev1
2021-09-02 13:04:46,458 INFO scheduler Scheduled Job Start: frappe.monitor.flush for dev1
2021-09-02 13:04:46,798 INFO scheduler Scheduled Job Complete: frappe.monitor.flush for dev1
2021-09-02 13:04:46,908 INFO scheduler Scheduled Job Start: frappe.utils.global_search.sync_global_search for dev1
2021-09-02 13:04:47,206 INFO scheduler Scheduled Job Complete: frappe.utils.global_search.sync_global_search for dev1
2021-09-02 13:04:47,340 INFO scheduler Scheduled Job Start: frappe.integrations.doctype.razorpay_settings.razorpay_settings.capture_payment for dev1
2021-09-02 13:04:47,958 INFO scheduler Scheduled Job Complete: frappe.integrations.doctype.razorpay_settings.razorpay_settings.capture_payment for dev1
2021-09-02 13:04:48,068 INFO scheduler Scheduled Job Start: frappe.email.doctype.email_account.email_account.notify_unreplied for dev1
2021-09-02 13:04:48,484 INFO scheduler Scheduled Job Complete: frappe.email.doctype.email_account.email_account.notify_unreplied for dev1
2021-09-02 13:04:48,603 INFO scheduler Scheduled Job Start: frappe.email.doctype.email_account.email_account.pull for dev1
2021-09-02 13:04:48,986 INFO scheduler Scheduled Job Complete: frappe.email.doctype.email_account.email_account.pull for dev1
2021-09-02 13:04:49,091 INFO scheduler Scheduled Job Start: frappe.email.queue.flush for dev1
2021-09-02 13:04:49,428 INFO scheduler Scheduled Job Complete: frappe.email.queue.flush for dev1
2021-09-02 13:05:46,875 DEBUG scheduler Queued events for site dev1
2021-09-02 13:06:47,377 DEBUG scheduler Queued events for site dev1
2021-09-02 13:07:47,823 DEBUG scheduler Queued events for site dev1
2021-09-02 13:08:48,283 DEBUG scheduler Queued events for site dev1
2021-09-02 13:08:48,335 INFO scheduler Scheduled Job Start: frappe.monitor.flush for dev1
2021-09-02 13:08:48,605 INFO scheduler Scheduled Job Complete: frappe.monitor.flush for dev1
2021-09-02 13:08:48,700 INFO scheduler Scheduled Job Start: frappe.utils.global_search.sync_global_search for dev1
2021-09-02 13:08:48,964 INFO scheduler Scheduled Job Complete: frappe.utils.global_search.sync_global_search for dev1
2021-09-02 13:08:49,059 INFO scheduler Scheduled Job Start: frappe.integrations.doctype.razorpay_settings.razorpay_settings.capture_payment for dev1
2021-09-02 13:08:49,507 INFO scheduler Scheduled Job Complete: frappe.integrations.doctype.razorpay_settings.razorpay_settings.capture_payment for dev1
2021-09-02 13:08:49,617 INFO scheduler Scheduled Job Start: frappe.email.doctype.email_account.email_account.notify_unreplied for dev1
2021-09-02 13:08:49,978 INFO scheduler Scheduled Job Complete: frappe.email.doctype.email_account.email_account.notify_unreplied for dev1
2021-09-02 13:08:50,066 INFO scheduler Scheduled Job Start: frappe.email.doctype.email_account.email_account.pull for dev1
2021-09-02 13:08:50,418 INFO scheduler Scheduled Job Complete: frappe.email.doctype.email_account.email_account.pull for dev1
2021-09-02 13:08:50,527 INFO scheduler Scheduled Job Start: frappe.email.queue.flush for dev1
2021-09-02 13:08:50,819 INFO scheduler Scheduled Job Complete: frappe.email.queue.flush for dev1
2021-09-02 13:09:48,755 DEBUG scheduler Queued events for site dev1
2021-09-02 13:10:49,180 DEBUG scheduler Queued events for site dev1
2021-09-02 13:11:49,609 DEBUG scheduler Queued events for site dev1
2021-09-02 13:12:50,010 DEBUG scheduler Queued events for site dev1
2021-09-02 13:12:50,059 INFO scheduler Scheduled Job Start: frappe.monitor.flush for dev1
2021-09-02 13:12:50,371 INFO scheduler Scheduled Job Complete: frappe.monitor.flush for dev1
2021-09-02 13:12:50,488 INFO scheduler Scheduled Job Start: frappe.utils.global_search.sync_global_search for dev1
2021-09-02 13:12:50,756 INFO scheduler Scheduled Job Complete: frappe.utils.global_search.sync_global_search for dev1
2021-09-02 13:12:50,854 INFO scheduler Scheduled Job Start: frappe.integrations.doctype.razorpay_settings.razorpay_settings.capture_payment for dev1
2021-09-02 13:12:51,307 INFO scheduler Scheduled Job Complete: frappe.integrations.doctype.razorpay_settings.razorpay_settings.capture_payment for dev1
2021-09-02 13:12:51,404 INFO scheduler Scheduled Job Start: frappe.email.doctype.email_account.email_account.notify_unreplied for dev1
2021-09-02 13:12:51,767 INFO scheduler Scheduled Job Complete: frappe.email.doctype.email_account.email_account.notify_unreplied for dev1
2021-09-02 13:12:51,867 INFO scheduler Scheduled Job Start: frappe.email.doctype.email_account.email_account.pull for dev1
2021-09-02 13:12:52,255 INFO scheduler Scheduled Job Complete: frappe.email.doctype.email_account.email_account.pull for dev1
2021-09-02 13:12:52,356 INFO scheduler Scheduled Job Start: frappe.email.queue.flush for dev1
2021-09-02 13:12:52,695 INFO scheduler Scheduled Job Complete: frappe.email.queue.flush for dev1
2021-09-02 13:13:50,529 DEBUG scheduler Queued events for site dev1
2021-09-02 13:14:51,013 DEBUG scheduler Queued events for site dev1
2021-09-02 13:15:51,429 DEBUG scheduler Queued events for site dev1
2021-09-02 13:15:51,500 INFO scheduler Scheduled Job Start: frappe.twofactor.delete_all_barcodes_for_users for dev1
2021-09-02 13:15:51,972 INFO scheduler Scheduled Job Complete: frappe.twofactor.delete_all_barcodes_for_users for dev1
2021-09-02 13:15:52,087 INFO scheduler Scheduled Job Start: frappe.website.doctype.web_page.web_page.check_publish_status for dev1
2021-09-02 13:15:52,614 INFO scheduler Scheduled Job Complete: frappe.website.doctype.web_page.web_page.check_publish_status for dev1
2021-09-02 13:15:52,724 INFO scheduler Scheduled Job Start: frappe.oauth.delete_oauth2_data for dev1
2021-09-02 13:15:53,180 INFO scheduler Scheduled Job Complete: frappe.oauth.delete_oauth2_data for dev1
2021-09-02 13:16:51,886 DEBUG scheduler Queued events for site dev1
2021-09-02 13:16:51,925 INFO scheduler Scheduled Job Start: frappe.monitor.flush for dev1
2021-09-02 13:16:52,266 INFO scheduler Scheduled Job Complete: frappe.monitor.flush for dev1
2021-09-02 13:16:52,364 INFO scheduler Scheduled Job Start: frappe.utils.global_search.sync_global_search for dev1
2021-09-02 13:16:52,616 INFO scheduler Scheduled Job Complete: frappe.utils.global_search.sync_global_search for dev1
2021-09-02 13:16:52,713 INFO scheduler Scheduled Job Start: frappe.integrations.doctype.razorpay_settings.razorpay_settings.capture_payment for dev1
2021-09-02 13:16:53,110 INFO scheduler Scheduled Job Complete: frappe.integrations.doctype.razorpay_settings.razorpay_settings.capture_payment for dev1
2021-09-02 13:16:53,206 INFO scheduler Scheduled Job Start: frappe.email.doctype.email_account.email_account.notify_unreplied for dev1
2021-09-02 13:16:53,516 INFO scheduler Scheduled Job Complete: frappe.email.doctype.email_account.email_account.notify_unreplied for dev1
2021-09-02 13:16:53,601 INFO scheduler Scheduled Job Start: frappe.email.doctype.email_account.email_account.pull for dev1
2021-09-02 13:16:53,962 INFO scheduler Scheduled Job Complete: frappe.email.doctype.email_account.email_account.pull for dev1
2021-09-02 13:16:54,091 INFO scheduler Scheduled Job Start: frappe.email.queue.flush for dev1
2021-09-02 13:16:54,372 INFO scheduler Scheduled Job Complete: frappe.email.queue.flush for dev1
2021-09-02 13:17:52,431 DEBUG scheduler Queued events for site dev1
2021-09-02 13:18:52,879 DEBUG scheduler Queued events for site dev1
2021-09-02 13:19:53,269 DEBUG scheduler Queued events for site dev1
2021-09-02 13:20:53,707 DEBUG scheduler Queued events for site dev1
2021-09-02 13:20:53,753 INFO scheduler Scheduled Job Start: frappe.monitor.flush for dev1
2021-09-02 13:20:54,059 INFO scheduler Scheduled Job Complete: frappe.monitor.flush for dev1
2021-09-02 13:20:54,155 INFO scheduler Scheduled Job Start: frappe.utils.global_search.sync_global_search for dev1
2021-09-02 13:20:54,448 INFO scheduler Scheduled Job Complete: frappe.utils.global_search.sync_global_search for dev1
2021-09-02 13:20:54,543 INFO scheduler Scheduled Job Start: frappe.integrations.doctype.razorpay_settings.razorpay_settings.capture_payment for dev1
2021-09-02 13:20:54,994 INFO scheduler Scheduled Job Complete: frappe.integrations.doctype.razorpay_settings.razorpay_settings.capture_payment for dev1
2021-09-02 13:20:55,105 INFO scheduler Scheduled Job Start: frappe.email.doctype.email_account.email_account.notify_unreplied for dev1
2021-09-02 13:20:55,510 INFO scheduler Scheduled Job Complete: frappe.email.doctype.email_account.email_account.notify_unreplied for dev1
2021-09-02 13:20:55,621 INFO scheduler Scheduled Job Start: frappe.email.doctype.email_account.email_account.pull for dev1
2021-09-02 13:20:56,048 INFO scheduler Scheduled Job Complete: frappe.email.doctype.email_account.email_account.pull for dev1
2021-09-02 13:20:56,152 INFO scheduler Scheduled Job Start: frappe.email.queue.flush for dev1
2021-09-02 13:20:56,532 INFO scheduler Scheduled Job Complete: frappe.email.queue.flush for dev1
2021-09-02 13:21:54,189 DEBUG scheduler Queued events for site dev1
2021-09-02 13:22:54,574 DEBUG scheduler Queued events for site dev1
2021-09-02 13:23:54,925 DEBUG scheduler Queued events for site dev1
2021-09-02 13:24:55,323 DEBUG scheduler Queued events for site dev1
2021-09-02 13:24:55,361 INFO scheduler Scheduled Job Start: frappe.monitor.flush for dev1
2021-09-02 13:24:55,655 INFO scheduler Scheduled Job Complete: frappe.monitor.flush for dev1
2021-09-02 13:24:55,743 INFO scheduler Scheduled Job Start: frappe.utils.global_search.sync_global_search for dev1
2021-09-02 13:24:56,007 INFO scheduler Scheduled Job Complete: frappe.utils.global_search.sync_global_search for dev1
2021-09-02 13:24:56,120 INFO scheduler Scheduled Job Start: frappe.integrations.doctype.razorpay_settings.razorpay_settings.capture_payment for dev1
2021-09-02 13:24:56,494 INFO scheduler Scheduled Job Complete: frappe.integrations.doctype.razorpay_settings.razorpay_settings.capture_payment for dev1
2021-09-02 13:24:56,588 INFO scheduler Scheduled Job Start: frappe.email.doctype.email_account.email_account.notify_unreplied for dev1
2021-09-02 13:24:56,910 INFO scheduler Scheduled Job Complete: frappe.email.doctype.email_account.email_account.notify_unreplied for dev1
2021-09-02 13:24:57,014 INFO scheduler Scheduled Job Start: frappe.email.doctype.email_account.email_account.pull for dev1
2021-09-02 13:24:57,395 INFO scheduler Scheduled Job Complete: frappe.email.doctype.email_account.email_account.pull for dev1
2021-09-02 13:24:57,494 INFO scheduler Scheduled Job Start: frappe.email.queue.flush for dev1
2021-09-02 13:24:57,761 INFO scheduler Scheduled Job Complete: frappe.email.queue.flush for dev1
2021-09-02 13:25:55,769 DEBUG scheduler Queued events for site dev1
2021-09-02 13:26:56,172 DEBUG scheduler Queued events for site dev1
2021-09-02 13:27:56,564 DEBUG scheduler Queued events for site dev1
2021-09-02 13:28:56,962 DEBUG scheduler Queued events for site dev1
2021-09-02 13:28:56,998 INFO scheduler Scheduled Job Start: frappe.monitor.flush for dev1
2021-09-02 13:28:57,268 INFO scheduler Scheduled Job Complete: frappe.monitor.flush for dev1
2021-09-02 13:28:57,361 INFO scheduler Scheduled Job Start: frappe.utils.global_search.sync_global_search for dev1
2021-09-02 13:28:57,616 INFO scheduler Scheduled Job Complete: frappe.utils.global_search.sync_global_search for dev1
2021-09-02 13:28:57,725 INFO scheduler Scheduled Job Start: frappe.integrations.doctype.razorpay_settings.razorpay_settings.capture_payment for dev1
2021-09-02 13:28:58,120 INFO scheduler Scheduled Job Complete: frappe.integrations.doctype.razorpay_settings.razorpay_settings.capture_payment for dev1
2021-09-02 13:28:58,226 INFO scheduler Scheduled Job Start: frappe.email.doctype.email_account.email_account.notify_unreplied for dev1
2021-09-02 13:28:58,533 INFO scheduler Scheduled Job Complete: frappe.email.doctype.email_account.email_account.notify_unreplied for dev1
2021-09-02 13:28:58,631 INFO scheduler Scheduled Job Start: frappe.email.doctype.email_account.email_account.pull for dev1
2021-09-02 13:28:58,967 INFO scheduler Scheduled Job Complete: frappe.email.doctype.email_account.email_account.pull for dev1
2021-09-02 13:28:59,063 INFO scheduler Scheduled Job Start: frappe.email.queue.flush for dev1
2021-09-02 13:28:59,332 INFO scheduler Scheduled Job Complete: frappe.email.queue.flush for dev1
2021-09-02 13:29:57,372 DEBUG scheduler Queued events for site dev1
2021-09-02 13:30:57,728 DEBUG scheduler Queued events for site dev1
2021-09-02 13:30:57,812 INFO scheduler Scheduled Job Start: frappe.twofactor.delete_all_barcodes_for_users for dev1
2021-09-02 13:30:58,228 INFO scheduler Scheduled Job Complete: frappe.twofactor.delete_all_barcodes_for_users for dev1
2021-09-02 13:30:58,325 INFO scheduler Scheduled Job Start: frappe.website.doctype.web_page.web_page.check_publish_status for dev1
2021-09-02 13:30:58,771 INFO scheduler Scheduled Job Complete: frappe.website.doctype.web_page.web_page.check_publish_status for dev1
2021-09-02 13:31:58,198 DEBUG scheduler Queued events for site dev1
