2021-09-02 16:51:20,649 DEBUG scheduler Queued events for site dev1
2021-09-02 16:52:21,049 DEBUG scheduler Queued events for site dev1
2021-09-02 16:52:21,092 INFO scheduler Scheduled Job Start: frappe.monitor.flush for dev1
2021-09-02 16:52:21,360 INFO scheduler Scheduled Job Complete: frappe.monitor.flush for dev1
2021-09-02 16:52:21,460 INFO scheduler Scheduled Job Start: frappe.utils.global_search.sync_global_search for dev1
2021-09-02 16:52:21,708 INFO scheduler Scheduled Job Complete: frappe.utils.global_search.sync_global_search for dev1
2021-09-02 16:52:21,802 INFO scheduler Scheduled Job Start: frappe.integrations.doctype.razorpay_settings.razorpay_settings.capture_payment for dev1
2021-09-02 16:52:22,195 INFO scheduler Scheduled Job Complete: frappe.integrations.doctype.razorpay_settings.razorpay_settings.capture_payment for dev1
2021-09-02 16:52:22,282 INFO scheduler Scheduled Job Start: frappe.email.doctype.email_account.email_account.notify_unreplied for dev1
2021-09-02 16:52:22,582 INFO scheduler Scheduled Job Complete: frappe.email.doctype.email_account.email_account.notify_unreplied for dev1
2021-09-02 16:52:22,666 INFO scheduler Scheduled Job Start: frappe.email.doctype.email_account.email_account.pull for dev1
2021-09-02 16:52:22,977 INFO scheduler Scheduled Job Complete: frappe.email.doctype.email_account.email_account.pull for dev1
2021-09-02 16:52:23,064 INFO scheduler Scheduled Job Start: frappe.email.queue.flush for dev1
2021-09-02 16:52:23,341 INFO scheduler Scheduled Job Complete: frappe.email.queue.flush for dev1
2021-09-02 16:53:21,485 DEBUG scheduler Queued events for site dev1
2021-09-02 16:54:21,889 DEBUG scheduler Queued events for site dev1
2021-09-02 16:55:22,266 DEBUG scheduler Queued events for site dev1
2021-09-02 16:56:22,683 DEBUG scheduler Queued events for site dev1
2021-09-02 16:56:22,732 INFO scheduler Scheduled Job Start: frappe.monitor.flush for dev1
2021-09-02 16:56:22,990 INFO scheduler Scheduled Job Complete: frappe.monitor.flush for dev1
2021-09-02 16:56:23,080 INFO scheduler Scheduled Job Start: frappe.utils.global_search.sync_global_search for dev1
2021-09-02 16:56:23,346 INFO scheduler Scheduled Job Complete: frappe.utils.global_search.sync_global_search for dev1
2021-09-02 16:56:23,437 INFO scheduler Scheduled Job Start: frappe.integrations.doctype.razorpay_settings.razorpay_settings.capture_payment for dev1
2021-09-02 16:56:23,806 INFO scheduler Scheduled Job Complete: frappe.integrations.doctype.razorpay_settings.razorpay_settings.capture_payment for dev1
2021-09-02 16:56:23,916 INFO scheduler Scheduled Job Start: frappe.email.doctype.email_account.email_account.notify_unreplied for dev1
2021-09-02 16:56:24,242 INFO scheduler Scheduled Job Complete: frappe.email.doctype.email_account.email_account.notify_unreplied for dev1
2021-09-02 16:56:24,344 INFO scheduler Scheduled Job Start: frappe.email.doctype.email_account.email_account.pull for dev1
2021-09-02 16:56:24,679 INFO scheduler Scheduled Job Complete: frappe.email.doctype.email_account.email_account.pull for dev1
2021-09-02 16:56:24,770 INFO scheduler Scheduled Job Start: frappe.email.queue.flush for dev1
2021-09-02 16:56:25,031 INFO scheduler Scheduled Job Complete: frappe.email.queue.flush for dev1
2021-09-02 16:57:23,119 DEBUG scheduler Queued events for site dev1
2021-09-02 16:58:23,519 DEBUG scheduler Queued events for site dev1
2021-09-02 16:59:23,896 DEBUG scheduler Queued events for site dev1
2021-09-02 17:00:24,318 INFO scheduler Scheduled Job Start: frappe.email.doctype.newsletter.newsletter.send_scheduled_email for dev1
2021-09-02 17:00:24,363 DEBUG scheduler Queued events for site dev1
2021-09-02 17:00:24,803 INFO scheduler Scheduled Job Complete: frappe.email.doctype.newsletter.newsletter.send_scheduled_email for dev1
2021-09-02 17:00:24,906 INFO scheduler Scheduled Job Start: frappe.integrations.doctype.google_calendar.google_calendar.sync for dev1
2021-09-02 17:00:25,438 INFO scheduler Scheduled Job Complete: frappe.integrations.doctype.google_calendar.google_calendar.sync for dev1
2021-09-02 17:00:25,539 INFO scheduler Scheduled Job Start: frappe.desk.form.document_follow.send_hourly_updates for dev1
2021-09-02 17:00:25,912 INFO scheduler Scheduled Job Complete: frappe.desk.form.document_follow.send_hourly_updates for dev1
2021-09-02 17:00:26,005 INFO scheduler Scheduled Job Start: frappe.deferred_insert.save_to_db for dev1
2021-09-02 17:00:26,431 INFO scheduler Scheduled Job Complete: frappe.deferred_insert.save_to_db for dev1
2021-09-02 17:00:26,521 INFO scheduler Scheduled Job Start: frappe.desk.page.backups.backups.delete_downloadable_backups for dev1
2021-09-02 17:00:26,888 INFO scheduler Scheduled Job Complete: frappe.desk.page.backups.backups.delete_downloadable_backups for dev1
2021-09-02 17:00:26,982 INFO scheduler Scheduled Job Start: frappe.utils.error.collect_error_snapshots for dev1
2021-09-02 17:00:27,347 INFO scheduler Scheduled Job Complete: frappe.utils.error.collect_error_snapshots for dev1
2021-09-02 17:00:27,446 INFO scheduler Scheduled Job Start: frappe.model.utils.user_settings.sync_user_settings for dev1
2021-09-02 17:00:27,796 INFO scheduler Scheduled Job Complete: frappe.model.utils.user_settings.sync_user_settings for dev1
2021-09-02 17:00:27,893 INFO scheduler Scheduled Job Start: frappe.model.utils.link_count.update_link_count for dev1
2021-09-02 17:00:28,247 INFO scheduler Scheduled Job Complete: frappe.model.utils.link_count.update_link_count for dev1
2021-09-02 17:00:28,343 INFO scheduler Scheduled Job Start: frappe.monitor.flush for dev1
2021-09-02 17:00:28,584 INFO scheduler Scheduled Job Complete: frappe.monitor.flush for dev1
2021-09-02 17:00:28,680 INFO scheduler Scheduled Job Start: frappe.utils.global_search.sync_global_search for dev1
2021-09-02 17:00:28,938 INFO scheduler Scheduled Job Complete: frappe.utils.global_search.sync_global_search for dev1
2021-09-02 17:00:29,045 INFO scheduler Scheduled Job Start: frappe.integrations.doctype.razorpay_settings.razorpay_settings.capture_payment for dev1
2021-09-02 17:00:29,438 INFO scheduler Scheduled Job Complete: frappe.integrations.doctype.razorpay_settings.razorpay_settings.capture_payment for dev1
2021-09-02 17:00:29,534 INFO scheduler Scheduled Job Start: frappe.email.doctype.email_account.email_account.notify_unreplied for dev1
2021-09-02 17:00:29,837 INFO scheduler Scheduled Job Complete: frappe.email.doctype.email_account.email_account.notify_unreplied for dev1
2021-09-02 17:00:29,926 INFO scheduler Scheduled Job Start: frappe.email.doctype.email_account.email_account.pull for dev1
2021-09-02 17:00:30,250 INFO scheduler Scheduled Job Complete: frappe.email.doctype.email_account.email_account.pull for dev1
2021-09-02 17:00:30,359 INFO scheduler Scheduled Job Start: frappe.email.queue.flush for dev1
2021-09-02 17:00:30,605 INFO scheduler Scheduled Job Complete: frappe.email.queue.flush for dev1
2021-09-02 17:00:30,690 INFO scheduler Scheduled Job Start: frappe.twofactor.delete_all_barcodes_for_users for dev1
2021-09-02 17:00:31,098 INFO scheduler Scheduled Job Complete: frappe.twofactor.delete_all_barcodes_for_users for dev1
2021-09-02 17:00:31,202 INFO scheduler Scheduled Job Start: frappe.website.doctype.web_page.web_page.check_publish_status for dev1
2021-09-02 17:00:31,624 INFO scheduler Scheduled Job Complete: frappe.website.doctype.web_page.web_page.check_publish_status for dev1
2021-09-02 17:00:31,734 INFO scheduler Scheduled Job Start: frappe.oauth.delete_oauth2_data for dev1
2021-09-02 17:00:32,134 INFO scheduler Scheduled Job Complete: frappe.oauth.delete_oauth2_data for dev1
2021-09-02 17:01:24,964 DEBUG scheduler Queued events for site dev1
2021-09-02 17:02:25,389 DEBUG scheduler Queued events for site dev1
2021-09-02 17:03:25,763 DEBUG scheduler Queued events for site dev1
2021-09-02 17:04:26,152 DEBUG scheduler Queued events for site dev1
2021-09-02 17:04:26,199 INFO scheduler Scheduled Job Start: frappe.monitor.flush for dev1
2021-09-02 17:04:26,448 INFO scheduler Scheduled Job Complete: frappe.monitor.flush for dev1
2021-09-02 17:04:26,552 INFO scheduler Scheduled Job Start: frappe.utils.global_search.sync_global_search for dev1
2021-09-02 17:04:26,805 INFO scheduler Scheduled Job Complete: frappe.utils.global_search.sync_global_search for dev1
2021-09-02 17:04:26,895 INFO scheduler Scheduled Job Start: frappe.integrations.doctype.razorpay_settings.razorpay_settings.capture_payment for dev1
2021-09-02 17:04:27,262 INFO scheduler Scheduled Job Complete: frappe.integrations.doctype.razorpay_settings.razorpay_settings.capture_payment for dev1
2021-09-02 17:04:27,355 INFO scheduler Scheduled Job Start: frappe.email.doctype.email_account.email_account.notify_unreplied for dev1
2021-09-02 17:04:27,659 INFO scheduler Scheduled Job Complete: frappe.email.doctype.email_account.email_account.notify_unreplied for dev1
2021-09-02 17:04:27,753 INFO scheduler Scheduled Job Start: frappe.email.doctype.email_account.email_account.pull for dev1
2021-09-02 17:04:28,085 INFO scheduler Scheduled Job Complete: frappe.email.doctype.email_account.email_account.pull for dev1
2021-09-02 17:04:28,190 INFO scheduler Scheduled Job Start: frappe.email.queue.flush for dev1
2021-09-02 17:04:28,453 INFO scheduler Scheduled Job Complete: frappe.email.queue.flush for dev1
2021-09-02 17:05:26,573 DEBUG scheduler Queued events for site dev1
2021-09-02 17:06:26,951 DEBUG scheduler Queued events for site dev1
2021-09-02 17:07:27,317 DEBUG scheduler Queued events for site dev1
2021-09-02 17:08:27,727 DEBUG scheduler Queued events for site dev1
2021-09-02 17:08:27,765 INFO scheduler Scheduled Job Start: frappe.monitor.flush for dev1
2021-09-02 17:08:28,035 INFO scheduler Scheduled Job Complete: frappe.monitor.flush for dev1
2021-09-02 17:08:28,135 INFO scheduler Scheduled Job Start: frappe.utils.global_search.sync_global_search for dev1
2021-09-02 17:08:28,399 INFO scheduler Scheduled Job Complete: frappe.utils.global_search.sync_global_search for dev1
2021-09-02 17:08:28,501 INFO scheduler Scheduled Job Start: frappe.integrations.doctype.razorpay_settings.razorpay_settings.capture_payment for dev1
2021-09-02 17:08:28,871 INFO scheduler Scheduled Job Complete: frappe.integrations.doctype.razorpay_settings.razorpay_settings.capture_payment for dev1
2021-09-02 17:08:28,961 INFO scheduler Scheduled Job Start: frappe.email.doctype.email_account.email_account.notify_unreplied for dev1
2021-09-02 17:08:29,294 INFO scheduler Scheduled Job Complete: frappe.email.doctype.email_account.email_account.notify_unreplied for dev1
2021-09-02 17:08:29,404 INFO scheduler Scheduled Job Start: frappe.email.doctype.email_account.email_account.pull for dev1
2021-09-02 17:08:29,735 INFO scheduler Scheduled Job Complete: frappe.email.doctype.email_account.email_account.pull for dev1
2021-09-02 17:08:29,832 INFO scheduler Scheduled Job Start: frappe.email.queue.flush for dev1
2021-09-02 17:08:30,093 INFO scheduler Scheduled Job Complete: frappe.email.queue.flush for dev1
2021-09-02 17:09:28,158 DEBUG scheduler Queued events for site dev1
2021-09-02 17:10:28,563 DEBUG scheduler Queued events for site dev1
2021-09-02 17:11:28,907 DEBUG scheduler Queued events for site dev1
2021-09-02 17:12:29,268 DEBUG scheduler Queued events for site dev1
2021-09-02 17:12:29,303 INFO scheduler Scheduled Job Start: frappe.monitor.flush for dev1
2021-09-02 17:12:29,597 INFO scheduler Scheduled Job Complete: frappe.monitor.flush for dev1
2021-09-02 17:12:29,679 INFO scheduler Scheduled Job Start: frappe.utils.global_search.sync_global_search for dev1
2021-09-02 17:12:29,910 INFO scheduler Scheduled Job Complete: frappe.utils.global_search.sync_global_search for dev1
2021-09-02 17:12:30,008 INFO scheduler Scheduled Job Start: frappe.integrations.doctype.razorpay_settings.razorpay_settings.capture_payment for dev1
2021-09-02 17:12:30,396 INFO scheduler Scheduled Job Complete: frappe.integrations.doctype.razorpay_settings.razorpay_settings.capture_payment for dev1
2021-09-02 17:12:30,492 INFO scheduler Scheduled Job Start: frappe.email.doctype.email_account.email_account.notify_unreplied for dev1
2021-09-02 17:12:30,793 INFO scheduler Scheduled Job Complete: frappe.email.doctype.email_account.email_account.notify_unreplied for dev1
2021-09-02 17:12:30,884 INFO scheduler Scheduled Job Start: frappe.email.doctype.email_account.email_account.pull for dev1
2021-09-02 17:12:31,229 INFO scheduler Scheduled Job Complete: frappe.email.doctype.email_account.email_account.pull for dev1
2021-09-02 17:12:31,323 INFO scheduler Scheduled Job Start: frappe.email.queue.flush for dev1
2021-09-02 17:12:31,588 INFO scheduler Scheduled Job Complete: frappe.email.queue.flush for dev1
2021-09-02 17:13:29,723 DEBUG scheduler Queued events for site dev1
2021-09-02 17:14:30,122 DEBUG scheduler Queued events for site dev1
2021-09-02 17:15:30,508 DEBUG scheduler Queued events for site dev1
2021-09-02 17:15:30,576 INFO scheduler Scheduled Job Start: frappe.twofactor.delete_all_barcodes_for_users for dev1
2021-09-02 17:15:31,025 INFO scheduler Scheduled Job Complete: frappe.twofactor.delete_all_barcodes_for_users for dev1
2021-09-02 17:15:31,135 INFO scheduler Scheduled Job Start: frappe.website.doctype.web_page.web_page.check_publish_status for dev1
2021-09-02 17:15:31,591 INFO scheduler Scheduled Job Complete: frappe.website.doctype.web_page.web_page.check_publish_status for dev1
2021-09-02 17:15:31,689 INFO scheduler Scheduled Job Start: frappe.oauth.delete_oauth2_data for dev1
2021-09-02 17:15:32,067 INFO scheduler Scheduled Job Complete: frappe.oauth.delete_oauth2_data for dev1
2021-09-02 17:16:30,958 DEBUG scheduler Queued events for site dev1
2021-09-02 17:16:31,000 INFO scheduler Scheduled Job Start: frappe.monitor.flush for dev1
2021-09-02 17:16:31,275 INFO scheduler Scheduled Job Complete: frappe.monitor.flush for dev1
2021-09-02 17:16:31,367 INFO scheduler Scheduled Job Start: frappe.utils.global_search.sync_global_search for dev1
2021-09-02 17:16:31,614 INFO scheduler Scheduled Job Complete: frappe.utils.global_search.sync_global_search for dev1
2021-09-02 17:16:31,709 INFO scheduler Scheduled Job Start: frappe.integrations.doctype.razorpay_settings.razorpay_settings.capture_payment for dev1
2021-09-02 17:16:32,091 INFO scheduler Scheduled Job Complete: frappe.integrations.doctype.razorpay_settings.razorpay_settings.capture_payment for dev1
2021-09-02 17:16:32,197 INFO scheduler Scheduled Job Start: frappe.email.doctype.email_account.email_account.notify_unreplied for dev1
2021-09-02 17:16:32,515 INFO scheduler Scheduled Job Complete: frappe.email.doctype.email_account.email_account.notify_unreplied for dev1
2021-09-02 17:16:32,599 INFO scheduler Scheduled Job Start: frappe.email.doctype.email_account.email_account.pull for dev1
2021-09-02 17:16:32,922 INFO scheduler Scheduled Job Complete: frappe.email.doctype.email_account.email_account.pull for dev1
2021-09-02 17:16:33,015 INFO scheduler Scheduled Job Start: frappe.email.queue.flush for dev1
2021-09-02 17:16:33,294 INFO scheduler Scheduled Job Complete: frappe.email.queue.flush for dev1
2021-09-02 17:17:31,397 DEBUG scheduler Queued events for site dev1
2021-09-02 17:18:31,793 DEBUG scheduler Queued events for site dev1
2021-09-02 17:19:32,139 DEBUG scheduler Queued events for site dev1
2021-09-02 17:20:32,545 DEBUG scheduler Queued events for site dev1
2021-09-02 17:20:32,580 INFO scheduler Scheduled Job Start: frappe.monitor.flush for dev1
2021-09-02 17:20:32,840 INFO scheduler Scheduled Job Complete: frappe.monitor.flush for dev1
2021-09-02 17:20:32,934 INFO scheduler Scheduled Job Start: frappe.utils.global_search.sync_global_search for dev1
2021-09-02 17:20:33,183 INFO scheduler Scheduled Job Complete: frappe.utils.global_search.sync_global_search for dev1
2021-09-02 17:20:33,263 INFO scheduler Scheduled Job Start: frappe.integrations.doctype.razorpay_settings.razorpay_settings.capture_payment for dev1
2021-09-02 17:20:33,632 INFO scheduler Scheduled Job Complete: frappe.integrations.doctype.razorpay_settings.razorpay_settings.capture_payment for dev1
2021-09-02 17:20:33,714 INFO scheduler Scheduled Job Start: frappe.email.doctype.email_account.email_account.notify_unreplied for dev1
2021-09-02 17:20:34,024 INFO scheduler Scheduled Job Complete: frappe.email.doctype.email_account.email_account.notify_unreplied for dev1
2021-09-02 17:20:34,112 INFO scheduler Scheduled Job Start: frappe.email.doctype.email_account.email_account.pull for dev1
2021-09-02 17:20:34,456 INFO scheduler Scheduled Job Complete: frappe.email.doctype.email_account.email_account.pull for dev1
2021-09-02 17:20:34,540 INFO scheduler Scheduled Job Start: frappe.email.queue.flush for dev1
2021-09-02 17:20:34,810 INFO scheduler Scheduled Job Complete: frappe.email.queue.flush for dev1
2021-09-02 17:21:32,963 DEBUG scheduler Queued events for site dev1
2021-09-02 17:22:33,364 DEBUG scheduler Queued events for site dev1
2021-09-02 17:23:33,730 DEBUG scheduler Queued events for site dev1
2021-09-02 17:24:34,137 DEBUG scheduler Queued events for site dev1
2021-09-02 17:24:34,188 INFO scheduler Scheduled Job Start: frappe.monitor.flush for dev1
2021-09-02 17:24:34,452 INFO scheduler Scheduled Job Complete: frappe.monitor.flush for dev1
2021-09-02 17:24:34,541 INFO scheduler Scheduled Job Start: frappe.utils.global_search.sync_global_search for dev1
2021-09-02 17:24:34,810 INFO scheduler Scheduled Job Complete: frappe.utils.global_search.sync_global_search for dev1
2021-09-02 17:24:34,900 INFO scheduler Scheduled Job Start: frappe.integrations.doctype.razorpay_settings.razorpay_settings.capture_payment for dev1
2021-09-02 17:24:35,301 INFO scheduler Scheduled Job Complete: frappe.integrations.doctype.razorpay_settings.razorpay_settings.capture_payment for dev1
2021-09-02 17:24:35,408 INFO scheduler Scheduled Job Start: frappe.email.doctype.email_account.email_account.notify_unreplied for dev1
2021-09-02 17:24:35,698 INFO scheduler Scheduled Job Complete: frappe.email.doctype.email_account.email_account.notify_unreplied for dev1
2021-09-02 17:24:35,794 INFO scheduler Scheduled Job Start: frappe.email.doctype.email_account.email_account.pull for dev1
2021-09-02 17:24:36,119 INFO scheduler Scheduled Job Complete: frappe.email.doctype.email_account.email_account.pull for dev1
2021-09-02 17:24:36,222 INFO scheduler Scheduled Job Start: frappe.email.queue.flush for dev1
2021-09-02 17:24:36,481 INFO scheduler Scheduled Job Complete: frappe.email.queue.flush for dev1
2021-09-02 17:25:34,563 DEBUG scheduler Queued events for site dev1
2021-09-02 17:26:34,949 DEBUG scheduler Queued events for site dev1
2021-09-02 17:27:35,301 DEBUG scheduler Queued events for site dev1
2021-09-02 17:28:35,702 DEBUG scheduler Queued events for site dev1
2021-09-02 17:28:35,749 INFO scheduler Scheduled Job Start: frappe.monitor.flush for dev1
2021-09-02 17:28:36,052 INFO scheduler Scheduled Job Complete: frappe.monitor.flush for dev1
2021-09-02 17:28:36,151 INFO scheduler Scheduled Job Start: frappe.utils.global_search.sync_global_search for dev1
2021-09-02 17:28:36,423 INFO scheduler Scheduled Job Complete: frappe.utils.global_search.sync_global_search for dev1
2021-09-02 17:28:36,540 INFO scheduler Scheduled Job Start: frappe.integrations.doctype.razorpay_settings.razorpay_settings.capture_payment for dev1
2021-09-02 17:28:36,927 INFO scheduler Scheduled Job Complete: frappe.integrations.doctype.razorpay_settings.razorpay_settings.capture_payment for dev1
2021-09-02 17:28:37,016 INFO scheduler Scheduled Job Start: frappe.email.doctype.email_account.email_account.notify_unreplied for dev1
2021-09-02 17:28:37,347 INFO scheduler Scheduled Job Complete: frappe.email.doctype.email_account.email_account.notify_unreplied for dev1
2021-09-02 17:28:37,429 INFO scheduler Scheduled Job Start: frappe.email.doctype.email_account.email_account.pull for dev1
2021-09-02 17:28:37,754 INFO scheduler Scheduled Job Complete: frappe.email.doctype.email_account.email_account.pull for dev1
2021-09-02 17:28:37,851 INFO scheduler Scheduled Job Start: frappe.email.queue.flush for dev1
2021-09-02 17:28:38,104 INFO scheduler Scheduled Job Complete: frappe.email.queue.flush for dev1
2021-09-02 17:29:36,165 DEBUG scheduler Queued events for site dev1
2021-09-02 17:30:36,581 DEBUG scheduler Queued events for site dev1
2021-09-02 17:30:36,646 INFO scheduler Scheduled Job Start: frappe.twofactor.delete_all_barcodes_for_users for dev1
2021-09-02 17:30:37,034 INFO scheduler Scheduled Job Complete: frappe.twofactor.delete_all_barcodes_for_users for dev1
2021-09-02 17:30:37,137 INFO scheduler Scheduled Job Start: frappe.website.doctype.web_page.web_page.check_publish_status for dev1
2021-09-02 17:30:37,579 INFO scheduler Scheduled Job Complete: frappe.website.doctype.web_page.web_page.check_publish_status for dev1
2021-09-02 17:30:37,698 INFO scheduler Scheduled Job Start: frappe.oauth.delete_oauth2_data for dev1
2021-09-02 17:30:38,107 INFO scheduler Scheduled Job Complete: frappe.oauth.delete_oauth2_data for dev1
2021-09-02 17:31:36,960 DEBUG scheduler Queued events for site dev1
2021-09-02 17:32:37,380 DEBUG scheduler Queued events for site dev1
2021-09-02 17:32:37,415 INFO scheduler Scheduled Job Start: frappe.monitor.flush for dev1
2021-09-02 17:32:37,714 INFO scheduler Scheduled Job Complete: frappe.monitor.flush for dev1
2021-09-02 17:32:37,810 INFO scheduler Scheduled Job Start: frappe.utils.global_search.sync_global_search for dev1
2021-09-02 17:32:38,055 INFO scheduler Scheduled Job Complete: frappe.utils.global_search.sync_global_search for dev1
2021-09-02 17:32:38,144 INFO scheduler Scheduled Job Start: frappe.integrations.doctype.razorpay_settings.razorpay_settings.capture_payment for dev1
2021-09-02 17:32:38,572 INFO scheduler Scheduled Job Complete: frappe.integrations.doctype.razorpay_settings.razorpay_settings.capture_payment for dev1
2021-09-02 17:32:38,658 INFO scheduler Scheduled Job Start: frappe.email.doctype.email_account.email_account.notify_unreplied for dev1
2021-09-02 17:32:38,975 INFO scheduler Scheduled Job Complete: frappe.email.doctype.email_account.email_account.notify_unreplied for dev1
2021-09-02 17:32:39,065 INFO scheduler Scheduled Job Start: frappe.email.doctype.email_account.email_account.pull for dev1
2021-09-02 17:32:39,442 INFO scheduler Scheduled Job Complete: frappe.email.doctype.email_account.email_account.pull for dev1
2021-09-02 17:32:39,535 INFO scheduler Scheduled Job Start: frappe.email.queue.flush for dev1
2021-09-02 17:32:39,782 INFO scheduler Scheduled Job Complete: frappe.email.queue.flush for dev1
2021-09-02 17:33:37,823 DEBUG scheduler Queued events for site dev1
2021-09-02 17:34:38,221 DEBUG scheduler Queued events for site dev1
2021-09-02 17:35:38,607 DEBUG scheduler Queued events for site dev1
2021-09-02 17:36:39,023 DEBUG scheduler Queued events for site dev1
2021-09-02 17:36:39,057 INFO scheduler Scheduled Job Start: frappe.monitor.flush for dev1
2021-09-02 17:36:39,316 INFO scheduler Scheduled Job Complete: frappe.monitor.flush for dev1
2021-09-02 17:36:39,412 INFO scheduler Scheduled Job Start: frappe.utils.global_search.sync_global_search for dev1
2021-09-02 17:36:39,660 INFO scheduler Scheduled Job Complete: frappe.utils.global_search.sync_global_search for dev1
2021-09-02 17:36:39,749 INFO scheduler Scheduled Job Start: frappe.integrations.doctype.razorpay_settings.razorpay_settings.capture_payment for dev1
2021-09-02 17:36:40,164 INFO scheduler Scheduled Job Complete: frappe.integrations.doctype.razorpay_settings.razorpay_settings.capture_payment for dev1
2021-09-02 17:36:40,267 INFO scheduler Scheduled Job Start: frappe.email.doctype.email_account.email_account.notify_unreplied for dev1
2021-09-02 17:36:40,570 INFO scheduler Scheduled Job Complete: frappe.email.doctype.email_account.email_account.notify_unreplied for dev1
2021-09-02 17:36:40,672 INFO scheduler Scheduled Job Start: frappe.email.doctype.email_account.email_account.pull for dev1
2021-09-02 17:36:41,002 INFO scheduler Scheduled Job Complete: frappe.email.doctype.email_account.email_account.pull for dev1
2021-09-02 17:36:41,099 INFO scheduler Scheduled Job Start: frappe.email.queue.flush for dev1
2021-09-02 17:36:41,358 INFO scheduler Scheduled Job Complete: frappe.email.queue.flush for dev1
2021-09-02 17:37:39,444 DEBUG scheduler Queued events for site dev1
2021-09-02 17:38:39,856 DEBUG scheduler Queued events for site dev1
2021-09-02 17:39:40,235 DEBUG scheduler Queued events for site dev1
2021-09-02 17:40:40,641 DEBUG scheduler Queued events for site dev1
2021-09-02 17:40:40,690 INFO scheduler Scheduled Job Start: frappe.monitor.flush for dev1
2021-09-02 17:40:40,992 INFO scheduler Scheduled Job Complete: frappe.monitor.flush for dev1
2021-09-02 17:40:41,091 INFO scheduler Scheduled Job Start: frappe.utils.global_search.sync_global_search for dev1
2021-09-02 17:40:41,365 INFO scheduler Scheduled Job Complete: frappe.utils.global_search.sync_global_search for dev1
2021-09-02 17:40:41,455 INFO scheduler Scheduled Job Start: frappe.integrations.doctype.razorpay_settings.razorpay_settings.capture_payment for dev1
2021-09-02 17:40:41,848 INFO scheduler Scheduled Job Complete: frappe.integrations.doctype.razorpay_settings.razorpay_settings.capture_payment for dev1
2021-09-02 17:40:41,933 INFO scheduler Scheduled Job Start: frappe.email.doctype.email_account.email_account.notify_unreplied for dev1
2021-09-02 17:40:42,287 INFO scheduler Scheduled Job Complete: frappe.email.doctype.email_account.email_account.notify_unreplied for dev1
2021-09-02 17:40:42,384 INFO scheduler Scheduled Job Start: frappe.email.doctype.email_account.email_account.pull for dev1
2021-09-02 17:40:42,743 INFO scheduler Scheduled Job Complete: frappe.email.doctype.email_account.email_account.pull for dev1
2021-09-02 17:40:42,838 INFO scheduler Scheduled Job Start: frappe.email.queue.flush for dev1
2021-09-02 17:40:43,113 INFO scheduler Scheduled Job Complete: frappe.email.queue.flush for dev1
2021-09-02 17:41:41,120 DEBUG scheduler Queued events for site dev1
2021-09-02 17:42:41,486 DEBUG scheduler Queued events for site dev1
2021-09-02 17:43:41,858 DEBUG scheduler Queued events for site dev1
2021-09-02 17:44:42,233 DEBUG scheduler Queued events for site dev1
2021-09-02 17:44:42,271 INFO scheduler Scheduled Job Start: frappe.monitor.flush for dev1
2021-09-02 17:44:42,520 INFO scheduler Scheduled Job Complete: frappe.monitor.flush for dev1
2021-09-02 17:44:42,606 INFO scheduler Scheduled Job Start: frappe.utils.global_search.sync_global_search for dev1
2021-09-02 17:44:42,856 INFO scheduler Scheduled Job Complete: frappe.utils.global_search.sync_global_search for dev1
2021-09-02 17:44:42,943 INFO scheduler Scheduled Job Start: frappe.integrations.doctype.razorpay_settings.razorpay_settings.capture_payment for dev1
2021-09-02 17:44:43,350 INFO scheduler Scheduled Job Complete: frappe.integrations.doctype.razorpay_settings.razorpay_settings.capture_payment for dev1
2021-09-02 17:44:43,444 INFO scheduler Scheduled Job Start: frappe.email.doctype.email_account.email_account.notify_unreplied for dev1
2021-09-02 17:44:43,749 INFO scheduler Scheduled Job Complete: frappe.email.doctype.email_account.email_account.notify_unreplied for dev1
2021-09-02 17:44:43,847 INFO scheduler Scheduled Job Start: frappe.email.doctype.email_account.email_account.pull for dev1
2021-09-02 17:44:44,223 INFO scheduler Scheduled Job Complete: frappe.email.doctype.email_account.email_account.pull for dev1
2021-09-02 17:44:44,315 INFO scheduler Scheduled Job Start: frappe.email.queue.flush for dev1
2021-09-02 17:44:44,580 INFO scheduler Scheduled Job Complete: frappe.email.queue.flush for dev1
2021-09-02 17:45:42,655 DEBUG scheduler Queued events for site dev1
2021-09-02 17:45:42,721 INFO scheduler Scheduled Job Start: frappe.twofactor.delete_all_barcodes_for_users for dev1
2021-09-02 17:45:43,134 INFO scheduler Scheduled Job Complete: frappe.twofactor.delete_all_barcodes_for_users for dev1
2021-09-02 17:45:43,244 INFO scheduler Scheduled Job Start: frappe.website.doctype.web_page.web_page.check_publish_status for dev1
2021-09-02 17:45:43,681 INFO scheduler Scheduled Job Complete: frappe.website.doctype.web_page.web_page.check_publish_status for dev1
2021-09-02 17:45:43,776 INFO scheduler Scheduled Job Start: frappe.oauth.delete_oauth2_data for dev1
2021-09-02 17:45:44,190 INFO scheduler Scheduled Job Complete: frappe.oauth.delete_oauth2_data for dev1
2021-09-02 17:46:43,070 DEBUG scheduler Queued events for site dev1
2021-09-02 17:47:43,477 DEBUG scheduler Queued events for site dev1
2021-09-02 17:48:43,882 DEBUG scheduler Queued events for site dev1
2021-09-02 17:48:43,921 INFO scheduler Scheduled Job Start: frappe.monitor.flush for dev1
2021-09-02 17:48:44,170 INFO scheduler Scheduled Job Complete: frappe.monitor.flush for dev1
2021-09-02 17:48:44,268 INFO scheduler Scheduled Job Start: frappe.utils.global_search.sync_global_search for dev1
2021-09-02 17:48:44,513 INFO scheduler Scheduled Job Complete: frappe.utils.global_search.sync_global_search for dev1
2021-09-02 17:48:44,604 INFO scheduler Scheduled Job Start: frappe.integrations.doctype.razorpay_settings.razorpay_settings.capture_payment for dev1
2021-09-02 17:48:44,968 INFO scheduler Scheduled Job Complete: frappe.integrations.doctype.razorpay_settings.razorpay_settings.capture_payment for dev1
2021-09-02 17:48:45,068 INFO scheduler Scheduled Job Start: frappe.email.doctype.email_account.email_account.notify_unreplied for dev1
2021-09-02 17:48:45,375 INFO scheduler Scheduled Job Complete: frappe.email.doctype.email_account.email_account.notify_unreplied for dev1
2021-09-02 17:48:45,467 INFO scheduler Scheduled Job Start: frappe.email.doctype.email_account.email_account.pull for dev1
2021-09-02 17:48:45,805 INFO scheduler Scheduled Job Complete: frappe.email.doctype.email_account.email_account.pull for dev1
2021-09-02 17:48:45,907 INFO scheduler Scheduled Job Start: frappe.email.queue.flush for dev1
2021-09-02 17:48:46,153 INFO scheduler Scheduled Job Complete: frappe.email.queue.flush for dev1
2021-09-02 17:49:44,295 DEBUG scheduler Queued events for site dev1
2021-09-02 17:50:44,711 DEBUG scheduler Queued events for site dev1
2021-09-02 17:51:45,095 DEBUG scheduler Queued events for site dev1
2021-09-02 17:52:45,501 DEBUG scheduler Queued events for site dev1
2021-09-02 17:52:45,537 INFO scheduler Scheduled Job Start: frappe.monitor.flush for dev1
2021-09-02 17:52:45,783 INFO scheduler Scheduled Job Complete: frappe.monitor.flush for dev1
2021-09-02 17:52:45,887 INFO scheduler Scheduled Job Start: frappe.utils.global_search.sync_global_search for dev1
2021-09-02 17:52:46,130 INFO scheduler Scheduled Job Complete: frappe.utils.global_search.sync_global_search for dev1
2021-09-02 17:52:46,239 INFO scheduler Scheduled Job Start: frappe.integrations.doctype.razorpay_settings.razorpay_settings.capture_payment for dev1
2021-09-02 17:52:46,625 INFO scheduler Scheduled Job Complete: frappe.integrations.doctype.razorpay_settings.razorpay_settings.capture_payment for dev1
2021-09-02 17:52:46,716 INFO scheduler Scheduled Job Start: frappe.email.doctype.email_account.email_account.notify_unreplied for dev1
2021-09-02 17:52:47,018 INFO scheduler Scheduled Job Complete: frappe.email.doctype.email_account.email_account.notify_unreplied for dev1
2021-09-02 17:52:47,120 INFO scheduler Scheduled Job Start: frappe.email.doctype.email_account.email_account.pull for dev1
2021-09-02 17:52:47,458 INFO scheduler Scheduled Job Complete: frappe.email.doctype.email_account.email_account.pull for dev1
2021-09-02 17:52:47,556 INFO scheduler Scheduled Job Start: frappe.email.queue.flush for dev1
2021-09-02 17:52:47,821 INFO scheduler Scheduled Job Complete: frappe.email.queue.flush for dev1
2021-09-02 17:53:45,914 DEBUG scheduler Queued events for site dev1
2021-09-02 17:54:46,319 DEBUG scheduler Queued events for site dev1
2021-09-02 17:55:46,680 DEBUG scheduler Queued events for site dev1
2021-09-02 17:56:47,083 DEBUG scheduler Queued events for site dev1
2021-09-02 17:56:47,129 INFO scheduler Scheduled Job Start: frappe.monitor.flush for dev1
2021-09-02 17:56:47,400 INFO scheduler Scheduled Job Complete: frappe.monitor.flush for dev1
2021-09-02 17:56:47,504 INFO scheduler Scheduled Job Start: frappe.utils.global_search.sync_global_search for dev1
2021-09-02 17:56:47,756 INFO scheduler Scheduled Job Complete: frappe.utils.global_search.sync_global_search for dev1
2021-09-02 17:56:47,845 INFO scheduler Scheduled Job Start: frappe.integrations.doctype.razorpay_settings.razorpay_settings.capture_payment for dev1
2021-09-02 17:56:48,258 INFO scheduler Scheduled Job Complete: frappe.integrations.doctype.razorpay_settings.razorpay_settings.capture_payment for dev1
2021-09-02 17:56:48,343 INFO scheduler Scheduled Job Start: frappe.email.doctype.email_account.email_account.notify_unreplied for dev1
2021-09-02 17:56:48,648 INFO scheduler Scheduled Job Complete: frappe.email.doctype.email_account.email_account.notify_unreplied for dev1
2021-09-02 17:56:48,740 INFO scheduler Scheduled Job Start: frappe.email.doctype.email_account.email_account.pull for dev1
2021-09-02 17:56:49,089 INFO scheduler Scheduled Job Complete: frappe.email.doctype.email_account.email_account.pull for dev1
2021-09-02 17:56:49,183 INFO scheduler Scheduled Job Start: frappe.email.queue.flush for dev1
2021-09-02 17:56:49,457 INFO scheduler Scheduled Job Complete: frappe.email.queue.flush for dev1
2021-09-02 17:57:47,513 DEBUG scheduler Queued events for site dev1
2021-09-02 17:58:47,897 DEBUG scheduler Queued events for site dev1
2021-09-02 17:59:48,244 DEBUG scheduler Queued events for site dev1
2021-09-02 18:00:48,652 INFO scheduler Scheduled Job Start: frappe.email.doctype.newsletter.newsletter.send_scheduled_email for dev1
2021-09-02 18:00:48,697 DEBUG scheduler Queued events for site dev1
2021-09-02 18:00:49,156 INFO scheduler Scheduled Job Complete: frappe.email.doctype.newsletter.newsletter.send_scheduled_email for dev1
2021-09-02 18:00:49,257 INFO scheduler Scheduled Job Start: frappe.integrations.doctype.google_calendar.google_calendar.sync for dev1
2021-09-02 18:00:49,794 INFO scheduler Scheduled Job Complete: frappe.integrations.doctype.google_calendar.google_calendar.sync for dev1
2021-09-02 18:00:49,892 INFO scheduler Scheduled Job Start: frappe.desk.form.document_follow.send_hourly_updates for dev1
2021-09-02 18:00:50,257 INFO scheduler Scheduled Job Complete: frappe.desk.form.document_follow.send_hourly_updates for dev1
2021-09-02 18:00:50,353 INFO scheduler Scheduled Job Start: frappe.deferred_insert.save_to_db for dev1
2021-09-02 18:00:50,718 INFO scheduler Scheduled Job Complete: frappe.deferred_insert.save_to_db for dev1
2021-09-02 18:00:50,818 INFO scheduler Scheduled Job Start: frappe.desk.page.backups.backups.delete_downloadable_backups for dev1
2021-09-02 18:00:51,217 INFO scheduler Scheduled Job Complete: frappe.desk.page.backups.backups.delete_downloadable_backups for dev1
2021-09-02 18:00:51,316 INFO scheduler Scheduled Job Start: frappe.utils.error.collect_error_snapshots for dev1
2021-09-02 18:00:51,676 INFO scheduler Scheduled Job Complete: frappe.utils.error.collect_error_snapshots for dev1
2021-09-02 18:00:51,783 INFO scheduler Scheduled Job Start: frappe.model.utils.user_settings.sync_user_settings for dev1
2021-09-02 18:00:52,139 INFO scheduler Scheduled Job Complete: frappe.model.utils.user_settings.sync_user_settings for dev1
2021-09-02 18:00:52,254 INFO scheduler Scheduled Job Start: frappe.model.utils.link_count.update_link_count for dev1
2021-09-02 18:00:52,615 INFO scheduler Scheduled Job Complete: frappe.model.utils.link_count.update_link_count for dev1
2021-09-02 18:00:52,715 INFO scheduler Scheduled Job Start: frappe.monitor.flush for dev1
2021-09-02 18:00:52,948 INFO scheduler Scheduled Job Complete: frappe.monitor.flush for dev1
2021-09-02 18:00:53,042 INFO scheduler Scheduled Job Start: frappe.utils.global_search.sync_global_search for dev1
2021-09-02 18:00:53,293 INFO scheduler Scheduled Job Complete: frappe.utils.global_search.sync_global_search for dev1
2021-09-02 18:00:53,386 INFO scheduler Scheduled Job Start: frappe.integrations.doctype.razorpay_settings.razorpay_settings.capture_payment for dev1
2021-09-02 18:00:53,749 INFO scheduler Scheduled Job Complete: frappe.integrations.doctype.razorpay_settings.razorpay_settings.capture_payment for dev1
2021-09-02 18:00:53,841 INFO scheduler Scheduled Job Start: frappe.email.doctype.email_account.email_account.notify_unreplied for dev1
2021-09-02 18:00:54,166 INFO scheduler Scheduled Job Complete: frappe.email.doctype.email_account.email_account.notify_unreplied for dev1
2021-09-02 18:00:54,280 INFO scheduler Scheduled Job Start: frappe.email.doctype.email_account.email_account.pull for dev1
2021-09-02 18:00:54,598 INFO scheduler Scheduled Job Complete: frappe.email.doctype.email_account.email_account.pull for dev1
2021-09-02 18:00:54,691 INFO scheduler Scheduled Job Start: frappe.email.queue.flush for dev1
2021-09-02 18:00:54,955 INFO scheduler Scheduled Job Complete: frappe.email.queue.flush for dev1
2021-09-02 18:00:55,050 INFO scheduler Scheduled Job Start: frappe.twofactor.delete_all_barcodes_for_users for dev1
2021-09-02 18:00:55,431 INFO scheduler Scheduled Job Complete: frappe.twofactor.delete_all_barcodes_for_users for dev1
2021-09-02 18:00:55,534 INFO scheduler Scheduled Job Start: frappe.website.doctype.web_page.web_page.check_publish_status for dev1
2021-09-02 18:00:55,961 INFO scheduler Scheduled Job Complete: frappe.website.doctype.web_page.web_page.check_publish_status for dev1
2021-09-02 18:00:56,073 INFO scheduler Scheduled Job Start: frappe.oauth.delete_oauth2_data for dev1
2021-09-02 18:00:56,475 INFO scheduler Scheduled Job Complete: frappe.oauth.delete_oauth2_data for dev1
2021-09-02 18:01:49,296 DEBUG scheduler Queued events for site dev1
2021-09-02 18:02:49,685 DEBUG scheduler Queued events for site dev1
2021-09-02 18:03:50,044 DEBUG scheduler Queued events for site dev1
2021-09-02 18:04:50,432 DEBUG scheduler Queued events for site dev1
2021-09-02 18:04:50,466 INFO scheduler Scheduled Job Start: frappe.monitor.flush for dev1
2021-09-02 18:04:50,729 INFO scheduler Scheduled Job Complete: frappe.monitor.flush for dev1
2021-09-02 18:04:50,819 INFO scheduler Scheduled Job Start: frappe.utils.global_search.sync_global_search for dev1
2021-09-02 18:04:51,092 INFO scheduler Scheduled Job Complete: frappe.utils.global_search.sync_global_search for dev1
2021-09-02 18:04:51,195 INFO scheduler Scheduled Job Start: frappe.integrations.doctype.razorpay_settings.razorpay_settings.capture_payment for dev1
2021-09-02 18:04:51,576 INFO scheduler Scheduled Job Complete: frappe.integrations.doctype.razorpay_settings.razorpay_settings.capture_payment for dev1
2021-09-02 18:04:51,664 INFO scheduler Scheduled Job Start: frappe.email.doctype.email_account.email_account.notify_unreplied for dev1
2021-09-02 18:04:51,974 INFO scheduler Scheduled Job Complete: frappe.email.doctype.email_account.email_account.notify_unreplied for dev1
2021-09-02 18:04:52,068 INFO scheduler Scheduled Job Start: frappe.email.doctype.email_account.email_account.pull for dev1
2021-09-02 18:04:52,412 INFO scheduler Scheduled Job Complete: frappe.email.doctype.email_account.email_account.pull for dev1
2021-09-02 18:04:52,508 INFO scheduler Scheduled Job Start: frappe.email.queue.flush for dev1
2021-09-02 18:04:52,771 INFO scheduler Scheduled Job Complete: frappe.email.queue.flush for dev1
2021-09-02 18:05:50,858 DEBUG scheduler Queued events for site dev1
2021-09-02 18:06:51,262 DEBUG scheduler Queued events for site dev1
2021-09-02 18:07:51,631 DEBUG scheduler Queued events for site dev1
2021-09-02 18:08:52,031 DEBUG scheduler Queued events for site dev1
2021-09-02 18:08:52,083 INFO scheduler Scheduled Job Start: frappe.monitor.flush for dev1
2021-09-02 18:08:52,398 INFO scheduler Scheduled Job Complete: frappe.monitor.flush for dev1
2021-09-02 18:08:52,498 INFO scheduler Scheduled Job Start: frappe.utils.global_search.sync_global_search for dev1
2021-09-02 18:08:52,735 INFO scheduler Scheduled Job Complete: frappe.utils.global_search.sync_global_search for dev1
2021-09-02 18:08:52,837 INFO scheduler Scheduled Job Start: frappe.integrations.doctype.razorpay_settings.razorpay_settings.capture_payment for dev1
2021-09-02 18:08:53,236 INFO scheduler Scheduled Job Complete: frappe.integrations.doctype.razorpay_settings.razorpay_settings.capture_payment for dev1
2021-09-02 18:08:53,332 INFO scheduler Scheduled Job Start: frappe.email.doctype.email_account.email_account.notify_unreplied for dev1
2021-09-02 18:08:53,659 INFO scheduler Scheduled Job Complete: frappe.email.doctype.email_account.email_account.notify_unreplied for dev1
2021-09-02 18:08:53,757 INFO scheduler Scheduled Job Start: frappe.email.doctype.email_account.email_account.pull for dev1
2021-09-02 18:08:54,099 INFO scheduler Scheduled Job Complete: frappe.email.doctype.email_account.email_account.pull for dev1
2021-09-02 18:08:54,192 INFO scheduler Scheduled Job Start: frappe.email.queue.flush for dev1
2021-09-02 18:08:54,450 INFO scheduler Scheduled Job Complete: frappe.email.queue.flush for dev1
2021-09-02 18:09:52,510 DEBUG scheduler Queued events for site dev1
2021-09-02 18:10:52,888 DEBUG scheduler Queued events for site dev1
2021-09-02 18:11:53,242 DEBUG scheduler Queued events for site dev1
2021-09-02 18:12:53,652 DEBUG scheduler Queued events for site dev1
2021-09-02 18:12:53,695 INFO scheduler Scheduled Job Start: frappe.monitor.flush for dev1
2021-09-02 18:12:53,995 INFO scheduler Scheduled Job Complete: frappe.monitor.flush for dev1
2021-09-02 18:12:54,095 INFO scheduler Scheduled Job Start: frappe.utils.global_search.sync_global_search for dev1
2021-09-02 18:12:54,354 INFO scheduler Scheduled Job Complete: frappe.utils.global_search.sync_global_search for dev1
2021-09-02 18:12:54,447 INFO scheduler Scheduled Job Start: frappe.integrations.doctype.razorpay_settings.razorpay_settings.capture_payment for dev1
2021-09-02 18:12:54,833 INFO scheduler Scheduled Job Complete: frappe.integrations.doctype.razorpay_settings.razorpay_settings.capture_payment for dev1
2021-09-02 18:12:54,938 INFO scheduler Scheduled Job Start: frappe.email.doctype.email_account.email_account.notify_unreplied for dev1
2021-09-02 18:12:55,295 INFO scheduler Scheduled Job Complete: frappe.email.doctype.email_account.email_account.notify_unreplied for dev1
2021-09-02 18:12:55,392 INFO scheduler Scheduled Job Start: frappe.email.doctype.email_account.email_account.pull for dev1
2021-09-02 18:12:55,735 INFO scheduler Scheduled Job Complete: frappe.email.doctype.email_account.email_account.pull for dev1
2021-09-02 18:12:55,821 INFO scheduler Scheduled Job Start: frappe.email.queue.flush for dev1
2021-09-02 18:12:56,096 INFO scheduler Scheduled Job Complete: frappe.email.queue.flush for dev1
2021-09-02 18:13:54,137 DEBUG scheduler Queued events for site dev1
2021-09-02 18:14:54,535 DEBUG scheduler Queued events for site dev1
2021-09-02 18:15:54,914 DEBUG scheduler Queued events for site dev1
2021-09-02 18:15:54,984 INFO scheduler Scheduled Job Start: frappe.twofactor.delete_all_barcodes_for_users for dev1
2021-09-02 18:15:55,419 INFO scheduler Scheduled Job Complete: frappe.twofactor.delete_all_barcodes_for_users for dev1
2021-09-02 18:15:55,524 INFO scheduler Scheduled Job Start: frappe.website.doctype.web_page.web_page.check_publish_status for dev1
2021-09-02 18:15:55,983 INFO scheduler Scheduled Job Complete: frappe.website.doctype.web_page.web_page.check_publish_status for dev1
2021-09-02 18:15:56,084 INFO scheduler Scheduled Job Start: frappe.oauth.delete_oauth2_data for dev1
2021-09-02 18:15:56,494 INFO scheduler Scheduled Job Complete: frappe.oauth.delete_oauth2_data for dev1
2021-09-02 18:16:55,348 DEBUG scheduler Queued events for site dev1
2021-09-02 18:16:55,386 INFO scheduler Scheduled Job Start: frappe.monitor.flush for dev1
2021-09-02 18:16:55,684 INFO scheduler Scheduled Job Complete: frappe.monitor.flush for dev1
2021-09-02 18:16:55,790 INFO scheduler Scheduled Job Start: frappe.utils.global_search.sync_global_search for dev1
2021-09-02 18:16:56,025 INFO scheduler Scheduled Job Complete: frappe.utils.global_search.sync_global_search for dev1
2021-09-02 18:16:56,130 INFO scheduler Scheduled Job Start: frappe.integrations.doctype.razorpay_settings.razorpay_settings.capture_payment for dev1
2021-09-02 18:16:56,570 INFO scheduler Scheduled Job Complete: frappe.integrations.doctype.razorpay_settings.razorpay_settings.capture_payment for dev1
2021-09-02 18:16:56,681 INFO scheduler Scheduled Job Start: frappe.email.doctype.email_account.email_account.notify_unreplied for dev1
2021-09-02 18:16:57,035 INFO scheduler Scheduled Job Complete: frappe.email.doctype.email_account.email_account.notify_unreplied for dev1
2021-09-02 18:16:57,127 INFO scheduler Scheduled Job Start: frappe.email.doctype.email_account.email_account.pull for dev1
2021-09-02 18:16:57,492 INFO scheduler Scheduled Job Complete: frappe.email.doctype.email_account.email_account.pull for dev1
2021-09-02 18:16:57,592 INFO scheduler Scheduled Job Start: frappe.email.queue.flush for dev1
2021-09-02 18:16:57,859 INFO scheduler Scheduled Job Complete: frappe.email.queue.flush for dev1
2021-09-02 18:17:55,823 DEBUG scheduler Queued events for site dev1
2021-09-02 18:18:56,224 DEBUG scheduler Queued events for site dev1
2021-09-02 18:19:56,587 DEBUG scheduler Queued events for site dev1
2021-09-02 18:20:56,996 DEBUG scheduler Queued events for site dev1
2021-09-02 18:20:57,035 INFO scheduler Scheduled Job Start: frappe.monitor.flush for dev1
2021-09-02 18:20:57,304 INFO scheduler Scheduled Job Complete: frappe.monitor.flush for dev1
2021-09-02 18:20:57,393 INFO scheduler Scheduled Job Start: frappe.utils.global_search.sync_global_search for dev1
2021-09-02 18:20:57,647 INFO scheduler Scheduled Job Complete: frappe.utils.global_search.sync_global_search for dev1
2021-09-02 18:20:57,744 INFO scheduler Scheduled Job Start: frappe.integrations.doctype.razorpay_settings.razorpay_settings.capture_payment for dev1
2021-09-02 18:20:58,121 INFO scheduler Scheduled Job Complete: frappe.integrations.doctype.razorpay_settings.razorpay_settings.capture_payment for dev1
2021-09-02 18:20:58,214 INFO scheduler Scheduled Job Start: frappe.email.doctype.email_account.email_account.notify_unreplied for dev1
2021-09-02 18:20:58,514 INFO scheduler Scheduled Job Complete: frappe.email.doctype.email_account.email_account.notify_unreplied for dev1
2021-09-02 18:20:58,610 INFO scheduler Scheduled Job Start: frappe.email.doctype.email_account.email_account.pull for dev1
2021-09-02 18:20:58,937 INFO scheduler Scheduled Job Complete: frappe.email.doctype.email_account.email_account.pull for dev1
2021-09-02 18:20:59,055 INFO scheduler Scheduled Job Start: frappe.email.queue.flush for dev1
2021-09-02 18:20:59,338 INFO scheduler Scheduled Job Complete: frappe.email.queue.flush for dev1
2021-09-02 18:21:57,418 DEBUG scheduler Queued events for site dev1
2021-09-02 18:22:57,805 DEBUG scheduler Queued events for site dev1
2021-09-02 18:23:58,135 DEBUG scheduler Queued events for site dev1
2021-09-02 18:24:58,545 DEBUG scheduler Queued events for site dev1
2021-09-02 18:24:58,585 INFO scheduler Scheduled Job Start: frappe.monitor.flush for dev1
2021-09-02 18:24:58,831 INFO scheduler Scheduled Job Complete: frappe.monitor.flush for dev1
2021-09-02 18:24:58,917 INFO scheduler Scheduled Job Start: frappe.utils.global_search.sync_global_search for dev1
2021-09-02 18:24:59,147 INFO scheduler Scheduled Job Complete: frappe.utils.global_search.sync_global_search for dev1
2021-09-02 18:24:59,239 INFO scheduler Scheduled Job Start: frappe.integrations.doctype.razorpay_settings.razorpay_settings.capture_payment for dev1
2021-09-02 18:24:59,642 INFO scheduler Scheduled Job Complete: frappe.integrations.doctype.razorpay_settings.razorpay_settings.capture_payment for dev1
2021-09-02 18:24:59,761 INFO scheduler Scheduled Job Start: frappe.email.doctype.email_account.email_account.notify_unreplied for dev1
2021-09-02 18:25:00,111 INFO scheduler Scheduled Job Complete: frappe.email.doctype.email_account.email_account.notify_unreplied for dev1
2021-09-02 18:25:00,230 INFO scheduler Scheduled Job Start: frappe.email.doctype.email_account.email_account.pull for dev1
2021-09-02 18:25:00,602 INFO scheduler Scheduled Job Complete: frappe.email.doctype.email_account.email_account.pull for dev1
2021-09-02 18:25:00,695 INFO scheduler Scheduled Job Start: frappe.email.queue.flush for dev1
2021-09-02 18:25:00,959 INFO scheduler Scheduled Job Complete: frappe.email.queue.flush for dev1
2021-09-02 18:25:58,963 DEBUG scheduler Queued events for site dev1
2021-09-02 18:26:59,343 DEBUG scheduler Queued events for site dev1
2021-09-02 18:27:59,728 DEBUG scheduler Queued events for site dev1
2021-09-02 18:29:00,133 DEBUG scheduler Queued events for site dev1
2021-09-02 18:29:00,173 INFO scheduler Scheduled Job Start: frappe.monitor.flush for dev1
2021-09-02 18:29:00,439 INFO scheduler Scheduled Job Complete: frappe.monitor.flush for dev1
2021-09-02 18:29:00,527 INFO scheduler Scheduled Job Start: frappe.utils.global_search.sync_global_search for dev1
2021-09-02 18:29:00,758 INFO scheduler Scheduled Job Complete: frappe.utils.global_search.sync_global_search for dev1
2021-09-02 18:29:00,848 INFO scheduler Scheduled Job Start: frappe.integrations.doctype.razorpay_settings.razorpay_settings.capture_payment for dev1
2021-09-02 18:29:01,236 INFO scheduler Scheduled Job Complete: frappe.integrations.doctype.razorpay_settings.razorpay_settings.capture_payment for dev1
2021-09-02 18:29:01,329 INFO scheduler Scheduled Job Start: frappe.email.doctype.email_account.email_account.notify_unreplied for dev1
2021-09-02 18:29:01,634 INFO scheduler Scheduled Job Complete: frappe.email.doctype.email_account.email_account.notify_unreplied for dev1
2021-09-02 18:29:01,720 INFO scheduler Scheduled Job Start: frappe.email.doctype.email_account.email_account.pull for dev1
2021-09-02 18:29:02,055 INFO scheduler Scheduled Job Complete: frappe.email.doctype.email_account.email_account.pull for dev1
2021-09-02 18:29:02,146 INFO scheduler Scheduled Job Start: frappe.email.queue.flush for dev1
2021-09-02 18:29:02,422 INFO scheduler Scheduled Job Complete: frappe.email.queue.flush for dev1
2021-09-02 18:30:00,559 DEBUG scheduler Queued events for site dev1
2021-09-02 18:30:00,621 INFO scheduler Scheduled Job Start: frappe.twofactor.delete_all_barcodes_for_users for dev1
2021-09-02 18:30:01,053 INFO scheduler Scheduled Job Complete: frappe.twofactor.delete_all_barcodes_for_users for dev1
2021-09-02 18:30:01,151 INFO scheduler Scheduled Job Start: frappe.website.doctype.web_page.web_page.check_publish_status for dev1
2021-09-02 18:30:01,580 INFO scheduler Scheduled Job Complete: frappe.website.doctype.web_page.web_page.check_publish_status for dev1
2021-09-02 18:30:01,679 INFO scheduler Scheduled Job Start: frappe.oauth.delete_oauth2_data for dev1
2021-09-02 18:30:02,064 INFO scheduler Scheduled Job Complete: frappe.oauth.delete_oauth2_data for dev1
2021-09-02 18:31:00,981 DEBUG scheduler Queued events for site dev1
2021-09-02 18:32:01,412 DEBUG scheduler Queued events for site dev1
2021-09-02 18:32:01,455 INFO scheduler Scheduled Job Start: frappe.monitor.flush for dev1
2021-09-02 18:32:01,730 INFO scheduler Scheduled Job Complete: frappe.monitor.flush for dev1
2021-09-02 18:32:01,829 INFO scheduler Scheduled Job Start: frappe.utils.global_search.sync_global_search for dev1
2021-09-02 18:32:02,062 INFO scheduler Scheduled Job Complete: frappe.utils.global_search.sync_global_search for dev1
2021-09-02 18:32:02,156 INFO scheduler Scheduled Job Start: frappe.integrations.doctype.razorpay_settings.razorpay_settings.capture_payment for dev1
2021-09-02 18:32:02,552 INFO scheduler Scheduled Job Complete: frappe.integrations.doctype.razorpay_settings.razorpay_settings.capture_payment for dev1
2021-09-02 18:32:02,641 INFO scheduler Scheduled Job Start: frappe.email.doctype.email_account.email_account.notify_unreplied for dev1
2021-09-02 18:32:02,955 INFO scheduler Scheduled Job Complete: frappe.email.doctype.email_account.email_account.notify_unreplied for dev1
2021-09-02 18:32:03,046 INFO scheduler Scheduled Job Start: frappe.email.doctype.email_account.email_account.pull for dev1
2021-09-02 18:32:03,420 INFO scheduler Scheduled Job Complete: frappe.email.doctype.email_account.email_account.pull for dev1
2021-09-02 18:32:03,523 INFO scheduler Scheduled Job Start: frappe.email.queue.flush for dev1
2021-09-02 18:32:03,785 INFO scheduler Scheduled Job Complete: frappe.email.queue.flush for dev1
2021-09-02 18:33:01,832 DEBUG scheduler Queued events for site dev1
2021-09-02 18:34:02,217 DEBUG scheduler Queued events for site dev1
2021-09-02 18:35:02,583 DEBUG scheduler Queued events for site dev1
2021-09-02 18:36:02,994 DEBUG scheduler Queued events for site dev1
2021-09-02 18:36:03,030 INFO scheduler Scheduled Job Start: frappe.monitor.flush for dev1
2021-09-02 18:36:03,308 INFO scheduler Scheduled Job Complete: frappe.monitor.flush for dev1
2021-09-02 18:36:03,396 INFO scheduler Scheduled Job Start: frappe.utils.global_search.sync_global_search for dev1
2021-09-02 18:36:03,671 INFO scheduler Scheduled Job Complete: frappe.utils.global_search.sync_global_search for dev1
2021-09-02 18:36:03,782 INFO scheduler Scheduled Job Start: frappe.integrations.doctype.razorpay_settings.razorpay_settings.capture_payment for dev1
2021-09-02 18:36:04,163 INFO scheduler Scheduled Job Complete: frappe.integrations.doctype.razorpay_settings.razorpay_settings.capture_payment for dev1
2021-09-02 18:36:04,257 INFO scheduler Scheduled Job Start: frappe.email.doctype.email_account.email_account.notify_unreplied for dev1
2021-09-02 18:36:04,585 INFO scheduler Scheduled Job Complete: frappe.email.doctype.email_account.email_account.notify_unreplied for dev1
2021-09-02 18:36:04,680 INFO scheduler Scheduled Job Start: frappe.email.doctype.email_account.email_account.pull for dev1
2021-09-02 18:36:05,024 INFO scheduler Scheduled Job Complete: frappe.email.doctype.email_account.email_account.pull for dev1
2021-09-02 18:36:05,124 INFO scheduler Scheduled Job Start: frappe.email.queue.flush for dev1
2021-09-02 18:36:05,395 INFO scheduler Scheduled Job Complete: frappe.email.queue.flush for dev1
2021-09-02 18:37:03,422 DEBUG scheduler Queued events for site dev1
2021-09-02 18:38:03,821 DEBUG scheduler Queued events for site dev1
2021-09-02 18:39:04,201 DEBUG scheduler Queued events for site dev1
2021-09-02 18:40:04,589 DEBUG scheduler Queued events for site dev1
2021-09-02 18:40:04,627 INFO scheduler Scheduled Job Start: frappe.monitor.flush for dev1
2021-09-02 18:40:04,891 INFO scheduler Scheduled Job Complete: frappe.monitor.flush for dev1
2021-09-02 18:40:04,991 INFO scheduler Scheduled Job Start: frappe.utils.global_search.sync_global_search for dev1
2021-09-02 18:40:05,253 INFO scheduler Scheduled Job Complete: frappe.utils.global_search.sync_global_search for dev1
2021-09-02 18:40:05,352 INFO scheduler Scheduled Job Start: frappe.integrations.doctype.razorpay_settings.razorpay_settings.capture_payment for dev1
2021-09-02 18:40:05,722 INFO scheduler Scheduled Job Complete: frappe.integrations.doctype.razorpay_settings.razorpay_settings.capture_payment for dev1
2021-09-02 18:40:05,816 INFO scheduler Scheduled Job Start: frappe.email.doctype.email_account.email_account.notify_unreplied for dev1
2021-09-02 18:40:06,139 INFO scheduler Scheduled Job Complete: frappe.email.doctype.email_account.email_account.notify_unreplied for dev1
2021-09-02 18:40:06,255 INFO scheduler Scheduled Job Start: frappe.email.doctype.email_account.email_account.pull for dev1
2021-09-02 18:40:06,591 INFO scheduler Scheduled Job Complete: frappe.email.doctype.email_account.email_account.pull for dev1
2021-09-02 18:40:06,687 INFO scheduler Scheduled Job Start: frappe.email.queue.flush for dev1
2021-09-02 18:40:06,955 INFO scheduler Scheduled Job Complete: frappe.email.queue.flush for dev1
2021-09-02 18:41:05,040 DEBUG scheduler Queued events for site dev1
2021-09-02 18:42:05,440 DEBUG scheduler Queued events for site dev1
2021-09-02 18:43:05,807 DEBUG scheduler Queued events for site dev1
2021-09-02 18:44:06,224 DEBUG scheduler Queued events for site dev1
2021-09-02 18:44:06,257 INFO scheduler Scheduled Job Start: frappe.monitor.flush for dev1
2021-09-02 18:44:06,569 INFO scheduler Scheduled Job Complete: frappe.monitor.flush for dev1
2021-09-02 18:44:06,654 INFO scheduler Scheduled Job Start: frappe.utils.global_search.sync_global_search for dev1
2021-09-02 18:44:06,893 INFO scheduler Scheduled Job Complete: frappe.utils.global_search.sync_global_search for dev1
2021-09-02 18:44:06,981 INFO scheduler Scheduled Job Start: frappe.integrations.doctype.razorpay_settings.razorpay_settings.capture_payment for dev1
2021-09-02 18:44:07,360 INFO scheduler Scheduled Job Complete: frappe.integrations.doctype.razorpay_settings.razorpay_settings.capture_payment for dev1
2021-09-02 18:44:07,450 INFO scheduler Scheduled Job Start: frappe.email.doctype.email_account.email_account.notify_unreplied for dev1
2021-09-02 18:44:07,767 INFO scheduler Scheduled Job Complete: frappe.email.doctype.email_account.email_account.notify_unreplied for dev1
2021-09-02 18:44:07,869 INFO scheduler Scheduled Job Start: frappe.email.doctype.email_account.email_account.pull for dev1
2021-09-02 18:44:08,228 INFO scheduler Scheduled Job Complete: frappe.email.doctype.email_account.email_account.pull for dev1
2021-09-02 18:44:08,325 INFO scheduler Scheduled Job Start: frappe.email.queue.flush for dev1
2021-09-02 18:44:08,587 INFO scheduler Scheduled Job Complete: frappe.email.queue.flush for dev1
2021-09-02 18:45:06,705 DEBUG scheduler Queued events for site dev1
2021-09-02 18:45:06,788 INFO scheduler Scheduled Job Start: frappe.twofactor.delete_all_barcodes_for_users for dev1
2021-09-02 18:45:07,207 INFO scheduler Scheduled Job Complete: frappe.twofactor.delete_all_barcodes_for_users for dev1
2021-09-02 18:45:07,306 INFO scheduler Scheduled Job Start: frappe.website.doctype.web_page.web_page.check_publish_status for dev1
2021-09-02 18:45:07,778 INFO scheduler Scheduled Job Complete: frappe.website.doctype.web_page.web_page.check_publish_status for dev1
2021-09-02 18:45:07,886 INFO scheduler Scheduled Job Start: frappe.oauth.delete_oauth2_data for dev1
2021-09-02 18:45:08,292 INFO scheduler Scheduled Job Complete: frappe.oauth.delete_oauth2_data for dev1
2021-09-02 18:46:07,143 DEBUG scheduler Queued events for site dev1
2021-09-02 18:47:07,527 DEBUG scheduler Queued events for site dev1
2021-09-02 18:48:07,945 DEBUG scheduler Queued events for site dev1
2021-09-02 18:48:07,986 INFO scheduler Scheduled Job Start: frappe.monitor.flush for dev1
2021-09-02 18:48:08,270 INFO scheduler Scheduled Job Complete: frappe.monitor.flush for dev1
2021-09-02 18:48:08,358 INFO scheduler Scheduled Job Start: frappe.utils.global_search.sync_global_search for dev1
2021-09-02 18:48:08,605 INFO scheduler Scheduled Job Complete: frappe.utils.global_search.sync_global_search for dev1
2021-09-02 18:48:08,694 INFO scheduler Scheduled Job Start: frappe.integrations.doctype.razorpay_settings.razorpay_settings.capture_payment for dev1
2021-09-02 18:48:09,069 INFO scheduler Scheduled Job Complete: frappe.integrations.doctype.razorpay_settings.razorpay_settings.capture_payment for dev1
2021-09-02 18:48:09,155 INFO scheduler Scheduled Job Start: frappe.email.doctype.email_account.email_account.notify_unreplied for dev1
2021-09-02 18:48:09,465 INFO scheduler Scheduled Job Complete: frappe.email.doctype.email_account.email_account.notify_unreplied for dev1
2021-09-02 18:48:09,556 INFO scheduler Scheduled Job Start: frappe.email.doctype.email_account.email_account.pull for dev1
2021-09-02 18:48:09,890 INFO scheduler Scheduled Job Complete: frappe.email.doctype.email_account.email_account.pull for dev1
2021-09-02 18:48:09,995 INFO scheduler Scheduled Job Start: frappe.email.queue.flush for dev1
2021-09-02 18:48:10,284 INFO scheduler Scheduled Job Complete: frappe.email.queue.flush for dev1
2021-09-02 18:49:08,374 DEBUG scheduler Queued events for site dev1
2021-09-02 18:50:08,767 DEBUG scheduler Queued events for site dev1
2021-09-02 18:51:09,146 DEBUG scheduler Queued events for site dev1
2021-09-02 18:52:09,522 DEBUG scheduler Queued events for site dev1
2021-09-02 18:52:09,558 INFO scheduler Scheduled Job Start: frappe.monitor.flush for dev1
2021-09-02 18:52:09,858 INFO scheduler Scheduled Job Complete: frappe.monitor.flush for dev1
2021-09-02 18:52:09,949 INFO scheduler Scheduled Job Start: frappe.utils.global_search.sync_global_search for dev1
2021-09-02 18:52:10,205 INFO scheduler Scheduled Job Complete: frappe.utils.global_search.sync_global_search for dev1
2021-09-02 18:52:10,295 INFO scheduler Scheduled Job Start: frappe.integrations.doctype.razorpay_settings.razorpay_settings.capture_payment for dev1
2021-09-02 18:52:10,668 INFO scheduler Scheduled Job Complete: frappe.integrations.doctype.razorpay_settings.razorpay_settings.capture_payment for dev1
2021-09-02 18:52:10,768 INFO scheduler Scheduled Job Start: frappe.email.doctype.email_account.email_account.notify_unreplied for dev1
2021-09-02 18:52:11,064 INFO scheduler Scheduled Job Complete: frappe.email.doctype.email_account.email_account.notify_unreplied for dev1
2021-09-02 18:52:11,162 INFO scheduler Scheduled Job Start: frappe.email.doctype.email_account.email_account.pull for dev1
2021-09-02 18:52:11,497 INFO scheduler Scheduled Job Complete: frappe.email.doctype.email_account.email_account.pull for dev1
2021-09-02 18:52:11,591 INFO scheduler Scheduled Job Start: frappe.email.queue.flush for dev1
2021-09-02 18:52:11,871 INFO scheduler Scheduled Job Complete: frappe.email.queue.flush for dev1
2021-09-02 18:53:09,993 DEBUG scheduler Queued events for site dev1
2021-09-02 18:54:10,397 DEBUG scheduler Queued events for site dev1
2021-09-02 18:55:10,760 DEBUG scheduler Queued events for site dev1
2021-09-02 18:56:11,146 DEBUG scheduler Queued events for site dev1
2021-09-02 18:56:11,198 INFO scheduler Scheduled Job Start: frappe.monitor.flush for dev1
2021-09-02 18:56:11,484 INFO scheduler Scheduled Job Complete: frappe.monitor.flush for dev1
2021-09-02 18:56:11,577 INFO scheduler Scheduled Job Start: frappe.utils.global_search.sync_global_search for dev1
2021-09-02 18:56:11,815 INFO scheduler Scheduled Job Complete: frappe.utils.global_search.sync_global_search for dev1
2021-09-02 18:56:11,905 INFO scheduler Scheduled Job Start: frappe.integrations.doctype.razorpay_settings.razorpay_settings.capture_payment for dev1
2021-09-02 18:56:12,312 INFO scheduler Scheduled Job Complete: frappe.integrations.doctype.razorpay_settings.razorpay_settings.capture_payment for dev1
2021-09-02 18:56:12,399 INFO scheduler Scheduled Job Start: frappe.email.doctype.email_account.email_account.notify_unreplied for dev1
2021-09-02 18:56:12,714 INFO scheduler Scheduled Job Complete: frappe.email.doctype.email_account.email_account.notify_unreplied for dev1
2021-09-02 18:56:12,810 INFO scheduler Scheduled Job Start: frappe.email.doctype.email_account.email_account.pull for dev1
2021-09-02 18:56:13,136 INFO scheduler Scheduled Job Complete: frappe.email.doctype.email_account.email_account.pull for dev1
2021-09-02 18:56:13,241 INFO scheduler Scheduled Job Start: frappe.email.queue.flush for dev1
2021-09-02 18:56:13,487 INFO scheduler Scheduled Job Complete: frappe.email.queue.flush for dev1
2021-09-02 18:57:11,594 DEBUG scheduler Queued events for site dev1
2021-09-02 18:58:11,998 DEBUG scheduler Queued events for site dev1
2021-09-02 18:59:12,364 DEBUG scheduler Queued events for site dev1
2021-09-02 19:00:12,779 INFO scheduler Scheduled Job Start: frappe.email.doctype.newsletter.newsletter.send_scheduled_email for dev1
2021-09-02 19:00:12,846 DEBUG scheduler Queued events for site dev1
2021-09-02 19:00:13,317 INFO scheduler Scheduled Job Complete: frappe.email.doctype.newsletter.newsletter.send_scheduled_email for dev1
2021-09-02 19:00:13,422 INFO scheduler Scheduled Job Start: frappe.integrations.doctype.google_calendar.google_calendar.sync for dev1
2021-09-02 19:00:13,960 INFO scheduler Scheduled Job Complete: frappe.integrations.doctype.google_calendar.google_calendar.sync for dev1
2021-09-02 19:00:14,067 INFO scheduler Scheduled Job Start: frappe.desk.form.document_follow.send_hourly_updates for dev1
2021-09-02 19:00:14,544 INFO scheduler Scheduled Job Complete: frappe.desk.form.document_follow.send_hourly_updates for dev1
2021-09-02 19:00:14,638 INFO scheduler Scheduled Job Start: frappe.deferred_insert.save_to_db for dev1
2021-09-02 19:00:14,988 INFO scheduler Scheduled Job Complete: frappe.deferred_insert.save_to_db for dev1
2021-09-02 19:00:15,088 INFO scheduler Scheduled Job Start: frappe.desk.page.backups.backups.delete_downloadable_backups for dev1
2021-09-02 19:00:15,487 INFO scheduler Scheduled Job Complete: frappe.desk.page.backups.backups.delete_downloadable_backups for dev1
2021-09-02 19:00:15,591 INFO scheduler Scheduled Job Start: frappe.utils.error.collect_error_snapshots for dev1
2021-09-02 19:00:15,969 INFO scheduler Scheduled Job Complete: frappe.utils.error.collect_error_snapshots for dev1
2021-09-02 19:00:16,070 INFO scheduler Scheduled Job Start: frappe.model.utils.user_settings.sync_user_settings for dev1
2021-09-02 19:00:16,429 INFO scheduler Scheduled Job Complete: frappe.model.utils.user_settings.sync_user_settings for dev1
2021-09-02 19:00:16,525 INFO scheduler Scheduled Job Start: frappe.model.utils.link_count.update_link_count for dev1
2021-09-02 19:00:16,900 INFO scheduler Scheduled Job Complete: frappe.model.utils.link_count.update_link_count for dev1
2021-09-02 19:00:16,994 INFO scheduler Scheduled Job Start: frappe.monitor.flush for dev1
2021-09-02 19:00:17,231 INFO scheduler Scheduled Job Complete: frappe.monitor.flush for dev1
2021-09-02 19:00:17,335 INFO scheduler Scheduled Job Start: frappe.utils.global_search.sync_global_search for dev1
2021-09-02 19:00:17,585 INFO scheduler Scheduled Job Complete: frappe.utils.global_search.sync_global_search for dev1
2021-09-02 19:00:17,683 INFO scheduler Scheduled Job Start: frappe.integrations.doctype.razorpay_settings.razorpay_settings.capture_payment for dev1
2021-09-02 19:00:18,041 INFO scheduler Scheduled Job Complete: frappe.integrations.doctype.razorpay_settings.razorpay_settings.capture_payment for dev1
2021-09-02 19:00:18,142 INFO scheduler Scheduled Job Start: frappe.email.doctype.email_account.email_account.notify_unreplied for dev1
2021-09-02 19:00:18,444 INFO scheduler Scheduled Job Complete: frappe.email.doctype.email_account.email_account.notify_unreplied for dev1
2021-09-02 19:00:18,533 INFO scheduler Scheduled Job Start: frappe.email.doctype.email_account.email_account.pull for dev1
2021-09-02 19:00:18,854 INFO scheduler Scheduled Job Complete: frappe.email.doctype.email_account.email_account.pull for dev1
2021-09-02 19:00:18,959 INFO scheduler Scheduled Job Start: frappe.email.queue.flush for dev1
2021-09-02 19:00:19,234 INFO scheduler Scheduled Job Complete: frappe.email.queue.flush for dev1
2021-09-02 19:00:19,319 INFO scheduler Scheduled Job Start: frappe.twofactor.delete_all_barcodes_for_users for dev1
2021-09-02 19:00:19,707 INFO scheduler Scheduled Job Complete: frappe.twofactor.delete_all_barcodes_for_users for dev1
2021-09-02 19:00:19,799 INFO scheduler Scheduled Job Start: frappe.website.doctype.web_page.web_page.check_publish_status for dev1
2021-09-02 19:00:20,253 INFO scheduler Scheduled Job Complete: frappe.website.doctype.web_page.web_page.check_publish_status for dev1
2021-09-02 19:00:20,359 INFO scheduler Scheduled Job Start: frappe.oauth.delete_oauth2_data for dev1
2021-09-02 19:00:20,751 INFO scheduler Scheduled Job Complete: frappe.oauth.delete_oauth2_data for dev1
2021-09-02 19:01:13,437 DEBUG scheduler Queued events for site dev1
2021-09-02 19:02:13,811 DEBUG scheduler Queued events for site dev1
2021-09-02 19:03:14,179 DEBUG scheduler Queued events for site dev1
2021-09-02 19:04:14,581 DEBUG scheduler Queued events for site dev1
2021-09-02 19:04:14,633 INFO scheduler Scheduled Job Start: frappe.monitor.flush for dev1
2021-09-02 19:04:14,886 INFO scheduler Scheduled Job Complete: frappe.monitor.flush for dev1
2021-09-02 19:04:14,979 INFO scheduler Scheduled Job Start: frappe.utils.global_search.sync_global_search for dev1
2021-09-02 19:04:15,228 INFO scheduler Scheduled Job Complete: frappe.utils.global_search.sync_global_search for dev1
2021-09-02 19:04:15,317 INFO scheduler Scheduled Job Start: frappe.integrations.doctype.razorpay_settings.razorpay_settings.capture_payment for dev1
2021-09-02 19:04:15,692 INFO scheduler Scheduled Job Complete: frappe.integrations.doctype.razorpay_settings.razorpay_settings.capture_payment for dev1
2021-09-02 19:04:15,783 INFO scheduler Scheduled Job Start: frappe.email.doctype.email_account.email_account.notify_unreplied for dev1
2021-09-02 19:04:16,084 INFO scheduler Scheduled Job Complete: frappe.email.doctype.email_account.email_account.notify_unreplied for dev1
2021-09-02 19:04:16,174 INFO scheduler Scheduled Job Start: frappe.email.doctype.email_account.email_account.pull for dev1
2021-09-02 19:04:16,514 INFO scheduler Scheduled Job Complete: frappe.email.doctype.email_account.email_account.pull for dev1
2021-09-02 19:04:16,603 INFO scheduler Scheduled Job Start: frappe.email.queue.flush for dev1
2021-09-02 19:04:16,877 INFO scheduler Scheduled Job Complete: frappe.email.queue.flush for dev1
2021-09-02 19:05:15,009 DEBUG scheduler Queued events for site dev1
2021-09-02 19:06:15,418 DEBUG scheduler Queued events for site dev1
2021-09-02 19:07:15,773 DEBUG scheduler Queued events for site dev1
2021-09-02 19:08:16,190 DEBUG scheduler Queued events for site dev1
2021-09-02 19:08:16,225 INFO scheduler Scheduled Job Start: frappe.monitor.flush for dev1
2021-09-02 19:08:16,526 INFO scheduler Scheduled Job Complete: frappe.monitor.flush for dev1
2021-09-02 19:08:16,623 INFO scheduler Scheduled Job Start: frappe.utils.global_search.sync_global_search for dev1
2021-09-02 19:08:16,875 INFO scheduler Scheduled Job Complete: frappe.utils.global_search.sync_global_search for dev1
2021-09-02 19:08:16,980 INFO scheduler Scheduled Job Start: frappe.integrations.doctype.razorpay_settings.razorpay_settings.capture_payment for dev1
2021-09-02 19:08:17,366 INFO scheduler Scheduled Job Complete: frappe.integrations.doctype.razorpay_settings.razorpay_settings.capture_payment for dev1
2021-09-02 19:08:17,468 INFO scheduler Scheduled Job Start: frappe.email.doctype.email_account.email_account.notify_unreplied for dev1
2021-09-02 19:08:17,794 INFO scheduler Scheduled Job Complete: frappe.email.doctype.email_account.email_account.notify_unreplied for dev1
2021-09-02 19:08:17,907 INFO scheduler Scheduled Job Start: frappe.email.doctype.email_account.email_account.pull for dev1
2021-09-02 19:08:18,233 INFO scheduler Scheduled Job Complete: frappe.email.doctype.email_account.email_account.pull for dev1
2021-09-02 19:08:18,329 INFO scheduler Scheduled Job Start: frappe.email.queue.flush for dev1
2021-09-02 19:08:18,592 INFO scheduler Scheduled Job Complete: frappe.email.queue.flush for dev1
2021-09-02 19:09:16,667 DEBUG scheduler Queued events for site dev1
2021-09-02 19:10:17,051 DEBUG scheduler Queued events for site dev1
2021-09-02 19:11:17,438 DEBUG scheduler Queued events for site dev1
2021-09-02 19:12:17,834 DEBUG scheduler Queued events for site dev1
2021-09-02 19:12:17,871 INFO scheduler Scheduled Job Start: frappe.monitor.flush for dev1
2021-09-02 19:12:18,151 INFO scheduler Scheduled Job Complete: frappe.monitor.flush for dev1
2021-09-02 19:12:18,242 INFO scheduler Scheduled Job Start: frappe.utils.global_search.sync_global_search for dev1
2021-09-02 19:12:18,506 INFO scheduler Scheduled Job Complete: frappe.utils.global_search.sync_global_search for dev1
2021-09-02 19:12:18,604 INFO scheduler Scheduled Job Start: frappe.integrations.doctype.razorpay_settings.razorpay_settings.capture_payment for dev1
2021-09-02 19:12:18,991 INFO scheduler Scheduled Job Complete: frappe.integrations.doctype.razorpay_settings.razorpay_settings.capture_payment for dev1
2021-09-02 19:12:19,086 INFO scheduler Scheduled Job Start: frappe.email.doctype.email_account.email_account.notify_unreplied for dev1
2021-09-02 19:12:19,386 INFO scheduler Scheduled Job Complete: frappe.email.doctype.email_account.email_account.notify_unreplied for dev1
2021-09-02 19:12:19,467 INFO scheduler Scheduled Job Start: frappe.email.doctype.email_account.email_account.pull for dev1
2021-09-02 19:12:19,804 INFO scheduler Scheduled Job Complete: frappe.email.doctype.email_account.email_account.pull for dev1
2021-09-02 19:12:19,898 INFO scheduler Scheduled Job Start: frappe.email.queue.flush for dev1
2021-09-02 19:12:20,177 INFO scheduler Scheduled Job Complete: frappe.email.queue.flush for dev1
2021-09-02 19:13:18,268 DEBUG scheduler Queued events for site dev1
2021-09-02 19:14:18,653 DEBUG scheduler Queued events for site dev1
2021-09-02 19:15:19,011 DEBUG scheduler Queued events for site dev1
2021-09-02 19:15:19,071 INFO scheduler Scheduled Job Start: frappe.twofactor.delete_all_barcodes_for_users for dev1
2021-09-02 19:15:19,482 INFO scheduler Scheduled Job Complete: frappe.twofactor.delete_all_barcodes_for_users for dev1
2021-09-02 19:15:19,579 INFO scheduler Scheduled Job Start: frappe.website.doctype.web_page.web_page.check_publish_status for dev1
2021-09-02 19:15:20,035 INFO scheduler Scheduled Job Complete: frappe.website.doctype.web_page.web_page.check_publish_status for dev1
2021-09-02 19:15:20,144 INFO scheduler Scheduled Job Start: frappe.oauth.delete_oauth2_data for dev1
2021-09-02 19:15:20,542 INFO scheduler Scheduled Job Complete: frappe.oauth.delete_oauth2_data for dev1
2021-09-02 19:16:19,415 DEBUG scheduler Queued events for site dev1
2021-09-02 19:16:19,451 INFO scheduler Scheduled Job Start: frappe.monitor.flush for dev1
2021-09-02 19:16:19,717 INFO scheduler Scheduled Job Complete: frappe.monitor.flush for dev1
2021-09-02 19:16:19,805 INFO scheduler Scheduled Job Start: frappe.utils.global_search.sync_global_search for dev1
2021-09-02 19:16:20,052 INFO scheduler Scheduled Job Complete: frappe.utils.global_search.sync_global_search for dev1
2021-09-02 19:16:20,141 INFO scheduler Scheduled Job Start: frappe.integrations.doctype.razorpay_settings.razorpay_settings.capture_payment for dev1
2021-09-02 19:16:20,536 INFO scheduler Scheduled Job Complete: frappe.integrations.doctype.razorpay_settings.razorpay_settings.capture_payment for dev1
2021-09-02 19:16:20,643 INFO scheduler Scheduled Job Start: frappe.email.doctype.email_account.email_account.notify_unreplied for dev1
2021-09-02 19:16:20,947 INFO scheduler Scheduled Job Complete: frappe.email.doctype.email_account.email_account.notify_unreplied for dev1
2021-09-02 19:16:21,041 INFO scheduler Scheduled Job Start: frappe.email.doctype.email_account.email_account.pull for dev1
2021-09-02 19:16:21,372 INFO scheduler Scheduled Job Complete: frappe.email.doctype.email_account.email_account.pull for dev1
2021-09-02 19:16:21,465 INFO scheduler Scheduled Job Start: frappe.email.queue.flush for dev1
2021-09-02 19:16:21,746 INFO scheduler Scheduled Job Complete: frappe.email.queue.flush for dev1
2021-09-02 19:17:19,865 DEBUG scheduler Queued events for site dev1
2021-09-02 19:18:20,286 DEBUG scheduler Queued events for site dev1
2021-09-02 19:19:20,664 DEBUG scheduler Queued events for site dev1
2021-09-02 19:20:21,084 DEBUG scheduler Queued events for site dev1
2021-09-02 19:20:21,118 INFO scheduler Scheduled Job Start: frappe.monitor.flush for dev1
2021-09-02 19:20:21,396 INFO scheduler Scheduled Job Complete: frappe.monitor.flush for dev1
2021-09-02 19:20:21,487 INFO scheduler Scheduled Job Start: frappe.utils.global_search.sync_global_search for dev1
2021-09-02 19:20:21,740 INFO scheduler Scheduled Job Complete: frappe.utils.global_search.sync_global_search for dev1
2021-09-02 19:20:21,829 INFO scheduler Scheduled Job Start: frappe.integrations.doctype.razorpay_settings.razorpay_settings.capture_payment for dev1
2021-09-02 19:20:22,216 INFO scheduler Scheduled Job Complete: frappe.integrations.doctype.razorpay_settings.razorpay_settings.capture_payment for dev1
2021-09-02 19:20:22,305 INFO scheduler Scheduled Job Start: frappe.email.doctype.email_account.email_account.notify_unreplied for dev1
2021-09-02 19:20:22,597 INFO scheduler Scheduled Job Complete: frappe.email.doctype.email_account.email_account.notify_unreplied for dev1
2021-09-02 19:20:22,695 INFO scheduler Scheduled Job Start: frappe.email.doctype.email_account.email_account.pull for dev1
2021-09-02 19:20:23,030 INFO scheduler Scheduled Job Complete: frappe.email.doctype.email_account.email_account.pull for dev1
2021-09-02 19:20:23,119 INFO scheduler Scheduled Job Start: frappe.email.queue.flush for dev1
2021-09-02 19:20:23,388 INFO scheduler Scheduled Job Complete: frappe.email.queue.flush for dev1
2021-09-02 19:21:21,527 DEBUG scheduler Queued events for site dev1
2021-09-02 19:22:21,931 DEBUG scheduler Queued events for site dev1
2021-09-02 19:23:22,308 DEBUG scheduler Queued events for site dev1
2021-09-02 19:24:22,678 DEBUG scheduler Queued events for site dev1
2021-09-02 19:24:22,732 INFO scheduler Scheduled Job Start: frappe.monitor.flush for dev1
2021-09-02 19:24:23,014 INFO scheduler Scheduled Job Complete: frappe.monitor.flush for dev1
2021-09-02 19:24:23,128 INFO scheduler Scheduled Job Start: frappe.utils.global_search.sync_global_search for dev1
2021-09-02 19:24:23,400 INFO scheduler Scheduled Job Complete: frappe.utils.global_search.sync_global_search for dev1
2021-09-02 19:24:23,503 INFO scheduler Scheduled Job Start: frappe.integrations.doctype.razorpay_settings.razorpay_settings.capture_payment for dev1
2021-09-02 19:24:23,912 INFO scheduler Scheduled Job Complete: frappe.integrations.doctype.razorpay_settings.razorpay_settings.capture_payment for dev1
2021-09-02 19:24:24,002 INFO scheduler Scheduled Job Start: frappe.email.doctype.email_account.email_account.notify_unreplied for dev1
2021-09-02 19:24:24,342 INFO scheduler Scheduled Job Complete: frappe.email.doctype.email_account.email_account.notify_unreplied for dev1
2021-09-02 19:24:24,438 INFO scheduler Scheduled Job Start: frappe.email.doctype.email_account.email_account.pull for dev1
2021-09-02 19:24:24,783 INFO scheduler Scheduled Job Complete: frappe.email.doctype.email_account.email_account.pull for dev1
2021-09-02 19:24:24,880 INFO scheduler Scheduled Job Start: frappe.email.queue.flush for dev1
2021-09-02 19:24:25,143 INFO scheduler Scheduled Job Complete: frappe.email.queue.flush for dev1
2021-09-02 19:25:23,138 DEBUG scheduler Queued events for site dev1
2021-09-02 19:26:23,540 DEBUG scheduler Queued events for site dev1
2021-09-02 19:27:23,924 DEBUG scheduler Queued events for site dev1
2021-09-02 19:28:24,299 DEBUG scheduler Queued events for site dev1
2021-09-02 19:28:24,339 INFO scheduler Scheduled Job Start: frappe.monitor.flush for dev1
2021-09-02 19:28:24,604 INFO scheduler Scheduled Job Complete: frappe.monitor.flush for dev1
2021-09-02 19:28:24,707 INFO scheduler Scheduled Job Start: frappe.utils.global_search.sync_global_search for dev1
2021-09-02 19:28:24,956 INFO scheduler Scheduled Job Complete: frappe.utils.global_search.sync_global_search for dev1
2021-09-02 19:28:25,043 INFO scheduler Scheduled Job Start: frappe.integrations.doctype.razorpay_settings.razorpay_settings.capture_payment for dev1
2021-09-02 19:28:25,444 INFO scheduler Scheduled Job Complete: frappe.integrations.doctype.razorpay_settings.razorpay_settings.capture_payment for dev1
2021-09-02 19:28:25,551 INFO scheduler Scheduled Job Start: frappe.email.doctype.email_account.email_account.notify_unreplied for dev1
2021-09-02 19:28:25,856 INFO scheduler Scheduled Job Complete: frappe.email.doctype.email_account.email_account.notify_unreplied for dev1
2021-09-02 19:28:25,945 INFO scheduler Scheduled Job Start: frappe.email.doctype.email_account.email_account.pull for dev1
2021-09-02 19:28:26,286 INFO scheduler Scheduled Job Complete: frappe.email.doctype.email_account.email_account.pull for dev1
2021-09-02 19:28:26,379 INFO scheduler Scheduled Job Start: frappe.email.queue.flush for dev1
2021-09-02 19:28:26,651 INFO scheduler Scheduled Job Complete: frappe.email.queue.flush for dev1
2021-09-02 19:29:24,715 DEBUG scheduler Queued events for site dev1
2021-09-02 19:30:25,126 DEBUG scheduler Queued events for site dev1
2021-09-02 19:30:25,197 INFO scheduler Scheduled Job Start: frappe.twofactor.delete_all_barcodes_for_users for dev1
2021-09-02 19:30:25,591 INFO scheduler Scheduled Job Complete: frappe.twofactor.delete_all_barcodes_for_users for dev1
2021-09-02 19:30:25,707 INFO scheduler Scheduled Job Start: frappe.website.doctype.web_page.web_page.check_publish_status for dev1
2021-09-02 19:30:26,137 INFO scheduler Scheduled Job Complete: frappe.website.doctype.web_page.web_page.check_publish_status for dev1
2021-09-02 19:30:26,241 INFO scheduler Scheduled Job Start: frappe.oauth.delete_oauth2_data for dev1
2021-09-02 19:30:26,634 INFO scheduler Scheduled Job Complete: frappe.oauth.delete_oauth2_data for dev1
2021-09-02 19:31:25,544 DEBUG scheduler Queued events for site dev1
2021-09-02 19:32:25,972 DEBUG scheduler Queued events for site dev1
2021-09-02 19:32:26,010 INFO scheduler Scheduled Job Start: frappe.monitor.flush for dev1
2021-09-02 19:32:26,272 INFO scheduler Scheduled Job Complete: frappe.monitor.flush for dev1
2021-09-02 19:32:26,370 INFO scheduler Scheduled Job Start: frappe.utils.global_search.sync_global_search for dev1
2021-09-02 19:32:26,607 INFO scheduler Scheduled Job Complete: frappe.utils.global_search.sync_global_search for dev1
2021-09-02 19:32:26,694 INFO scheduler Scheduled Job Start: frappe.integrations.doctype.razorpay_settings.razorpay_settings.capture_payment for dev1
2021-09-02 19:32:27,070 INFO scheduler Scheduled Job Complete: frappe.integrations.doctype.razorpay_settings.razorpay_settings.capture_payment for dev1
2021-09-02 19:32:27,162 INFO scheduler Scheduled Job Start: frappe.email.doctype.email_account.email_account.notify_unreplied for dev1
2021-09-02 19:32:27,497 INFO scheduler Scheduled Job Complete: frappe.email.doctype.email_account.email_account.notify_unreplied for dev1
2021-09-02 19:32:27,586 INFO scheduler Scheduled Job Start: frappe.email.doctype.email_account.email_account.pull for dev1
2021-09-02 19:32:27,929 INFO scheduler Scheduled Job Complete: frappe.email.doctype.email_account.email_account.pull for dev1
2021-09-02 19:32:28,028 INFO scheduler Scheduled Job Start: frappe.email.queue.flush for dev1
2021-09-02 19:32:28,295 INFO scheduler Scheduled Job Complete: frappe.email.queue.flush for dev1
2021-09-02 19:33:26,363 DEBUG scheduler Queued events for site dev1
2021-09-02 19:34:26,750 DEBUG scheduler Queued events for site dev1
2021-09-02 19:35:27,117 DEBUG scheduler Queued events for site dev1
2021-09-02 19:36:27,515 DEBUG scheduler Queued events for site dev1
2021-09-02 19:36:27,551 INFO scheduler Scheduled Job Start: frappe.monitor.flush for dev1
2021-09-02 19:36:27,867 INFO scheduler Scheduled Job Complete: frappe.monitor.flush for dev1
2021-09-02 19:36:27,958 INFO scheduler Scheduled Job Start: frappe.utils.global_search.sync_global_search for dev1
2021-09-02 19:36:28,234 INFO scheduler Scheduled Job Complete: frappe.utils.global_search.sync_global_search for dev1
2021-09-02 19:36:28,335 INFO scheduler Scheduled Job Start: frappe.integrations.doctype.razorpay_settings.razorpay_settings.capture_payment for dev1
2021-09-02 19:36:28,715 INFO scheduler Scheduled Job Complete: frappe.integrations.doctype.razorpay_settings.razorpay_settings.capture_payment for dev1
2021-09-02 19:36:28,804 INFO scheduler Scheduled Job Start: frappe.email.doctype.email_account.email_account.notify_unreplied for dev1
2021-09-02 19:36:29,119 INFO scheduler Scheduled Job Complete: frappe.email.doctype.email_account.email_account.notify_unreplied for dev1
2021-09-02 19:36:29,210 INFO scheduler Scheduled Job Start: frappe.email.doctype.email_account.email_account.pull for dev1
2021-09-02 19:36:29,546 INFO scheduler Scheduled Job Complete: frappe.email.doctype.email_account.email_account.pull for dev1
2021-09-02 19:36:29,640 INFO scheduler Scheduled Job Start: frappe.email.queue.flush for dev1
2021-09-02 19:36:29,898 INFO scheduler Scheduled Job Complete: frappe.email.queue.flush for dev1
2021-09-02 19:37:27,984 DEBUG scheduler Queued events for site dev1
2021-09-02 19:38:28,392 DEBUG scheduler Queued events for site dev1
2021-09-02 19:39:28,767 DEBUG scheduler Queued events for site dev1
2021-09-02 19:40:29,196 DEBUG scheduler Queued events for site dev1
2021-09-02 19:40:29,227 INFO scheduler Scheduled Job Start: frappe.monitor.flush for dev1
2021-09-02 19:40:29,492 INFO scheduler Scheduled Job Complete: frappe.monitor.flush for dev1
2021-09-02 19:40:29,585 INFO scheduler Scheduled Job Start: frappe.utils.global_search.sync_global_search for dev1
2021-09-02 19:40:29,836 INFO scheduler Scheduled Job Complete: frappe.utils.global_search.sync_global_search for dev1
2021-09-02 19:40:29,935 INFO scheduler Scheduled Job Start: frappe.integrations.doctype.razorpay_settings.razorpay_settings.capture_payment for dev1
2021-09-02 19:40:30,322 INFO scheduler Scheduled Job Complete: frappe.integrations.doctype.razorpay_settings.razorpay_settings.capture_payment for dev1
2021-09-02 19:40:30,410 INFO scheduler Scheduled Job Start: frappe.email.doctype.email_account.email_account.notify_unreplied for dev1
2021-09-02 19:40:30,727 INFO scheduler Scheduled Job Complete: frappe.email.doctype.email_account.email_account.notify_unreplied for dev1
2021-09-02 19:40:30,826 INFO scheduler Scheduled Job Start: frappe.email.doctype.email_account.email_account.pull for dev1
2021-09-02 19:40:31,169 INFO scheduler Scheduled Job Complete: frappe.email.doctype.email_account.email_account.pull for dev1
2021-09-02 19:40:31,249 INFO scheduler Scheduled Job Start: frappe.email.queue.flush for dev1
2021-09-02 19:40:31,524 INFO scheduler Scheduled Job Complete: frappe.email.queue.flush for dev1
2021-09-02 19:41:29,606 DEBUG scheduler Queued events for site dev1
2021-09-02 19:42:29,997 DEBUG scheduler Queued events for site dev1
2021-09-02 19:43:30,358 DEBUG scheduler Queued events for site dev1
2021-09-02 19:44:30,761 DEBUG scheduler Queued events for site dev1
2021-09-02 19:44:30,802 INFO scheduler Scheduled Job Start: frappe.monitor.flush for dev1
2021-09-02 19:44:31,050 INFO scheduler Scheduled Job Complete: frappe.monitor.flush for dev1
2021-09-02 19:44:31,149 INFO scheduler Scheduled Job Start: frappe.utils.global_search.sync_global_search for dev1
2021-09-02 19:44:31,422 INFO scheduler Scheduled Job Complete: frappe.utils.global_search.sync_global_search for dev1
2021-09-02 19:44:31,515 INFO scheduler Scheduled Job Start: frappe.integrations.doctype.razorpay_settings.razorpay_settings.capture_payment for dev1
2021-09-02 19:44:31,903 INFO scheduler Scheduled Job Complete: frappe.integrations.doctype.razorpay_settings.razorpay_settings.capture_payment for dev1
2021-09-02 19:44:31,994 INFO scheduler Scheduled Job Start: frappe.email.doctype.email_account.email_account.notify_unreplied for dev1
2021-09-02 19:44:32,327 INFO scheduler Scheduled Job Complete: frappe.email.doctype.email_account.email_account.notify_unreplied for dev1
2021-09-02 19:44:32,409 INFO scheduler Scheduled Job Start: frappe.email.doctype.email_account.email_account.pull for dev1
2021-09-02 19:44:32,732 INFO scheduler Scheduled Job Complete: frappe.email.doctype.email_account.email_account.pull for dev1
2021-09-02 19:44:32,821 INFO scheduler Scheduled Job Start: frappe.email.queue.flush for dev1
2021-09-02 19:44:33,103 INFO scheduler Scheduled Job Complete: frappe.email.queue.flush for dev1
2021-09-02 19:45:31,193 DEBUG scheduler Queued events for site dev1
2021-09-02 19:45:31,259 INFO scheduler Scheduled Job Start: frappe.twofactor.delete_all_barcodes_for_users for dev1
2021-09-02 19:45:31,668 INFO scheduler Scheduled Job Complete: frappe.twofactor.delete_all_barcodes_for_users for dev1
2021-09-02 19:45:31,777 INFO scheduler Scheduled Job Start: frappe.website.doctype.web_page.web_page.check_publish_status for dev1
2021-09-02 19:45:32,226 INFO scheduler Scheduled Job Complete: frappe.website.doctype.web_page.web_page.check_publish_status for dev1
2021-09-02 19:45:32,330 INFO scheduler Scheduled Job Start: frappe.oauth.delete_oauth2_data for dev1
2021-09-02 19:45:32,750 INFO scheduler Scheduled Job Complete: frappe.oauth.delete_oauth2_data for dev1
2021-09-02 19:46:31,632 DEBUG scheduler Queued events for site dev1
2021-09-02 19:47:32,023 DEBUG scheduler Queued events for site dev1
2021-09-02 19:48:32,422 DEBUG scheduler Queued events for site dev1
2021-09-02 19:48:32,458 INFO scheduler Scheduled Job Start: frappe.monitor.flush for dev1
2021-09-02 19:48:32,729 INFO scheduler Scheduled Job Complete: frappe.monitor.flush for dev1
2021-09-02 19:48:32,824 INFO scheduler Scheduled Job Start: frappe.utils.global_search.sync_global_search for dev1
2021-09-02 19:48:33,056 INFO scheduler Scheduled Job Complete: frappe.utils.global_search.sync_global_search for dev1
2021-09-02 19:48:33,143 INFO scheduler Scheduled Job Start: frappe.integrations.doctype.razorpay_settings.razorpay_settings.capture_payment for dev1
2021-09-02 19:48:33,545 INFO scheduler Scheduled Job Complete: frappe.integrations.doctype.razorpay_settings.razorpay_settings.capture_payment for dev1
2021-09-02 19:48:33,648 INFO scheduler Scheduled Job Start: frappe.email.doctype.email_account.email_account.notify_unreplied for dev1
2021-09-02 19:48:33,962 INFO scheduler Scheduled Job Complete: frappe.email.doctype.email_account.email_account.notify_unreplied for dev1
2021-09-02 19:48:34,047 INFO scheduler Scheduled Job Start: frappe.email.doctype.email_account.email_account.pull for dev1
2021-09-02 19:48:34,387 INFO scheduler Scheduled Job Complete: frappe.email.doctype.email_account.email_account.pull for dev1
2021-09-02 19:48:34,483 INFO scheduler Scheduled Job Start: frappe.email.queue.flush for dev1
2021-09-02 19:48:34,761 INFO scheduler Scheduled Job Complete: frappe.email.queue.flush for dev1
2021-09-02 19:49:32,846 DEBUG scheduler Queued events for site dev1
2021-09-02 19:50:33,240 DEBUG scheduler Queued events for site dev1
2021-09-02 19:51:33,622 DEBUG scheduler Queued events for site dev1
2021-09-02 19:52:34,022 DEBUG scheduler Queued events for site dev1
2021-09-02 19:52:34,067 INFO scheduler Scheduled Job Start: frappe.monitor.flush for dev1
2021-09-02 19:52:34,346 INFO scheduler Scheduled Job Complete: frappe.monitor.flush for dev1
2021-09-02 19:52:34,448 INFO scheduler Scheduled Job Start: frappe.utils.global_search.sync_global_search for dev1
2021-09-02 19:52:34,707 INFO scheduler Scheduled Job Complete: frappe.utils.global_search.sync_global_search for dev1
2021-09-02 19:52:34,804 INFO scheduler Scheduled Job Start: frappe.integrations.doctype.razorpay_settings.razorpay_settings.capture_payment for dev1
2021-09-02 19:52:35,178 INFO scheduler Scheduled Job Complete: frappe.integrations.doctype.razorpay_settings.razorpay_settings.capture_payment for dev1
2021-09-02 19:52:35,265 INFO scheduler Scheduled Job Start: frappe.email.doctype.email_account.email_account.notify_unreplied for dev1
2021-09-02 19:52:35,569 INFO scheduler Scheduled Job Complete: frappe.email.doctype.email_account.email_account.notify_unreplied for dev1
2021-09-02 19:52:35,659 INFO scheduler Scheduled Job Start: frappe.email.doctype.email_account.email_account.pull for dev1
2021-09-02 19:52:36,017 INFO scheduler Scheduled Job Complete: frappe.email.doctype.email_account.email_account.pull for dev1
2021-09-02 19:52:36,111 INFO scheduler Scheduled Job Start: frappe.email.queue.flush for dev1
2021-09-02 19:52:36,374 INFO scheduler Scheduled Job Complete: frappe.email.queue.flush for dev1
2021-09-02 19:53:34,473 DEBUG scheduler Queued events for site dev1
2021-09-02 19:54:34,864 DEBUG scheduler Queued events for site dev1
2021-09-02 19:55:35,247 DEBUG scheduler Queued events for site dev1
2021-09-02 19:56:35,688 DEBUG scheduler Queued events for site dev1
2021-09-02 19:56:35,732 INFO scheduler Scheduled Job Start: frappe.monitor.flush for dev1
2021-09-02 19:56:35,999 INFO scheduler Scheduled Job Complete: frappe.monitor.flush for dev1
2021-09-02 19:56:36,091 INFO scheduler Scheduled Job Start: frappe.utils.global_search.sync_global_search for dev1
2021-09-02 19:56:36,335 INFO scheduler Scheduled Job Complete: frappe.utils.global_search.sync_global_search for dev1
2021-09-02 19:56:36,453 INFO scheduler Scheduled Job Start: frappe.integrations.doctype.razorpay_settings.razorpay_settings.capture_payment for dev1
2021-09-02 19:56:36,824 INFO scheduler Scheduled Job Complete: frappe.integrations.doctype.razorpay_settings.razorpay_settings.capture_payment for dev1
2021-09-02 19:56:36,933 INFO scheduler Scheduled Job Start: frappe.email.doctype.email_account.email_account.notify_unreplied for dev1
2021-09-02 19:56:37,244 INFO scheduler Scheduled Job Complete: frappe.email.doctype.email_account.email_account.notify_unreplied for dev1
2021-09-02 19:56:37,338 INFO scheduler Scheduled Job Start: frappe.email.doctype.email_account.email_account.pull for dev1
2021-09-02 19:56:37,688 INFO scheduler Scheduled Job Complete: frappe.email.doctype.email_account.email_account.pull for dev1
2021-09-02 19:56:37,784 INFO scheduler Scheduled Job Start: frappe.email.queue.flush for dev1
2021-09-02 19:56:38,043 INFO scheduler Scheduled Job Complete: frappe.email.queue.flush for dev1
2021-09-02 19:57:36,129 DEBUG scheduler Queued events for site dev1
2021-09-02 19:58:36,517 DEBUG scheduler Queued events for site dev1
2021-09-02 19:59:36,876 DEBUG scheduler Queued events for site dev1
2021-09-02 20:00:37,306 INFO scheduler Scheduled Job Start: frappe.email.doctype.newsletter.newsletter.send_scheduled_email for dev1
2021-09-02 20:00:37,357 DEBUG scheduler Queued events for site dev1
2021-09-02 20:00:37,789 INFO scheduler Scheduled Job Complete: frappe.email.doctype.newsletter.newsletter.send_scheduled_email for dev1
2021-09-02 20:00:37,902 INFO scheduler Scheduled Job Start: frappe.integrations.doctype.google_calendar.google_calendar.sync for dev1
2021-09-02 20:00:38,456 INFO scheduler Scheduled Job Complete: frappe.integrations.doctype.google_calendar.google_calendar.sync for dev1
2021-09-02 20:00:38,561 INFO scheduler Scheduled Job Start: frappe.desk.form.document_follow.send_hourly_updates for dev1
2021-09-02 20:00:38,931 INFO scheduler Scheduled Job Complete: frappe.desk.form.document_follow.send_hourly_updates for dev1
2021-09-02 20:00:39,052 INFO scheduler Scheduled Job Start: frappe.deferred_insert.save_to_db for dev1
2021-09-02 20:00:39,422 INFO scheduler Scheduled Job Complete: frappe.deferred_insert.save_to_db for dev1
2021-09-02 20:00:39,526 INFO scheduler Scheduled Job Start: frappe.desk.page.backups.backups.delete_downloadable_backups for dev1
2021-09-02 20:00:39,905 INFO scheduler Scheduled Job Complete: frappe.desk.page.backups.backups.delete_downloadable_backups for dev1
2021-09-02 20:00:40,003 INFO scheduler Scheduled Job Start: frappe.utils.error.collect_error_snapshots for dev1
2021-09-02 20:00:40,377 INFO scheduler Scheduled Job Complete: frappe.utils.error.collect_error_snapshots for dev1
2021-09-02 20:00:40,485 INFO scheduler Scheduled Job Start: frappe.model.utils.user_settings.sync_user_settings for dev1
2021-09-02 20:00:40,853 INFO scheduler Scheduled Job Complete: frappe.model.utils.user_settings.sync_user_settings for dev1
2021-09-02 20:00:40,958 INFO scheduler Scheduled Job Start: frappe.model.utils.link_count.update_link_count for dev1
2021-09-02 20:00:41,338 INFO scheduler Scheduled Job Complete: frappe.model.utils.link_count.update_link_count for dev1
2021-09-02 20:00:41,435 INFO scheduler Scheduled Job Start: frappe.monitor.flush for dev1
2021-09-02 20:00:41,673 INFO scheduler Scheduled Job Complete: frappe.monitor.flush for dev1
2021-09-02 20:00:41,776 INFO scheduler Scheduled Job Start: frappe.utils.global_search.sync_global_search for dev1
2021-09-02 20:00:42,044 INFO scheduler Scheduled Job Complete: frappe.utils.global_search.sync_global_search for dev1
2021-09-02 20:00:42,139 INFO scheduler Scheduled Job Start: frappe.integrations.doctype.razorpay_settings.razorpay_settings.capture_payment for dev1
2021-09-02 20:00:42,524 INFO scheduler Scheduled Job Complete: frappe.integrations.doctype.razorpay_settings.razorpay_settings.capture_payment for dev1
2021-09-02 20:00:42,633 INFO scheduler Scheduled Job Start: frappe.email.doctype.email_account.email_account.notify_unreplied for dev1
2021-09-02 20:00:42,954 INFO scheduler Scheduled Job Complete: frappe.email.doctype.email_account.email_account.notify_unreplied for dev1
2021-09-02 20:00:43,047 INFO scheduler Scheduled Job Start: frappe.email.doctype.email_account.email_account.pull for dev1
2021-09-02 20:00:43,399 INFO scheduler Scheduled Job Complete: frappe.email.doctype.email_account.email_account.pull for dev1
2021-09-02 20:00:43,494 INFO scheduler Scheduled Job Start: frappe.email.queue.flush for dev1
2021-09-02 20:00:43,771 INFO scheduler Scheduled Job Complete: frappe.email.queue.flush for dev1
2021-09-02 20:00:43,861 INFO scheduler Scheduled Job Start: frappe.twofactor.delete_all_barcodes_for_users for dev1
2021-09-02 20:00:44,365 INFO scheduler Scheduled Job Complete: frappe.twofactor.delete_all_barcodes_for_users for dev1
2021-09-02 20:00:44,490 INFO scheduler Scheduled Job Start: frappe.website.doctype.web_page.web_page.check_publish_status for dev1
2021-09-02 20:00:44,963 INFO scheduler Scheduled Job Complete: frappe.website.doctype.web_page.web_page.check_publish_status for dev1
2021-09-02 20:00:45,073 INFO scheduler Scheduled Job Start: frappe.oauth.delete_oauth2_data for dev1
2021-09-02 20:00:45,529 INFO scheduler Scheduled Job Complete: frappe.oauth.delete_oauth2_data for dev1
2021-09-02 20:01:37,945 DEBUG scheduler Queued events for site dev1
2021-09-02 20:02:38,348 DEBUG scheduler Queued events for site dev1
2021-09-02 20:03:38,698 DEBUG scheduler Queued events for site dev1
2021-09-02 20:04:39,079 DEBUG scheduler Queued events for site dev1
2021-09-02 20:04:39,115 INFO scheduler Scheduled Job Start: frappe.monitor.flush for dev1
2021-09-02 20:04:39,380 INFO scheduler Scheduled Job Complete: frappe.monitor.flush for dev1
2021-09-02 20:04:39,473 INFO scheduler Scheduled Job Start: frappe.utils.global_search.sync_global_search for dev1
2021-09-02 20:04:39,733 INFO scheduler Scheduled Job Complete: frappe.utils.global_search.sync_global_search for dev1
2021-09-02 20:04:39,823 INFO scheduler Scheduled Job Start: frappe.integrations.doctype.razorpay_settings.razorpay_settings.capture_payment for dev1
2021-09-02 20:04:40,203 INFO scheduler Scheduled Job Complete: frappe.integrations.doctype.razorpay_settings.razorpay_settings.capture_payment for dev1
2021-09-02 20:04:40,295 INFO scheduler Scheduled Job Start: frappe.email.doctype.email_account.email_account.notify_unreplied for dev1
2021-09-02 20:04:40,590 INFO scheduler Scheduled Job Complete: frappe.email.doctype.email_account.email_account.notify_unreplied for dev1
2021-09-02 20:04:40,677 INFO scheduler Scheduled Job Start: frappe.email.doctype.email_account.email_account.pull for dev1
2021-09-02 20:05:39,511 DEBUG scheduler Queued events for site dev1
