2021-09-02 20:04:41,017 INFO scheduler Scheduled Job Complete: frappe.email.doctype.email_account.email_account.pull for dev1
2021-09-02 20:04:41,102 INFO scheduler Scheduled Job Start: frappe.email.queue.flush for dev1
2021-09-02 20:04:41,435 INFO scheduler Scheduled Job Complete: frappe.email.queue.flush for dev1
